{
  "code": 0,
  "status": "success",
  "timeStamp": 1644809393,
  "staticDomain": "http:\/\/rosc1.zhaiwuyu.com",
  "ip": "124.74.160.162",
  "language": "cn",
  "dbArea": 0,
  "data": {
    "page": 1,
    "pageSize": 10,
    "pageCount": 4,
    "total": 32,
    "list": [
      {
        "id": "41882",
        "name": "狂暴飓风[1]",
        "icon": "item_41882",
        "rank": 4,
        "job": [
          "11",
          "12",
          "13",
          "14",
          "15",
          "61",
          "62",
          "63",
          "64",
          "65",
          "132",
          "133",
          "134",
          "135",
          "143",
          "144",
          "145",
          "203",
          "204",
          "205",
          "213",
          "214",
          "215"
        ],
        "position": 1,
        "effect": "物理攻击+480",
        "buff": "力量+6\n受到中型魔物伤害-10%\n每精炼+1，受中体型魔物伤害-1%\n攻击目标时，有10%概率释放技能“狂暴飓风”，对自身周围3米范围内敌对目标，造成30倍风属性伤害，并击退目标2米",
        "isCompose": 0,
        "isUpgrade": 0,
        "isHigh": 0,
        "canSlot": 1,
        "canUpgrade": 0
      },
      {
        "id": "41877",
        "name": "首领之斧[1]",
        "icon": "item_41877",
        "rank": 4,
        "job": [
          "61",
          "62",
          "63",
          "64",
          "65",
          "132",
          "133",
          "134",
          "135",
          "213",
          "214",
          "215"
        ],
        "position": 1,
        "effect": "物理攻击+480",
        "buff": "力量+6、灵巧+6\n生命上限+1000\n对MVP、Mini魔物伤害+15%\n对中体型魔物伤害+10%\n每精炼+1，忽视物理防御+2%",
        "isCompose": 0,
        "isUpgrade": 0,
        "isHigh": 0,
        "canSlot": 1,
        "canUpgrade": 0
      },
      {
        "id": "41871",
        "name": "破灭战斧[1]",
        "icon": "item_41871",
        "rank": 4,
        "job": [
          "132",
          "133",
          "134",
          "135"
        ],
        "position": 1,
        "effect": "物理攻击+650",
        "buff": "体质+10、力量+10\n装备攻速+15%\n【地狱植物】伤害+15%；精炼+5以后，再每精炼+1，使自身与所有生命体的物理攻击+10（总计100），魔法攻击+10（总计100）；精炼+10以后，再每精炼+1，使自身与所有生命体的物理攻击+1%（总计5%），魔法攻击+1%（总计5%）；精炼+15时，“艾米斯可鲁”物理攻击+10%\n物理攻击+2%、魔法攻击+2%\n精炼+5时，物理攻击+2%、魔法攻击+2%；精炼+10时，物理攻击+3%、魔法攻击+3%；精炼+15时，物理伤害+5%",
        "isCompose": 0,
        "isUpgrade": 0,
        "isHigh": 1,
        "canSlot": 0,
        "canUpgrade": 0
      },
      {
        "id": "41870",
        "name": "寻血猎犬[1]",
        "icon": "item_41870",
        "rank": 4,
        "job": [
          "12",
          "13",
          "14",
          "15",
          "62",
          "63",
          "64",
          "65",
          "132",
          "133",
          "134",
          "135",
          "203",
          "204",
          "205",
          "213",
          "214",
          "215"
        ],
        "position": 1,
        "effect": "物理攻击+650",
        "buff": "力量+15\n对中型魔物伤害+10%、对暗属性魔物伤害+10%\n灵巧达到90以上时【金钱攻击】伤害+50%\n力量达到240以上时，【金钱攻击】伤害+30%\n精炼+5，+10，+15时【金钱攻击】伤害+10%，20%，30%\n使用【金钱攻击】时20%概率暴击使技能造成1.5倍伤害\n幸运达到90时物理攻击+100\n精炼+10时，每10点力量增加2点物理攻击、每10点灵巧增加2点物理攻击、每10点幸运增加2点物理攻击；精炼+15时，物理伤害+5%",
        "isCompose": 0,
        "isUpgrade": 0,
        "isHigh": 1,
        "canSlot": 0,
        "canUpgrade": 0
      },
      {
        "id": "41869",
        "name": "天崩地裂[1]",
        "icon": "item_41869",
        "rank": 4,
        "job": [
          "11",
          "12",
          "13",
          "14",
          "15",
          "61",
          "62",
          "63",
          "64",
          "65",
          "72",
          "73",
          "74",
          "75",
          "132",
          "133",
          "134",
          "135",
          "203",
          "204",
          "205",
          "213",
          "214",
          "215"
        ],
        "position": 1,
        "effect": "物理攻击+650",
        "buff": "力量+15\n每学一级【强化火属性】时会额外+12%火属性攻击\n【手推车撞击】伤害增加10%\n使【加农炮】的伤害+5%；每精炼+1，使【加农炮】的伤害+1%；精炼+15时，【加农炮】的伤害+10%\n力量达到50时物理攻击+10%\n力量达到85时物理攻击+3%\n力量达到240时物理攻击+3%\n精炼+5，物理攻击+4%；精炼+10，火属性攻击+5%；精炼+15时，物理伤害+5%\n物理技能攻击时有10%概率眩晕目标，眩晕3秒",
        "isCompose": 0,
        "isUpgrade": 0,
        "isHigh": 1,
        "canSlot": 0,
        "canUpgrade": 0
      },
      {
        "id": "41868",
        "name": "剜心[1]",
        "icon": "item_41868",
        "rank": 4,
        "job": [
          "61",
          "62",
          "63",
          "64",
          "65",
          "132",
          "133",
          "134",
          "135",
          "213",
          "214",
          "215"
        ],
        "position": 1,
        "effect": "物理攻击+650",
        "buff": "敏捷+4、力量+4\n攻击速度+20%\n暴击+20\n对中型魔物伤害增加10%\n精炼+5，+10，+15时，暴击伤害+5%，+10%，+15%\n每精炼+1，普通攻击伤害提高3%\n普攻时有15%概率触发【破釜】：消耗10%生命上限提升物理攻击15%，持续10秒\n普通攻击暴击时有概率自动施放【速度激发】lv.5。如果习得【速度激发】Lv.10时则自动施放【速度激发】Lv.10",
        "isCompose": 0,
        "isUpgrade": 0,
        "isHigh": 1,
        "canSlot": 0,
        "canUpgrade": 0
      },
      {
        "id": "41867",
        "name": "破坏者战斧[1]",
        "icon": "item_41867",
        "rank": 4,
        "job": [
          "61",
          "62",
          "63",
          "64",
          "65",
          "132",
          "133",
          "134",
          "135",
          "143",
          "144",
          "145",
          "213",
          "214",
          "215"
        ],
        "position": 1,
        "effect": "物理攻击+650",
        "buff": "敏捷+15、力量+10\n对小型魔物伤害+5%、对中型魔物伤害+15%、对大型魔物伤害+5%\n普攻时5%概率施放Lv.10【手推车攻击】\n【手推车攻击】伤害+15%；精炼+5以后，再每精炼+1，使【手推车攻击】伤害+2%（总计20%）\n精炼+5时，物理攻击+5%；精炼+10时，物理攻击+5%；精炼+15时，对小、中、大型魔物伤害+5%",
        "isCompose": 0,
        "isUpgrade": 0,
        "isHigh": 1,
        "canSlot": 0,
        "canUpgrade": 0
      },
      {
        "id": "41857",
        "name": "硝烟终结者·神铸",
        "icon": "item_41857",
        "rank": 4,
        "job": [
          "12",
          "13",
          "14",
          "15",
          "62",
          "63",
          "64",
          "65",
          "72",
          "73",
          "74",
          "75",
          "132",
          "133",
          "134",
          "135",
          "143",
          "144",
          "145",
          "203",
          "204",
          "205",
          "213",
          "214",
          "215"
        ],
        "position": 14,
        "effect": "物理攻击+1150",
        "buff": "力量+15\n体质+15\n全能力+20\n装备攻速+10%\n物理攻击+25%\n忽视物理防御+35%\n人形种族伤害+50%\n生命上限+32000\n物伤减免+10%，魔伤减免+10%\n硝烟终结者的力量影响着使用者。将使8米内所有友方目标都获得【势如破竹】效果。【势如破竹】:受到任何攻击都不会造成硬直，自身伤害+50%，移动速度+50%，持续5秒，CD：120秒",
        "isCompose": 1,
        "isUpgrade": 0,
        "isHigh": 0,
        "canSlot": 0,
        "canUpgrade": 0
      },
      {
        "id": "41856",
        "name": "硝烟终结者·精锻",
        "icon": "item_41856",
        "rank": 4,
        "job": [
          "12",
          "13",
          "14",
          "15",
          "62",
          "63",
          "64",
          "65",
          "72",
          "73",
          "74",
          "75",
          "132",
          "133",
          "134",
          "135",
          "143",
          "144",
          "145",
          "203",
          "204",
          "205",
          "213",
          "214",
          "215"
        ],
        "position": 14,
        "effect": "物理攻击+800",
        "buff": "力量+15\n体质+15\n全能力+14\n装备攻速+10%\n物理攻击+20%\n忽视物理防御+25%\n人形种族伤害+40%\n生命上限+23500\n物伤减免+5%，魔伤减免+5%\n硝烟终结者的力量影响着使用者。将使8米内所有友方目标都获得【势如破竹】效果。【势如破竹】:受到任何攻击都不会造成硬直，自身伤害+30%，移动速度+30%，持续5秒，CD：120秒",
        "isCompose": 1,
        "isUpgrade": 0,
        "isHigh": 0,
        "canSlot": 0,
        "canUpgrade": 0
      },
      {
        "id": "41855",
        "name": "硝烟终结者",
        "icon": "item_41855",
        "rank": 4,
        "job": [
          "12",
          "13",
          "14",
          "15",
          "62",
          "63",
          "64",
          "65",
          "72",
          "73",
          "74",
          "75",
          "132",
          "133",
          "134",
          "135",
          "143",
          "144",
          "145",
          "203",
          "204",
          "205",
          "213",
          "214",
          "215"
        ],
        "position": 14,
        "effect": "物理攻击+450",
        "buff": "力量+15\n体质+15\n全能力+8\n装备攻速+10%\n物理攻击+15%\n忽视物理防御+15%\n人形种族伤害+30%\n生命上限+15000",
        "isCompose": 1,
        "isUpgrade": 0,
        "isHigh": 0,
        "canSlot": 0,
        "canUpgrade": 0
      }
    ],
    "partner": {
      "id": 30301,
      "pos": 6,
      "title": "交易所订阅",
      "tip": "",
      "pic": "\/\/rosc3.zhaiwuyu.com\/partner\/self\/find-exchange-202103.jpg",
      "link": "http:\/\/romel.wiki\/article\/exchange-remind"
    }
  }
}