{
  "code": 0,
  "status": "success",
  "timeStamp": 1644809398,
  "staticDomain": "http:\/\/rosc1.zhaiwuyu.com",
  "ip": "124.74.160.162",
  "language": "cn",
  "dbArea": 0,
  "data": {
    "page": 2,
    "pageSize": 10,
    "pageCount": 4,
    "total": 32,
    "list": [
      {
        "id": "41851",
        "name": "强袭双刃斧[1]",
        "icon": "item_41851",
        "rank": 3,
        "job": [
          "132",
          "133",
          "134",
          "135"
        ],
        "position": 1,
        "effect": "物理攻击+268",
        "buff": "体质+6\n装备攻速+10%\n【炼金铠甲】+【强袭双刃斧】：每次普通攻击可使“艾米斯可鲁”物理攻击+3%，持续5秒，最多可叠3层",
        "isCompose": 0,
        "isUpgrade": 1,
        "isHigh": 0,
        "canSlot": 1,
        "canUpgrade": 1
      },
      {
        "id": "41850",
        "name": "强袭战斧[1]",
        "icon": "item_41850",
        "rank": 3,
        "job": [
          "132",
          "133",
          "134",
          "135"
        ],
        "position": 1,
        "effect": "物理攻击+128",
        "buff": "体质+2\n装备攻速+5%\n【炼金铠甲】+【强袭战斧】：每次普通攻击可使“艾米斯可鲁”物理攻击+3%，持续5秒，最多可叠3层",
        "isCompose": 1,
        "isUpgrade": 0,
        "isHigh": 0,
        "canSlot": 1,
        "canUpgrade": 1
      },
      {
        "id": "41848",
        "name": "鲜血斧[1]",
        "icon": "item_41848",
        "rank": 3,
        "job": [
          "12",
          "13",
          "14",
          "15",
          "62",
          "63",
          "64",
          "65",
          "132",
          "133",
          "134",
          "135",
          "203",
          "204",
          "205",
          "213",
          "214",
          "215"
        ],
        "position": 1,
        "effect": "物理攻击+288",
        "buff": "幸运达到90时物理攻击+100\n灵巧达到90以上时【金钱攻击】伤害+50%\n精炼+5，+10，+15时【金钱攻击】伤害+10%，20%，30%\n使用【金钱攻击】时10%概率暴击使技能造成1.5倍伤害",
        "isCompose": 0,
        "isUpgrade": 1,
        "isHigh": 0,
        "canSlot": 1,
        "canUpgrade": 1
      },
      {
        "id": "41843",
        "name": "斩击之斧[1]",
        "icon": "item_41843",
        "rank": 3,
        "job": [
          "62",
          "63",
          "64",
          "65",
          "213",
          "214",
          "215"
        ],
        "position": 1,
        "effect": "物理攻击+180",
        "buff": "生命恢复+15\n普攻时有15%概率触发【破釜】：消耗10%生命上限提升物理攻击15%持续5秒\n击杀人形种族魔物时一定概率恢复自身一定生命值",
        "isCompose": 0,
        "isUpgrade": 1,
        "isHigh": 0,
        "canSlot": 1,
        "canUpgrade": 0
      },
      {
        "id": "41841",
        "name": "水灵钢斧[1]",
        "icon": "item_41841",
        "rank": 3,
        "job": [
          "61",
          "62",
          "63",
          "64",
          "65",
          "132",
          "133",
          "134",
          "135",
          "213",
          "214",
          "215"
        ],
        "position": 1,
        "effect": "物理攻击+128",
        "buff": "水属性\n力量+5\n敏捷+5\n普攻7%概率对目标及目标周围最多3个目标造成倍率水属性伤害\n精炼每+1水属性攻击+5%",
        "isCompose": 1,
        "isUpgrade": 0,
        "isHigh": 0,
        "canSlot": 1,
        "canUpgrade": 0
      },
      {
        "id": "41840",
        "name": "地灵钢斧[1]",
        "icon": "item_41840",
        "rank": 3,
        "job": [
          "61",
          "62",
          "63",
          "64",
          "65",
          "132",
          "133",
          "134",
          "135",
          "213",
          "214",
          "215"
        ],
        "position": 1,
        "effect": "物理攻击+128",
        "buff": "地属性\n力量+5\n敏捷+5\n普攻7%概率对目标及目标周围最多3个目标造成倍率地属性伤害\n精炼每+1地属性攻击+5%",
        "isCompose": 1,
        "isUpgrade": 0,
        "isHigh": 0,
        "canSlot": 1,
        "canUpgrade": 0
      },
      {
        "id": "41839",
        "name": "火灵钢斧[1]",
        "icon": "item_41839",
        "rank": 3,
        "job": [
          "61",
          "62",
          "63",
          "64",
          "65",
          "132",
          "133",
          "134",
          "135",
          "213",
          "214",
          "215"
        ],
        "position": 1,
        "effect": "物理攻击+128",
        "buff": "火属性\n力量+5\n敏捷+5\n普攻7%概率对目标及目标周围最多3个目标造成倍率火属性伤害\n精炼每+1火属性攻击+5%",
        "isCompose": 1,
        "isUpgrade": 0,
        "isHigh": 0,
        "canSlot": 1,
        "canUpgrade": 0
      },
      {
        "id": "41838",
        "name": "风灵钢斧[1]",
        "icon": "item_41838",
        "rank": 3,
        "job": [
          "61",
          "62",
          "63",
          "64",
          "65",
          "132",
          "133",
          "134",
          "135",
          "213",
          "214",
          "215"
        ],
        "position": 1,
        "effect": "物理攻击+128",
        "buff": "风属性\n力量+5\n敏捷+5\n普攻7%概率对目标及目标周围最多3个目标造成倍率风属性伤害\n精炼每+1风属性攻击+5%",
        "isCompose": 1,
        "isUpgrade": 0,
        "isHigh": 0,
        "canSlot": 1,
        "canUpgrade": 0
      },
      {
        "id": "41836",
        "name": "斯勒特手斧[1]",
        "icon": "item_41836",
        "rank": 4,
        "job": [
          "12",
          "13",
          "14",
          "15",
          "62",
          "63",
          "64",
          "65",
          "72",
          "73",
          "74",
          "75",
          "132",
          "133",
          "134",
          "135",
          "203",
          "204",
          "205",
          "213",
          "214",
          "215"
        ],
        "position": 1,
        "effect": "物理攻击+226",
        "buff": "灵巧+5\n幸运+5\n动物种族加伤+15%\n无视动物系防御\n普通攻击动物种族魔物时有概率自动施放【濒死之术】（MVP\/mini无效）",
        "isCompose": 0,
        "isUpgrade": 1,
        "isHigh": 0,
        "canSlot": 1,
        "canUpgrade": 1
      },
      {
        "id": "41835",
        "name": "贝克之斧[1]",
        "icon": "item_41835",
        "rank": 3,
        "job": [
          "61",
          "62",
          "63",
          "64",
          "65",
          "132",
          "133",
          "134",
          "135",
          "143",
          "144",
          "145",
          "213",
          "214",
          "215"
        ],
        "position": 1,
        "effect": "物理攻击+196",
        "buff": "敏捷+10\n对中型魔物伤害+10%\n普攻时5%概率施放Lv.10【手推车攻击】\n【手推车攻击】伤害+15%",
        "isCompose": 0,
        "isUpgrade": 1,
        "isHigh": 0,
        "canSlot": 1,
        "canUpgrade": 1
      }
    ]
  }
}