{
  "code": 0,
  "status": "success",
  "timeStamp": 1644809408,
  "staticDomain": "http:\/\/rosc1.zhaiwuyu.com",
  "ip": "124.74.160.162",
  "language": "cn",
  "dbArea": 0,
  "data": {
    "page": 4,
    "pageSize": 10,
    "pageCount": 4,
    "total": 32,
    "list": [
      {
        "id": "41806",
        "name": "毁灭之斧[1]",
        "icon": "item_41806",
        "rank": 2,
        "job": [
          "11",
          "12",
          "13",
          "14",
          "15",
          "61",
          "62",
          "63",
          "64",
          "65",
          "72",
          "73",
          "74",
          "75",
          "132",
          "133",
          "134",
          "135",
          "203",
          "204",
          "205",
          "213",
          "214",
          "215"
        ],
        "position": 1,
        "effect": "物理攻击+32",
        "buff": "力量+2\n物理攻击+10\n力量达到50时物理攻击+15",
        "isCompose": 1,
        "isUpgrade": 0,
        "isHigh": 0,
        "canSlot": 1,
        "canUpgrade": 1
      },
      {
        "id": "41805",
        "name": "切削之斧[1]",
        "icon": "item_41805",
        "rank": 3,
        "job": [
          "11",
          "12",
          "13",
          "14",
          "15",
          "61",
          "62",
          "63",
          "64",
          "65",
          "72",
          "73",
          "74",
          "75",
          "132",
          "133",
          "134",
          "135",
          "203",
          "204",
          "205",
          "213",
          "214",
          "215"
        ],
        "position": 1,
        "effect": "物理攻击+128",
        "buff": "生命恢复+10\n普攻时5%概率提升物理攻击持续一定时间，但是会降低生命值\n击杀人形种族魔物时10%概率恢复自身一定生命值",
        "isCompose": 1,
        "isUpgrade": 0,
        "isHigh": 0,
        "canSlot": 1,
        "canUpgrade": 1
      }
    ]
  }
}