{
  "code": 0,
  "status": "success",
  "timeStamp": 1644809327,
  "staticDomain": "http:\/\/rosc1.zhaiwuyu.com",
  "ip": "124.74.160.162",
  "language": "cn",
  "dbArea": 0,
  "data": {
    "page": 2,
    "pageSize": 10,
    "pageCount": 3,
    "total": 22,
    "list": [
      {
        "id": "40359",
        "name": "狂怒之刃[1]",
        "icon": "item_40359",
        "rank": 4,
        "job": [
          "12",
          "13",
          "14",
          "15",
          "72",
          "73",
          "74",
          "75",
          "143",
          "144",
          "145",
          "203",
          "204",
          "205"
        ],
        "position": 1,
        "effect": "物理攻击+625",
        "buff": "力量+10\n灵巧+15\n习得【狂击】10级时，【狂击】伤害增加100%\n习得【狂击】10级时，【狂击】对中体型魔物时额外增加50%伤害\n习得【怪物互击】10级时，【怪物互击】伤害增加100%\n【怪物互击】对中型魔物额外增加伤害10%\n攻击时无视敌方25%乘算物理防御（对MVP、Mini魔物无效）\n精炼+5时，物理攻击+5%，精炼+10时，物理攻击+5%",
        "isCompose": 0,
        "isUpgrade": 0,
        "isHigh": 1,
        "canSlot": 0,
        "canUpgrade": 0
      },
      {
        "id": "40349",
        "name": "提尔锋·神铸",
        "icon": "item_40349",
        "rank": 4,
        "job": [
          "12",
          "13",
          "14",
          "15",
          "62",
          "63",
          "64",
          "65",
          "72",
          "73",
          "74",
          "75",
          "132",
          "133",
          "134",
          "135",
          "143",
          "144",
          "145",
          "163",
          "164",
          "165",
          "203",
          "204",
          "205",
          "213",
          "214",
          "215"
        ],
        "position": 14,
        "effect": "物理攻击+1080",
        "buff": "力量+10\n敏捷+10\n灵巧+10\n全能力+20\n命中+50\n物理攻击+24%\n物理伤害+18%\n人形种族伤害+50%\n生命上限+35000\n物伤减免+10%，魔伤减免+10%\n提尔的力量将治愈范围内所有的疾病及异常状态，为所有人带来健康。使范围8米内的所有友方获得【提尔祝福】效果。【提尔祝福】：瞬间恢复45%MaxHp，解除所有异常状态（包括万能无法解除的异常状态）并免疫异常状态，持续5秒，CD：120秒",
        "isCompose": 1,
        "isUpgrade": 0,
        "isHigh": 0,
        "canSlot": 0,
        "canUpgrade": 0
      },
      {
        "id": "40348",
        "name": "提尔锋·精锻",
        "icon": "item_40348",
        "rank": 4,
        "job": [
          "12",
          "13",
          "14",
          "15",
          "62",
          "63",
          "64",
          "65",
          "72",
          "73",
          "74",
          "75",
          "132",
          "133",
          "134",
          "135",
          "143",
          "144",
          "145",
          "163",
          "164",
          "165",
          "203",
          "204",
          "205",
          "213",
          "214",
          "215"
        ],
        "position": 14,
        "effect": "物理攻击+760",
        "buff": "力量+10\n敏捷+10\n灵巧+10\n全能力+14\n命中+50\n物理攻击+20%\n物理伤害+15%\n人形种族伤害+40%\n生命上限+26000\n物伤减免+5%，魔伤减免+5%\n提尔的力量将治愈范围内所有的疾病及异常状态，为所有人带来健康。使范围8米内的所有友方获得【提尔祝福】效果。【提尔祝福】：瞬间恢复25%MaxHp，解除所有异常状态（包括万能无法解除的异常状态）并免疫异常状态，持续5秒，CD：180秒。",
        "isCompose": 1,
        "isUpgrade": 0,
        "isHigh": 0,
        "canSlot": 0,
        "canUpgrade": 0
      },
      {
        "id": "40347",
        "name": "提尔锋",
        "icon": "item_40347",
        "rank": 4,
        "job": [
          "12",
          "13",
          "14",
          "15",
          "62",
          "63",
          "64",
          "65",
          "72",
          "73",
          "74",
          "75",
          "132",
          "133",
          "134",
          "135",
          "143",
          "144",
          "145",
          "163",
          "164",
          "165",
          "203",
          "204",
          "205",
          "213",
          "214",
          "215"
        ],
        "position": 14,
        "effect": "物理攻击+440",
        "buff": "力量+10\n敏捷+10\n灵巧+10\n全能力+8\n命中+50\n物理攻击+16%\n物理伤害+12%\n人形种族伤害+30%\n生命上限+17000",
        "isCompose": 1,
        "isUpgrade": 0,
        "isHigh": 0,
        "canSlot": 0,
        "canUpgrade": 0
      },
      {
        "id": "40322",
        "name": "名刀不知火[1]",
        "icon": "item_40322",
        "rank": 3,
        "job": [
          "12",
          "13",
          "14",
          "15",
          "72",
          "73",
          "74",
          "75",
          "164",
          "165",
          "203",
          "204",
          "205"
        ],
        "position": 1,
        "effect": "物理攻击+190",
        "buff": "暴击+25\n装备攻速+10%\n普通攻击时有概率使目标眩晕3秒，且目标眩晕期间剑士系对其造成的普攻伤害会增加50%",
        "isCompose": 0,
        "isUpgrade": 1,
        "isHigh": 0,
        "canSlot": 1,
        "canUpgrade": 1
      },
      {
        "id": "40319",
        "name": "神圣复仇者[1]",
        "icon": "item_40319",
        "rank": 4,
        "job": [
          "12",
          "13",
          "14",
          "15",
          "72",
          "73",
          "74",
          "75",
          "203",
          "204",
          "205"
        ],
        "position": 1,
        "effect": "物理攻击+225",
        "buff": "圣属性\n普攻时8%概率触发【星陨】，使目标及范围内目标受到圣属性伤害\n精炼每+1，剑士系普通攻击伤害+5%，【星陨】伤害+5%",
        "isCompose": 0,
        "isUpgrade": 0,
        "isHigh": 0,
        "canSlot": 1,
        "canUpgrade": 1
      },
      {
        "id": "40308",
        "name": "多刃尖刺刀[1]",
        "icon": "item_40308",
        "rank": 3,
        "job": [
          "12",
          "13",
          "14",
          "15",
          "72",
          "73",
          "74",
          "75",
          "143",
          "144",
          "145",
          "203",
          "204",
          "205"
        ],
        "position": 1,
        "effect": "物理攻击+200",
        "buff": "力量+5\n灵巧+10\n习得【狂击】10级时，【狂击】伤害增加100%\n习得【怪物互击】10级时，【怪物互击】伤害增加100%\n习得【狂击】10级时，【狂击】对中体型魔物时额外增加50%伤害",
        "isCompose": 0,
        "isUpgrade": 1,
        "isHigh": 0,
        "canSlot": 1,
        "canUpgrade": 1
      },
      {
        "id": "40317",
        "name": "秘剑眷恋[1]",
        "icon": "item_40317",
        "rank": 3,
        "job": [
          "11",
          "12",
          "13",
          "14",
          "15",
          "72",
          "73",
          "74",
          "75",
          "164",
          "165",
          "203",
          "204",
          "205"
        ],
        "position": 1,
        "effect": "物理攻击+126",
        "buff": "暴击+10\n装备攻速+5%",
        "isCompose": 1,
        "isUpgrade": 0,
        "isHigh": 0,
        "canSlot": 1,
        "canUpgrade": 1
      },
      {
        "id": "40314",
        "name": "生鱼片刀[1]",
        "icon": "item_40314",
        "rank": 3,
        "job": [
          "11",
          "12",
          "13",
          "14",
          "15",
          "72",
          "73",
          "74",
          "75",
          "143",
          "144",
          "145",
          "203",
          "204",
          "205"
        ],
        "position": 1,
        "effect": "物理攻击+162",
        "buff": "力量+5\n物理防御+40\n力量在75以上时，物理攻击+5%\n普攻一定概率对目标造成高倍率的属性物理伤害",
        "isCompose": 0,
        "isUpgrade": 1,
        "isHigh": 0,
        "canSlot": 1,
        "canUpgrade": 0
      },
      {
        "id": "40311",
        "name": "狂击之剑[1]",
        "icon": "item_40311",
        "rank": 2,
        "job": [
          "11",
          "12",
          "13",
          "14",
          "15",
          "72",
          "73",
          "74",
          "75",
          "143",
          "144",
          "145",
          "203",
          "204",
          "205"
        ],
        "position": 1,
        "effect": "物理攻击+126",
        "buff": "力量+1\n灵巧+2\n习得【狂击】10级时，【狂击】伤害增加50%\n习得【怪物互击】10级时，【怪物互击】伤害增加30%",
        "isCompose": 1,
        "isUpgrade": 0,
        "isHigh": 0,
        "canSlot": 1,
        "canUpgrade": 1
      }
    ]
  }
}