{
  "code": 0,
  "status": "success",
  "timeStamp": 1644809322,
  "staticDomain": "http:\/\/rosc1.zhaiwuyu.com",
  "ip": "124.74.160.162",
  "language": "cn",
  "dbArea": 0,
  "data": {
    "page": 1,
    "pageSize": 10,
    "pageCount": 3,
    "total": 22,
    "list": [
      {
        "id": "44603",
        "name": "妖刀-村正[1]",
        "icon": "item_44603",
        "rank": 4,
        "job": [
          "164",
          "165"
        ],
        "position": 1,
        "effect": "物理攻击+625",
        "buff": "力量+12、暴击+20\n物理攻击+5%\n每精炼+1，移动速度+1%；每精炼+1，【流刃】伤害+3%\n精炼+5时，物理攻击+5%；精炼+10时，近战物理伤害+5%；精炼+15时，近战物理伤害+5%",
        "isCompose": 0,
        "isUpgrade": 0,
        "isHigh": 1,
        "canSlot": 0,
        "canUpgrade": 0
      },
      {
        "id": "44602",
        "name": "名刀-村正[1]",
        "icon": "item_44602",
        "rank": 3,
        "job": [
          "164",
          "165"
        ],
        "position": 1,
        "effect": "物理攻击+180",
        "buff": "力量+4、暴击+8\n物理攻击+5%\n每精炼+1，【流刃】伤害+1%",
        "isCompose": 1,
        "isUpgrade": 0,
        "isHigh": 0,
        "canSlot": 1,
        "canUpgrade": 1
      },
      {
        "id": "40390",
        "name": "龙王之剑[1]",
        "icon": "item_40356",
        "rank": 4,
        "job": [
          "213",
          "214",
          "215"
        ],
        "position": 1,
        "effect": "物理攻击+650",
        "buff": "力量+16\n火属性攻击+15%\n每精炼+1，火属性攻击+1%\n力量达到60时，物理攻击+10%\n力量达到120时，物理攻击+3%\n力量达到180时，物理攻击+3%\n力量达到240时，物理攻击+4%\n【炎龙拳】伤害+15%；每精炼+1，【炎龙拳】伤害+2%\n精炼+5，物理攻击+5%；精炼+10，物理攻击+5%；精炼+15时，物理伤害+5%\n物理技能攻击时有10%概率眩晕目标，眩晕3秒",
        "isCompose": 0,
        "isUpgrade": 0,
        "isHigh": 1,
        "canSlot": 0,
        "canUpgrade": 0
      },
      {
        "id": "40389",
        "name": "龙神之剑[1]",
        "icon": "item_40371",
        "rank": 3,
        "job": [
          "213",
          "214",
          "215"
        ],
        "position": 1,
        "effect": "物理攻击+180",
        "buff": "力量+5\n火属性攻击+15%\n每精炼+1，火属性攻击+1%\n力量达到60时，物理攻击+10%",
        "isCompose": 1,
        "isUpgrade": 0,
        "isHigh": 0,
        "canSlot": 1,
        "canUpgrade": 1
      },
      {
        "id": "40383",
        "name": "苍炎剑[1]",
        "icon": "item_40376",
        "rank": 4,
        "job": [
          "203",
          "204",
          "205"
        ],
        "position": 1,
        "effect": "魔法攻击+625\n物理攻击+625",
        "buff": "智力+8、力量+8\n每精炼+1，火属性攻击+1%\n【双炎斩】的技能伤害+200%\n【双炎斩】对中型魔物伤害+50%\n【斩击·光】技能倍率+200%\n每精炼+1，【斩击·光】技能伤害+2%",
        "isCompose": 0,
        "isUpgrade": 0,
        "isHigh": 1,
        "canSlot": 0,
        "canUpgrade": 0
      },
      {
        "id": "40382",
        "name": "烈焰剑[1]",
        "icon": "item_40382",
        "rank": 3,
        "job": [
          "203",
          "204",
          "205"
        ],
        "position": 1,
        "effect": "魔法攻击+180\n物理攻击+180",
        "buff": "智力+2、力量+2\n【双炎斩】的技能伤害+100%\n【双炎斩】对中型魔物伤害+50%\n【斩击·光】技能倍率+100%\n每精炼+1，【斩击·光】技能伤害+2%",
        "isCompose": 1,
        "isUpgrade": 0,
        "isHigh": 0,
        "canSlot": 1,
        "canUpgrade": 1
      },
      {
        "id": "40376",
        "name": "黑炎剑[1]",
        "icon": "item_40376",
        "rank": 4,
        "job": [
          "12",
          "13",
          "14",
          "15",
          "72",
          "73",
          "74",
          "75",
          "164",
          "165",
          "203",
          "204",
          "205"
        ],
        "position": 1,
        "effect": "物理攻击+480",
        "buff": "力量+4、敏捷+4\n暗属性\n普通攻击时额外扣除目标20点SP；精炼+5时，普通攻击时额外扣除目标SP提升至40点；精炼+10时，普通攻击时额外扣除目标SP提升至60点；精炼+15时，普通攻击时额外扣除目标SP提升至100点\n对于SP小于50%的目标最终伤害增加20%",
        "isCompose": 0,
        "isUpgrade": 0,
        "isHigh": 0,
        "canSlot": 1,
        "canUpgrade": 0
      },
      {
        "id": "40373",
        "name": "红莲[1]",
        "icon": "item_40373",
        "rank": 4,
        "job": [
          "11",
          "12",
          "13",
          "14",
          "15",
          "61",
          "62",
          "63",
          "64",
          "65",
          "72",
          "73",
          "74",
          "75",
          "132",
          "133",
          "134",
          "135",
          "143",
          "144",
          "145",
          "164",
          "165",
          "203",
          "204",
          "205",
          "213",
          "214",
          "215"
        ],
        "position": 1,
        "effect": "物理攻击+480",
        "buff": "力量+4 、智力+4\n装备攻速+5%\n精炼+10时，装备攻速+5%\n物理攻击时，有5%概率使用【陨石术】Lv.5技能",
        "isCompose": 0,
        "isUpgrade": 0,
        "isHigh": 0,
        "canSlot": 1,
        "canUpgrade": 0
      },
      {
        "id": "40361",
        "name": "怒涛勇者[1]",
        "icon": "item_40361",
        "rank": 4,
        "job": [
          "11",
          "12",
          "13",
          "14",
          "15",
          "72",
          "73",
          "74",
          "75",
          "164",
          "165",
          "203",
          "204",
          "205"
        ],
        "position": 1,
        "effect": "物理攻击+625",
        "buff": "敏捷+10、力量+5\n装备攻速+20%\n闪避+30\n击杀目标时获得物理攻击+30持续10秒，最多可叠加5层\n普通攻击暴击时有15%概率使使用者暴击伤害+5%，持续10秒，可叠加3层\n装备者的物理防御和魔法防御都会下降到1\/3；精炼+5时，物理攻击+3%；精炼+10时，装备者的物理防御和魔法防御都只会下降到2\/3，暴击伤害+5%，物理攻击+2%；精炼+15时，装备者的物理防御和魔法防御不再降低，物理攻击+10%\n【水纹之剑Ⅹ】（【怒涛勇者】）+【野兽之心Ⅷ】（【暴戾之甲】）+【高等布袋熊长靴IV】（【猪鬃毛长靴】）+【衬衫Ⅷ】（【云朵衬衫】）：物理攻击+3%，暴击伤害+3%，攻击速度+5%，生命上限+10%",
        "isCompose": 0,
        "isUpgrade": 0,
        "isHigh": 1,
        "canSlot": 0,
        "canUpgrade": 0
      },
      {
        "id": "40360",
        "name": "天谴[1]",
        "icon": "item_40360",
        "rank": 4,
        "job": [
          "12",
          "13",
          "14",
          "15",
          "72",
          "73",
          "74",
          "75",
          "203",
          "204",
          "205"
        ],
        "position": 1,
        "effect": "物理攻击+625",
        "buff": "圣属性\n命中+25\n智力+4、力量+8\n物理攻击+5%\n普攻时8%概率触发【星陨】，使目标及范围内目标受到圣属性伤害\n使用【舍命攻击】时，触发神圣复仇者附加技能的概率提升到40%，降低【舍命攻击】每次生命损失2%\n精炼每+1，剑士系普通攻击伤害+5%，【星陨】伤害+5%\n精炼+5时，暴击+5、暴击伤害+3%；精炼+10时，暴击+5、暴击伤害+5%；精炼+15时，暴击+5、暴击伤害+7%",
        "isCompose": 0,
        "isUpgrade": 0,
        "isHigh": 1,
        "canSlot": 0,
        "canUpgrade": 0
      }
    ],
    "partner": {
      "id": 30301,
      "pos": 6,
      "title": "交易所订阅",
      "tip": "",
      "pic": "\/\/rosc3.zhaiwuyu.com\/partner\/self\/find-exchange-202103.jpg",
      "link": "http:\/\/romel.wiki\/article\/exchange-remind"
    }
  }
}