{
  "code": 0,
  "status": "success",
  "timeStamp": 1644809332,
  "staticDomain": "http:\/\/rosc1.zhaiwuyu.com",
  "ip": "124.74.160.162",
  "language": "cn",
  "dbArea": 0,
  "data": {
    "page": 3,
    "pageSize": 10,
    "pageCount": 3,
    "total": 22,
    "list": [
      {
        "id": "40310",
        "name": "水纹之剑[1]",
        "icon": "item_40310",
        "rank": 4,
        "job": [
          "11",
          "12",
          "13",
          "14",
          "15",
          "72",
          "73",
          "74",
          "75",
          "164",
          "165",
          "203",
          "204",
          "205"
        ],
        "position": 1,
        "effect": "物理攻击+144",
        "buff": "装备攻速+5%\n闪避+30\n装备者的物理防御和魔法防御都会下降到1\/3\n【水纹之剑Ⅹ】（【怒涛勇者】）+【野兽之心Ⅷ】（【暴戾之甲】）+【高等布袋熊长靴IV】（【猪鬃毛长靴】）+【衬衫Ⅷ】（【云朵衬衫】）：物理攻击+3%，暴击伤害+3%，攻击速度+5%，生命上限+10%",
        "isCompose": 0,
        "isUpgrade": 0,
        "isHigh": 0,
        "canSlot": 1,
        "canUpgrade": 1
      },
      {
        "id": "40306",
        "name": "海东剑[1]",
        "icon": "item_40306",
        "rank": 2,
        "job": [
          "11",
          "12",
          "13",
          "14",
          "15",
          "72",
          "73",
          "74",
          "75",
          "143",
          "144",
          "145",
          "203",
          "204",
          "205"
        ],
        "position": 1,
        "effect": "物理攻击+72",
        "buff": "力量+2\n物理防御+20",
        "isCompose": 1,
        "isUpgrade": 0,
        "isHigh": 0,
        "canSlot": 1,
        "canUpgrade": 1
      }
    ]
  }
}