{
  "code": 0,
  "status": "success",
  "timeStamp": 1643703702,
  "staticDomain": "http:\/\/rosc1.zhaiwuyu.com",
  "ip": "101.87.201.112",
  "language": "cn",
  "dbArea": 0,
  "data": {
    "page": 70,
    "pageSize": 10,
    "pageCount": 77,
    "total": 765,
    "list": [
      {
        "id": "41835",
        "name": "贝克之斧[1]",
        "icon": "item_41835",
        "rank": 3,
        "job": [
          "61",
          "62",
          "63",
          "64",
          "65",
          "132",
          "133",
          "134",
          "135",
          "143",
          "144",
          "145",
          "213",
          "214",
          "215"
        ],
        "position": 1,
        "effect": "物理攻击+196",
        "buff": "敏捷+10\n对中型魔物伤害+10%\n普攻时5%概率施放Lv.10【手推车攻击】\n【手推车攻击】伤害+15%",
        "isCompose": 0,
        "isUpgrade": 1,
        "isHigh": 0,
        "canSlot": 1,
        "canUpgrade": 1
      },
      {
        "id": "41834",
        "name": "毁灭手斧[1]",
        "icon": "item_41834",
        "rank": 3,
        "job": [
          "11",
          "12",
          "13",
          "14",
          "15",
          "61",
          "62",
          "63",
          "64",
          "65",
          "73",
          "74",
          "75",
          "132",
          "133",
          "134",
          "135",
          "203",
          "204",
          "205",
          "213",
          "214",
          "215"
        ],
        "position": 1,
        "effect": "物理攻击+160",
        "buff": "力量+5\n每学一级【强化火属性】时会额外+10%火属性攻击\n力量达到50时物理攻击+10%",
        "isCompose": 0,
        "isUpgrade": 1,
        "isHigh": 0,
        "canSlot": 1,
        "canUpgrade": 1
      },
      {
        "id": "41824",
        "name": "巨人战斧[1]",
        "icon": "item_41824",
        "rank": 4,
        "job": [
          "11",
          "12",
          "13",
          "14",
          "15",
          "61",
          "62",
          "63",
          "64",
          "65",
          "73",
          "74",
          "75",
          "132",
          "133",
          "134",
          "135",
          "203",
          "204",
          "205",
          "213",
          "214",
          "215"
        ],
        "position": 1,
        "effect": "物理攻击+120",
        "buff": "对小型魔物伤害+10%\n对暗属性魔物伤害+30%",
        "isCompose": 0,
        "isUpgrade": 0,
        "isHigh": 0,
        "canSlot": 1,
        "canUpgrade": 1
      },
      {
        "id": "41822",
        "name": "超重双手斧[1]",
        "icon": "item_41822",
        "rank": 4,
        "job": [
          "62",
          "63",
          "64",
          "65",
          "213",
          "214",
          "215"
        ],
        "position": 1,
        "effect": "物理攻击+10",
        "buff": "力量达到95以上时物理攻击+340\n使用技能时消耗SP翻倍\n攻击速度-40%\n精炼等级达到+5、+10、+15时，装备攻速+5%、+10%、+15%\n普通攻击时有30%概率眩晕目标\n有一定几率破坏盔甲（暂未实装）",
        "isCompose": 0,
        "isUpgrade": 0,
        "isHigh": 0,
        "canSlot": 1,
        "canUpgrade": 1
      },
      {
        "id": "41815",
        "name": "暗灵之斧[1]",
        "icon": "item_41815",
        "rank": 4,
        "job": [
          "11",
          "12",
          "13",
          "14",
          "15",
          "62",
          "63",
          "64",
          "65",
          "72",
          "73",
          "74",
          "75",
          "132",
          "133",
          "134",
          "135",
          "203",
          "204",
          "205",
          "213",
          "214",
          "215"
        ],
        "position": 1,
        "effect": "物理攻击+200",
        "buff": "攻击恶魔种族魔物时暴击伤害+25%\n攻击恶魔种族魔物时有概率自动施放【濒死之术】（MVP\/mini无效）",
        "isCompose": 0,
        "isUpgrade": 0,
        "isHigh": 0,
        "canSlot": 1,
        "canUpgrade": 0
      },
      {
        "id": "41814",
        "name": "血斧[1]",
        "icon": "item_41814",
        "rank": 3,
        "job": [
          "61",
          "62",
          "63",
          "64",
          "65",
          "132",
          "133",
          "134",
          "135",
          "213",
          "214",
          "215"
        ],
        "position": 1,
        "effect": "物理攻击+192",
        "buff": "幸运达到90时物理攻击+100\n灵巧达到90以上时【金钱攻击】伤害+40%\n精炼+5时，【金钱攻击】伤害+10%、【金钱攻击】银币消耗+20%；精炼+10时，【金钱攻击】伤害+20%、【金钱攻击】银币消耗+30%；精炼+15时，【金钱攻击】伤害+30%、【金钱攻击】银币消耗+50%；",
        "isCompose": 1,
        "isUpgrade": 0,
        "isHigh": 0,
        "canSlot": 1,
        "canUpgrade": 1
      },
      {
        "id": "41813",
        "name": "希尔之斧[1]",
        "icon": "item_41813",
        "rank": 3,
        "job": [
          "11",
          "12",
          "13",
          "14",
          "15",
          "62",
          "63",
          "64",
          "65",
          "72",
          "73",
          "74",
          "75",
          "132",
          "133",
          "134",
          "135",
          "203",
          "204",
          "205",
          "213",
          "214",
          "215"
        ],
        "position": 1,
        "effect": "物理攻击+160",
        "buff": "体质+10\n暴击防护+15\n对眩晕目标造成伤害额外+15%",
        "isCompose": 1,
        "isUpgrade": 0,
        "isHigh": 0,
        "canSlot": 1,
        "canUpgrade": 0
      },
      {
        "id": "41811",
        "name": "斩首之斧[1]",
        "icon": "item_41811",
        "rank": 4,
        "job": [
          "62",
          "63",
          "64",
          "65",
          "132",
          "133",
          "134",
          "135",
          "213",
          "214",
          "215"
        ],
        "position": 1,
        "effect": "物理攻击+216",
        "buff": "普攻有10%概率使目标晕眩\n精炼每+1，攻击眩晕的目标时物理伤害+5%\n装备攻速+10%",
        "isCompose": 1,
        "isUpgrade": 0,
        "isHigh": 0,
        "canSlot": 1,
        "canUpgrade": 0
      },
      {
        "id": "41810",
        "name": "斯勒特斧[1]",
        "icon": "item_41810",
        "rank": 3,
        "job": [
          "11",
          "12",
          "13",
          "14",
          "15",
          "61",
          "62",
          "63",
          "64",
          "65",
          "72",
          "73",
          "74",
          "75",
          "132",
          "133",
          "134",
          "135",
          "203",
          "204",
          "205",
          "213",
          "214",
          "215"
        ],
        "position": 1,
        "effect": "物理攻击+96",
        "buff": "灵巧+5\n动物种族加伤+15%\n精炼+5时动物种族加伤+5%",
        "isCompose": 1,
        "isUpgrade": 0,
        "isHigh": 0,
        "canSlot": 1,
        "canUpgrade": 1
      },
      {
        "id": "41809",
        "name": "碎心斧[1]",
        "icon": "item_41809",
        "rank": 4,
        "job": [
          "61",
          "62",
          "63",
          "64",
          "65",
          "132",
          "133",
          "134",
          "135",
          "213",
          "214",
          "215"
        ],
        "position": 1,
        "effect": "物理攻击+280",
        "buff": "攻击速度+10%\n暴击+15\n精炼+5，+10，+15时，暴击伤害+5%，+10%，+15%\n每精炼+1，普通攻击伤害提高3%",
        "isCompose": 0,
        "isUpgrade": 0,
        "isHigh": 0,
        "canSlot": 1,
        "canUpgrade": 1
      }
    ]
  }
}