{
  "code": 0,
  "status": "success",
  "timeStamp": 1643703213,
  "staticDomain": "http:\/\/rosc1.zhaiwuyu.com",
  "ip": "101.87.201.112",
  "language": "cn",
  "dbArea": 0,
  "data": {
    "page": 22,
    "pageSize": 10,
    "pageCount": 77,
    "total": 765,
    "list": [
      {
        "id": "42154",
        "name": "欢笑人偶服",
        "icon": "item_42154",
        "rank": 2,
        "job": [
          "0"
        ],
        "position": 3,
        "effect": "物理防御+205",
        "buff": "智力+20\n生命上限+3500\n魔法防御+15%；每精炼+1，物理防御+1%\n可变吟唱时间-10%，风、地、水、火属性攻击+15%；精炼+10时，忽视魔法防御+8%；精炼+15时，忽视魔法防御+8%",
        "isCompose": 0,
        "isUpgrade": 0,
        "isHigh": 0,
        "canSlot": 0,
        "canUpgrade": 0
      },
      {
        "id": "42152",
        "name": "智慧祭服",
        "icon": "item_42152",
        "rank": 3,
        "job": [
          "0"
        ],
        "position": 3,
        "effect": "物理防御+205",
        "buff": "智力+10、灵巧+10\n生命上限+3500\n魔法防御+15%；每精炼+1，物理防御+1%\n魔法伤害+10%；精炼+10时，魔法伤害+4%；精炼+15时，魔法伤害+4%",
        "isCompose": 0,
        "isUpgrade": 0,
        "isHigh": 0,
        "canSlot": 0,
        "canUpgrade": 0,
        "randomBuff": "魔法伤害+15%\n物伤、魔伤减免+15%\n物理、魔法防御+24%\n生命上限+15%\n风、地、水、火、无属性攻击+20%\n魔法上限+24%"
      },
      {
        "id": "42151",
        "name": "萨满祭服",
        "icon": "item_42151",
        "rank": 2,
        "job": [
          "0"
        ],
        "position": 3,
        "effect": "物理防御+205",
        "buff": "智力+10、灵巧+10\n生命上限+3500\n魔法防御+15%；每精炼+1，物理防御+1%\n魔法伤害+10%；精炼+10时，魔法伤害+4%；精炼+15时，魔法伤害+4%",
        "isCompose": 0,
        "isUpgrade": 0,
        "isHigh": 0,
        "canSlot": 0,
        "canUpgrade": 0
      },
      {
        "id": "42149",
        "name": "灰烬战甲",
        "icon": "item_42149",
        "rank": 3,
        "job": [
          "0"
        ],
        "position": 3,
        "effect": "物理防御+243",
        "buff": "体质+20\n生命上限+4000\n魔法防御+15%；每精炼+1，物理防御+1%\n生命上限+8%、受治疗加成+20%；精炼+10时，生命上限+4%；精炼+15时，生命上限+4%",
        "isCompose": 0,
        "isUpgrade": 0,
        "isHigh": 0,
        "canSlot": 0,
        "canUpgrade": 0,
        "randomBuff": "生命上限+15%\n物伤、魔伤减免+15%\n物理、魔法防御+24%\n魔法上限+24%\n受治疗加成+30%\n受到中型魔物伤害-20%"
      },
      {
        "id": "42148",
        "name": "赤羽战甲",
        "icon": "item_42148",
        "rank": 2,
        "job": [
          "0"
        ],
        "position": 3,
        "effect": "物理防御+243",
        "buff": "体质+20\n生命上限+4000\n魔法防御+15%；每精炼+1，物理防御+1%\n生命上限+8%、受治疗加成+20%；精炼+10时，生命上限+4%；精炼+15时，生命上限+4%",
        "isCompose": 0,
        "isUpgrade": 0,
        "isHigh": 0,
        "canSlot": 0,
        "canUpgrade": 0
      },
      {
        "id": "42146",
        "name": "白骨之惧战甲",
        "icon": "item_42146",
        "rank": 3,
        "job": [
          "0"
        ],
        "position": 3,
        "effect": "物理防御+205",
        "buff": "力量+10、智力+10\n生命上限+3500\n物理防御+15%；每精炼+1，魔法防御+1%\n物理、魔法攻击+15%；精炼+10时，物理、魔法攻击+6%；精炼+15时，物理、魔法攻击+6%",
        "isCompose": 0,
        "isUpgrade": 0,
        "isHigh": 0,
        "canSlot": 0,
        "canUpgrade": 0,
        "randomBuff": "物理、魔法伤害+15%\n物伤、魔伤减免+15%\n物理、魔法防御+24%\n生命上限+15%\n对大型魔物伤害+20%\n对中型魔物伤害+20%\n对小型魔物伤害+20%"
      },
      {
        "id": "42145",
        "name": "神秘骸骨",
        "icon": "item_42145",
        "rank": 2,
        "job": [
          "0"
        ],
        "position": 3,
        "effect": "物理防御+205",
        "buff": "力量+10、智力+10\n生命上限+3500\n物理防御+15%；每精炼+1，魔法防御+1%\n物理、魔法攻击+15%；精炼+10时，物理、魔法攻击+6%；精炼+15时，物理、魔法攻击+6%",
        "isCompose": 0,
        "isUpgrade": 0,
        "isHigh": 0,
        "canSlot": 0,
        "canUpgrade": 0
      },
      {
        "id": "42143",
        "name": "角斗士战甲",
        "icon": "item_42143",
        "rank": 3,
        "job": [
          "0"
        ],
        "position": 3,
        "effect": "物理防御+205",
        "buff": "力量+10、灵巧+10、敏捷+10\n生命上限+3500\n物理防御+15%；每精炼+1，魔法防御+1%\n装备攻速+30%；精炼+10时，物理攻击+8%；精炼+15时，物理攻击+8%",
        "isCompose": 0,
        "isUpgrade": 0,
        "isHigh": 0,
        "canSlot": 0,
        "canUpgrade": 0,
        "randomBuff": "物理攻击+24%\n物伤、魔伤减免+15%\n物理、魔法防御+24%\n生命上限+15%\n对大型魔物伤害+20%\n对中型魔物伤害+20%\n对小型魔物伤害+20%"
      },
      {
        "id": "42142",
        "name": "野性皮甲",
        "icon": "item_42142",
        "rank": 2,
        "job": [
          "0"
        ],
        "position": 3,
        "effect": "物理防御+205",
        "buff": "力量+10、灵巧+10、敏捷+10\n生命上限+3500\n物理防御+15%；每精炼+1，魔法防御+1%\n装备攻速+30%；精炼+10时，物理攻击+8%；精炼+15时，物理攻击+8%",
        "isCompose": 0,
        "isUpgrade": 0,
        "isHigh": 0,
        "canSlot": 0,
        "canUpgrade": 0
      },
      {
        "id": "42140",
        "name": "真相勘探者",
        "icon": "item_42140",
        "rank": 3,
        "job": [
          "0"
        ],
        "position": 3,
        "effect": "物理防御+205",
        "buff": "力量+15、灵巧+15\n生命上限+3500\n物理防御+15%；每精炼+1，魔法防御+1%\n物理攻击+500；精炼+10时，物理攻击+200；精炼+15时，物理攻击+200",
        "isCompose": 0,
        "isUpgrade": 0,
        "isHigh": 0,
        "canSlot": 0,
        "canUpgrade": 0,
        "randomBuff": "物理攻击+24%\n物伤、魔伤减免+15%\n物理、魔法防御+24%\n生命上限+15%\n对大型魔物伤害+20%\n对中型魔物伤害+20%\n对小型魔物伤害+20%"
      }
    ]
  }
}