{
  "code": 0,
  "status": "success",
  "timeStamp": 1643703183,
  "staticDomain": "http:\/\/rosc1.zhaiwuyu.com",
  "ip": "101.87.201.112",
  "language": "cn",
  "dbArea": 0,
  "data": {
    "page": 19,
    "pageSize": 10,
    "pageCount": 77,
    "total": 765,
    "list": [
      {
        "id": "42637",
        "name": "赦罪金",
        "icon": "item_42637",
        "rank": 3,
        "job": [
          "0"
        ],
        "position": 2,
        "effect": "物理防御+200",
        "buff": "智力+12\n生命上限+3000\n所有技能SP消耗-20%、SP恢复+20%；精炼+10时，所有技能SP消耗-10%；精炼+15时，技能冷却-10%",
        "isCompose": 0,
        "isUpgrade": 0,
        "isHigh": 0,
        "canSlot": 0,
        "canUpgrade": 0,
        "randomBuff": "技能延迟-18%\n物伤减免+24%\n魔伤减免+24%\n生命上限+18%\n物理防御+36%\n魔法防御+36%"
      },
      {
        "id": "42636",
        "name": "古代金币",
        "icon": "item_42636",
        "rank": 2,
        "job": [
          "0"
        ],
        "position": 2,
        "effect": "物理防御+200",
        "buff": "智力+12\n生命上限+3000\n所有技能SP消耗-20%、SP恢复+20%；精炼+10时，所有技能SP消耗-10%；精炼+15时，技能冷却-10%",
        "isCompose": 0,
        "isUpgrade": 0,
        "isHigh": 0,
        "canSlot": 0,
        "canUpgrade": 0
      },
      {
        "id": "42634",
        "name": "恶魔之颅",
        "icon": "item_42634",
        "rank": 3,
        "job": [
          "0"
        ],
        "position": 2,
        "effect": "物理防御+180",
        "buff": "智力+12\n生命上限+2800\n忽视魔法防御+20%；精炼+10时，忽视魔法防御+8%；精炼+15时，忽视魔法防御+8%",
        "isCompose": 0,
        "isUpgrade": 0,
        "isHigh": 0,
        "canSlot": 0,
        "canUpgrade": 0,
        "randomBuff": "忽视魔法防御+30%\n物伤减免+24%\n魔伤减免+24%\n生命上限+18%\n物理防御+36%\n魔法防御+36%"
      },
      {
        "id": "42633",
        "name": "水晶之颅",
        "icon": "item_42633",
        "rank": 2,
        "job": [
          "0"
        ],
        "position": 2,
        "effect": "物理防御+180",
        "buff": "智力+12\n生命上限+2800\n忽视魔法防御+20%；精炼+10时，忽视魔法防御+8%；精炼+15时，忽视魔法防御+8%",
        "isCompose": 0,
        "isUpgrade": 0,
        "isHigh": 0,
        "canSlot": 0,
        "canUpgrade": 0
      },
      {
        "id": "42631",
        "name": "巫毒之刃",
        "icon": "item_42631",
        "rank": 3,
        "job": [
          "0"
        ],
        "position": 2,
        "effect": "物理防御+180",
        "buff": "力量+8、灵巧+8\n生命上限+2800\n忽视物理防御+20%；精炼+10时，忽视物理防御+8%；精炼+15时，忽视物理防御+8%",
        "isCompose": 0,
        "isUpgrade": 0,
        "isHigh": 0,
        "canSlot": 0,
        "canUpgrade": 0,
        "randomBuff": "忽视物理防御+30%\n物伤减免+24%\n魔伤减免+24%\n生命上限+18%\n物理防御+36%\n魔法防御+36%"
      },
      {
        "id": "42630",
        "name": "剥皮刀",
        "icon": "item_42630",
        "rank": 2,
        "job": [
          "0"
        ],
        "position": 2,
        "effect": "物理防御+180",
        "buff": "力量+8、灵巧+8\n生命上限+2800\n忽视物理防御+20%；精炼+10时，忽视物理防御+8%；精炼+15时，忽视物理防御+8%",
        "isCompose": 0,
        "isUpgrade": 0,
        "isHigh": 0,
        "canSlot": 0,
        "canUpgrade": 0
      },
      {
        "id": "42628",
        "name": "龙骨盾",
        "icon": "item_42628",
        "rank": 3,
        "job": [
          "0"
        ],
        "position": 2,
        "effect": "物理防御+180",
        "buff": "力量+12\n生命上限+2800\n近战物理伤害+10%；精炼+10时，近战物理伤害+4%；精炼+15时，近战物理伤害+4%",
        "isCompose": 0,
        "isUpgrade": 0,
        "isHigh": 0,
        "canSlot": 0,
        "canUpgrade": 0,
        "randomBuff": "物理伤害+18%\n物伤减免+24%\n魔伤减免+24%\n生命上限+18%\n物理防御+36%\n魔法防御+36%"
      },
      {
        "id": "42627",
        "name": "巨兽头骨",
        "icon": "item_42627",
        "rank": 2,
        "job": [
          "0"
        ],
        "position": 2,
        "effect": "物理防御+180",
        "buff": "力量+12\n生命上限+2800\n近战物理伤害+10%；精炼+10时，近战物理伤害+4%；精炼+15时，近战物理伤害+4%",
        "isCompose": 1,
        "isUpgrade": 0,
        "isHigh": 0,
        "canSlot": 0,
        "canUpgrade": 0
      },
      {
        "id": "42625",
        "name": "唤鹰笛",
        "icon": "item_42625",
        "rank": 3,
        "job": [
          "0"
        ],
        "position": 2,
        "effect": "物理防御+180",
        "buff": "灵巧+12\n生命上限+2800\n远程物理伤害+10%；精炼+10时，远程物理伤害+4%；精炼+15时，远程物理伤害+4%",
        "isCompose": 0,
        "isUpgrade": 0,
        "isHigh": 0,
        "canSlot": 0,
        "canUpgrade": 0,
        "randomBuff": "物理伤害+18%\n物伤减免+24%\n魔伤减免+24%\n生命上限+18%\n物理防御+36%\n魔法防御+36%"
      },
      {
        "id": "42624",
        "name": "骨笛",
        "icon": "item_42624",
        "rank": 2,
        "job": [
          "0"
        ],
        "position": 2,
        "effect": "物理防御+180",
        "buff": "灵巧+12\n生命上限+2800\n远程物理伤害+10%；精炼+10时，远程物理伤害+4%；精炼+15时，远程物理伤害+4%",
        "isCompose": 1,
        "isUpgrade": 0,
        "isHigh": 0,
        "canSlot": 0,
        "canUpgrade": 0
      }
    ]
  }
}