{
  "code": 0,
  "status": "success",
  "timeStamp": 1643703406,
  "staticDomain": "http:\/\/rosc1.zhaiwuyu.com",
  "ip": "101.87.201.112",
  "language": "cn",
  "dbArea": 0,
  "data": {
    "page": 41,
    "pageSize": 10,
    "pageCount": 77,
    "total": 765,
    "list": [
      {
        "id": "63433",
        "name": "冷澈之魔法书[1]",
        "icon": "item_63433",
        "rank": 4,
        "job": [
          "84",
          "85"
        ],
        "position": 1,
        "effect": "魔法攻击+285",
        "buff": "智力+10\n忽视魔法防御+15%\n生命上限+5%\n每精炼+1，【钻石星尘】的伤害+2%",
        "isCompose": 0,
        "isUpgrade": 0,
        "isHigh": 0,
        "canSlot": 1,
        "canUpgrade": 1
      },
      {
        "id": "63417",
        "name": "贤者日记[1]",
        "icon": "item_63417",
        "rank": 3,
        "job": [
          "82",
          "83",
          "84",
          "85"
        ],
        "position": 1,
        "effect": "魔法攻击+96",
        "buff": "智力+3\n装备攻速+5%\n每精炼+1，【自动念咒】的触发概率提高0.3%\n【魔能涌动外袍IV】+【贤者日记Ⅷ】：【双倍投掷】触发概率+3%；魔法伤害+5%\n【魔力之渊】+【贤者日记Ⅷ】：【双倍投掷】触发概率+3%；魔法伤害+5%",
        "isCompose": 1,
        "isUpgrade": 0,
        "isHigh": 0,
        "canSlot": 1,
        "canUpgrade": 1
      },
      {
        "id": "63404",
        "name": "全知魔神书·神铸",
        "icon": "item_63404",
        "rank": 4,
        "job": [
          "82",
          "83",
          "84",
          "85"
        ],
        "position": 14,
        "effect": "魔法攻击+720",
        "buff": "智力+15\n敏捷+5\n体质+10\n全能力+20\n提升贤者系范围型技能伤害+15%\n魔法攻击+20%\n魔法穿刺+20%\n人形种族伤害+50%\n生命上限+30000\n物伤减免+10%，魔伤减免+10%\n获得技能【风暴之心】：在施法者周围形成半径6米的风暴，在风暴中的所有敌对目标每秒将受到300%的风属性和300%的水属性魔法伤害，移动速度下降75%，攻击速度下降75%，物理和魔法攻击下降40%。风暴可跟随施法者一起移动。风暴可以击中隐匿的敌对目标并使其出现。施法者在使用风暴之心技能时，魔法穿刺+30%，受到的所有伤害降低50%。风暴持续 12 秒，技能冷却时间 120 秒",
        "isCompose": 1,
        "isUpgrade": 0,
        "isHigh": 0,
        "canSlot": 0,
        "canUpgrade": 0
      },
      {
        "id": "63403",
        "name": "全知魔神书·精锻",
        "icon": "item_63403",
        "rank": 4,
        "job": [
          "82",
          "83",
          "84",
          "85"
        ],
        "position": 14,
        "effect": "魔法攻击+525",
        "buff": "智力+15\n敏捷+5\n体质+10\n全能力+14\n提升贤者系范围型技能伤害+15%\n魔法攻击+16%\n魔法穿刺+16%\n人形种族伤害+40%\n生命上限+22500\n物伤减免+5%，魔伤减免+5%\n获得技能【风暴之心】：在施法者周围形成半径6米的风暴，在风暴中的所有敌对目标每秒将受到200%的风属性和200%的水属性魔法伤害，移动速度下降50%，攻击速度下降50%，物理和魔法攻击下降20%。风暴可跟随施法者一起移动。风暴可以击中隐匿的敌对目标并使其出现。施法者在使用风暴之心技能时，魔法穿刺+20%，受到的所有伤害降低50%。风暴持续 8 秒，技能冷却时间 150 秒",
        "isCompose": 1,
        "isUpgrade": 0,
        "isHigh": 0,
        "canSlot": 0,
        "canUpgrade": 0
      },
      {
        "id": "63402",
        "name": "全知魔神书",
        "icon": "item_63402",
        "rank": 4,
        "job": [
          "82",
          "83",
          "84",
          "85"
        ],
        "position": 14,
        "effect": "魔法攻击+330",
        "buff": "智力+15\n敏捷+5\n体质+10\n全能力+8\n提升贤者系范围型技能伤害+15%\n魔法攻击+12%\n魔法穿刺+12%\n人形种族伤害+30%\n生命上限+15000",
        "isCompose": 1,
        "isUpgrade": 0,
        "isHigh": 0,
        "canSlot": 0,
        "canUpgrade": 0
      },
      {
        "id": "63113",
        "name": "琵琶[1]",
        "icon": "item_63113",
        "rank": 3,
        "job": [
          "102",
          "103",
          "104",
          "105"
        ],
        "position": 1,
        "effect": "物理攻击+144",
        "buff": "智力+2\n灵巧+2\n魔法上限+100\n生命上限+5%\nSP恢复速度+10%",
        "isCompose": 1,
        "isUpgrade": 0,
        "isHigh": 0,
        "canSlot": 1,
        "canUpgrade": 1
      },
      {
        "id": "63109",
        "name": "贝斯[1]",
        "icon": "item_63109",
        "rank": 4,
        "job": [
          "104",
          "105"
        ],
        "position": 1,
        "effect": "物理攻击+420",
        "buff": "灵巧+8\n忽视物理防御+10%\n物理攻击+10%\n每精炼+1，【狂风暴雨】的伤害+2%",
        "isCompose": 0,
        "isUpgrade": 0,
        "isHigh": 0,
        "canSlot": 1,
        "canUpgrade": 1
      },
      {
        "id": "63105",
        "name": "月神的呢喃·神铸",
        "icon": "item_63105",
        "rank": 4,
        "job": [
          "102",
          "103",
          "104",
          "105"
        ],
        "position": 14,
        "effect": "物理攻击+800",
        "buff": "灵巧+12\n智力+8\n体质+10\n全能力+40\n生命上限+10%\n物理攻击+12%\n物理穿刺+12%\n人形种族伤害+50%\n生命上限+40000\n物伤减免+10%，魔伤减免+10%\n可对队伍中的所有目标施放【守护天使】。【守护天使】：使目标受到的伤害降低30%，攻击速度+30%，移动速度和攻击速度不会受到任何效果降低（包括神器技能），当目标死亡时守护天使将使目标避免死亡并为其回复80%MaxHp和50%MaxSp，【守护天使】效果不会被任何技能解除。【守护天使】持续8秒，冷却时间150s",
        "isCompose": 1,
        "isUpgrade": 0,
        "isHigh": 0,
        "canSlot": 0,
        "canUpgrade": 0
      },
      {
        "id": "63104",
        "name": "月神的呢喃·精锻",
        "icon": "item_63104",
        "rank": 4,
        "job": [
          "102",
          "103",
          "104",
          "105"
        ],
        "position": 14,
        "effect": "物理攻击+600",
        "buff": "灵巧+12\n智力+8\n体质+10\n全能力+30\n生命上限+10%\n物理攻击+10%\n物理穿刺+10%\n人形种族伤害+40%\n生命上限+30000\n物伤减免+5%，魔伤减免+5%\n可对队伍中的所有目标施放【守护天使】。【守护天使】：使目标受到的伤害降低20%，攻击速度+20%，移动速度和攻击速度不会受到任何效果降低（包括神器技能），当目标死亡时守护天使将使目标避免死亡并为其回复50%MaxHp和20%MaxSp，【守护天使】效果不会被任何技能解除。【守护天使】持续5秒，冷却时间180s",
        "isCompose": 1,
        "isUpgrade": 0,
        "isHigh": 0,
        "canSlot": 0,
        "canUpgrade": 0
      },
      {
        "id": "63103",
        "name": "月神的呢喃",
        "icon": "item_63103",
        "rank": 4,
        "job": [
          "102",
          "103",
          "104",
          "105"
        ],
        "position": 14,
        "effect": "物理攻击+400",
        "buff": "灵巧+12\n智力+8\n体质+10\n全能力+20\n生命上限+10%\n物理攻击+8%\n物理穿刺+8%\n人形种族伤害+30%\n生命上限+20000",
        "isCompose": 1,
        "isUpgrade": 0,
        "isHigh": 0,
        "canSlot": 0,
        "canUpgrade": 0
      }
    ]
  }
}