{
  "code": 0,
  "status": "success",
  "timeStamp": 1642843779,
  "staticDomain": "http:\/\/rosc1.zhaiwuyu.com",
  "ip": "101.87.200.160",
  "language": "cn",
  "dbArea": 0,
  "data": {
    "page": 59,
    "pageSize": 10,
    "pageCount": 74,
    "total": 731,
    "list": [
      {
        "id": "43003",
        "name": "斗篷",
        "icon": "item_43003",
        "rank": 2,
        "job": [
          "11",
          "12",
          "13",
          "14",
          "15",
          "31",
          "32",
          "33",
          "34",
          "35",
          "61",
          "62",
          "63",
          "64",
          "65",
          "72",
          "73",
          "74",
          "75",
          "92",
          "93",
          "94",
          "95",
          "132",
          "133",
          "134",
          "135",
          "143",
          "144",
          "145",
          "203",
          "204",
          "205",
          "213",
          "214",
          "215"
        ],
        "position": 4,
        "effect": "物理防御+28",
        "buff": "物理防御+10",
        "isCompose": 1,
        "isUpgrade": 0,
        "isHigh": 0,
        "canSlot": 1,
        "canUpgrade": 1
      },
      {
        "id": "61512",
        "name": "芬特克的手环",
        "icon": "item_61512",
        "rank": 3,
        "job": [
          "12",
          "13",
          "14",
          "15",
          "22",
          "23",
          "24",
          "25",
          "32",
          "33",
          "34",
          "35",
          "42",
          "43",
          "44",
          "45",
          "52",
          "53",
          "54",
          "55",
          "62",
          "63",
          "64",
          "65",
          "72",
          "73",
          "74",
          "75",
          "82",
          "83",
          "84",
          "85",
          "92",
          "93",
          "94",
          "95",
          "102",
          "103",
          "104",
          "105",
          "112",
          "113",
          "114",
          "115",
          "122",
          "123",
          "124",
          "125",
          "132",
          "133",
          "134",
          "135",
          "143",
          "144",
          "145",
          "152",
          "153",
          "154",
          "155",
          "163",
          "164",
          "165",
          "173",
          "174",
          "175",
          "183",
          "184",
          "185",
          "203",
          "204",
          "205",
          "213",
          "214",
          "215",
          "223",
          "224",
          "225"
        ],
        "position": 2,
        "effect": "物理防御+46",
        "buff": "闪避+10\n暴击+8\n当剑士系\/盗贼系\/牧师系\/商人系\/超初系\/忍者系\/枪手系装备时每10点闪避会为其带来1点物理攻击",
        "isCompose": 0,
        "isUpgrade": 1,
        "isHigh": 0,
        "canSlot": 1,
        "canUpgrade": 1
      },
      {
        "id": "61511",
        "name": "蔷薇姬的腕轮",
        "icon": "item_61511",
        "rank": 3,
        "job": [
          "0"
        ],
        "position": 2,
        "effect": "物理防御+31",
        "buff": "忽视物理防御+25%",
        "isCompose": 0,
        "isUpgrade": 1,
        "isHigh": 0,
        "canSlot": 1,
        "canUpgrade": 1
      },
      {
        "id": "61507",
        "name": "小可的玫瑰手镯",
        "icon": "item_61507",
        "rank": 3,
        "job": [
          "0"
        ],
        "position": 2,
        "effect": "物理防御+28",
        "buff": "忽视物理防御+10%",
        "isCompose": 1,
        "isUpgrade": 0,
        "isHigh": 0,
        "canSlot": 1,
        "canUpgrade": 1
      },
      {
        "id": "61506",
        "name": "尼罗的手环",
        "icon": "item_61506",
        "rank": 4,
        "job": [
          "0"
        ],
        "position": 2,
        "effect": "物理防御+42",
        "buff": "远程物理伤害+15%",
        "isCompose": 0,
        "isUpgrade": 0,
        "isHigh": 0,
        "canSlot": 1,
        "canUpgrade": 1
      },
      {
        "id": "61505",
        "name": "金色手镯",
        "icon": "item_61505",
        "rank": 2,
        "job": [
          "0"
        ],
        "position": 2,
        "effect": "物理防御+33",
        "buff": "闪避+5\n暴击+5",
        "isCompose": 1,
        "isUpgrade": 0,
        "isHigh": 0,
        "canSlot": 1,
        "canUpgrade": 1
      },
      {
        "id": "61012",
        "name": "邪骨腕甲",
        "icon": "item_61012",
        "rank": 3,
        "job": [
          "12",
          "13",
          "14",
          "15",
          "22",
          "23",
          "24",
          "25",
          "32",
          "33",
          "34",
          "35",
          "42",
          "43",
          "44",
          "45",
          "52",
          "53",
          "54",
          "55",
          "62",
          "63",
          "64",
          "65",
          "72",
          "73",
          "74",
          "75",
          "82",
          "83",
          "84",
          "85",
          "92",
          "93",
          "94",
          "95",
          "102",
          "103",
          "104",
          "105",
          "112",
          "113",
          "114",
          "115",
          "122",
          "123",
          "124",
          "125",
          "132",
          "133",
          "134",
          "135",
          "143",
          "144",
          "145",
          "152",
          "153",
          "154",
          "155",
          "163",
          "164",
          "165",
          "173",
          "174",
          "175",
          "183",
          "184",
          "185",
          "203",
          "204",
          "205",
          "213",
          "214",
          "215",
          "223",
          "224",
          "225"
        ],
        "position": 2,
        "effect": "物理防御+46",
        "buff": "闪避+5\n生命上限+600\n魔法上限+150\n使用锁定单体类技能攻击时有概率使下一次物理技能造成100%的额外伤害",
        "isCompose": 0,
        "isUpgrade": 1,
        "isHigh": 0,
        "canSlot": 1,
        "canUpgrade": 1
      },
      {
        "id": "61011",
        "name": "华贵腕甲",
        "icon": "item_61011",
        "rank": 3,
        "job": [
          "12",
          "13",
          "14",
          "15",
          "22",
          "23",
          "24",
          "25",
          "32",
          "33",
          "34",
          "35",
          "42",
          "43",
          "44",
          "45",
          "52",
          "53",
          "54",
          "55",
          "62",
          "63",
          "64",
          "65",
          "72",
          "73",
          "74",
          "75",
          "82",
          "83",
          "84",
          "85",
          "92",
          "93",
          "94",
          "95",
          "102",
          "103",
          "104",
          "105",
          "112",
          "113",
          "114",
          "115",
          "122",
          "123",
          "124",
          "125",
          "132",
          "133",
          "134",
          "135",
          "143",
          "144",
          "145",
          "152",
          "153",
          "154",
          "155",
          "163",
          "164",
          "165",
          "173",
          "174",
          "175",
          "183",
          "184",
          "185",
          "203",
          "204",
          "205",
          "213",
          "214",
          "215",
          "223",
          "224",
          "225"
        ],
        "position": 2,
        "effect": "物理防御+46",
        "buff": "装备攻速+10%\n当剑士系\/商人系\/超初系\/忍者系\/枪手系装备时每1%装备攻速将会为其带来1点物理攻击\n【神圣复仇者】+【华贵腕甲】：星陨的触发概率+12%\n【塔卡罗】（【升龙拳套IV】）+【华贵腕甲IV】（【金腕】）：每次普通攻击获得气弹的概率提升至60%",
        "isCompose": 0,
        "isUpgrade": 1,
        "isHigh": 0,
        "canSlot": 1,
        "canUpgrade": 1
      },
      {
        "id": "61006",
        "name": "碎骨腕甲",
        "icon": "item_61006",
        "rank": 2,
        "job": [
          "0"
        ],
        "position": 2,
        "effect": "物理防御+28",
        "buff": "闪避+5\n生命上限+60",
        "isCompose": 1,
        "isUpgrade": 0,
        "isHigh": 0,
        "canSlot": 1,
        "canUpgrade": 1
      },
      {
        "id": "61004",
        "name": "狐纹腕甲",
        "icon": "item_61004",
        "rank": 2,
        "job": [
          "0"
        ],
        "position": 2,
        "effect": "物理防御+33",
        "buff": "装备攻速+5%",
        "isCompose": 1,
        "isUpgrade": 0,
        "isHigh": 0,
        "canSlot": 1,
        "canUpgrade": 1
      }
    ]
  }
}