{
  "code": 0,
  "status": "success",
  "timeStamp": 1643703762,
  "staticDomain": "http:\/\/rosc1.zhaiwuyu.com",
  "ip": "101.87.201.112",
  "language": "cn",
  "dbArea": 0,
  "data": {
    "page": 76,
    "pageSize": 10,
    "pageCount": 77,
    "total": 765,
    "list": [
      {
        "id": "40319",
        "name": "神圣复仇者[1]",
        "icon": "item_40319",
        "rank": 4,
        "job": [
          "12",
          "13",
          "14",
          "15",
          "72",
          "73",
          "74",
          "75",
          "203",
          "204",
          "205"
        ],
        "position": 1,
        "effect": "物理攻击+225",
        "buff": "圣属性\n普攻时8%概率触发【星陨】，使目标及范围内目标受到圣属性伤害\n精炼每+1，剑士系普通攻击伤害+5%，【星陨】伤害+5%",
        "isCompose": 0,
        "isUpgrade": 0,
        "isHigh": 0,
        "canSlot": 1,
        "canUpgrade": 1
      },
      {
        "id": "40308",
        "name": "多刃尖刺刀[1]",
        "icon": "item_40308",
        "rank": 3,
        "job": [
          "12",
          "13",
          "14",
          "15",
          "72",
          "73",
          "74",
          "75",
          "143",
          "144",
          "145",
          "203",
          "204",
          "205"
        ],
        "position": 1,
        "effect": "物理攻击+200",
        "buff": "力量+5\n灵巧+10\n习得【狂击】10级时，【狂击】伤害增加100%\n习得【怪物互击】10级时，【怪物互击】伤害增加100%\n习得【狂击】10级时，【狂击】对中体型魔物时额外增加50%伤害",
        "isCompose": 0,
        "isUpgrade": 1,
        "isHigh": 0,
        "canSlot": 1,
        "canUpgrade": 1
      },
      {
        "id": "40317",
        "name": "秘剑眷恋[1]",
        "icon": "item_40317",
        "rank": 3,
        "job": [
          "11",
          "12",
          "13",
          "14",
          "15",
          "72",
          "73",
          "74",
          "75",
          "164",
          "165",
          "203",
          "204",
          "205"
        ],
        "position": 1,
        "effect": "物理攻击+126",
        "buff": "暴击+10\n装备攻速+5%",
        "isCompose": 1,
        "isUpgrade": 0,
        "isHigh": 0,
        "canSlot": 1,
        "canUpgrade": 1
      },
      {
        "id": "40314",
        "name": "生鱼片刀[1]",
        "icon": "item_40314",
        "rank": 3,
        "job": [
          "11",
          "12",
          "13",
          "14",
          "15",
          "72",
          "73",
          "74",
          "75",
          "143",
          "144",
          "145",
          "203",
          "204",
          "205"
        ],
        "position": 1,
        "effect": "物理攻击+162",
        "buff": "力量+5\n物理防御+40\n力量在75以上时，物理攻击+5%\n普攻一定概率对目标造成高倍率的属性物理伤害",
        "isCompose": 0,
        "isUpgrade": 1,
        "isHigh": 0,
        "canSlot": 1,
        "canUpgrade": 0
      },
      {
        "id": "40311",
        "name": "狂击之剑[1]",
        "icon": "item_40311",
        "rank": 2,
        "job": [
          "11",
          "12",
          "13",
          "14",
          "15",
          "72",
          "73",
          "74",
          "75",
          "143",
          "144",
          "145",
          "203",
          "204",
          "205"
        ],
        "position": 1,
        "effect": "物理攻击+126",
        "buff": "力量+1\n灵巧+2\n习得【狂击】10级时，【狂击】伤害增加50%\n习得【怪物互击】10级时，【怪物互击】伤害增加30%",
        "isCompose": 1,
        "isUpgrade": 0,
        "isHigh": 0,
        "canSlot": 1,
        "canUpgrade": 1
      },
      {
        "id": "40310",
        "name": "水纹之剑[1]",
        "icon": "item_40310",
        "rank": 4,
        "job": [
          "11",
          "12",
          "13",
          "14",
          "15",
          "72",
          "73",
          "74",
          "75",
          "164",
          "165",
          "203",
          "204",
          "205"
        ],
        "position": 1,
        "effect": "物理攻击+144",
        "buff": "装备攻速+5%\n闪避+30\n装备者的物理防御和魔法防御都会下降到1\/3\n【水纹之剑Ⅹ】（【怒涛勇者】）+【野兽之心Ⅷ】（【暴戾之甲】）+【高等布袋熊长靴IV】（【猪鬃毛长靴】）+【衬衫Ⅷ】（【云朵衬衫】）：物理攻击+3%，暴击伤害+3%，攻击速度+5%，生命上限+10%",
        "isCompose": 0,
        "isUpgrade": 0,
        "isHigh": 0,
        "canSlot": 1,
        "canUpgrade": 1
      },
      {
        "id": "40306",
        "name": "海东剑[1]",
        "icon": "item_40306",
        "rank": 2,
        "job": [
          "11",
          "12",
          "13",
          "14",
          "15",
          "72",
          "73",
          "74",
          "75",
          "143",
          "144",
          "145",
          "203",
          "204",
          "205"
        ],
        "position": 1,
        "effect": "物理攻击+72",
        "buff": "力量+2\n物理防御+20",
        "isCompose": 1,
        "isUpgrade": 0,
        "isHigh": 0,
        "canSlot": 1,
        "canUpgrade": 1
      },
      {
        "id": "40020",
        "name": "死神之镰[1]",
        "icon": "item_40020",
        "rank": 4,
        "job": [
          "12",
          "13",
          "14",
          "15",
          "72",
          "73",
          "74",
          "75",
          "203",
          "204",
          "205"
        ],
        "position": 1,
        "effect": "物理攻击+300",
        "buff": "命中+30\n力量+8\n获得技能【巴风特之怒】：立即对当前目标造成（1点至（持有者BaseLv * 调整值）点伤害\n持有者造成的任何伤害都会以一定比例为【巴风特之怒】累积调整值，精炼每+2，调整值提升5%",
        "isCompose": 0,
        "isUpgrade": 0,
        "isHigh": 0,
        "canSlot": 1,
        "canUpgrade": 1
      },
      {
        "id": "40017",
        "name": "旗鱼枪[1]",
        "icon": "item_40033",
        "rank": 4,
        "job": [
          "12",
          "13",
          "14",
          "15",
          "72",
          "73",
          "74",
          "75",
          "203",
          "204",
          "205"
        ],
        "position": 1,
        "effect": "魔法攻击+247\n物理攻击+247",
        "buff": "力量+4\n敏捷+4\n使【圣十字攻击】技能倍率+100%\n精炼每+1装备攻速+1%，【圣十字攻击】技能倍率+30%\n【旗鱼枪IV】（【深海恐惧】）+【娜迦鳞盾Ⅷ】（龙焰盾）：【枪阵-血十字】伤害+10%，【枪阵-血十字】SP消耗-10%",
        "isCompose": 0,
        "isUpgrade": 0,
        "isHigh": 0,
        "canSlot": 1,
        "canUpgrade": 1
      },
      {
        "id": "40003",
        "name": "斧锤长矛[1]",
        "icon": "item_40003",
        "rank": 3,
        "job": [
          "12",
          "13",
          "14",
          "15",
          "72",
          "73",
          "74",
          "75",
          "203",
          "204",
          "205"
        ],
        "position": 1,
        "effect": "物理攻击+227",
        "buff": "力量+6\n命中+25\n【连刺攻击】的SP消耗降低50%",
        "isCompose": 0,
        "isUpgrade": 1,
        "isHigh": 0,
        "canSlot": 1,
        "canUpgrade": 1
      }
    ]
  }
}