{
  "code": 0,
  "status": "success",
  "timeStamp": 1642843810,
  "staticDomain": "http:\/\/rosc1.zhaiwuyu.com",
  "ip": "101.87.200.160",
  "language": "cn",
  "dbArea": 0,
  "data": {
    "page": 62,
    "pageSize": 10,
    "pageCount": 74,
    "total": 731,
    "list": [
      {
        "id": "42055",
        "name": "神射手之衣",
        "icon": "item_42055",
        "rank": 3,
        "job": [
          "42",
          "43",
          "44",
          "45",
          "102",
          "103",
          "104",
          "105",
          "112",
          "113",
          "114",
          "115"
        ],
        "position": 3,
        "effect": "物理防御+72",
        "buff": "装备攻速+6%\n闪避+25\n当幸运达到60时，暴击伤害+3%\n当幸运达到90时，暴击伤害+4%\n当幸运达到120时，暴击伤害提+5%\n【神射手之衣IV】+【喵喵大蟹弓IV】：敏捷+5，暴击伤害+10%\n【霸王大蟹弓】+【神射手之衣IV】：敏捷+5，暴击伤害+10%",
        "isCompose": 0,
        "isUpgrade": 1,
        "isHigh": 0,
        "canSlot": 1,
        "canUpgrade": 1
      },
      {
        "id": "42052",
        "name": "秘衣恶德",
        "icon": "item_42052",
        "rank": 3,
        "job": [
          "11",
          "12",
          "13",
          "14",
          "15",
          "61",
          "62",
          "63",
          "64",
          "65",
          "72",
          "73",
          "74",
          "75",
          "132",
          "133",
          "134",
          "135",
          "143",
          "144",
          "145",
          "203",
          "204",
          "205",
          "213",
          "214",
          "215"
        ],
        "position": 3,
        "effect": "物理防御+72",
        "buff": "力量+5\n体质+5\n灵巧+5",
        "isCompose": 0,
        "isUpgrade": 1,
        "isHigh": 0,
        "canSlot": 1,
        "canUpgrade": 1
      },
      {
        "id": "42051",
        "name": "秘衣美德",
        "icon": "item_42051",
        "rank": 2,
        "job": [
          "11",
          "12",
          "13",
          "14",
          "15",
          "61",
          "62",
          "63",
          "64",
          "65",
          "72",
          "73",
          "74",
          "75",
          "132",
          "133",
          "134",
          "135",
          "143",
          "144",
          "145",
          "203",
          "204",
          "205",
          "213",
          "214",
          "215"
        ],
        "position": 3,
        "effect": "物理防御+24",
        "buff": "力量+3\n体质+3\n灵巧+3",
        "isCompose": 1,
        "isUpgrade": 0,
        "isHigh": 0,
        "canSlot": 1,
        "canUpgrade": 1
      },
      {
        "id": "42050",
        "name": "唤魔者大衣",
        "icon": "item_42050",
        "rank": 2,
        "job": [
          "0"
        ],
        "position": 3,
        "effect": "物理防御+24",
        "buff": "灵巧+2\n魔法上限+60",
        "isCompose": 1,
        "isUpgrade": 0,
        "isHigh": 0,
        "canSlot": 1,
        "canUpgrade": 1
      },
      {
        "id": "42049",
        "name": "忍服·十六月夜",
        "icon": "item_42049",
        "rank": 3,
        "job": [
          "32",
          "33",
          "34",
          "35",
          "92",
          "93",
          "94",
          "95",
          "163",
          "164",
          "165"
        ],
        "position": 3,
        "effect": "物理防御+46",
        "buff": "幸运+8\n装备攻速+10%\n生命上限+300\n精炼+5时，对大型魔物伤害+5%\n精炼+10时，近战物理伤害+4%；精炼+15时，近战物理伤害+8%\n【忍服·十六月夜Ⅷ】+【火忍西怒毕的腰带】（或【隐之束】）：暴击伤害+10%，生命上限+1000",
        "isCompose": 0,
        "isUpgrade": 1,
        "isHigh": 0,
        "canSlot": 1,
        "canUpgrade": 1
      },
      {
        "id": "42048",
        "name": "嘉曼基板甲",
        "icon": "item_42048",
        "rank": 3,
        "job": [
          "12",
          "13",
          "14",
          "15",
          "62",
          "63",
          "64",
          "65",
          "72",
          "73",
          "74",
          "75",
          "132",
          "133",
          "134",
          "135",
          "143",
          "144",
          "145",
          "203",
          "204",
          "205",
          "213",
          "214",
          "215"
        ],
        "position": 3,
        "effect": "物理防御+80",
        "buff": "体质+5\nHP恢复+15%\n受到大型魔物伤害-10%",
        "isCompose": 0,
        "isUpgrade": 1,
        "isHigh": 0,
        "canSlot": 1,
        "canUpgrade": 1
      },
      {
        "id": "42047",
        "name": "山地游侠装",
        "icon": "item_42047",
        "rank": 3,
        "job": [
          "42",
          "43",
          "44",
          "45"
        ],
        "position": 3,
        "effect": "物理防御+46",
        "buff": "灵巧+5\n物理攻击+8%\n提升智力对猎鹰攻击力的影响\n【诅咒之弓IV】+【山地游侠装IV】：提升物理攻击对猎鹰攻击力的影响\n【痛苦折磨】+【山地游侠装IV】：提升物理攻击对野兽攻击力的影响",
        "isCompose": 0,
        "isUpgrade": 1,
        "isHigh": 0,
        "canSlot": 1,
        "canUpgrade": 1
      },
      {
        "id": "42046",
        "name": "侠盗之衣",
        "icon": "item_42046",
        "rank": 3,
        "job": [
          "0"
        ],
        "position": 3,
        "effect": "物理防御+31",
        "buff": "魔法防御+20\n敏捷+5\n力量+10\n【侠盗之衣Ⅷ】+【神圣大驹短剑Ⅷ】：对小型目标伤害+15%，对中型目标伤害+5%，对大型目标伤害+10%\n【潜行者短剑】+【侠盗之衣Ⅷ】：对小型目标伤害+15%，对中型目标伤害+5%，对大型目标伤害+10%",
        "isCompose": 0,
        "isUpgrade": 1,
        "isHigh": 0,
        "canSlot": 1,
        "canUpgrade": 1
      },
      {
        "id": "42045",
        "name": "星尘外套",
        "icon": "item_42045",
        "rank": 3,
        "job": [
          "0"
        ],
        "position": 3,
        "effect": "物理防御+31",
        "buff": "灵巧+4\n魔法上限+240",
        "isCompose": 0,
        "isUpgrade": 1,
        "isHigh": 0,
        "canSlot": 1,
        "canUpgrade": 1
      },
      {
        "id": "42044",
        "name": "野兽之心",
        "icon": "item_42044",
        "rank": 3,
        "job": [
          "0"
        ],
        "position": 3,
        "effect": "物理防御+31",
        "buff": "敏捷+4\n暴击+5\n生命上限+800\n【水纹之剑Ⅹ】（【怒涛勇者】）+【野兽之心Ⅷ】（【暴戾之甲】）+【高等布袋熊长靴IV】（【猪鬃毛长靴】）+【衬衫Ⅷ】（【云朵衬衫】）：物理攻击+3%，暴击伤害+3%，攻击速度+5%，生命上限+10%",
        "isCompose": 0,
        "isUpgrade": 1,
        "isHigh": 0,
        "canSlot": 1,
        "canUpgrade": 1
      }
    ]
  }
}