{
  "code": 0,
  "status": "success",
  "timeStamp": 1642843820,
  "staticDomain": "http:\/\/rosc1.zhaiwuyu.com",
  "ip": "101.87.200.160",
  "language": "cn",
  "dbArea": 0,
  "data": {
    "page": 63,
    "pageSize": 10,
    "pageCount": 74,
    "total": 731,
    "list": [
      {
        "id": "42043",
        "name": "创作者外袍",
        "icon": "item_42043",
        "rank": 3,
        "job": [
          "21",
          "22",
          "23",
          "24",
          "25",
          "82",
          "83",
          "84",
          "85",
          "143",
          "144",
          "145",
          "163",
          "164",
          "165",
          "183",
          "184",
          "185",
          "223",
          "224",
          "225"
        ],
        "position": 3,
        "effect": "物理防御+31",
        "buff": "智力+4\n魔法攻击+5%\n可变吟唱时间-10%\n【大巫师之杖Ⅷ】（【巫师之力】）+【创作者外袍Ⅷ】（【碎星者外袍】）+【永恒戒指Ⅷ】（【克拉肯之眼】）+【水晶靴Ⅳ】（【白宝石之靴】）：可变吟唱时间-5%，魔法伤害+3%，忽视魔法防御+3%",
        "isCompose": 0,
        "isUpgrade": 1,
        "isHigh": 0,
        "canSlot": 1,
        "canUpgrade": 1
      },
      {
        "id": "42042",
        "name": "奥尔里昂的制服",
        "icon": "item_42042",
        "rank": 4,
        "job": [
          "0"
        ],
        "position": 3,
        "effect": "物理防御+46",
        "buff": "可变吟唱时间+20%\n但施法不会中断",
        "isCompose": 0,
        "isUpgrade": 0,
        "isHigh": 0,
        "canSlot": 1,
        "canUpgrade": 1
      },
      {
        "id": "42041",
        "name": "大猫的祝福",
        "icon": "item_42041",
        "rank": 4,
        "job": [
          "0"
        ],
        "position": 3,
        "effect": "物理防御+46",
        "buff": "生命上限+1000\n【高等布袋熊长靴】+【大猫的祝福Ⅵ】+【时之蓝披肩Ⅳ】：力量+5，装备攻速+5%\n【大猫的祝福Ⅵ】+【水晶靴】：火\/水\/地\/风\/元素属性攻击+7%\n【大猫的祝福Ⅵ】+【白宝石之靴】：火、水、地、风属性攻击+7%",
        "isCompose": 0,
        "isUpgrade": 0,
        "isHigh": 0,
        "canSlot": 1,
        "canUpgrade": 1
      },
      {
        "id": "42040",
        "name": "陨石铠甲",
        "icon": "item_42040",
        "rank": 4,
        "job": [
          "0"
        ],
        "position": 3,
        "effect": "物理防御+33",
        "buff": "眩晕，冰冻抵抗+50%",
        "isCompose": 0,
        "isUpgrade": 0,
        "isHigh": 0,
        "canSlot": 1,
        "canUpgrade": 1
      },
      {
        "id": "42039",
        "name": "天使的加护",
        "icon": "item_42039",
        "rank": 4,
        "job": [
          "0"
        ],
        "position": 3,
        "effect": "物理防御+33",
        "buff": "生命上限+500\n魔法上限+200\n受到物理攻击时有5%概率获得【圣母之祈福】Lv.1状态",
        "isCompose": 0,
        "isUpgrade": 0,
        "isHigh": 0,
        "canSlot": 1,
        "canUpgrade": 1
      },
      {
        "id": "42038",
        "name": "坚定战袍",
        "icon": "item_42038",
        "rank": 4,
        "job": [
          "21",
          "22",
          "23",
          "24",
          "25",
          "41",
          "42",
          "43",
          "44",
          "45",
          "51",
          "52",
          "53",
          "54",
          "55",
          "82",
          "83",
          "84",
          "85",
          "102",
          "103",
          "104",
          "105",
          "112",
          "113",
          "114",
          "115",
          "122",
          "123",
          "124",
          "125",
          "143",
          "144",
          "145",
          "151",
          "152",
          "153",
          "154",
          "155",
          "173",
          "174",
          "175",
          "183",
          "184",
          "185",
          "223",
          "224",
          "225"
        ],
        "position": 3,
        "effect": "物理防御+37",
        "buff": "灵巧+1\n智力+2\n避免陷入恐惧状态\n【霸王乱舞】+【坚定战袍Ⅹ】+【坚定指环Ⅳ】（或【赤心权戒】）：使【罗刹破凰拳】伤害+5%\n【苍天霸皇】+【坚定战袍Ⅹ】+【坚定指环Ⅳ】（或【赤心权戒】）：使【罗刹破凰拳】伤害+5%",
        "isCompose": 0,
        "isUpgrade": 0,
        "isHigh": 0,
        "canSlot": 1,
        "canUpgrade": 1
      },
      {
        "id": "42037",
        "name": "坚定战甲",
        "icon": "item_42037",
        "rank": 4,
        "job": [
          "11",
          "12",
          "13",
          "14",
          "15",
          "31",
          "32",
          "33",
          "34",
          "35",
          "61",
          "62",
          "63",
          "64",
          "65",
          "72",
          "73",
          "74",
          "75",
          "92",
          "93",
          "94",
          "95",
          "132",
          "133",
          "134",
          "135",
          "143",
          "144",
          "145",
          "163",
          "164",
          "165",
          "173",
          "174",
          "175",
          "203",
          "204",
          "205",
          "213",
          "214",
          "215"
        ],
        "position": 3,
        "effect": "物理防御+84",
        "buff": "力量+2\n灵巧+1\n避免陷入恐惧状态",
        "isCompose": 0,
        "isUpgrade": 0,
        "isHigh": 0,
        "canSlot": 1,
        "canUpgrade": 1
      },
      {
        "id": "42036",
        "name": "迪斯凯特的软甲",
        "icon": "item_42036",
        "rank": 4,
        "job": [
          "0"
        ],
        "position": 3,
        "effect": "物理防御+37",
        "buff": "幸运+5\n法，弓，服，多兰族，悟灵士装备时沉默抵抗+50%\n剑，商，盗，超初，忍者，枪手装备时眩晕抵抗+50%",
        "isCompose": 0,
        "isUpgrade": 0,
        "isHigh": 0,
        "canSlot": 1,
        "canUpgrade": 1
      },
      {
        "id": "42026",
        "name": "木制铠甲",
        "icon": "item_42026",
        "rank": 2,
        "job": [
          "11",
          "12",
          "13",
          "14",
          "15",
          "31",
          "32",
          "33",
          "34",
          "35",
          "61",
          "62",
          "63",
          "64",
          "65",
          "72",
          "73",
          "74",
          "75",
          "92",
          "93",
          "94",
          "95",
          "132",
          "133",
          "134",
          "135",
          "143",
          "144",
          "145",
          "163",
          "164",
          "165",
          "203",
          "204",
          "205",
          "213",
          "214",
          "215"
        ],
        "position": 3,
        "effect": "物理防御+46",
        "buff": "力量+2\n体质+1",
        "isCompose": 1,
        "isUpgrade": 0,
        "isHigh": 0,
        "canSlot": 1,
        "canUpgrade": 1
      },
      {
        "id": "42022",
        "name": "衬衫",
        "icon": "item_42022",
        "rank": 2,
        "job": [
          "0"
        ],
        "position": 4,
        "effect": "物理防御+22",
        "buff": "闪避+10\n幸运+4\n【三角裤Ⅵ】+【衬衫Ⅳ】：敏捷+5，每1点闪避可以转换5点生命上限\n【水纹之剑Ⅹ】（【怒涛勇者】）+【野兽之心Ⅷ】（【暴戾之甲】）+【高等布袋熊长靴IV】（【猪鬃毛长靴】）+【衬衫Ⅷ】（【云朵衬衫】）：物理攻击+3%，暴击伤害+3%，攻击速度+5%，生命上限+10%",
        "isCompose": 0,
        "isUpgrade": 1,
        "isHigh": 0,
        "canSlot": 1,
        "canUpgrade": 1
      }
    ]
  }
}