{
  "code": 0,
  "status": "success",
  "timeStamp": 1642843497,
  "staticDomain": "http:\/\/rosc1.zhaiwuyu.com",
  "ip": "101.87.200.160",
  "language": "cn",
  "dbArea": 0,
  "data": {
    "page": 31,
    "pageSize": 10,
    "pageCount": 74,
    "total": 731,
    "list": [
      {
        "id": "44053",
        "name": "狐牙",
        "icon": "item_44053",
        "rank": 4,
        "job": [
          "0"
        ],
        "position": 6,
        "effect": "物理攻击+224",
        "buff": "全能力+1\n可以使用【疾走】技能（提升移速100%，持续5秒。CD：60）\n精炼+10时，【疾走】技能的持续时间增加1秒，【疾走】技能冷却时间减少5秒（不可叠加）；精炼+15时，【疾走】技能的持续时间增加2秒，【疾走】技能冷却时间减少5秒（不可叠加）",
        "isCompose": 0,
        "isUpgrade": 0,
        "isHigh": 1,
        "canSlot": 0,
        "canUpgrade": 0
      },
      {
        "id": "44052",
        "name": "犬奴",
        "icon": "item_44052",
        "rank": 4,
        "job": [
          "0"
        ],
        "position": 6,
        "effect": "物理攻击+224",
        "buff": "灵巧+12\n恶魔种族加伤+5%、动物种族加伤+5%\n精炼+8时，远程物理攻击+2%；精炼+12时，远程物理伤害+4%；精炼+15时，远程物理攻击+4%",
        "isCompose": 0,
        "isUpgrade": 0,
        "isHigh": 1,
        "canSlot": 0,
        "canUpgrade": 0
      },
      {
        "id": "44051",
        "name": "克拉肯之眼",
        "icon": "item_44051",
        "rank": 4,
        "job": [
          "0"
        ],
        "position": 6,
        "effect": "魔法攻击+200",
        "buff": "灵巧+10、智力+10\nSp恢复+5%\n精炼+10时，魔法攻击+10%，再每精炼+1，魔法攻击+1%（总计5%）；精炼+12时，忽视魔法防御+5%，可变吟唱时间-5%；精炼+15时，魔法攻击+5%\n【大巫师之杖Ⅷ】（【巫师之力】）+【创作者外袍Ⅷ】（【碎星者外袍】）+【永恒戒指Ⅷ】（【克拉肯之眼】）+【水晶靴Ⅳ】（【白宝石之靴】）：可变吟唱时间-5%，魔法伤害+3%，忽视魔法防御+3%",
        "isCompose": 0,
        "isUpgrade": 0,
        "isHigh": 1,
        "canSlot": 0,
        "canUpgrade": 0
      },
      {
        "id": "44050",
        "name": "皎月",
        "icon": "item_44050",
        "rank": 4,
        "job": [
          "0"
        ],
        "position": 6,
        "effect": "物理攻击+224",
        "buff": "智力+8、灵巧+8\n魔法上限+405\nSp恢复+10\nSP恢复+25%\n【定位陷阱】使目标定身时受到伤害+10%\n每精炼+1，所有陷阱类技能的伤害+2%\n【露娜弓Ⅵ】+【月亮胸针Ⅵ】（或【皎月】）：智力+2，SP恢复+10%\n【星尘外套Ⅳ】+【皎月】：猎人陷阱类技能的伤害+10%",
        "isCompose": 0,
        "isUpgrade": 0,
        "isHigh": 1,
        "canSlot": 0,
        "canUpgrade": 0
      },
      {
        "id": "44049",
        "name": "提伯斯之手",
        "icon": "item_44049",
        "rank": 4,
        "job": [
          "0"
        ],
        "position": 6,
        "effect": "魔法攻击+200",
        "buff": "灵巧+8、智力+8\n魔法攻击+13%\n精炼+8时，魔法攻击+3%；精炼+12时，魔法攻击+4%；精炼+15时，忽视魔法防御+8%",
        "isCompose": 0,
        "isUpgrade": 0,
        "isHigh": 1,
        "canSlot": 0,
        "canUpgrade": 0
      },
      {
        "id": "44048",
        "name": "提伯斯的救赎",
        "icon": "item_44048",
        "rank": 4,
        "job": [
          "0"
        ],
        "position": 6,
        "effect": "魔法攻击+200",
        "buff": "灵巧+8、智力+8\n魔法攻击+80\n精炼+5时，灵巧+4、魔法攻击+40、可变吟唱时间-5%；精炼+10时，魔法攻击+8%、可变吟唱时间-5%；精炼+15时，可变吟唱时间-20%、魔法攻击+80",
        "isCompose": 0,
        "isUpgrade": 0,
        "isHigh": 1,
        "canSlot": 0,
        "canUpgrade": 0
      },
      {
        "id": "44047",
        "name": "赤心权戒",
        "icon": "item_44047",
        "rank": 4,
        "job": [
          "0"
        ],
        "position": 6,
        "effect": "物理攻击+224",
        "buff": "生命上限+1600\n魔法上限+400\n受治疗加成+5%\n使【阿修罗霸凰拳】公式中【技能等级*4+剩余SP\/100】部分的伤害倍率增加2\n精炼+5时，魔法上限+100；精炼+10时，使【罗刹破凰拳】对小体型和大型目标的伤害额外+5%，魔法上限+100；精炼+15时，使【罗刹破凰拳】对小体型和大型目标的伤害额外+10%，魔法上限+200\n【霸王乱舞】+【坚定战袍Ⅹ】+【坚定指环Ⅳ】（或【赤心权戒】）：使【罗刹破凰拳】伤害+5%\n【苍天霸皇】+【坚定战袍Ⅹ】+【坚定指环Ⅳ】（或【赤心权戒】）：使【罗刹破凰拳】伤害+5%",
        "isCompose": 0,
        "isUpgrade": 0,
        "isHigh": 1,
        "canSlot": 0,
        "canUpgrade": 0
      },
      {
        "id": "43562",
        "name": "喵族优雅鞋子",
        "icon": "item_43562",
        "rank": 3,
        "job": [
          "150",
          "151",
          "152",
          "153",
          "154",
          "155"
        ],
        "position": 5,
        "effect": "物理防御+22",
        "buff": "移动速度+5%\n生命上限+200\nHP恢复+10%\nSP恢复+10%",
        "isCompose": 1,
        "isUpgrade": 0,
        "isHigh": 0,
        "canSlot": 1,
        "canUpgrade": 1
      },
      {
        "id": "43561",
        "name": "恐惧战靴",
        "icon": "item_43561",
        "rank": 3,
        "job": [
          "0"
        ],
        "position": 5,
        "effect": "物理防御+72",
        "buff": "移动速度+8%\n魔伤减免+5%\n精炼+10时，魔伤减免+3%",
        "isCompose": 1,
        "isUpgrade": 0,
        "isHigh": 0,
        "canSlot": 1,
        "canUpgrade": 1
      },
      {
        "id": "43046",
        "name": "恐惧斗篷",
        "icon": "item_43046",
        "rank": 3,
        "job": [
          "0"
        ],
        "position": 4,
        "effect": "物理防御+68",
        "buff": "体质+2\n物伤减免+8%\n精炼+10时，物伤减免+5%",
        "isCompose": 1,
        "isUpgrade": 0,
        "isHigh": 0,
        "canSlot": 1,
        "canUpgrade": 1
      }
    ]
  }
}