{
  "code": 0,
  "status": "success",
  "timeStamp": 1643703448,
  "staticDomain": "http:\/\/rosc1.zhaiwuyu.com",
  "ip": "101.87.201.112",
  "language": "cn",
  "dbArea": 0,
  "data": {
    "page": 45,
    "pageSize": 10,
    "pageCount": 77,
    "total": 765,
    "list": [
      {
        "id": "40945",
        "name": "暗杀者拳刃[1]",
        "icon": "item_40945",
        "rank": 4,
        "job": [
          "32",
          "33",
          "34",
          "35"
        ],
        "position": 1,
        "effect": "物理攻击+580",
        "buff": "使暴击翻倍\n敏捷+6、力量+6\n暴击+15\n暴击伤害+30%\n精炼每+1，暴击伤害+1%\n暴击时有概率获得【暴伤强化】效果，效果持续5秒。【暴伤强化】效果：暴击伤害增加10%\n精炼+5时，对中毒的目标造成伤害额外+20%；精炼+10时，暴击伤害+10%，暴击时获得【暴伤强化】效果概率提升3%；精炼+15时，普通攻击伤害增加8%",
        "isCompose": 0,
        "isUpgrade": 0,
        "isHigh": 1,
        "canSlot": 0,
        "canUpgrade": 0
      },
      {
        "id": "40944",
        "name": "死亡切割[1]",
        "icon": "item_40944",
        "rank": 4,
        "job": [
          "32",
          "33",
          "34",
          "35"
        ],
        "position": 1,
        "effect": "物理攻击+580",
        "buff": "使暴击翻倍\n敏捷+10、力量+10\n普攻时概率进入急速状态：装备攻速+30%持续7秒\n物理伤害+3%；精炼+5、+10、+15时，物理伤害+3%、+5%、+10%；精炼+5、+10、+15时，使【回旋十字斩】的伤害+5%、+5%、+10%",
        "isCompose": 0,
        "isUpgrade": 0,
        "isHigh": 1,
        "canSlot": 0,
        "canUpgrade": 0
      },
      {
        "id": "40767",
        "name": "潜行者短剑[1]",
        "icon": "item_40767",
        "rank": 4,
        "job": [
          "11",
          "12",
          "13",
          "14",
          "15",
          "21",
          "22",
          "23",
          "24",
          "25",
          "31",
          "32",
          "33",
          "34",
          "35",
          "61",
          "62",
          "63",
          "64",
          "65",
          "72",
          "73",
          "74",
          "75",
          "82",
          "83",
          "84",
          "85",
          "92",
          "93",
          "94",
          "95",
          "132",
          "133",
          "134",
          "135",
          "151",
          "152",
          "153",
          "154",
          "155",
          "203",
          "204",
          "205",
          "213",
          "214",
          "215",
          "223",
          "224",
          "225"
        ],
        "position": 1,
        "effect": "物理攻击+600",
        "buff": "力量+20\n对中型魔物伤害+10%\n普通攻击时较高概率使物理攻击+30持续15秒，该效果最多可叠加三层；精炼+10时，普通攻击触发物理攻击增加效果从三层变为五层\n力量达到95时物理攻击力+10%\n力量达到120时物理攻击力+5%\n力量达到150时物理攻击力+5%\n力量达到240时物理攻击力+5%\n精炼+5时，物理攻击+5%；精炼+10时，物理攻击+5%；精炼+15时，物理伤害+5%\n【潜行者短剑】+【侠盗之衣Ⅷ】：对小型目标伤害+15%，对中型目标伤害+5%，对大型目标伤害+10%",
        "isCompose": 0,
        "isUpgrade": 0,
        "isHigh": 1,
        "canSlot": 0,
        "canUpgrade": 0
      },
      {
        "id": "40766",
        "name": "荒漠风暴[1]",
        "icon": "item_40766",
        "rank": 4,
        "job": [
          "32",
          "33",
          "34",
          "35",
          "92",
          "93",
          "94",
          "95"
        ],
        "position": 1,
        "effect": "物理攻击+600",
        "buff": "命中+50\n增加30%对大型魔物的伤害\n增加10%对中型魔物的伤害\n普攻时概率使目标降低攻击速度持续一定时间\n每精炼+1，忽视物理防御+1%\n精炼+5时，物理攻击+5%；精炼+10时，增加5%对中型魔物的伤害；精炼+12时，增加10%对大型魔物的伤害；精炼+15时，【音速投掷】技能倍率+100%，增加5%对中型魔物的伤害",
        "isCompose": 0,
        "isUpgrade": 0,
        "isHigh": 1,
        "canSlot": 0,
        "canUpgrade": 0
      },
      {
        "id": "40664",
        "name": "精神手杖[1]",
        "icon": "item_40664",
        "rank": 3,
        "job": [
          "82",
          "83",
          "84",
          "85"
        ],
        "position": 1,
        "effect": "魔法攻击+96",
        "buff": "体质+2\n灵巧+2\n魔法攻击+5%",
        "isCompose": 1,
        "isUpgrade": 0,
        "isHigh": 0,
        "canSlot": 1,
        "canUpgrade": 1
      },
      {
        "id": "40663",
        "name": "生机之杖[1]",
        "icon": "item_40663",
        "rank": 4,
        "job": [
          "21",
          "22",
          "23",
          "24",
          "25",
          "51",
          "52",
          "53",
          "54",
          "55",
          "82",
          "83",
          "84",
          "85",
          "183",
          "184",
          "185",
          "223",
          "224",
          "225"
        ],
        "position": 1,
        "effect": "魔法攻击+408",
        "buff": "智力+15、灵巧+5\nSP恢复+45%\n治疗加成+20%\n精炼每+1，治疗加成+4%\n精炼+5时，治疗加成+10%；精炼+10时，生命上限+10%；精炼+13时，魔法攻击+5%、治疗加成+10%\n【生机之杖】+【天衣月舞Ⅳ】：治疗加成+5%，【天衣月舞Ⅳ】精炼+10以上时治疗加成提升至10%",
        "isCompose": 0,
        "isUpgrade": 0,
        "isHigh": 1,
        "canSlot": 0,
        "canUpgrade": 0
      },
      {
        "id": "40662",
        "name": "迷失之杖[1]",
        "icon": "item_40662",
        "rank": 4,
        "job": [
          "22",
          "23",
          "24",
          "25",
          "52",
          "53",
          "54",
          "55",
          "183",
          "184",
          "185",
          "223",
          "224",
          "225"
        ],
        "position": 1,
        "effect": "魔法攻击+408",
        "buff": "敏捷+10、智力+10\n装备攻速+15%\n魔法攻击+10%\n普攻时对目标及周围小范围内所有目标造成溅射伤害（仅魔法师系列有效）\n每精炼+1，闪避+3，装备攻速+2%，普攻攻击力+30",
        "isCompose": 0,
        "isUpgrade": 0,
        "isHigh": 1,
        "canSlot": 0,
        "canUpgrade": 0
      },
      {
        "id": "40661",
        "name": "无限[1]",
        "icon": "item_40661",
        "rank": 4,
        "job": [
          "21",
          "22",
          "23",
          "24",
          "25",
          "51",
          "52",
          "53",
          "54",
          "55",
          "143",
          "144",
          "145",
          "183",
          "184",
          "185",
          "223",
          "224",
          "225"
        ],
        "position": 1,
        "effect": "魔法攻击+408",
        "buff": "灵巧+10、智力+10\n风、火、水、地属性攻击+10%\n提升30%魔法范围型技能伤害\n精炼+8、+10、+15时伤害分别提升10%、10%、10%（范围型技能包括：【暴风雪】，【怒雷强击】，【火之猎杀】，【崩裂术】等）",
        "isCompose": 0,
        "isUpgrade": 0,
        "isHigh": 1,
        "canSlot": 0,
        "canUpgrade": 0
      },
      {
        "id": "40660",
        "name": "巫师之力[1]",
        "icon": "item_40660",
        "rank": 4,
        "job": [
          "21",
          "22",
          "23",
          "24",
          "25",
          "82",
          "83",
          "84",
          "85",
          "143",
          "144",
          "145",
          "151",
          "152",
          "153",
          "154",
          "155",
          "183",
          "184",
          "185",
          "223",
          "224",
          "225"
        ],
        "position": 1,
        "effect": "魔法攻击+408",
        "buff": "智力+18\n魔法攻击+15%\n精炼每+1，忽视魔法防御+2%\n精炼+5时，忽视魔法防御+5%；精炼+10时，魔法攻击+5%；精炼+10开始，每精炼+1，魔法伤害+1%（总计6%）\n【大巫师之杖Ⅷ】（【巫师之力】）+【创作者外袍Ⅷ】（【碎星者外袍】）+【永恒戒指Ⅷ】（【克拉肯之眼】）+【水晶靴Ⅳ】（【白宝石之靴】）：可变吟唱时间-5%，魔法伤害+3%，忽视魔法防御+3%",
        "isCompose": 0,
        "isUpgrade": 0,
        "isHigh": 1,
        "canSlot": 0,
        "canUpgrade": 0
      },
      {
        "id": "40361",
        "name": "怒涛勇者[1]",
        "icon": "item_40361",
        "rank": 4,
        "job": [
          "11",
          "12",
          "13",
          "14",
          "15",
          "72",
          "73",
          "74",
          "75",
          "164",
          "165",
          "203",
          "204",
          "205"
        ],
        "position": 1,
        "effect": "物理攻击+625",
        "buff": "敏捷+10、力量+5\n装备攻速+20%\n闪避+30\n击杀目标时获得物理攻击+30持续10秒，最多可叠加5层\n普通攻击暴击时有15%概率使使用者暴击伤害+5%，持续10秒，可叠加3层\n装备者的物理防御和魔法防御都会下降到1\/3；精炼+5时，物理攻击+3%；精炼+10时，装备者的物理防御和魔法防御都只会下降到2\/3，暴击伤害+5%，物理攻击+2%；精炼+15时，装备者的物理防御和魔法防御不再降低，物理攻击+10%\n【水纹之剑Ⅹ】（【怒涛勇者】）+【野兽之心Ⅷ】（【暴戾之甲】）+【高等布袋熊长靴IV】（【猪鬃毛长靴】）+【衬衫Ⅷ】（【云朵衬衫】）：物理攻击+3%，暴击伤害+3%，攻击速度+5%，生命上限+10%",
        "isCompose": 0,
        "isUpgrade": 0,
        "isHigh": 1,
        "canSlot": 0,
        "canUpgrade": 0
      }
    ]
  }
}