{
  "code": 0,
  "status": "success",
  "timeStamp": 1643703611,
  "staticDomain": "http:\/\/rosc1.zhaiwuyu.com",
  "ip": "101.87.201.112",
  "language": "cn",
  "dbArea": 0,
  "data": {
    "page": 61,
    "pageSize": 10,
    "pageCount": 77,
    "total": 765,
    "list": [
      {
        "id": "43030",
        "name": "多芙的斗篷",
        "icon": "item_43030",
        "rank": 3,
        "job": [
          "12",
          "13",
          "14",
          "15",
          "22",
          "23",
          "24",
          "25",
          "32",
          "33",
          "34",
          "35",
          "42",
          "43",
          "44",
          "45",
          "52",
          "53",
          "54",
          "55",
          "62",
          "63",
          "64",
          "65",
          "72",
          "73",
          "74",
          "75",
          "82",
          "83",
          "84",
          "85",
          "92",
          "93",
          "94",
          "95",
          "102",
          "103",
          "104",
          "105",
          "112",
          "113",
          "114",
          "115",
          "122",
          "123",
          "124",
          "125",
          "132",
          "133",
          "134",
          "135",
          "143",
          "144",
          "145",
          "152",
          "153",
          "154",
          "155",
          "163",
          "164",
          "165",
          "173",
          "174",
          "175",
          "183",
          "184",
          "185",
          "203",
          "204",
          "205",
          "213",
          "214",
          "215",
          "223",
          "224",
          "225"
        ],
        "position": 4,
        "effect": "物理防御+25",
        "buff": "体质+5\n受到远距离物理伤害减免+15%",
        "isCompose": 0,
        "isUpgrade": 1,
        "isHigh": 0,
        "canSlot": 1,
        "canUpgrade": 1
      },
      {
        "id": "43029",
        "name": "言灵护甲",
        "icon": "item_43029",
        "rank": 3,
        "job": [
          "12",
          "13",
          "14",
          "15",
          "22",
          "23",
          "24",
          "25",
          "32",
          "33",
          "34",
          "35",
          "42",
          "43",
          "44",
          "45",
          "52",
          "53",
          "54",
          "55",
          "62",
          "63",
          "64",
          "65",
          "72",
          "73",
          "74",
          "75",
          "82",
          "83",
          "84",
          "85",
          "92",
          "93",
          "94",
          "95",
          "102",
          "103",
          "104",
          "105",
          "112",
          "113",
          "114",
          "115",
          "122",
          "123",
          "124",
          "125",
          "132",
          "133",
          "134",
          "135",
          "143",
          "144",
          "145",
          "163",
          "164",
          "165",
          "173",
          "174",
          "175",
          "183",
          "184",
          "185",
          "203",
          "204",
          "205",
          "213",
          "214",
          "215",
          "223",
          "224",
          "225"
        ],
        "position": 4,
        "effect": "物理防御+25",
        "buff": "恶魔种族减伤和不死种族减伤+20%\n其他种族减伤-20%",
        "isCompose": 1,
        "isUpgrade": 0,
        "isHigh": 0,
        "canSlot": 1,
        "canUpgrade": 1
      },
      {
        "id": "43028",
        "name": "黑曜石斗篷",
        "icon": "item_43028",
        "rank": 3,
        "job": [
          "0"
        ],
        "position": 4,
        "effect": "物理防御+19",
        "buff": "魔法防御+40\n受到攻击时概率获得魔伤减免提升50%效果，但物伤减免降低50%，持续10秒",
        "isCompose": 0,
        "isUpgrade": 1,
        "isHigh": 0,
        "canSlot": 1,
        "canUpgrade": 1
      },
      {
        "id": "43027",
        "name": "坚定斗篷",
        "icon": "item_43027",
        "rank": 3,
        "job": [
          "0"
        ],
        "position": 4,
        "effect": "物理防御+22",
        "buff": "受到无属性伤害-10%",
        "isCompose": 1,
        "isUpgrade": 0,
        "isHigh": 0,
        "canSlot": 1,
        "canUpgrade": 1
      },
      {
        "id": "43026",
        "name": "棉衬衫",
        "icon": "item_43026",
        "rank": 2,
        "job": [
          "0"
        ],
        "position": 4,
        "effect": "物理防御+13",
        "buff": "闪避+5",
        "isCompose": 1,
        "isUpgrade": 0,
        "isHigh": 0,
        "canSlot": 1,
        "canUpgrade": 1
      },
      {
        "id": "43025",
        "name": "背德皇帝的斗篷",
        "icon": "item_43025",
        "rank": 3,
        "job": [
          "0"
        ],
        "position": 4,
        "effect": "物理防御+25",
        "buff": "受到无属性伤害-9%",
        "isCompose": 0,
        "isUpgrade": 0,
        "isHigh": 0,
        "canSlot": 1,
        "canUpgrade": 1
      },
      {
        "id": "43024",
        "name": "时之蓝披肩",
        "icon": "item_43024",
        "rank": 3,
        "job": [
          "0"
        ],
        "position": 4,
        "effect": "物理防御+25",
        "buff": "闪避+15\n【高等布袋熊长靴】+【大猫的祝福Ⅵ】+【时之蓝披肩Ⅳ】：力量+5，装备攻速+5%",
        "isCompose": 0,
        "isUpgrade": 0,
        "isHigh": 0,
        "canSlot": 1,
        "canUpgrade": 1
      },
      {
        "id": "43017",
        "name": "龙纹外套",
        "icon": "item_43017",
        "rank": 2,
        "job": [
          "0"
        ],
        "position": 4,
        "effect": "物理防御+28",
        "buff": "力量+2\n生命上限+100",
        "isCompose": 1,
        "isUpgrade": 0,
        "isHigh": 0,
        "canSlot": 1,
        "canUpgrade": 1
      },
      {
        "id": "43016",
        "name": "生存斗篷",
        "icon": "item_43016",
        "rank": 2,
        "job": [
          "0"
        ],
        "position": 4,
        "effect": "物理防御+16",
        "buff": "生命上限+75",
        "isCompose": 1,
        "isUpgrade": 0,
        "isHigh": 0,
        "canSlot": 1,
        "canUpgrade": 1
      },
      {
        "id": "43014",
        "name": "哥夫内肩饰",
        "icon": "item_43014",
        "rank": 3,
        "job": [
          "0"
        ],
        "position": 4,
        "effect": "物理防御+22",
        "buff": "体质+2\n受到远距离物理伤害减免+10%",
        "isCompose": 1,
        "isUpgrade": 0,
        "isHigh": 0,
        "canSlot": 1,
        "canUpgrade": 1
      }
    ]
  }
}