{
  "code": 0,
  "status": "success",
  "timeStamp": 1642843739,
  "staticDomain": "http:\/\/rosc1.zhaiwuyu.com",
  "ip": "101.87.200.160",
  "language": "cn",
  "dbArea": 0,
  "data": {
    "page": 55,
    "pageSize": 10,
    "pageCount": 74,
    "total": 731,
    "list": [
      {
        "id": "44006",
        "name": "月亮胸针",
        "icon": "item_44006",
        "rank": 3,
        "job": [
          "0"
        ],
        "position": 6,
        "effect": "物理攻击+42",
        "buff": "魔法上限+75\nSP恢复+5%\n【露娜弓Ⅵ】+【月亮胸针Ⅵ】（或【皎月】）：智力+2，SP恢复+10%\n【匿影外套】+【月亮胸针Ⅵ】：猎人陷阱类技能的伤害+10%",
        "isCompose": 0,
        "isUpgrade": 0,
        "isHigh": 0,
        "canSlot": 1,
        "canUpgrade": 1
      },
      {
        "id": "44005",
        "name": "奥尔里昂的手套",
        "icon": "item_44005",
        "rank": 4,
        "job": [
          "0"
        ],
        "position": 6,
        "effect": "魔法攻击+60",
        "buff": "灵巧+2\n魔法攻击+10%",
        "isCompose": 0,
        "isUpgrade": 0,
        "isHigh": 0,
        "canSlot": 1,
        "canUpgrade": 1
      },
      {
        "id": "44004",
        "name": "奥尔里昂的项链",
        "icon": "item_44004",
        "rank": 4,
        "job": [
          "0"
        ],
        "position": 6,
        "effect": "魔法攻击+60",
        "buff": "灵巧+3\n魔法攻击+30",
        "isCompose": 0,
        "isUpgrade": 0,
        "isHigh": 0,
        "canSlot": 1,
        "canUpgrade": 1
      },
      {
        "id": "44003",
        "name": "坚定指环",
        "icon": "item_44003",
        "rank": 4,
        "job": [
          "12",
          "13",
          "14",
          "15",
          "22",
          "23",
          "24",
          "25",
          "32",
          "33",
          "34",
          "35",
          "42",
          "43",
          "44",
          "45",
          "52",
          "53",
          "54",
          "55",
          "62",
          "63",
          "64",
          "65",
          "72",
          "73",
          "74",
          "75",
          "82",
          "83",
          "84",
          "85",
          "92",
          "93",
          "94",
          "95",
          "102",
          "103",
          "104",
          "105",
          "112",
          "113",
          "114",
          "115",
          "122",
          "123",
          "124",
          "125",
          "132",
          "133",
          "134",
          "135",
          "143",
          "144",
          "145",
          "152",
          "153",
          "154",
          "155",
          "163",
          "164",
          "165",
          "173",
          "174",
          "175",
          "183",
          "184",
          "185",
          "203",
          "204",
          "205",
          "213",
          "214",
          "215",
          "223",
          "224",
          "225"
        ],
        "position": 6,
        "effect": "物理攻击+54",
        "buff": "生命上限+400\n魔法上限+150\n受治疗加成+5%\n使【阿修罗霸凰拳】公式中【技能等级*4+剩余SP\/100】部分的伤害倍率增加1.5\n【霸王乱舞】+【坚定战袍Ⅹ】+【坚定指环Ⅳ】（或【赤心权戒】）：使【罗刹破凰拳】伤害+5%\n【苍天霸皇】+【坚定战袍Ⅹ】+【坚定指环Ⅳ】（或【赤心权戒】）：使【罗刹破凰拳】伤害+5%\n【霸王乱舞】+【天选者战袍】+【坚定指环Ⅳ】：使【罗刹破凰拳】伤害+5%\n【苍天霸皇】+【天选者战袍】+【坚定指环Ⅳ】：使【罗刹破凰拳】伤害+5%",
        "isCompose": 0,
        "isUpgrade": 0,
        "isHigh": 0,
        "canSlot": 1,
        "canUpgrade": 1
      },
      {
        "id": "44002",
        "name": "体力项链",
        "icon": "item_44002",
        "rank": 3,
        "job": [
          "0"
        ],
        "position": 6,
        "effect": "物理攻击+42",
        "buff": "体质+2",
        "isCompose": 0,
        "isUpgrade": 0,
        "isHigh": 0,
        "canSlot": 1,
        "canUpgrade": 1
      },
      {
        "id": "44001",
        "name": "花戒指",
        "icon": "item_44001",
        "rank": 3,
        "job": [
          "0"
        ],
        "position": 6,
        "effect": "物理攻击+30",
        "buff": "物理攻击+20\n受植物种族伤害-10%",
        "isCompose": 0,
        "isUpgrade": 0,
        "isHigh": 0,
        "canSlot": 1,
        "canUpgrade": 1
      },
      {
        "id": "43515",
        "name": "高级凉鞋",
        "icon": "item_43515",
        "rank": 3,
        "job": [
          "12",
          "13",
          "14",
          "15",
          "22",
          "23",
          "24",
          "25",
          "32",
          "33",
          "34",
          "35",
          "42",
          "43",
          "44",
          "45",
          "52",
          "53",
          "54",
          "55",
          "62",
          "63",
          "64",
          "65",
          "72",
          "73",
          "74",
          "75",
          "82",
          "83",
          "84",
          "85",
          "92",
          "93",
          "94",
          "95",
          "102",
          "103",
          "104",
          "105",
          "112",
          "113",
          "114",
          "115",
          "122",
          "123",
          "124",
          "125",
          "132",
          "133",
          "134",
          "135",
          "143",
          "144",
          "145",
          "152",
          "153",
          "154",
          "155",
          "163",
          "164",
          "165",
          "173",
          "174",
          "175",
          "183",
          "184",
          "185",
          "203",
          "204",
          "205",
          "213",
          "214",
          "215",
          "223",
          "224",
          "225"
        ],
        "position": 5,
        "effect": "物理防御+22",
        "buff": "移动速度+10%\n魔法防御+10\n魔伤减免+8%\n生命上限+200\n【坚定魔法斗篷】+【高级凉鞋IV】：魔伤减免+5%\n【软鹿皮斗篷】+【高级凉鞋IV】：魔伤减免+5%",
        "isCompose": 0,
        "isUpgrade": 1,
        "isHigh": 0,
        "canSlot": 1,
        "canUpgrade": 1
      },
      {
        "id": "43509",
        "name": "兔子拖鞋",
        "icon": "item_43509",
        "rank": 3,
        "job": [
          "12",
          "13",
          "14",
          "15",
          "22",
          "23",
          "24",
          "25",
          "32",
          "33",
          "34",
          "35",
          "42",
          "43",
          "44",
          "45",
          "52",
          "53",
          "54",
          "55",
          "62",
          "63",
          "64",
          "65",
          "72",
          "73",
          "74",
          "75",
          "82",
          "83",
          "84",
          "85",
          "92",
          "93",
          "94",
          "95",
          "102",
          "103",
          "104",
          "105",
          "112",
          "113",
          "114",
          "115",
          "122",
          "123",
          "124",
          "125",
          "132",
          "133",
          "134",
          "135",
          "143",
          "144",
          "145",
          "152",
          "153",
          "154",
          "155",
          "163",
          "164",
          "165",
          "173",
          "174",
          "175",
          "183",
          "184",
          "185",
          "203",
          "204",
          "205",
          "213",
          "214",
          "215",
          "223",
          "224",
          "225"
        ],
        "position": 5,
        "effect": "物理防御+22",
        "buff": "移动速度+8%\nSp恢复+3\nSP恢复+15%\n【生命魔法书IV】+【兔子拖鞋】：所有技能冷却减少5%",
        "isCompose": 0,
        "isUpgrade": 1,
        "isHigh": 0,
        "canSlot": 1,
        "canUpgrade": 1
      },
      {
        "id": "43542",
        "name": "迪斯凯特的雨靴",
        "icon": "item_43542",
        "rank": 3,
        "job": [
          "12",
          "13",
          "14",
          "15",
          "22",
          "23",
          "24",
          "25",
          "32",
          "33",
          "34",
          "35",
          "42",
          "43",
          "44",
          "45",
          "52",
          "53",
          "54",
          "55",
          "62",
          "63",
          "64",
          "65",
          "72",
          "73",
          "74",
          "75",
          "82",
          "83",
          "84",
          "85",
          "92",
          "93",
          "94",
          "95",
          "102",
          "103",
          "104",
          "105",
          "112",
          "113",
          "114",
          "115",
          "122",
          "123",
          "124",
          "125",
          "132",
          "133",
          "134",
          "135",
          "143",
          "144",
          "145",
          "152",
          "153",
          "154",
          "155",
          "163",
          "164",
          "165",
          "173",
          "174",
          "175",
          "183",
          "184",
          "185",
          "203",
          "204",
          "205",
          "213",
          "214",
          "215",
          "223",
          "224",
          "225"
        ],
        "position": 5,
        "effect": "物理防御+45",
        "buff": "物理防御+20\n法师系，弓手系，牧师系，多兰族，悟灵士系装备时，增加BaseLv×8倍的生命上限\n剑士系，商人系，盗贼系，超初系，忍者系，枪手系装备时，增加JobLv×5倍的魔法上限",
        "isCompose": 0,
        "isUpgrade": 1,
        "isHigh": 0,
        "canSlot": 1,
        "canUpgrade": 1
      },
      {
        "id": "43540",
        "name": "历战长靴",
        "icon": "item_43540",
        "rank": 3,
        "job": [
          "12",
          "13",
          "14",
          "15",
          "32",
          "33",
          "34",
          "35",
          "62",
          "63",
          "64",
          "65",
          "72",
          "73",
          "74",
          "75",
          "92",
          "93",
          "94",
          "95",
          "132",
          "133",
          "134",
          "135",
          "143",
          "144",
          "145",
          "163",
          "164",
          "165",
          "173",
          "174",
          "175",
          "203",
          "204",
          "205",
          "213",
          "214",
          "215"
        ],
        "position": 5,
        "effect": "物理防御+45",
        "buff": "移动速度+8%\nHP恢复+15%\n精炼+5时，生命上限+300；精炼+10时，体质+3；精炼+15时，生命上限+5%",
        "isCompose": 0,
        "isUpgrade": 1,
        "isHigh": 0,
        "canSlot": 1,
        "canUpgrade": 1
      }
    ]
  }
}