{
  "code": 0,
  "status": "success",
  "timeStamp": 1643703193,
  "staticDomain": "http:\/\/rosc1.zhaiwuyu.com",
  "ip": "101.87.201.112",
  "language": "cn",
  "dbArea": 0,
  "data": {
    "page": 20,
    "pageSize": 10,
    "pageCount": 77,
    "total": 765,
    "list": [
      {
        "id": "42609",
        "name": "智慧图腾",
        "icon": "item_42609",
        "rank": 3,
        "job": [
          "0"
        ],
        "position": 2,
        "effect": "物理防御+180",
        "buff": "智力+12\n生命上限+2800\n魔法伤害+10%；精炼+10时，魔法伤害+4%；精炼+15时，魔法伤害+4%",
        "isCompose": 0,
        "isUpgrade": 0,
        "isHigh": 0,
        "canSlot": 0,
        "canUpgrade": 0,
        "randomBuff": "魔法伤害+18%\n物伤减免+24%\n魔伤减免+24%\n生命上限+18%\n物理防御+36%\n魔法防御+36%"
      },
      {
        "id": "42608",
        "name": "图腾木雕",
        "icon": "item_42608",
        "rank": 2,
        "job": [
          "0"
        ],
        "position": 2,
        "effect": "物理防御+180",
        "buff": "智力+12\n生命上限+2800\n魔法伤害+10%；精炼+10时，魔法伤害+4%；精炼+15时，魔法伤害+4%",
        "isCompose": 1,
        "isUpgrade": 0,
        "isHigh": 0,
        "canSlot": 0,
        "canUpgrade": 0
      },
      {
        "id": "42183",
        "name": "猎兵作战服",
        "icon": "item_42183",
        "rank": 4,
        "job": [
          "173",
          "174",
          "175"
        ],
        "position": 3,
        "effect": "物理防御+205",
        "buff": "灵巧+20\n生命上限+3500\n物理防御+10%\n每精炼+1，魔法防御+1%\n物理攻击+5%；精炼+5时，物理伤害+5%；精炼+10时且装备手枪类武器时，忽视物理防御+10%；装备来复枪类武器时，物理伤害+5%；精炼+15时，物理伤害+5%、生命上限+5%\n精炼+8开始，每精炼+1，物理穿刺+1%（总计8%）",
        "isCompose": 0,
        "isUpgrade": 0,
        "isHigh": 1,
        "canSlot": 0,
        "canUpgrade": 0
      },
      {
        "id": "42182",
        "name": "狙击手的大衣",
        "icon": "item_42182",
        "rank": 3,
        "job": [
          "173",
          "174",
          "175"
        ],
        "position": 3,
        "effect": "物理防御+48",
        "buff": "灵巧+5\n生命上限+300\n物理攻击+5%",
        "isCompose": 1,
        "isUpgrade": 0,
        "isHigh": 0,
        "canSlot": 1,
        "canUpgrade": 1
      },
      {
        "id": "42181",
        "name": "矿工背心",
        "icon": "item_42181",
        "rank": 3,
        "job": [
          "0"
        ],
        "position": 3,
        "effect": "物理防御+105",
        "buff": "生命上限+1000\n闪避+10、对地属性魔物伤害+5%；每精炼+1，闪避+2，对地属性魔物伤害+1%\n受到攻击时，有10%的概率使攻击方的盔甲属性变为地属性，持续10秒",
        "isCompose": 0,
        "isUpgrade": 0,
        "isHigh": 0,
        "canSlot": 1,
        "canUpgrade": 0
      },
      {
        "id": "42179",
        "name": "王权战甲",
        "icon": "item_42179",
        "rank": 3,
        "job": [
          "0"
        ],
        "position": 3,
        "effect": "物理防御+243",
        "buff": "体质+20\n生命上限+4000\n物理防御+15%；每精炼+1，魔法防御+1%\n人形种族减伤+10%；精炼+10时，人形种族减伤+4%；精炼+15时，人形种族减伤+4%",
        "isCompose": 0,
        "isUpgrade": 0,
        "isHigh": 0,
        "canSlot": 0,
        "canUpgrade": 0,
        "randomBuff": "人形种族减伤+15%\n物伤、魔伤减免+15%\n物理、魔法防御+24%\n生命上限+15%\n受治疗加成+30%\n受到中型魔物伤害-20%"
      },
      {
        "id": "42178",
        "name": "仪祭战甲",
        "icon": "item_42178",
        "rank": 2,
        "job": [
          "0"
        ],
        "position": 3,
        "effect": "物理防御+243",
        "buff": "体质+20\n生命上限+4000\n物理防御+15%；每精炼+1，魔法防御+1%\n人形种族减伤+10%；精炼+10时，人形种族减伤+4%；精炼+15时，人形种族减伤+4%",
        "isCompose": 0,
        "isUpgrade": 0,
        "isHigh": 0,
        "canSlot": 0,
        "canUpgrade": 0
      },
      {
        "id": "42176",
        "name": "唤灵战甲",
        "icon": "item_42176",
        "rank": 3,
        "job": [
          "0"
        ],
        "position": 3,
        "effect": "物理防御+243",
        "buff": "体质+20\n生命上限+4000\n魔法防御+15%；每精炼+1，物理防御+1%\n生命上限+4%，定身、恐惧抵抗+30%；精炼+10时，受到无、圣、暗、念、毒属性伤害-5%；精炼+15时，受到无、圣、暗、念、毒属性伤害-5%",
        "isCompose": 0,
        "isUpgrade": 0,
        "isHigh": 0,
        "canSlot": 0,
        "canUpgrade": 0,
        "randomBuff": "受到无、圣、暗、念、毒属性伤害-20%\n物伤、魔伤减免+15%\n物理、魔法防御+24%\n生命上限+15%\n受治疗加成+30%\n受到中型魔物伤害-20%"
      },
      {
        "id": "42175",
        "name": "先祖战甲",
        "icon": "item_42175",
        "rank": 2,
        "job": [
          "0"
        ],
        "position": 3,
        "effect": "物理防御+243",
        "buff": "体质+20\n生命上限+4000\n魔法防御+15%；每精炼+1，物理防御+1%\n生命上限+4%，定身、恐惧抵抗+30%；精炼+10时，受到无、圣、暗、念、毒属性伤害-5%；精炼+15时，受到无、圣、暗、念、毒属性伤害-5%",
        "isCompose": 0,
        "isUpgrade": 0,
        "isHigh": 0,
        "canSlot": 0,
        "canUpgrade": 0
      },
      {
        "id": "42170",
        "name": "潮汐战甲",
        "icon": "item_42170",
        "rank": 3,
        "job": [
          "0"
        ],
        "position": 3,
        "effect": "物理防御+243",
        "buff": "体质+20\n生命上限+4000\n魔法防御+15%；每精炼+1，物理防御+1%\n生命上限+4%，眩晕、冰冻抵抗+30%；精炼+10时，受到风、地、水、火、无属性伤害-5%；精炼+15时，受到风、地、水、火、无属性伤害-5%",
        "isCompose": 0,
        "isUpgrade": 0,
        "isHigh": 0,
        "canSlot": 0,
        "canUpgrade": 0,
        "randomBuff": "受到风、地、水、火、无属性伤害-20%\n物伤、魔伤减免+15%\n物理、魔法防御+24%\n生命上限+15%\n受治疗加成+30%\n受到中型魔物伤害-20%"
      }
    ]
  }
}