{
  "code": 0,
  "status": "success",
  "timeStamp": 1643703672,
  "staticDomain": "http:\/\/rosc1.zhaiwuyu.com",
  "ip": "101.87.201.112",
  "language": "cn",
  "dbArea": 0,
  "data": {
    "page": 67,
    "pageSize": 10,
    "pageCount": 77,
    "total": 765,
    "list": [
      {
        "id": "42037",
        "name": "坚定战甲",
        "icon": "item_42037",
        "rank": 4,
        "job": [
          "11",
          "12",
          "13",
          "14",
          "15",
          "31",
          "32",
          "33",
          "34",
          "35",
          "61",
          "62",
          "63",
          "64",
          "65",
          "72",
          "73",
          "74",
          "75",
          "92",
          "93",
          "94",
          "95",
          "132",
          "133",
          "134",
          "135",
          "143",
          "144",
          "145",
          "163",
          "164",
          "165",
          "173",
          "174",
          "175",
          "203",
          "204",
          "205",
          "213",
          "214",
          "215"
        ],
        "position": 3,
        "effect": "物理防御+84",
        "buff": "力量+2\n灵巧+1\n避免陷入恐惧状态",
        "isCompose": 0,
        "isUpgrade": 0,
        "isHigh": 0,
        "canSlot": 1,
        "canUpgrade": 1
      },
      {
        "id": "42036",
        "name": "迪斯凯特的软甲",
        "icon": "item_42036",
        "rank": 4,
        "job": [
          "0"
        ],
        "position": 3,
        "effect": "物理防御+37",
        "buff": "幸运+5\n法，弓，服，多兰族，悟灵士装备时沉默抵抗+50%\n剑，商，盗，超初，忍者，枪手装备时眩晕抵抗+50%",
        "isCompose": 0,
        "isUpgrade": 0,
        "isHigh": 0,
        "canSlot": 1,
        "canUpgrade": 1
      },
      {
        "id": "42026",
        "name": "木制铠甲",
        "icon": "item_42026",
        "rank": 2,
        "job": [
          "11",
          "12",
          "13",
          "14",
          "15",
          "31",
          "32",
          "33",
          "34",
          "35",
          "61",
          "62",
          "63",
          "64",
          "65",
          "72",
          "73",
          "74",
          "75",
          "92",
          "93",
          "94",
          "95",
          "132",
          "133",
          "134",
          "135",
          "143",
          "144",
          "145",
          "163",
          "164",
          "165",
          "203",
          "204",
          "205",
          "213",
          "214",
          "215"
        ],
        "position": 3,
        "effect": "物理防御+46",
        "buff": "力量+2\n体质+1",
        "isCompose": 1,
        "isUpgrade": 0,
        "isHigh": 0,
        "canSlot": 1,
        "canUpgrade": 1
      },
      {
        "id": "42022",
        "name": "衬衫",
        "icon": "item_42022",
        "rank": 2,
        "job": [
          "0"
        ],
        "position": 4,
        "effect": "物理防御+22",
        "buff": "闪避+10\n幸运+4\n【三角裤Ⅵ】+【衬衫Ⅳ】：敏捷+5，每1点闪避可以转换5点生命上限\n【水纹之剑Ⅹ】（【怒涛勇者】）+【野兽之心Ⅷ】（【暴戾之甲】）+【高等布袋熊长靴IV】（【猪鬃毛长靴】）+【衬衫Ⅷ】（【云朵衬衫】）：物理攻击+3%，暴击伤害+3%，攻击速度+5%，生命上限+10%",
        "isCompose": 0,
        "isUpgrade": 1,
        "isHigh": 0,
        "canSlot": 1,
        "canUpgrade": 1
      },
      {
        "id": "42021",
        "name": "天衣月舞",
        "icon": "item_42021",
        "rank": 2,
        "job": [
          "51",
          "52",
          "53",
          "54",
          "55",
          "122",
          "123",
          "124",
          "125"
        ],
        "position": 3,
        "effect": "物理防御+37",
        "buff": "智力+3\n魔法上限+5%\n【霸邪之阵】，【圣母之颂歌】，【圣母之祈福】技能的SP消耗降低40%\n【红十字杖Ⅳ】+【天衣月舞Ⅳ】：治疗加成+5%，【天衣月舞Ⅳ】精炼+10以上时治疗加成提升至10%\n【生机之杖】+【天衣月舞Ⅳ】：治疗加成+5%，【天衣月舞Ⅳ】精炼+10以上时治疗加成提升至10%",
        "isCompose": 0,
        "isUpgrade": 1,
        "isHigh": 0,
        "canSlot": 1,
        "canUpgrade": 1
      },
      {
        "id": "42020",
        "name": "哥夫内的铠甲",
        "icon": "item_42020",
        "rank": 4,
        "job": [
          "0"
        ],
        "position": 3,
        "effect": "物理防御+42",
        "buff": "体质+5\n生命上限+10%",
        "isCompose": 0,
        "isUpgrade": 0,
        "isHigh": 0,
        "canSlot": 1,
        "canUpgrade": 1
      },
      {
        "id": "42019",
        "name": "忍服血樱",
        "icon": "item_42019",
        "rank": 2,
        "job": [
          "0"
        ],
        "position": 3,
        "effect": "物理防御+33",
        "buff": "幸运+2\n装备攻速+3%",
        "isCompose": 1,
        "isUpgrade": 0,
        "isHigh": 0,
        "canSlot": 1,
        "canUpgrade": 1
      },
      {
        "id": "42018",
        "name": "龙之衬衣",
        "icon": "item_42018",
        "rank": 3,
        "job": [
          "0"
        ],
        "position": 3,
        "effect": "物理防御+37",
        "buff": "装备攻速+3%\n闪避+25",
        "isCompose": 1,
        "isUpgrade": 0,
        "isHigh": 0,
        "canSlot": 1,
        "canUpgrade": 1
      },
      {
        "id": "42017",
        "name": "魔法外套",
        "icon": "item_42017",
        "rank": 2,
        "job": [
          "0"
        ],
        "position": 3,
        "effect": "物理防御+24",
        "buff": "智力+2\n魔法攻击+3%",
        "isCompose": 1,
        "isUpgrade": 0,
        "isHigh": 0,
        "canSlot": 1,
        "canUpgrade": 1
      },
      {
        "id": "42016",
        "name": "紧身便衣",
        "icon": "item_42016",
        "rank": 2,
        "job": [
          "0"
        ],
        "position": 3,
        "effect": "物理防御+28",
        "buff": "灵巧+2\n物理攻击+4%",
        "isCompose": 1,
        "isUpgrade": 0,
        "isHigh": 0,
        "canSlot": 1,
        "canUpgrade": 1
      }
    ]
  }
}