{
  "code": 0,
  "status": "success",
  "timeStamp": 1642843416,
  "staticDomain": "http:\/\/rosc1.zhaiwuyu.com",
  "ip": "101.87.200.160",
  "language": "cn",
  "dbArea": 0,
  "data": {
    "page": 23,
    "pageSize": 10,
    "pageCount": 74,
    "total": 731,
    "list": [
      {
        "id": "43066",
        "name": "幻影伯爵披风",
        "icon": "item_43066",
        "rank": 4,
        "job": [
          "163",
          "164",
          "165"
        ],
        "position": 4,
        "effect": "物理防御+100",
        "buff": "力量+8\n移动速度+3%\n生命上限+2800\n暴击伤害+5%\n精炼+5时，暴击+5；精炼+10时，普攻伤害+5%；精炼+15时，普攻伤害+5%\n精炼+8开始，每精炼+1，普攻伤害+1%（总计8%）",
        "isCompose": 0,
        "isUpgrade": 0,
        "isHigh": 1,
        "canSlot": 0,
        "canUpgrade": 0
      },
      {
        "id": "43065",
        "name": "幻影披风",
        "icon": "item_43065",
        "rank": 3,
        "job": [
          "163",
          "164",
          "165"
        ],
        "position": 4,
        "effect": "物理防御+25",
        "buff": "力量+2\n移动速度+3%\n生命上限+200\n精炼+10时，普攻伤害+5%",
        "isCompose": 1,
        "isUpgrade": 0,
        "isHigh": 0,
        "canSlot": 1,
        "canUpgrade": 1
      },
      {
        "id": "43064",
        "name": "梅林的时空长袍",
        "icon": "item_43064",
        "rank": 4,
        "job": [
          "12",
          "13",
          "14",
          "15",
          "22",
          "23",
          "24",
          "25",
          "32",
          "33",
          "34",
          "35",
          "42",
          "43",
          "44",
          "45",
          "52",
          "53",
          "54",
          "55",
          "62",
          "63",
          "64",
          "65",
          "72",
          "73",
          "74",
          "75",
          "82",
          "83",
          "84",
          "85",
          "92",
          "93",
          "94",
          "95",
          "102",
          "103",
          "104",
          "105",
          "112",
          "113",
          "114",
          "115",
          "122",
          "123",
          "124",
          "125",
          "132",
          "133",
          "134",
          "135",
          "143",
          "144",
          "145",
          "152",
          "153",
          "154",
          "155",
          "163",
          "164",
          "165",
          "173",
          "174",
          "175",
          "183",
          "184",
          "185",
          "203",
          "204",
          "205",
          "213",
          "214",
          "215",
          "223",
          "224",
          "225"
        ],
        "position": 4,
        "effect": "物理防御+100",
        "buff": "体质+10、生命上限+3000\n受到远距离物理伤害减免+15%\n精炼+5时，受到远距离物理伤害减免+5%；精炼+10时，受到远距离物理伤害减免+5%；精炼+15时，受到远距离物理伤害减免+5%、物理防御+15%\n精炼+8开始，每精炼+1，普攻伤害减免+1%（总计8%）",
        "isCompose": 0,
        "isUpgrade": 0,
        "isHigh": 1,
        "canSlot": 0,
        "canUpgrade": 0
      },
      {
        "id": "43063",
        "name": "神之羽衣",
        "icon": "item_43063",
        "rank": 4,
        "job": [
          "22",
          "23",
          "24",
          "25",
          "52",
          "53",
          "54",
          "55",
          "82",
          "83",
          "84",
          "85",
          "132",
          "133",
          "134",
          "135",
          "143",
          "144",
          "145",
          "152",
          "153",
          "154",
          "155",
          "163",
          "164",
          "165",
          "183",
          "184",
          "185",
          "223",
          "224",
          "225"
        ],
        "position": 4,
        "effect": "物理防御+100",
        "buff": "智力+10、生命上限+2000\n装备攻速+5%\n精炼+5时，可变吟唱时间-5%；精炼+10时，忽视魔法防御+10%；精炼+12时，魔法攻击+3%；精炼+15时，忽视魔法防御+10%\n精炼+8开始，每精炼+1，技能伤害+1%（总计8%）",
        "isCompose": 0,
        "isUpgrade": 0,
        "isHigh": 1,
        "canSlot": 0,
        "canUpgrade": 0
      },
      {
        "id": "43062",
        "name": "软鹿皮斗篷",
        "icon": "item_43062",
        "rank": 4,
        "job": [
          "12",
          "13",
          "14",
          "15",
          "22",
          "23",
          "24",
          "25",
          "32",
          "33",
          "34",
          "35",
          "42",
          "43",
          "44",
          "45",
          "52",
          "53",
          "54",
          "55",
          "62",
          "63",
          "64",
          "65",
          "72",
          "73",
          "74",
          "75",
          "82",
          "83",
          "84",
          "85",
          "92",
          "93",
          "94",
          "95",
          "102",
          "103",
          "104",
          "105",
          "112",
          "113",
          "114",
          "115",
          "122",
          "123",
          "124",
          "125",
          "132",
          "133",
          "134",
          "135",
          "143",
          "144",
          "145",
          "152",
          "153",
          "154",
          "155",
          "163",
          "164",
          "165",
          "173",
          "174",
          "175",
          "183",
          "184",
          "185",
          "203",
          "204",
          "205",
          "213",
          "214",
          "215",
          "223",
          "224",
          "225"
        ],
        "position": 4,
        "effect": "物理防御+100",
        "buff": "生命上限+3000\n受到无属性伤害-15%\n精炼+5时，受到无属性伤害-5%；精炼+10时，受到无属性伤害-10%；精炼+15时，魔法防御+15%\n精炼+8开始，每精炼+1，技能伤害减免+1%（总计8%）\n【软鹿皮斗篷】+【高级凉鞋IV】：魔伤减免+5%",
        "isCompose": 0,
        "isUpgrade": 0,
        "isHigh": 1,
        "canSlot": 0,
        "canUpgrade": 0
      },
      {
        "id": "43061",
        "name": "灰精灵斗篷",
        "icon": "item_43061",
        "rank": 4,
        "job": [
          "12",
          "13",
          "14",
          "15",
          "22",
          "23",
          "24",
          "25",
          "32",
          "33",
          "34",
          "35",
          "42",
          "43",
          "44",
          "45",
          "52",
          "53",
          "54",
          "55",
          "62",
          "63",
          "64",
          "65",
          "72",
          "73",
          "74",
          "75",
          "82",
          "83",
          "84",
          "85",
          "92",
          "93",
          "94",
          "95",
          "102",
          "103",
          "104",
          "105",
          "112",
          "113",
          "114",
          "115",
          "122",
          "123",
          "124",
          "125",
          "132",
          "133",
          "134",
          "135",
          "143",
          "144",
          "145",
          "152",
          "153",
          "154",
          "155",
          "163",
          "164",
          "165",
          "173",
          "174",
          "175",
          "183",
          "184",
          "185",
          "203",
          "204",
          "205",
          "213",
          "214",
          "215",
          "223",
          "224",
          "225"
        ],
        "position": 4,
        "effect": "物理防御+100",
        "buff": "生命上限+3000\n生命上限+5%\n精炼+10时，生命上限+5%；精炼+15时，生命上限+5%\n精炼+8开始，每精炼+1，技能伤害减免+1%（总计8%）",
        "isCompose": 0,
        "isUpgrade": 0,
        "isHigh": 1,
        "canSlot": 0,
        "canUpgrade": 0
      },
      {
        "id": "43060",
        "name": "金砾斗篷",
        "icon": "item_43060",
        "rank": 4,
        "job": [
          "0"
        ],
        "position": 4,
        "effect": "物理防御+100",
        "buff": "力量+10、灵巧+10、闪避+20、生命上限+2000\n装备攻速+10%\n精炼+5时，装备攻速+5%；精炼+10时，敏捷+5，装备攻速+5%；精炼+15时，敏捷+5，装备攻速+10%\n精炼+8开始，每精炼+1，普攻伤害+1%（总计8%）",
        "isCompose": 0,
        "isUpgrade": 0,
        "isHigh": 1,
        "canSlot": 0,
        "canUpgrade": 0
      },
      {
        "id": "43059",
        "name": "白公爵斗篷",
        "icon": "item_43059",
        "rank": 4,
        "job": [
          "12",
          "13",
          "14",
          "15",
          "22",
          "23",
          "24",
          "25",
          "32",
          "33",
          "34",
          "35",
          "42",
          "43",
          "44",
          "45",
          "52",
          "53",
          "54",
          "55",
          "62",
          "63",
          "64",
          "65",
          "72",
          "73",
          "74",
          "75",
          "82",
          "83",
          "84",
          "85",
          "92",
          "93",
          "94",
          "95",
          "102",
          "103",
          "104",
          "105",
          "112",
          "113",
          "114",
          "115",
          "122",
          "123",
          "124",
          "125",
          "132",
          "133",
          "134",
          "135",
          "143",
          "144",
          "145",
          "152",
          "153",
          "154",
          "155",
          "163",
          "164",
          "165",
          "173",
          "174",
          "175",
          "183",
          "184",
          "185",
          "203",
          "204",
          "205",
          "213",
          "214",
          "215",
          "223",
          "224",
          "225"
        ],
        "position": 4,
        "effect": "物理防御+100",
        "buff": "力量+10、生命上限+2000\n忽视物理防御+15%\n精炼+8时，每1%忽视物理防御可以转换0.5点攻击力；精炼+12时，物理攻击+3%；精炼+15时，忽视物理防御+5%\n精炼+8开始，每精炼+1，技能伤害+1%（总计8%）",
        "isCompose": 0,
        "isUpgrade": 0,
        "isHigh": 1,
        "canSlot": 0,
        "canUpgrade": 0
      },
      {
        "id": "43058",
        "name": "云朵衬衫",
        "icon": "item_43058",
        "rank": 4,
        "job": [
          "0"
        ],
        "position": 4,
        "effect": "物理防御+100",
        "buff": "闪避+40、幸运+20、生命上限+2000\n物理攻击+2%\n每10点闪避额外增加1点物理攻击\n每精炼+1，暴击伤害+1%；精炼+15时，暴击伤害+10%\n精炼+8开始，每精炼+1，普攻伤害+1%（总计8%）\n【水纹之剑Ⅹ】（【怒涛勇者】）+【野兽之心Ⅷ】（【暴戾之甲】）+【高等布袋熊长靴IV】（【猪鬃毛长靴】）+【衬衫Ⅷ】（【云朵衬衫】）：物理攻击+3%，暴击伤害+3%，攻击速度+5%，生命上限+10%\n【三角裤Ⅵ】+【云朵衬衫】：敏捷+5，每1点闪避额外增加5点生命上限",
        "isCompose": 0,
        "isUpgrade": 0,
        "isHigh": 1,
        "canSlot": 0,
        "canUpgrade": 0
      },
      {
        "id": "42606",
        "name": "改良型手臂防护具",
        "icon": "item_42606",
        "rank": 4,
        "job": [
          "163",
          "164",
          "165"
        ],
        "position": 2,
        "effect": "物理防御+200",
        "buff": "力量+12\n魔法防御+80\n移动速度+3%\n生命上限+3000\n近战物理伤害+10%；精炼+5时，近战物理伤害+2%；精炼+10时，近战物理伤害+4%；精炼+15时，近战物理伤害+5%\n精炼+8开始，每精炼+1，近战物理伤害+1%（总计8%）",
        "isCompose": 0,
        "isUpgrade": 0,
        "isHigh": 1,
        "canSlot": 0,
        "canUpgrade": 0
      }
    ]
  }
}