{
  "code": 0,
  "status": "success",
  "timeStamp": 1642843709,
  "staticDomain": "http:\/\/rosc1.zhaiwuyu.com",
  "ip": "101.87.200.160",
  "language": "cn",
  "dbArea": 0,
  "data": {
    "page": 52,
    "pageSize": 10,
    "pageCount": 74,
    "total": 731,
    "list": [
      {
        "id": "43545",
        "name": "水晶靴",
        "icon": "item_43524",
        "rank": 4,
        "job": [
          "0"
        ],
        "position": 5,
        "effect": "物理防御+22",
        "buff": "智力+5\n魔法攻击+3%\n【大猫的祝福Ⅵ】+【水晶靴】：火\/水\/地\/风\/元素属性攻击+7%\n【大巫师之杖Ⅷ】（【巫师之力】）+【创作者外袍Ⅷ】（【碎星者外袍】）+【永恒戒指Ⅷ】（【克拉肯之眼】）+【水晶靴Ⅳ】（【白宝石之靴】）：可变吟唱时间-5%，魔法伤害+3%，忽视魔法防御+3%",
        "isCompose": 0,
        "isUpgrade": 0,
        "isHigh": 0,
        "canSlot": 1,
        "canUpgrade": 1
      },
      {
        "id": "43544",
        "name": "圣符重靴",
        "icon": "item_43544",
        "rank": 3,
        "job": [
          "12",
          "13",
          "14",
          "15",
          "22",
          "23",
          "24",
          "25",
          "32",
          "33",
          "34",
          "35",
          "42",
          "43",
          "44",
          "45",
          "52",
          "53",
          "54",
          "55",
          "62",
          "63",
          "64",
          "65",
          "72",
          "73",
          "74",
          "75",
          "82",
          "83",
          "84",
          "85",
          "92",
          "93",
          "94",
          "95",
          "102",
          "103",
          "104",
          "105",
          "112",
          "113",
          "114",
          "115",
          "122",
          "123",
          "124",
          "125",
          "132",
          "133",
          "134",
          "135",
          "143",
          "144",
          "145",
          "152",
          "153",
          "154",
          "155",
          "163",
          "164",
          "165",
          "173",
          "174",
          "175",
          "183",
          "184",
          "185",
          "203",
          "204",
          "205",
          "213",
          "214",
          "215",
          "223",
          "224",
          "225"
        ],
        "position": 5,
        "effect": "物理防御+28",
        "buff": "移动速度+10%\n受治疗加成+30%\n物理攻击+3%\n魔法攻击+3%",
        "isCompose": 0,
        "isUpgrade": 1,
        "isHigh": 0,
        "canSlot": 1,
        "canUpgrade": 1
      },
      {
        "id": "43034",
        "name": "风行者斗篷",
        "icon": "item_43002",
        "rank": 4,
        "job": [
          "0"
        ],
        "position": 4,
        "effect": "物理防御+25",
        "buff": "使用拳刃类武器时，暴击伤害+7%\n【洛奇的指甲Ⅸ】+【风行者斗篷】：【回旋十字斩】的伤害+5%",
        "isCompose": 0,
        "isUpgrade": 0,
        "isHigh": 0,
        "canSlot": 1,
        "canUpgrade": 1
      },
      {
        "id": "62510",
        "name": "秘拳套 闪光[1]",
        "icon": "item_62510",
        "rank": 3,
        "job": [
          "122",
          "123",
          "124",
          "125"
        ],
        "position": 1,
        "effect": "物理攻击+266",
        "buff": "普通攻击时有5%概率使攻速提升5%持续5秒，最多可叠加3层\n【六合拳】伤害提升15%",
        "isCompose": 1,
        "isUpgrade": 0,
        "isHigh": 0,
        "canSlot": 1,
        "canUpgrade": 1
      },
      {
        "id": "62509",
        "name": "巨灵拳套[1]",
        "icon": "item_62509",
        "rank": 4,
        "job": [
          "122",
          "123",
          "124",
          "125"
        ],
        "position": 1,
        "effect": "物理攻击+320",
        "buff": "力量+10\n对大型魔物伤害+15%\n精炼每+1对大型魔物伤害+2%",
        "isCompose": 0,
        "isUpgrade": 0,
        "isHigh": 0,
        "canSlot": 1,
        "canUpgrade": 1
      },
      {
        "id": "62508",
        "name": "鹰爪拳套[1]",
        "icon": "item_62508",
        "rank": 4,
        "job": [
          "122",
          "123",
          "124",
          "125"
        ],
        "position": 1,
        "effect": "物理攻击+320",
        "buff": "智力+10\n可变吟唱时间-10%\n精炼等级+5、+10、+15时，魔法上限+6%、+9%、+12%\n使【阿修罗霸凰拳】公式中【技能等级*4+剩余SP\/100】部分的伤害倍率增加5",
        "isCompose": 0,
        "isUpgrade": 0,
        "isHigh": 0,
        "canSlot": 1,
        "canUpgrade": 1
      },
      {
        "id": "62507",
        "name": "龙爪拳套[1]",
        "icon": "item_62507",
        "rank": 3,
        "job": [
          "122",
          "123",
          "124",
          "125"
        ],
        "position": 1,
        "effect": "物理攻击+303",
        "buff": "力量+10\n精炼+5，+10，+15时，物理攻击+5%，+10%，+15%\n每精炼+1，普通攻击力提高60点",
        "isCompose": 0,
        "isUpgrade": 1,
        "isHigh": 0,
        "canSlot": 1,
        "canUpgrade": 1
      },
      {
        "id": "62506",
        "name": "升龙拳套[1]",
        "icon": "item_62506",
        "rank": 4,
        "job": [
          "122",
          "123",
          "124",
          "125"
        ],
        "position": 1,
        "effect": "物理攻击+320",
        "buff": "智力+5\n【六合拳】伤害提升10%，【连环全身掌】伤害提升10%，【猛龙夸强】伤害提升15%\n【塔卡罗】（【升龙拳套IV】）+【华贵腕甲IV】（【金腕】）：每次普通攻击获得气弹的概率提升至60%",
        "isCompose": 0,
        "isUpgrade": 0,
        "isHigh": 0,
        "canSlot": 1,
        "canUpgrade": 1
      },
      {
        "id": "62505",
        "name": "贺勒拳套[1]",
        "icon": "item_62505",
        "rank": 3,
        "job": [
          "122",
          "123",
          "124",
          "125"
        ],
        "position": 1,
        "effect": "物理攻击+390",
        "buff": "体质+6\n生命上限+1600\n生命自然恢复+15\n使装备者在【金刚不坏】状态下移动速度惩罚移除\n【贺勒拳套】+【圣者法袍IV】：生命上限+5%",
        "isCompose": 0,
        "isUpgrade": 1,
        "isHigh": 0,
        "canSlot": 1,
        "canUpgrade": 0
      },
      {
        "id": "62504",
        "name": "钢铁拳套[1]",
        "icon": "item_62504",
        "rank": 3,
        "job": [
          "122",
          "123",
          "124",
          "125"
        ],
        "position": 1,
        "effect": "物理攻击+223",
        "buff": "体质+3\n生命上限+800\n生命自然恢复+10",
        "isCompose": 1,
        "isUpgrade": 0,
        "isHigh": 0,
        "canSlot": 1,
        "canUpgrade": 1
      }
    ]
  }
}