{
  "code": 0,
  "status": "success",
  "timeStamp": 1643703123,
  "staticDomain": "http:\/\/rosc1.zhaiwuyu.com",
  "ip": "101.87.201.112",
  "language": "cn",
  "dbArea": 0,
  "data": {
    "page": 13,
    "pageSize": 10,
    "pageCount": 77,
    "total": 765,
    "list": [
      {
        "id": "42650",
        "name": "万灵归途",
        "icon": "item_42650",
        "rank": 4,
        "job": [
          "0"
        ],
        "position": 2,
        "effect": "物理防御+180",
        "buff": "智力+12\n生命上限+2800\n圣属性攻击+8%，治疗加成+16%；精炼+10时，圣属性攻击+8%；精炼+15时，圣属性攻击+8%",
        "isCompose": 0,
        "isUpgrade": 0,
        "isHigh": 0,
        "canSlot": 0,
        "canUpgrade": 0,
        "randomBuff": "生命上限+18%\n物伤减免+24%\n魔伤减免+24%\n治疗加成+30%\n物理防御+36%\n魔法防御+36%\nPVP\/GVG中受玩家伤害-7.5%"
      },
      {
        "id": "42647",
        "name": "不屈战团的传承",
        "icon": "item_42647",
        "rank": 4,
        "job": [
          "0"
        ],
        "position": 2,
        "effect": "物理防御+180",
        "buff": "幸运+12\n生命上限+2800\n暴击+25、普攻攻击力+400\n精炼+10时，普攻攻击力+200；精炼+15时，普攻攻击力+200",
        "isCompose": 0,
        "isUpgrade": 0,
        "isHigh": 0,
        "canSlot": 0,
        "canUpgrade": 0,
        "randomBuff": "物理穿刺+18%\n物伤减免+24%\n魔伤减免+24%\n生命上限+18%\n物理防御+36%\n魔法防御+36%\nPVP\/GVG中受玩家伤害-7.5%"
      },
      {
        "id": "42644",
        "name": "不死鸟之羽",
        "icon": "item_42644",
        "rank": 4,
        "job": [
          "0"
        ],
        "position": 2,
        "effect": "物理防御+180",
        "buff": "敏捷+12\n生命上限+2800\n装备攻速+24%；精炼+10时，物理攻击+8%；精炼+15时，物理攻击+8%",
        "isCompose": 0,
        "isUpgrade": 0,
        "isHigh": 0,
        "canSlot": 0,
        "canUpgrade": 0,
        "randomBuff": "物理攻击+30%\n物伤减免+24%\n魔伤减免+24%\n生命上限+18%\n物理防御+36%\n魔法防御+36%\nPVP\/GVG中受玩家伤害-7.5%"
      },
      {
        "id": "42641",
        "name": "梦境守护者",
        "icon": "item_42641",
        "rank": 4,
        "job": [
          "0"
        ],
        "position": 2,
        "effect": "物理防御+180",
        "buff": "智力+12\n生命上限+2800\n可变吟唱时间-20%、固定吟唱时间-10%、魔法攻击+200；精炼+10时，魔法攻击+8%；精炼+15时，魔法攻击+8%",
        "isCompose": 0,
        "isUpgrade": 0,
        "isHigh": 0,
        "canSlot": 0,
        "canUpgrade": 0,
        "randomBuff": "魔法穿刺+18%\n物伤减免+24%\n魔伤减免+24%\n生命上限+18%\n物理防御+36%\n魔法防御+36%\nPVP\/GVG中受玩家伤害-7.5%"
      },
      {
        "id": "42638",
        "name": "生者的罪孽",
        "icon": "item_42638",
        "rank": 4,
        "job": [
          "0"
        ],
        "position": 2,
        "effect": "物理防御+200",
        "buff": "智力+12\n生命上限+3000\n所有技能SP消耗-20%、SP恢复+20%；精炼+10时，所有技能SP消耗-10%；精炼+15时，技能冷却-10%",
        "isCompose": 0,
        "isUpgrade": 0,
        "isHigh": 0,
        "canSlot": 0,
        "canUpgrade": 0,
        "randomBuff": "技能延迟-18%\n物伤减免+24%\n魔伤减免+24%\n生命上限+18%\n物理防御+36%\n魔法防御+36%\nPVP\/GVG中受玩家伤害-7.5%"
      },
      {
        "id": "42635",
        "name": "猎魔人的战利品",
        "icon": "item_42635",
        "rank": 4,
        "job": [
          "0"
        ],
        "position": 2,
        "effect": "物理防御+180",
        "buff": "智力+12\n生命上限+2800\n忽视魔法防御+20%；精炼+10时，忽视魔法防御+8%；精炼+15时，忽视魔法防御+8%",
        "isCompose": 0,
        "isUpgrade": 0,
        "isHigh": 0,
        "canSlot": 0,
        "canUpgrade": 0,
        "randomBuff": "忽视魔法防御+30%\n物伤减免+24%\n魔伤减免+24%\n生命上限+18%\n物理防御+36%\n魔法防御+36%\nPVP\/GVG中受玩家伤害-7.5%"
      },
      {
        "id": "42632",
        "name": "恶毒之伤",
        "icon": "item_42632",
        "rank": 4,
        "job": [
          "0"
        ],
        "position": 2,
        "effect": "物理防御+180",
        "buff": "力量+8、灵巧+8\n生命上限+2800\n忽视物理防御+20%；精炼+10时，忽视物理防御+8%；精炼+15时，忽视物理防御+8%",
        "isCompose": 0,
        "isUpgrade": 0,
        "isHigh": 0,
        "canSlot": 0,
        "canUpgrade": 0,
        "randomBuff": "忽视物理防御+30%\n物伤减免+24%\n魔伤减免+24%\n生命上限+18%\n物理防御+36%\n魔法防御+36%\nPVP\/GVG中受玩家伤害-7.5%"
      },
      {
        "id": "42629",
        "name": "狩龙武勋",
        "icon": "item_42629",
        "rank": 4,
        "job": [
          "0"
        ],
        "position": 2,
        "effect": "物理防御+180",
        "buff": "力量+12\n生命上限+2800\n近战物理伤害+10%；精炼+10时，近战物理伤害+4%；精炼+15时，近战物理伤害+4%",
        "isCompose": 0,
        "isUpgrade": 0,
        "isHigh": 0,
        "canSlot": 0,
        "canUpgrade": 0,
        "randomBuff": "物理伤害+18%\n物伤减免+24%\n魔伤减免+24%\n生命上限+18%\n物理防御+36%\n魔法防御+36%\nPVP\/GVG中受玩家伤害-7.5%"
      },
      {
        "id": "42626",
        "name": "灵骨之音",
        "icon": "item_42626",
        "rank": 4,
        "job": [
          "0"
        ],
        "position": 2,
        "effect": "物理防御+180",
        "buff": "灵巧+12\n生命上限+2800\n远程物理伤害+10%；精炼+10时，远程物理伤害+4%；精炼+15时，远程物理伤害+4%",
        "isCompose": 0,
        "isUpgrade": 0,
        "isHigh": 0,
        "canSlot": 0,
        "canUpgrade": 0,
        "randomBuff": "物理伤害+18%\n物伤减免+24%\n魔伤减免+24%\n生命上限+18%\n物理防御+36%\n魔法防御+36%\nPVP\/GVG中受玩家伤害-7.5%"
      },
      {
        "id": "42610",
        "name": "天神的启示",
        "icon": "item_42610",
        "rank": 4,
        "job": [
          "0"
        ],
        "position": 2,
        "effect": "物理防御+180",
        "buff": "智力+12\n生命上限+2800\n魔法伤害+10%；精炼+10时，魔法伤害+4%；精炼+15时，魔法伤害+4%",
        "isCompose": 0,
        "isUpgrade": 0,
        "isHigh": 0,
        "canSlot": 0,
        "canUpgrade": 0,
        "randomBuff": "魔法伤害+18%\n物伤减免+24%\n魔伤减免+24%\n生命上限+18%\n物理防御+36%\n魔法防御+36%\nPVP\/GVG中受玩家伤害-7.5%"
      }
    ]
  }
}