{
  "code": 0,
  "status": "success",
  "timeStamp": 1643703112,
  "staticDomain": "http:\/\/rosc1.zhaiwuyu.com",
  "ip": "101.87.201.112",
  "language": "cn",
  "dbArea": 0,
  "data": {
    "page": 12,
    "pageSize": 10,
    "pageCount": 77,
    "total": 765,
    "list": [
      {
        "id": "63909",
        "name": "尤佩雷斯灭龙炮",
        "icon": "item_63909",
        "rank": 4,
        "job": [
          "173",
          "174",
          "175"
        ],
        "position": 14,
        "effect": "物理攻击+480",
        "buff": "灵巧+20\n幸运+10\n全能力+8\n来复枪的普通攻击和技能射程提高3米\n忽视物理防御+16%\n远程物理伤害+12%\n人形种族伤害+30%\n生命上限+15000",
        "isCompose": 1,
        "isUpgrade": 0,
        "isHigh": 0,
        "canSlot": 0,
        "canUpgrade": 0
      },
      {
        "id": "63611",
        "name": "白银凶星·神铸",
        "icon": "item_63611",
        "rank": 4,
        "job": [
          "173",
          "174",
          "175"
        ],
        "position": 14,
        "effect": "物理攻击+1000",
        "buff": "灵巧+20\n敏捷+10\n全能力+20\n流血攻击+20%\n忽视物理防御+20%\n物理穿刺+20%\n人形种族伤害+50%\n生命上限+32000\n物伤减免+10%，魔伤减免+10%\n获得技能【白银时刻】：使自身周围半径5米的敌人强制晕眩，并且受到伤害提升50%，持续3秒，技能冷却时间75秒",
        "isCompose": 1,
        "isUpgrade": 0,
        "isHigh": 0,
        "canSlot": 0,
        "canUpgrade": 0
      },
      {
        "id": "63610",
        "name": "白银凶星·精锻",
        "icon": "item_63610",
        "rank": 4,
        "job": [
          "173",
          "174",
          "175"
        ],
        "position": 14,
        "effect": "物理攻击+725",
        "buff": "灵巧+20\n敏捷+10\n全能力+14\n流血攻击+20%\n忽视物理防御+16%\n物理穿刺+16%\n人形种族伤害+40%\n生命上限+24000\n物伤减免+5%，魔伤减免+5%\n获得技能【白银时刻】：使自身周围半径5米的敌人强制晕眩，并且受到伤害提升30%，持续3秒，技能冷却时间90秒",
        "isCompose": 1,
        "isUpgrade": 0,
        "isHigh": 0,
        "canSlot": 0,
        "canUpgrade": 0
      },
      {
        "id": "63609",
        "name": "白银凶星",
        "icon": "item_63609",
        "rank": 4,
        "job": [
          "173",
          "174",
          "175"
        ],
        "position": 14,
        "effect": "物理攻击+450",
        "buff": "灵巧+20\n敏捷+10\n全能力+8\n流血攻击+20%\n忽视物理防御+12%\n物理穿刺+12%\n人形种族伤害+30%\n生命上限+16000",
        "isCompose": 1,
        "isUpgrade": 0,
        "isHigh": 0,
        "canSlot": 0,
        "canUpgrade": 0
      },
      {
        "id": "42668",
        "name": "噩梦原典",
        "icon": "item_42668",
        "rank": 4,
        "job": [
          "0"
        ],
        "position": 2,
        "effect": "物理防御+180",
        "buff": "敏捷+12\n生命上限+2800\n装备攻速+24%；精炼+10时，魔法攻击+8%；精炼+15时，魔法攻击+8%",
        "isCompose": 0,
        "isUpgrade": 0,
        "isHigh": 0,
        "canSlot": 0,
        "canUpgrade": 0,
        "randomBuff": "魔法攻击+30%\n物伤减免+24%\n魔伤减免+24%\n生命上限+18%\n物理防御+36%\n魔法防御+36%\nPVP\/GVG中受玩家伤害-7.5%"
      },
      {
        "id": "42665",
        "name": "末日箴言",
        "icon": "item_42665",
        "rank": 4,
        "job": [
          "0"
        ],
        "position": 2,
        "effect": "物理防御+225",
        "buff": "体质+12\n生命上限+3000\n生命上限+8%、受治疗加成+20%；精炼+10时，生命上限+4%；精炼+15时，生命上限+4%",
        "isCompose": 0,
        "isUpgrade": 0,
        "isHigh": 0,
        "canSlot": 0,
        "canUpgrade": 0,
        "randomBuff": "生命上限+18%\n物伤减免+24%\n魔伤减免+24%\n受治疗加成+45%\n物理防御+36%\n魔法防御+36%\nPVP\/GVG中受玩家伤害-7.5%"
      },
      {
        "id": "42662",
        "name": "海灵壁垒",
        "icon": "item_42662",
        "rank": 4,
        "job": [
          "0"
        ],
        "position": 2,
        "effect": "物理防御+225",
        "buff": "体质+12\n生命上限+3000\n受到风、地、水、火、无属性伤害-12%，物理、魔法防御+10%；精炼+10时，受到风、地、水、火、无属性伤害-6%；精炼+15时，受到风、地、水、火、无属性伤害-6%",
        "isCompose": 0,
        "isUpgrade": 0,
        "isHigh": 0,
        "canSlot": 0,
        "canUpgrade": 0,
        "randomBuff": "受到风、地、水、火、无属性伤害-24%\n物伤减免+24%\n魔伤减免+24%\n生命上限+18%\n物理防御+36%\n魔法防御+36%\nPVP\/GVG中受玩家伤害-7.5%"
      },
      {
        "id": "42659",
        "name": "祖灵之庇佑",
        "icon": "item_42659",
        "rank": 4,
        "job": [
          "0"
        ],
        "position": 2,
        "effect": "物理防御+225",
        "buff": "体质+12\n生命上限+3000\n受到无、圣、暗、念、毒属性伤害-12%，物理、魔法防御+10%；精炼+10时，受到无、圣、暗、念、毒属性伤害-6%；精炼+15时，受到无、圣、暗、念、毒属性伤害-6%",
        "isCompose": 0,
        "isUpgrade": 0,
        "isHigh": 0,
        "canSlot": 0,
        "canUpgrade": 0,
        "randomBuff": "受到无、圣、暗、念、毒属性伤害-24%\n物伤减免+24%\n魔伤减免+24%\n生命上限+18%\n物理防御+36%\n魔法防御+36%\nPVP\/GVG中受玩家伤害-7.5%"
      },
      {
        "id": "42656",
        "name": "生息之坛",
        "icon": "item_42656",
        "rank": 4,
        "job": [
          "0"
        ],
        "position": 2,
        "effect": "物理防御+200",
        "buff": "智力+12\n生命上限+3000\n魔法上限+12%、魔法上限+300；精炼+10时，魔法上限+6%；精炼+15时，魔法上限+6%",
        "isCompose": 0,
        "isUpgrade": 0,
        "isHigh": 0,
        "canSlot": 0,
        "canUpgrade": 0,
        "randomBuff": "魔法上限+24%\n物伤减免+24%\n魔伤减免+24%\n生命上限+18%\n物理防御+36%\n魔法防御+36%\nPVP\/GVG中受玩家伤害-7.5%"
      },
      {
        "id": "42653",
        "name": "历史见证者",
        "icon": "item_42653",
        "rank": 4,
        "job": [
          "0"
        ],
        "position": 2,
        "effect": "物理防御+225",
        "buff": "体质+12\n生命上限+3000\n受到大、中、小型魔物伤害-12%，生命上限+5%；精炼+10时，受到大、中、小型魔物伤害-6%；精炼+15时，受到大、中、小型魔物伤害-6%",
        "isCompose": 0,
        "isUpgrade": 0,
        "isHigh": 0,
        "canSlot": 0,
        "canUpgrade": 0,
        "randomBuff": "受到大、中、小型魔物伤害-24%\n物伤减免+24%\n魔伤减免+24%\n生命上限+18%\n物理防御+36%\n魔法防御+36%\nPVP\/GVG中受玩家伤害-7.5%"
      }
    ]
  }
}