{
  "code": 0,
  "status": "success",
  "timeStamp": 1642843588,
  "staticDomain": "http:\/\/rosc1.zhaiwuyu.com",
  "ip": "101.87.200.160",
  "language": "cn",
  "dbArea": 0,
  "data": {
    "page": 40,
    "pageSize": 10,
    "pageCount": 74,
    "total": 731,
    "list": [
      {
        "id": "42081",
        "name": "魔能涌动外袍",
        "icon": "item_42081",
        "rank": 3,
        "job": [
          "84",
          "85"
        ],
        "position": 3,
        "effect": "物理防御+92",
        "buff": "智力+8\n生命上限+800\n魔法攻击+7%\n生命上限+5%\n【魔能涌动外袍IV】+【贤者日记Ⅷ】：【双倍投掷】触发概率+3%；魔法伤害+5%\n【魔能涌动外袍IV】+【神贤的手账本】：【双倍投掷】触发概率+3%；魔法伤害+5%",
        "isCompose": 0,
        "isUpgrade": 0,
        "isHigh": 0,
        "canSlot": 1,
        "canUpgrade": 1
      },
      {
        "id": "42080",
        "name": "华丽演出服",
        "icon": "item_42080",
        "rank": 4,
        "job": [
          "102",
          "103",
          "104",
          "105",
          "112",
          "113",
          "114",
          "115"
        ],
        "position": 3,
        "effect": "物理防御+105",
        "buff": "魔法防御+63\n智力+4，体质+4\n生命上限+800\n精炼+5、+10、+15时，使用演奏类技能时，受到的伤害减低5%、5%、10%\n【华丽演出服IV】（【流云衣】）+【舞蹈鞋IV】（【芭蕾鞋】）+【吟游诗人的披风IV】：生命上限+10%，体质+5",
        "isCompose": 0,
        "isUpgrade": 0,
        "isHigh": 0,
        "canSlot": 1,
        "canUpgrade": 1
      },
      {
        "id": "41871",
        "name": "破灭战斧[1]",
        "icon": "item_41871",
        "rank": 4,
        "job": [
          "132",
          "133",
          "134",
          "135"
        ],
        "position": 1,
        "effect": "物理攻击+650",
        "buff": "体质+10、力量+10\n装备攻速+15%\n【地狱植物】伤害+15%；精炼+5以后，再每精炼+1，使自身与所有生命体的物理攻击+10（总计100），魔法攻击+10（总计100）；精炼+10以后，再每精炼+1，使自身与所有生命体的物理攻击+1%（总计5%），魔法攻击+1%（总计5%）；精炼+15时，“艾米斯可鲁”物理攻击+10%\n物理攻击+2%、魔法攻击+2%\n精炼+5时，物理攻击+2%、魔法攻击+2%；精炼+10时，物理攻击+3%、魔法攻击+3%；精炼+15时，物理伤害+5%",
        "isCompose": 0,
        "isUpgrade": 0,
        "isHigh": 1,
        "canSlot": 0,
        "canUpgrade": 0
      },
      {
        "id": "41870",
        "name": "寻血猎犬[1]",
        "icon": "item_41870",
        "rank": 4,
        "job": [
          "12",
          "13",
          "14",
          "15",
          "62",
          "63",
          "64",
          "65",
          "132",
          "133",
          "134",
          "135",
          "203",
          "204",
          "205",
          "213",
          "214",
          "215"
        ],
        "position": 1,
        "effect": "物理攻击+650",
        "buff": "力量+15\n对中型魔物伤害+10%、对暗属性魔物伤害+10%\n灵巧达到90以上时【金钱攻击】伤害+50%\n力量达到240以上时，【金钱攻击】伤害+30%\n精炼+5，+10，+15时【金钱攻击】伤害+10%，20%，30%\n使用【金钱攻击】时20%概率暴击使技能造成1.5倍伤害\n幸运达到90时物理攻击+100\n精炼+10时，每10点力量增加2点物理攻击、每10点灵巧增加2点物理攻击、每10点幸运增加2点物理攻击；精炼+15时，物理伤害+5%",
        "isCompose": 0,
        "isUpgrade": 0,
        "isHigh": 1,
        "canSlot": 0,
        "canUpgrade": 0
      },
      {
        "id": "41869",
        "name": "天崩地裂[1]",
        "icon": "item_41869",
        "rank": 4,
        "job": [
          "11",
          "12",
          "13",
          "14",
          "15",
          "61",
          "62",
          "63",
          "64",
          "65",
          "72",
          "73",
          "74",
          "75",
          "132",
          "133",
          "134",
          "135",
          "203",
          "204",
          "205",
          "213",
          "214",
          "215"
        ],
        "position": 1,
        "effect": "物理攻击+650",
        "buff": "力量+15\n每学一级【强化火属性】时会额外+12%火属性攻击\n【手推车撞击】伤害增加10%\n使【加农炮】的伤害+5%；每精炼+1，使【加农炮】的伤害+1%；精炼+15时，【加农炮】的伤害+10%\n力量达到50时物理攻击+10%\n力量达到85时物理攻击+3%\n力量达到240时物理攻击+3%\n精炼+5，物理攻击+4%；精炼+10，火属性攻击+5%；精炼+15时，物理伤害+5%\n物理技能攻击时有10%概率眩晕目标，眩晕3秒",
        "isCompose": 0,
        "isUpgrade": 0,
        "isHigh": 1,
        "canSlot": 0,
        "canUpgrade": 0
      },
      {
        "id": "41868",
        "name": "剜心[1]",
        "icon": "item_41868",
        "rank": 4,
        "job": [
          "61",
          "62",
          "63",
          "64",
          "65",
          "132",
          "133",
          "134",
          "135",
          "213",
          "214",
          "215"
        ],
        "position": 1,
        "effect": "物理攻击+650",
        "buff": "敏捷+4、力量+4\n攻击速度+20%\n暴击+20\n对中型魔物伤害增加10%\n精炼+5，+10，+15时，暴击伤害+5%，+10%，+15%\n每精炼+1，普通攻击伤害提高3%\n普攻时有15%概率触发【破釜】：消耗10%生命上限提升物理攻击15%，持续10秒\n普通攻击暴击时有概率自动施放【速度激发】lv.5。如果习得【速度激发】Lv.10时则自动施放【速度激发】Lv.10",
        "isCompose": 0,
        "isUpgrade": 0,
        "isHigh": 1,
        "canSlot": 0,
        "canUpgrade": 0
      },
      {
        "id": "41867",
        "name": "破坏者战斧[1]",
        "icon": "item_41867",
        "rank": 4,
        "job": [
          "61",
          "62",
          "63",
          "64",
          "65",
          "132",
          "133",
          "134",
          "135",
          "143",
          "144",
          "145",
          "213",
          "214",
          "215"
        ],
        "position": 1,
        "effect": "物理攻击+650",
        "buff": "敏捷+15、力量+10\n对小型魔物伤害+5%、对中型魔物伤害+15%、对大型魔物伤害+5%\n普攻时5%概率施放Lv.10【手推车攻击】\n【手推车攻击】伤害+15%；精炼+5以后，再每精炼+1，使【手推车攻击】伤害+2%（总计20%）\n精炼+5时，物理攻击+5%；精炼+10时，物理攻击+5%；精炼+15时，对小、中、大型魔物伤害+5%",
        "isCompose": 0,
        "isUpgrade": 0,
        "isHigh": 1,
        "canSlot": 0,
        "canUpgrade": 0
      },
      {
        "id": "41568",
        "name": "厄利尼厄斯之杖[1]",
        "icon": "item_41568",
        "rank": 4,
        "job": [
          "52",
          "53",
          "54",
          "55"
        ],
        "position": 1,
        "effect": "魔法攻击+405",
        "buff": "魔法攻击+20%\n幸运+20\n【神圣之击】，【转生术】，【十字驱魔攻击】的可变吟唱时间-25%\n幸运可为【神圣之击】、【审判】带来额外伤害\n每精炼+1，十字驱魔伤害+1%，精炼+10时提升幸运为【神圣之击】增加的伤害，精炼+15时提升幸运为【审判】增加的伤害\n精炼+5时，圣属性攻击+5%；精炼+10时，魔法攻击+5%；精炼+15时，魔法伤害+5%",
        "isCompose": 0,
        "isUpgrade": 0,
        "isHigh": 1,
        "canSlot": 0,
        "canUpgrade": 0
      },
      {
        "id": "41567",
        "name": "酸蚀之触[1]",
        "icon": "item_41567",
        "rank": 4,
        "job": [
          "132",
          "133",
          "134",
          "135"
        ],
        "position": 1,
        "effect": "物理攻击+645",
        "buff": "力量+10、智力+8\n生命上限+1000\n使炼金使用【强酸攻击】【火烟瓶投掷】【强酸火烟瓶投掷】导致的装备部位破坏基础率上升\n精炼每+1【火烟瓶投掷】的伤害+5%，【强酸攻击】的伤害+2%，【强酸火烟瓶投掷】的技能倍率+30%\n当智力、力量都达到119以上时，【火烟瓶投掷】伤害+10%，【强酸攻击】伤害+5%，【强酸火烟瓶投掷】技能倍率+75%\n精炼+5时，物理攻击+5%；精炼+10时，忽视物理防御+10%；精炼+15时，物理伤害+5%",
        "isCompose": 0,
        "isUpgrade": 0,
        "isHigh": 1,
        "canSlot": 0,
        "canUpgrade": 0
      },
      {
        "id": "41566",
        "name": "神怒之日[1]",
        "icon": "item_41566",
        "rank": 4,
        "job": [
          "51",
          "52",
          "53",
          "54",
          "55",
          "61",
          "62",
          "63",
          "64",
          "65",
          "122",
          "123",
          "124",
          "125",
          "132",
          "133",
          "134",
          "135",
          "213",
          "214",
          "215"
        ],
        "position": 1,
        "effect": "物理攻击+650",
        "buff": "力量+4、敏捷+4\n暴击+30\n装备攻速+10%\n暴击伤害+5%\n装备者物理防御下降1\/3；精炼+10时，装备者物理防御不再下降\n普通攻击伤害提高5%\n每精炼+1，普通攻击伤害提高3%\n精炼+5时，暴击伤害+5%；精炼+10时，暴击伤害+10%；精炼+15时，暴击伤害+15%\n【神怒之日】+【圣者法袍IV】：装备攻速+5%，物理攻击+5%",
        "isCompose": 0,
        "isUpgrade": 0,
        "isHigh": 1,
        "canSlot": 0,
        "canUpgrade": 0
      }
    ]
  }
}