{
  "code": 0,
  "status": "success",
  "timeStamp": 1643703641,
  "staticDomain": "http:\/\/rosc1.zhaiwuyu.com",
  "ip": "101.87.201.112",
  "language": "cn",
  "dbArea": 0,
  "data": {
    "page": 64,
    "pageSize": 10,
    "pageCount": 77,
    "total": 765,
    "list": [
      {
        "id": "42506",
        "name": "大天使之盾",
        "icon": "item_42506",
        "rank": 4,
        "job": [
          "72",
          "73",
          "74",
          "75"
        ],
        "position": 2,
        "effect": "物理防御+112",
        "buff": "智力+5\n精炼每+1【反伤盾】反射魔法伤害比例+1%，【治愈术】治愈效果+1%",
        "isCompose": 0,
        "isUpgrade": 0,
        "isHigh": 0,
        "canSlot": 1,
        "canUpgrade": 1
      },
      {
        "id": "42536",
        "name": "生命魔法书",
        "icon": "item_42536",
        "rank": 3,
        "job": [
          "12",
          "13",
          "14",
          "15",
          "22",
          "23",
          "24",
          "25",
          "32",
          "33",
          "34",
          "35",
          "42",
          "43",
          "44",
          "45",
          "52",
          "53",
          "54",
          "55",
          "62",
          "63",
          "64",
          "65",
          "72",
          "73",
          "74",
          "75",
          "82",
          "83",
          "84",
          "85",
          "92",
          "93",
          "94",
          "95",
          "102",
          "103",
          "104",
          "105",
          "112",
          "113",
          "114",
          "115",
          "122",
          "123",
          "124",
          "125",
          "132",
          "133",
          "134",
          "135",
          "143",
          "144",
          "145",
          "152",
          "153",
          "154",
          "155",
          "163",
          "164",
          "165",
          "173",
          "174",
          "175",
          "183",
          "184",
          "185",
          "203",
          "204",
          "205",
          "213",
          "214",
          "215",
          "223",
          "224",
          "225"
        ],
        "position": 2,
        "effect": "物理防御+46",
        "buff": "所有技能SP消耗-12%\n【生命魔法书IV】+【兔子拖鞋】：所有技能冷却减少5%",
        "isCompose": 0,
        "isUpgrade": 1,
        "isHigh": 0,
        "canSlot": 1,
        "canUpgrade": 1
      },
      {
        "id": "42535",
        "name": "献祭之书",
        "icon": "item_42535",
        "rank": 3,
        "job": [
          "12",
          "13",
          "14",
          "15",
          "22",
          "23",
          "24",
          "25",
          "32",
          "33",
          "34",
          "35",
          "42",
          "43",
          "44",
          "45",
          "52",
          "53",
          "54",
          "55",
          "62",
          "63",
          "64",
          "65",
          "72",
          "73",
          "74",
          "75",
          "82",
          "83",
          "84",
          "85",
          "92",
          "93",
          "94",
          "95",
          "102",
          "103",
          "104",
          "105",
          "112",
          "113",
          "114",
          "115",
          "122",
          "123",
          "124",
          "125",
          "132",
          "133",
          "134",
          "135",
          "143",
          "144",
          "145",
          "152",
          "153",
          "154",
          "155",
          "163",
          "164",
          "165",
          "173",
          "174",
          "175",
          "183",
          "184",
          "185",
          "203",
          "204",
          "205",
          "213",
          "214",
          "215",
          "223",
          "224",
          "225"
        ],
        "position": 2,
        "effect": "物理防御+46",
        "buff": "忽视魔法防御+30%",
        "isCompose": 0,
        "isUpgrade": 1,
        "isHigh": 0,
        "canSlot": 1,
        "canUpgrade": 1
      },
      {
        "id": "42534",
        "name": "皇家银盾",
        "icon": "item_42516",
        "rank": 3,
        "job": [
          "0"
        ],
        "position": 2,
        "effect": "物理防御+31",
        "buff": "生命上限+800\n物理防御+40",
        "isCompose": 0,
        "isUpgrade": 1,
        "isHigh": 0,
        "canSlot": 1,
        "canUpgrade": 1
      },
      {
        "id": "42525",
        "name": "奥尔里昂的铁盘",
        "icon": "item_42525",
        "rank": 4,
        "job": [
          "0"
        ],
        "position": 2,
        "effect": "物理防御+51",
        "buff": "魔法伤害反射+10%\n魔法防御+50",
        "isCompose": 0,
        "isUpgrade": 0,
        "isHigh": 0,
        "canSlot": 1,
        "canUpgrade": 1
      },
      {
        "id": "42524",
        "name": "静止之盾",
        "icon": "item_42524",
        "rank": 4,
        "job": [
          "12",
          "13",
          "14",
          "15",
          "22",
          "23",
          "24",
          "25",
          "32",
          "33",
          "34",
          "35",
          "42",
          "43",
          "44",
          "45",
          "52",
          "53",
          "54",
          "55",
          "62",
          "63",
          "64",
          "65",
          "72",
          "73",
          "74",
          "75",
          "82",
          "83",
          "84",
          "85",
          "92",
          "93",
          "94",
          "95",
          "102",
          "103",
          "104",
          "105",
          "112",
          "113",
          "114",
          "115",
          "122",
          "123",
          "124",
          "125",
          "132",
          "133",
          "134",
          "135",
          "143",
          "144",
          "145",
          "152",
          "153",
          "154",
          "155",
          "163",
          "164",
          "165",
          "173",
          "174",
          "175",
          "183",
          "184",
          "185",
          "203",
          "204",
          "205",
          "213",
          "214",
          "215",
          "223",
          "224",
          "225"
        ],
        "position": 2,
        "effect": "物理防御+51",
        "buff": "受到风、地、水、火属性伤害-25%",
        "isCompose": 0,
        "isUpgrade": 0,
        "isHigh": 0,
        "canSlot": 1,
        "canUpgrade": 1
      },
      {
        "id": "42519",
        "name": "魔力书籍",
        "icon": "item_42519",
        "rank": 3,
        "job": [
          "0"
        ],
        "position": 2,
        "effect": "物理防御+28",
        "buff": "忽视魔法防御+15%",
        "isCompose": 1,
        "isUpgrade": 0,
        "isHigh": 0,
        "canSlot": 1,
        "canUpgrade": 1
      },
      {
        "id": "42518",
        "name": "驱魔圣经",
        "icon": "item_42518",
        "rank": 4,
        "job": [
          "52",
          "53",
          "54",
          "55",
          "122",
          "123",
          "124",
          "125"
        ],
        "position": 2,
        "effect": "物理防御+94",
        "buff": "不死种族减伤+15%\n受到暗属性伤害-20%",
        "isCompose": 0,
        "isUpgrade": 0,
        "isHigh": 0,
        "canSlot": 1,
        "canUpgrade": 1
      },
      {
        "id": "42515",
        "name": "谎言纪录本",
        "icon": "item_42515",
        "rank": 3,
        "job": [
          "0"
        ],
        "position": 2,
        "effect": "物理防御+33",
        "buff": "所有技能SP消耗降低8%",
        "isCompose": 1,
        "isUpgrade": 0,
        "isHigh": 0,
        "canSlot": 1,
        "canUpgrade": 1
      },
      {
        "id": "42513",
        "name": "皇家之盾",
        "icon": "item_42513",
        "rank": 4,
        "job": [
          "11",
          "12",
          "13",
          "14",
          "15",
          "72",
          "73",
          "74",
          "75",
          "143",
          "144",
          "145",
          "203",
          "204",
          "205"
        ],
        "position": 2,
        "effect": "物理防御+103",
        "buff": "物伤减免+10%\n暴击防护+15",
        "isCompose": 0,
        "isUpgrade": 0,
        "isHigh": 0,
        "canSlot": 1,
        "canUpgrade": 1
      }
    ]
  }
}