{
  "code": 0,
  "status": "success",
  "timeStamp": 1643703173,
  "staticDomain": "http:\/\/rosc1.zhaiwuyu.com",
  "ip": "101.87.201.112",
  "language": "cn",
  "dbArea": 0,
  "data": {
    "page": 18,
    "pageSize": 10,
    "pageCount": 77,
    "total": 765,
    "list": [
      {
        "id": "42652",
        "name": "太阳轮盘",
        "icon": "item_42652",
        "rank": 3,
        "job": [
          "0"
        ],
        "position": 2,
        "effect": "物理防御+225",
        "buff": "体质+12\n生命上限+3000\n受到大、中、小型魔物伤害-12%，生命上限+5%；精炼+10时，受到大、中、小型魔物伤害-6%；精炼+15时，受到大、中、小型魔物伤害-6%",
        "isCompose": 0,
        "isUpgrade": 0,
        "isHigh": 0,
        "canSlot": 0,
        "canUpgrade": 0,
        "randomBuff": "受到大、中、小型魔物伤害-24%\n物伤减免+24%\n魔伤减免+24%\n生命上限+18%\n物理防御+36%\n魔法防御+36%"
      },
      {
        "id": "42651",
        "name": "神秘石盘",
        "icon": "item_42651",
        "rank": 2,
        "job": [
          "0"
        ],
        "position": 2,
        "effect": "物理防御+225",
        "buff": "体质+12\n生命上限+3000\n受到大、中、小型魔物伤害-12%，生命上限+5%；精炼+10时，受到大、中、小型魔物伤害-6%；精炼+15时，受到大、中、小型魔物伤害-6%",
        "isCompose": 0,
        "isUpgrade": 0,
        "isHigh": 0,
        "canSlot": 0,
        "canUpgrade": 0
      },
      {
        "id": "42649",
        "name": "引魂灯",
        "icon": "item_42649",
        "rank": 3,
        "job": [
          "0"
        ],
        "position": 2,
        "effect": "物理防御+180",
        "buff": "智力+12\n生命上限+2800\n圣属性攻击+8%，治疗加成+16%；精炼+10时，圣属性攻击+8%；精炼+15时，圣属性攻击+8%",
        "isCompose": 0,
        "isUpgrade": 0,
        "isHigh": 0,
        "canSlot": 0,
        "canUpgrade": 0,
        "randomBuff": "生命上限+18%\n物伤减免+24%\n魔伤减免+24%\n治疗加成+30%\n物理防御+36%\n魔法防御+36%"
      },
      {
        "id": "42648",
        "name": "船灯",
        "icon": "item_42648",
        "rank": 2,
        "job": [
          "0"
        ],
        "position": 2,
        "effect": "物理防御+180",
        "buff": "智力+12\n生命上限+2800\n圣属性攻击+8%，治疗加成+16%；精炼+10时，圣属性攻击+8%；精炼+15时，圣属性攻击+8%",
        "isCompose": 0,
        "isUpgrade": 0,
        "isHigh": 0,
        "canSlot": 0,
        "canUpgrade": 0
      },
      {
        "id": "42646",
        "name": "勇气之旗",
        "icon": "item_42646",
        "rank": 3,
        "job": [
          "0"
        ],
        "position": 2,
        "effect": "物理防御+180",
        "buff": "幸运+12\n生命上限+2800\n暴击+25、普攻攻击力+400\n精炼+10时，普攻攻击力+200；精炼+15时，普攻攻击力+200",
        "isCompose": 0,
        "isUpgrade": 0,
        "isHigh": 0,
        "canSlot": 0,
        "canUpgrade": 0,
        "randomBuff": "物理穿刺+18%\n物伤减免+24%\n魔伤减免+24%\n生命上限+18%\n物理防御+36%\n魔法防御+36%"
      },
      {
        "id": "42645",
        "name": "古代旗帜",
        "icon": "item_42645",
        "rank": 2,
        "job": [
          "0"
        ],
        "position": 2,
        "effect": "物理防御+180",
        "buff": "幸运+12\n生命上限+2800\n暴击+25、普攻攻击力+400\n精炼+10时，普攻攻击力+200；精炼+15时，普攻攻击力+200",
        "isCompose": 0,
        "isUpgrade": 0,
        "isHigh": 0,
        "canSlot": 0,
        "canUpgrade": 0
      },
      {
        "id": "42643",
        "name": "烈焰轻羽",
        "icon": "item_42643",
        "rank": 3,
        "job": [
          "0"
        ],
        "position": 2,
        "effect": "物理防御+180",
        "buff": "敏捷+12\n生命上限+2800\n装备攻速+24%；精炼+10时，物理攻击+8%；精炼+15时，物理攻击+8%",
        "isCompose": 0,
        "isUpgrade": 0,
        "isHigh": 0,
        "canSlot": 0,
        "canUpgrade": 0,
        "randomBuff": "物理攻击+30%\n物伤减免+24%\n魔伤减免+24%\n生命上限+18%\n物理防御+36%\n魔法防御+36%"
      },
      {
        "id": "42642",
        "name": "赤羽毛笔",
        "icon": "item_42642",
        "rank": 2,
        "job": [
          "0"
        ],
        "position": 2,
        "effect": "物理防御+180",
        "buff": "敏捷+12\n生命上限+2800\n装备攻速+24%；精炼+10时，物理攻击+8%；精炼+15时，物理攻击+8%",
        "isCompose": 0,
        "isUpgrade": 0,
        "isHigh": 0,
        "canSlot": 0,
        "canUpgrade": 0
      },
      {
        "id": "42640",
        "name": "彼岸之网",
        "icon": "item_42640",
        "rank": 3,
        "job": [
          "0"
        ],
        "position": 2,
        "effect": "物理防御+180",
        "buff": "智力+12\n生命上限+2800\n可变吟唱时间-20%、固定吟唱时间-10%、魔法攻击+200；精炼+10时，魔法攻击+8%；精炼+15时，魔法攻击+8%",
        "isCompose": 0,
        "isUpgrade": 0,
        "isHigh": 0,
        "canSlot": 0,
        "canUpgrade": 0,
        "randomBuff": "魔法穿刺+18%\n物伤减免+24%\n魔伤减免+24%\n生命上限+18%\n物理防御+36%\n魔法防御+36%"
      },
      {
        "id": "42639",
        "name": "捕梦网",
        "icon": "item_42639",
        "rank": 2,
        "job": [
          "0"
        ],
        "position": 2,
        "effect": "物理防御+180",
        "buff": "智力+12\n生命上限+2800\n可变吟唱时间-20%、固定吟唱时间-10%、魔法攻击+200；精炼+10时，魔法攻击+8%；精炼+15时，魔法攻击+8%",
        "isCompose": 0,
        "isUpgrade": 0,
        "isHigh": 0,
        "canSlot": 0,
        "canUpgrade": 0
      }
    ]
  }
}