{
  "code": 0,
  "status": "success",
  "timeStamp": 1642843457,
  "staticDomain": "http:\/\/rosc1.zhaiwuyu.com",
  "ip": "101.87.200.160",
  "language": "cn",
  "dbArea": 0,
  "data": {
    "page": 27,
    "pageSize": 10,
    "pageCount": 74,
    "total": 731,
    "list": [
      {
        "id": "42590",
        "name": "金腕",
        "icon": "item_42590",
        "rank": 4,
        "job": [
          "12",
          "13",
          "14",
          "15",
          "22",
          "23",
          "24",
          "25",
          "32",
          "33",
          "34",
          "35",
          "42",
          "43",
          "44",
          "45",
          "52",
          "53",
          "54",
          "55",
          "62",
          "63",
          "64",
          "65",
          "72",
          "73",
          "74",
          "75",
          "82",
          "83",
          "84",
          "85",
          "92",
          "93",
          "94",
          "95",
          "102",
          "103",
          "104",
          "105",
          "112",
          "113",
          "114",
          "115",
          "122",
          "123",
          "124",
          "125",
          "132",
          "133",
          "134",
          "135",
          "143",
          "144",
          "145",
          "152",
          "153",
          "154",
          "155",
          "163",
          "164",
          "165",
          "173",
          "174",
          "175",
          "183",
          "184",
          "185",
          "203",
          "204",
          "205",
          "213",
          "214",
          "215",
          "223",
          "224",
          "225"
        ],
        "position": 2,
        "effect": "物理防御+175",
        "buff": "力量+6、敏捷+6\n生命上限+2800\n装备攻速+15%；每精炼+1，装备攻速+1%\n当剑士系\/商人系\/超初系\/忍者系\/枪手系装备时每1%装备攻速将会为其带来1点物理攻击\n【神圣复仇者】星陨的触发概率+12%\n精炼+10时，近战职业普通攻击有5%概率触发【高昂】效果。【高昂】：物理攻击+10%，持续5秒\n精炼+15时，物理穿刺+5%\n精炼+8开始，每精炼+1，物理攻击+2%（总计16%）\n【洛奇的指甲Ⅴ】+【金腕】：每2%装备攻速转换1点物理攻击力\n【塔卡罗】（【升龙拳套IV】）+【华贵腕甲IV】（【金腕】）：每次普通攻击获得气弹的概率提升至60%",
        "isCompose": 0,
        "isUpgrade": 0,
        "isHigh": 1,
        "canSlot": 0,
        "canUpgrade": 0
      },
      {
        "id": "42589",
        "name": "圣母光辉[1]",
        "icon": "item_42589",
        "rank": 4,
        "job": [
          "12",
          "13",
          "14",
          "15",
          "22",
          "23",
          "24",
          "25",
          "32",
          "33",
          "34",
          "35",
          "42",
          "43",
          "44",
          "45",
          "52",
          "53",
          "54",
          "55",
          "62",
          "63",
          "64",
          "65",
          "72",
          "73",
          "74",
          "75",
          "82",
          "83",
          "84",
          "85",
          "92",
          "93",
          "94",
          "95",
          "102",
          "103",
          "104",
          "105",
          "112",
          "113",
          "114",
          "115",
          "122",
          "123",
          "124",
          "125",
          "132",
          "133",
          "134",
          "135",
          "143",
          "144",
          "145",
          "152",
          "153",
          "154",
          "155",
          "163",
          "164",
          "165",
          "173",
          "174",
          "175",
          "183",
          "184",
          "185",
          "203",
          "204",
          "205",
          "213",
          "214",
          "215",
          "223",
          "224",
          "225"
        ],
        "position": 2,
        "effect": "物理防御+200",
        "buff": "灵巧+6、智力+6\n生命上限+3000\n物理防御+40、魔法防御+40\n魔法上限+300\nSP恢复+10%\nSP恢复+10\n精炼+5时，魔法上限+5%；精炼+10时，魔法上限+10%；精炼+15时，魔法上限+10%，每10点魔法防御会额外为其带来1点魔法攻击，每20点物理防御会额外为其带来1点物理攻击\n精炼+8开始，每精炼+1，魔法上限+2%（总计16%）",
        "isCompose": 0,
        "isUpgrade": 0,
        "isHigh": 1,
        "canSlot": 0,
        "canUpgrade": 0
      },
      {
        "id": "42588",
        "name": "契约宝珠",
        "icon": "item_42588",
        "rank": 4,
        "job": [
          "82",
          "83",
          "84",
          "85"
        ],
        "position": 2,
        "effect": "物理防御+175",
        "buff": "智力+6、敏捷+6\n生命上限+2800\n装备攻速+10%；每精炼+1，装备攻速+1%\n精炼+10时，魔法攻击+5%；精炼+15时，魔法攻击+5%\n精炼+8开始，每精炼+1，魔法穿刺+1%（总计8%）",
        "isCompose": 0,
        "isUpgrade": 0,
        "isHigh": 1,
        "canSlot": 0,
        "canUpgrade": 0
      },
      {
        "id": "42587",
        "name": "奥术法典",
        "icon": "item_42587",
        "rank": 4,
        "job": [
          "12",
          "13",
          "14",
          "15",
          "22",
          "23",
          "24",
          "25",
          "32",
          "33",
          "34",
          "35",
          "42",
          "43",
          "44",
          "45",
          "52",
          "53",
          "54",
          "55",
          "62",
          "63",
          "64",
          "65",
          "72",
          "73",
          "74",
          "75",
          "82",
          "83",
          "84",
          "85",
          "92",
          "93",
          "94",
          "95",
          "102",
          "103",
          "104",
          "105",
          "112",
          "113",
          "114",
          "115",
          "122",
          "123",
          "124",
          "125",
          "132",
          "133",
          "134",
          "135",
          "143",
          "144",
          "145",
          "152",
          "153",
          "154",
          "155",
          "163",
          "164",
          "165",
          "173",
          "174",
          "175",
          "183",
          "184",
          "185",
          "203",
          "204",
          "205",
          "213",
          "214",
          "215",
          "223",
          "224",
          "225"
        ],
        "position": 2,
        "effect": "物理防御+175",
        "buff": "智力+12\n生命上限+2800\nSp恢复+20\n所有技能SP消耗-12%；每精炼+1，所有技能SP消耗额外减少1%\n精炼+10时，所有技能SP消耗-8%；精炼+15时，所有技能SP消耗-5%、技能冷却-10%\n精炼+8开始，每精炼+1，技能延迟-2%（总计16%）",
        "isCompose": 0,
        "isUpgrade": 0,
        "isHigh": 1,
        "canSlot": 0,
        "canUpgrade": 0
      },
      {
        "id": "42586",
        "name": "束缚之约",
        "icon": "item_42586",
        "rank": 4,
        "job": [
          "12",
          "13",
          "14",
          "15",
          "22",
          "23",
          "24",
          "25",
          "32",
          "33",
          "34",
          "35",
          "42",
          "43",
          "44",
          "45",
          "52",
          "53",
          "54",
          "55",
          "62",
          "63",
          "64",
          "65",
          "72",
          "73",
          "74",
          "75",
          "82",
          "83",
          "84",
          "85",
          "92",
          "93",
          "94",
          "95",
          "102",
          "103",
          "104",
          "105",
          "112",
          "113",
          "114",
          "115",
          "122",
          "123",
          "124",
          "125",
          "132",
          "133",
          "134",
          "135",
          "143",
          "144",
          "145",
          "152",
          "153",
          "154",
          "155",
          "163",
          "164",
          "165",
          "173",
          "174",
          "175",
          "183",
          "184",
          "185",
          "203",
          "204",
          "205",
          "213",
          "214",
          "215",
          "223",
          "224",
          "225"
        ],
        "position": 2,
        "effect": "物理防御+175",
        "buff": "智力+6、灵巧+6\n生命上限+2800\n忽视魔法防御+30%\n每1%忽视魔法防御加0.5点魔法攻击\n精炼+10时，当忽视魔法防御大于60%时，魔法攻击+3%；精炼+15时，忽视魔法防御+5%\n精炼+8开始，每精炼+1，忽视魔法防御+2%（总计16%）",
        "isCompose": 0,
        "isUpgrade": 0,
        "isHigh": 1,
        "canSlot": 0,
        "canUpgrade": 0
      },
      {
        "id": "42585",
        "name": "巅峰料理盘",
        "icon": "item_42585",
        "rank": 4,
        "job": [
          "0"
        ],
        "position": 2,
        "effect": "物理防御+200",
        "buff": "智力+12\n生命上限+3000\n魔法防御+70\n魔法伤害反射+10%\n魔法攻击+5%；每精炼+1时，魔法攻击+1%\n精炼+15时，固定吟唱时间-10%\n精炼+8开始，每精炼+1，魔法穿刺+1%（总计8%）",
        "isCompose": 0,
        "isUpgrade": 0,
        "isHigh": 1,
        "canSlot": 0,
        "canUpgrade": 0
      },
      {
        "id": "42584",
        "name": "巨铠圣盾",
        "icon": "item_42584",
        "rank": 4,
        "job": [
          "12",
          "13",
          "14",
          "15",
          "22",
          "23",
          "24",
          "25",
          "32",
          "33",
          "34",
          "35",
          "42",
          "43",
          "44",
          "45",
          "52",
          "53",
          "54",
          "55",
          "62",
          "63",
          "64",
          "65",
          "72",
          "73",
          "74",
          "75",
          "82",
          "83",
          "84",
          "85",
          "92",
          "93",
          "94",
          "95",
          "102",
          "103",
          "104",
          "105",
          "112",
          "113",
          "114",
          "115",
          "122",
          "123",
          "124",
          "125",
          "132",
          "133",
          "134",
          "135",
          "143",
          "144",
          "145",
          "152",
          "153",
          "154",
          "155",
          "163",
          "164",
          "165",
          "173",
          "174",
          "175",
          "183",
          "184",
          "185",
          "203",
          "204",
          "205",
          "213",
          "214",
          "215",
          "223",
          "224",
          "225"
        ],
        "position": 2,
        "effect": "物理防御+225",
        "buff": "体质+12\n生命上限+3000\n受到风、地、水、火属性伤害-30%\n魔法防御+5%；每精炼+1时，魔法防御+1%\n每精炼+1时，受无属性伤害-2%\n精炼+8开始，每精炼+1，受无、风、地、水、火属性伤害-1%（总计8%）",
        "isCompose": 0,
        "isUpgrade": 0,
        "isHigh": 1,
        "canSlot": 0,
        "canUpgrade": 0
      },
      {
        "id": "42583",
        "name": "龙焰盾",
        "icon": "item_42583",
        "rank": 4,
        "job": [
          "52",
          "53",
          "54",
          "55",
          "72",
          "73",
          "74",
          "75"
        ],
        "position": 2,
        "effect": "物理防御+200",
        "buff": "智力+6、力量+6\n生命上限+3000\n魔法攻击+12%、物理攻击+8%\n每3点智力可额外增加1点物理攻击\n【圣十字审判】技能吟唱减少10%，【圣十字审判】Sp消耗减少10%\n【圣十字审判】技能倍率+200%；每精炼+1，【圣十字审判】技能倍率+30%\n【枪阵-血十字】技能倍率+100%；每精炼+1，【枪阵-血十字】技能倍率+20%\n精炼+15时，魔法攻击+8%、物理攻击+8%\n精炼+8开始，每精炼+1，物理伤害、魔法伤害+1%（总计8%）\n【旗鱼枪IV】（【深海恐惧】）+【娜迦鳞盾Ⅷ】（龙焰盾）：【枪阵-血十字】伤害+10%，【枪阵-血十字】SP消耗-10%",
        "isCompose": 0,
        "isUpgrade": 0,
        "isHigh": 1,
        "canSlot": 0,
        "canUpgrade": 0
      },
      {
        "id": "42582",
        "name": "神眼",
        "icon": "item_42582",
        "rank": 4,
        "job": [
          "52",
          "53",
          "54",
          "55",
          "122",
          "123",
          "124",
          "125"
        ],
        "position": 2,
        "effect": "物理防御+180",
        "buff": "生命上限+3000\n对不死、恶魔种族伤害+15%\n圣属性攻击+5%\n不死种族减伤+15%\n受到暗属性伤害-20%\n每精炼+1，【十字驱魔】伤害+1%、圣属性攻击+1%\n精炼+8开始，每精炼+1，魔法伤害+1%（总计8%）",
        "isCompose": 0,
        "isUpgrade": 0,
        "isHigh": 1,
        "canSlot": 0,
        "canUpgrade": 0
      },
      {
        "id": "42581",
        "name": "涅槃之盾",
        "icon": "item_42581",
        "rank": 4,
        "job": [
          "72",
          "73",
          "74",
          "75"
        ],
        "position": 2,
        "effect": "物理防御+225",
        "buff": "力量+12\n生命上限+3000\n魔法上限+200\n受到来自【牺牲】的伤害降低10%\n【连续盾击】，【回旋盾击】伤害+15%\n精炼+5时，【盾击】、【连续盾击】、【回旋盾击】伤害+5%；精炼+10时，【盾击】、【连续盾击】、【回旋盾击】伤害+10%，物理攻击+5%；精炼+15时，物理攻击+5%、生命上限+5%\n精炼+8开始，每精炼+1，物理伤害+1%（总计8%）",
        "isCompose": 0,
        "isUpgrade": 0,
        "isHigh": 1,
        "canSlot": 0,
        "canUpgrade": 0
      }
    ]
  }
}