{
  "code": 0,
  "status": "success",
  "timeStamp": 1642843276,
  "staticDomain": "http:\/\/rosc1.zhaiwuyu.com",
  "ip": "101.87.200.160",
  "language": "cn",
  "dbArea": 0,
  "data": {
    "page": 9,
    "pageSize": 10,
    "pageCount": 74,
    "total": 731,
    "list": [
      {
        "id": "42668",
        "name": "噩梦原典",
        "icon": "item_42668",
        "rank": 4,
        "job": [
          "0"
        ],
        "position": 2,
        "effect": "物理防御+180",
        "buff": "敏捷+12\n生命上限+2800\n装备攻速+24%；精炼+10时，魔法攻击+8%；精炼+15时，魔法攻击+8%",
        "isCompose": 0,
        "isUpgrade": 0,
        "isHigh": 0,
        "canSlot": 0,
        "canUpgrade": 0,
        "randomBuff": "魔法攻击+30%\n物伤减免+24%\n魔伤减免+24%\n生命上限+18%\n物理防御+36%\n魔法防御+36%\nPVP\/GVG中受玩家伤害-7.5%"
      },
      {
        "id": "42665",
        "name": "末日箴言",
        "icon": "item_42665",
        "rank": 4,
        "job": [
          "0"
        ],
        "position": 2,
        "effect": "物理防御+225",
        "buff": "体质+12\n生命上限+3000\n生命上限+8%、受治疗加成+20%；精炼+10时，生命上限+4%；精炼+15时，生命上限+4%",
        "isCompose": 0,
        "isUpgrade": 0,
        "isHigh": 0,
        "canSlot": 0,
        "canUpgrade": 0,
        "randomBuff": "生命上限+18%\n物伤减免+24%\n魔伤减免+24%\n受治疗加成+45%\n物理防御+36%\n魔法防御+36%\nPVP\/GVG中受玩家伤害-7.5%"
      },
      {
        "id": "42662",
        "name": "海灵壁垒",
        "icon": "item_42662",
        "rank": 4,
        "job": [
          "0"
        ],
        "position": 2,
        "effect": "物理防御+225",
        "buff": "体质+12\n生命上限+3000\n受到风、地、水、火、无属性伤害-12%，物理、魔法防御+10%；精炼+10时，受到风、地、水、火、无属性伤害-6%；精炼+15时，受到风、地、水、火、无属性伤害-6%",
        "isCompose": 0,
        "isUpgrade": 0,
        "isHigh": 0,
        "canSlot": 0,
        "canUpgrade": 0,
        "randomBuff": "受到风、地、水、火、无属性伤害-24%\n物伤减免+24%\n魔伤减免+24%\n生命上限+18%\n物理防御+36%\n魔法防御+36%\nPVP\/GVG中受玩家伤害-7.5%"
      },
      {
        "id": "42659",
        "name": "祖灵之庇佑",
        "icon": "item_42659",
        "rank": 4,
        "job": [
          "0"
        ],
        "position": 2,
        "effect": "物理防御+225",
        "buff": "体质+12\n生命上限+3000\n受到无、圣、暗、念、毒属性伤害-12%，物理、魔法防御+10%；精炼+10时，受到无、圣、暗、念、毒属性伤害-6%；精炼+15时，受到无、圣、暗、念、毒属性伤害-6%",
        "isCompose": 0,
        "isUpgrade": 0,
        "isHigh": 0,
        "canSlot": 0,
        "canUpgrade": 0,
        "randomBuff": "受到无、圣、暗、念、毒属性伤害-24%\n物伤减免+24%\n魔伤减免+24%\n生命上限+18%\n物理防御+36%\n魔法防御+36%\nPVP\/GVG中受玩家伤害-7.5%"
      },
      {
        "id": "42656",
        "name": "生息之坛",
        "icon": "item_42656",
        "rank": 4,
        "job": [
          "0"
        ],
        "position": 2,
        "effect": "物理防御+200",
        "buff": "智力+12\n生命上限+3000\n魔法上限+12%、魔法上限+300；精炼+10时，魔法上限+6%；精炼+15时，魔法上限+6%",
        "isCompose": 0,
        "isUpgrade": 0,
        "isHigh": 0,
        "canSlot": 0,
        "canUpgrade": 0,
        "randomBuff": "魔法上限+24%\n物伤减免+24%\n魔伤减免+24%\n生命上限+18%\n物理防御+36%\n魔法防御+36%\nPVP\/GVG中受玩家伤害-7.5%"
      },
      {
        "id": "42653",
        "name": "历史见证者",
        "icon": "item_42653",
        "rank": 4,
        "job": [
          "0"
        ],
        "position": 2,
        "effect": "物理防御+225",
        "buff": "体质+12\n生命上限+3000\n受到大、中、小型魔物伤害-12%，生命上限+5%；精炼+10时，受到大、中、小型魔物伤害-6%；精炼+15时，受到大、中、小型魔物伤害-6%",
        "isCompose": 0,
        "isUpgrade": 0,
        "isHigh": 0,
        "canSlot": 0,
        "canUpgrade": 0,
        "randomBuff": "受到大、中、小型魔物伤害-24%\n物伤减免+24%\n魔伤减免+24%\n生命上限+18%\n物理防御+36%\n魔法防御+36%\nPVP\/GVG中受玩家伤害-7.5%"
      },
      {
        "id": "42650",
        "name": "万灵归途",
        "icon": "item_42650",
        "rank": 4,
        "job": [
          "0"
        ],
        "position": 2,
        "effect": "物理防御+180",
        "buff": "智力+12\n生命上限+2800\n圣属性攻击+8%，治疗加成+16%；精炼+10时，圣属性攻击+8%；精炼+15时，圣属性攻击+8%",
        "isCompose": 0,
        "isUpgrade": 0,
        "isHigh": 0,
        "canSlot": 0,
        "canUpgrade": 0,
        "randomBuff": "生命上限+18%\n物伤减免+24%\n魔伤减免+24%\n治疗加成+30%\n物理防御+36%\n魔法防御+36%\nPVP\/GVG中受玩家伤害-7.5%"
      },
      {
        "id": "42647",
        "name": "不屈战团的传承",
        "icon": "item_42647",
        "rank": 4,
        "job": [
          "0"
        ],
        "position": 2,
        "effect": "物理防御+180",
        "buff": "幸运+12\n生命上限+2800\n暴击+25、普攻攻击力+400\n精炼+10时，普攻攻击力+200；精炼+15时，普攻攻击力+200",
        "isCompose": 0,
        "isUpgrade": 0,
        "isHigh": 0,
        "canSlot": 0,
        "canUpgrade": 0,
        "randomBuff": "物理穿刺+18%\n物伤减免+24%\n魔伤减免+24%\n生命上限+18%\n物理防御+36%\n魔法防御+36%\nPVP\/GVG中受玩家伤害-7.5%"
      },
      {
        "id": "42644",
        "name": "不死鸟之羽",
        "icon": "item_42644",
        "rank": 4,
        "job": [
          "0"
        ],
        "position": 2,
        "effect": "物理防御+180",
        "buff": "敏捷+12\n生命上限+2800\n装备攻速+24%；精炼+10时，物理攻击+8%；精炼+15时，物理攻击+8%",
        "isCompose": 0,
        "isUpgrade": 0,
        "isHigh": 0,
        "canSlot": 0,
        "canUpgrade": 0,
        "randomBuff": "物理攻击+30%\n物伤减免+24%\n魔伤减免+24%\n生命上限+18%\n物理防御+36%\n魔法防御+36%\nPVP\/GVG中受玩家伤害-7.5%"
      },
      {
        "id": "42641",
        "name": "梦境守护者",
        "icon": "item_42641",
        "rank": 4,
        "job": [
          "0"
        ],
        "position": 2,
        "effect": "物理防御+180",
        "buff": "智力+12\n生命上限+2800\n可变吟唱时间-20%、固定吟唱时间-10%、魔法攻击+200；精炼+10时，魔法攻击+8%；精炼+15时，魔法攻击+8%",
        "isCompose": 0,
        "isUpgrade": 0,
        "isHigh": 0,
        "canSlot": 0,
        "canUpgrade": 0,
        "randomBuff": "魔法穿刺+18%\n物伤减免+24%\n魔伤减免+24%\n生命上限+18%\n物理防御+36%\n魔法防御+36%\nPVP\/GVG中受玩家伤害-7.5%"
      }
    ]
  }
}