{
  "code": 0,
  "status": "success",
  "timeStamp": 1643703560,
  "staticDomain": "http:\/\/rosc1.zhaiwuyu.com",
  "ip": "101.87.201.112",
  "language": "cn",
  "dbArea": 0,
  "data": {
    "page": 56,
    "pageSize": 10,
    "pageCount": 77,
    "total": 765,
    "list": [
      {
        "id": "62507",
        "name": "龙爪拳套[1]",
        "icon": "item_62507",
        "rank": 3,
        "job": [
          "122",
          "123",
          "124",
          "125"
        ],
        "position": 1,
        "effect": "物理攻击+303",
        "buff": "力量+10\n精炼+5，+10，+15时，物理攻击+5%，+10%，+15%\n每精炼+1，普通攻击力提高60点",
        "isCompose": 0,
        "isUpgrade": 1,
        "isHigh": 0,
        "canSlot": 1,
        "canUpgrade": 1
      },
      {
        "id": "62506",
        "name": "升龙拳套[1]",
        "icon": "item_62506",
        "rank": 4,
        "job": [
          "122",
          "123",
          "124",
          "125"
        ],
        "position": 1,
        "effect": "物理攻击+320",
        "buff": "智力+5\n【六合拳】伤害提升10%，【连环全身掌】伤害提升10%，【猛龙夸强】伤害提升15%\n【塔卡罗】（【升龙拳套IV】）+【华贵腕甲IV】（【金腕】）：每次普通攻击获得气弹的概率提升至60%",
        "isCompose": 0,
        "isUpgrade": 0,
        "isHigh": 0,
        "canSlot": 1,
        "canUpgrade": 1
      },
      {
        "id": "62505",
        "name": "贺勒拳套[1]",
        "icon": "item_62505",
        "rank": 3,
        "job": [
          "122",
          "123",
          "124",
          "125"
        ],
        "position": 1,
        "effect": "物理攻击+390",
        "buff": "体质+6\n生命上限+1600\n生命自然恢复+15\n使装备者在【金刚不坏】状态下移动速度惩罚移除\n【贺勒拳套】+【圣者法袍IV】：生命上限+5%",
        "isCompose": 0,
        "isUpgrade": 1,
        "isHigh": 0,
        "canSlot": 1,
        "canUpgrade": 0
      },
      {
        "id": "62504",
        "name": "钢铁拳套[1]",
        "icon": "item_62504",
        "rank": 3,
        "job": [
          "122",
          "123",
          "124",
          "125"
        ],
        "position": 1,
        "effect": "物理攻击+223",
        "buff": "体质+3\n生命上限+800\n生命自然恢复+10",
        "isCompose": 1,
        "isUpgrade": 0,
        "isHigh": 0,
        "canSlot": 1,
        "canUpgrade": 1
      },
      {
        "id": "62503",
        "name": "虎爪拳套[1]",
        "icon": "item_62503",
        "rank": 3,
        "job": [
          "122",
          "123",
          "124",
          "125"
        ],
        "position": 1,
        "effect": "物理攻击+202",
        "buff": "力量+3\n精炼+5，+10时，物理攻击+5%，+10%",
        "isCompose": 1,
        "isUpgrade": 0,
        "isHigh": 0,
        "canSlot": 1,
        "canUpgrade": 1
      },
      {
        "id": "42539",
        "name": "坚固盾牌",
        "icon": "item_42539",
        "rank": 3,
        "job": [
          "12",
          "13",
          "14",
          "15",
          "72",
          "73",
          "74",
          "75",
          "203",
          "204",
          "205"
        ],
        "position": 2,
        "effect": "物理防御+46",
        "buff": "体质+5\n魔法防御+15\n受到来自【牺牲】的伤害降低5%",
        "isCompose": 1,
        "isUpgrade": 0,
        "isHigh": 0,
        "canSlot": 1,
        "canUpgrade": 1
      },
      {
        "id": "42060",
        "name": "秘银重型铠甲",
        "icon": "item_42060",
        "rank": 3,
        "job": [
          "72",
          "73",
          "74",
          "75"
        ],
        "position": 3,
        "effect": "物理防御+157",
        "buff": "体质+6\n生命上限+15%\n精炼+5，+10，+15时，受到暴击伤害-5%，-10%，-15%",
        "isCompose": 0,
        "isUpgrade": 1,
        "isHigh": 0,
        "canSlot": 1,
        "canUpgrade": 1
      },
      {
        "id": "42059",
        "name": "秘银金属铠甲",
        "icon": "item_42059",
        "rank": 3,
        "job": [
          "72",
          "73",
          "74",
          "75"
        ],
        "position": 3,
        "effect": "物理防御+90",
        "buff": "体质+2\n生命上限+10%\n精炼+5，+10时，受到暴击伤害-5%，-10%",
        "isCompose": 1,
        "isUpgrade": 0,
        "isHigh": 0,
        "canSlot": 1,
        "canUpgrade": 1
      },
      {
        "id": "41848",
        "name": "鲜血斧[1]",
        "icon": "item_41848",
        "rank": 3,
        "job": [
          "12",
          "13",
          "14",
          "15",
          "62",
          "63",
          "64",
          "65",
          "132",
          "133",
          "134",
          "135",
          "203",
          "204",
          "205",
          "213",
          "214",
          "215"
        ],
        "position": 1,
        "effect": "物理攻击+288",
        "buff": "幸运达到90时物理攻击+100\n灵巧达到90以上时【金钱攻击】伤害+50%\n精炼+5，+10，+15时【金钱攻击】伤害+10%，20%，30%\n使用【金钱攻击】时10%概率暴击使技能造成1.5倍伤害",
        "isCompose": 0,
        "isUpgrade": 1,
        "isHigh": 0,
        "canSlot": 1,
        "canUpgrade": 1
      },
      {
        "id": "40038",
        "name": "青铁柱枪[1]",
        "icon": "item_40038",
        "rank": 3,
        "job": [
          "12",
          "13",
          "14",
          "15",
          "72",
          "73",
          "74",
          "75",
          "203",
          "204",
          "205"
        ],
        "position": 1,
        "effect": "物理攻击+353",
        "buff": "体质+9\n精炼每+1则物理防御+1.5%，魔法防御+1%\n【青铁柱枪Ⅳ】（【圣佑长枪】）+【重靴Ⅷ】+【石制圆盾Ⅳ】（陨坚圆盾）：忽视物理防御+5%、物理攻击+5%",
        "isCompose": 0,
        "isUpgrade": 1,
        "isHigh": 0,
        "canSlot": 1,
        "canUpgrade": 1
      }
    ]
  }
}