{
  "code": 0,
  "status": "success",
  "timeStamp": 1642843396,
  "staticDomain": "http:\/\/rosc1.zhaiwuyu.com",
  "ip": "101.87.200.160",
  "language": "cn",
  "dbArea": 0,
  "data": {
    "page": 21,
    "pageSize": 10,
    "pageCount": 74,
    "total": 731,
    "list": [
      {
        "id": "44340",
        "name": "天后的恸哭",
        "icon": "item_44340",
        "rank": 4,
        "job": [
          "152",
          "153",
          "154",
          "155"
        ],
        "position": 14,
        "effect": "物理攻击+450",
        "buff": "灵巧+20\n体质+10\n全能力+8\n生命上限+10%\n物理攻击+12%\n物理穿刺+12%\n人形种族伤害+30%\n生命上限+15000",
        "isCompose": 1,
        "isUpgrade": 0,
        "isHigh": 0,
        "canSlot": 0,
        "canUpgrade": 0
      },
      {
        "id": "63153",
        "name": "猪笼草竖琴[1]",
        "icon": "item_63153",
        "rank": 4,
        "job": [
          "102",
          "103",
          "104",
          "105"
        ],
        "position": 1,
        "effect": "物理攻击+448",
        "buff": "灵巧+8\n毒属性\n物理攻击+5%\n技能攻击时，有10%概率使目标中毒，持续5秒；精炼+15时，该中毒状态不可解除\n每精炼+1，对中毒目标伤害+1%",
        "isCompose": 0,
        "isUpgrade": 0,
        "isHigh": 0,
        "canSlot": 1,
        "canUpgrade": 0
      },
      {
        "id": "62819",
        "name": "毒鞭 蔷薇[1]",
        "icon": "item_62819",
        "rank": 4,
        "job": [
          "112",
          "113",
          "114",
          "115"
        ],
        "position": 1,
        "effect": "物理攻击+448",
        "buff": "灵巧+8\n毒属性\n物理攻击+5%\n技能攻击时，有10%概率使目标中毒，持续5秒；精炼+15时，该中毒状态不可解除\n每精炼+1，对中毒目标伤害+1%",
        "isCompose": 0,
        "isUpgrade": 0,
        "isHigh": 0,
        "canSlot": 1,
        "canUpgrade": 0
      },
      {
        "id": "62511",
        "name": "卡仑的指甲[1]",
        "icon": "item_62511",
        "rank": 4,
        "job": [
          "122",
          "123",
          "124",
          "125"
        ],
        "position": 1,
        "effect": "物理攻击+480",
        "buff": "力量+8\n物理攻击+5%\n攻击目标时，有10%概率使目标陷入流血状态，持续10秒\n对30%血量以下目标造成伤害+50%",
        "isCompose": 0,
        "isUpgrade": 0,
        "isHigh": 0,
        "canSlot": 1,
        "canUpgrade": 0
      },
      {
        "id": "44085",
        "name": "忍者的进阶指南",
        "icon": "item_44085",
        "rank": 4,
        "job": [
          "163",
          "164",
          "165"
        ],
        "position": 6,
        "effect": "物理攻击+224",
        "buff": "力量+12\n移动速度+2%\n普攻攻击力+40\n精炼+8时，普攻攻击+40；精炼+12时，普攻伤害+3%；精炼+15时，普攻伤害+3%",
        "isCompose": 0,
        "isUpgrade": 0,
        "isHigh": 1,
        "canSlot": 0,
        "canUpgrade": 0
      },
      {
        "id": "44084",
        "name": "忍者的入门手册",
        "icon": "item_44084",
        "rank": 3,
        "job": [
          "163",
          "164",
          "165"
        ],
        "position": 6,
        "effect": "物理攻击+54",
        "buff": "力量+2\n移动速度+2%\n普攻攻击力+40\n精炼+12时，普攻伤害+3%",
        "isCompose": 1,
        "isUpgrade": 0,
        "isHigh": 0,
        "canSlot": 1,
        "canUpgrade": 1
      },
      {
        "id": "43587",
        "name": "蜉蝣长靴",
        "icon": "item_43587",
        "rank": 4,
        "job": [
          "0"
        ],
        "position": 5,
        "effect": "物理防御+120",
        "buff": "移动速度+13%\n幸运+12\n生命上限+3000\n受到水属性伤害-30%\n法术普攻暴击概率+10%；精炼+5时，法术普攻暴击概率+5%；精炼+10时，法术普攻暴击概率+5%；精炼+15时，法术普攻暴击概率+5%\n【防水靴Ⅵ】（蜉蝣长靴）+【丝质外袍Ⅵ】（魔光茧织）：普通攻击10%概率使目标变成水属性，持续10秒",
        "isCompose": 0,
        "isUpgrade": 0,
        "isHigh": 1,
        "canSlot": 0,
        "canUpgrade": 0
      },
      {
        "id": "43586",
        "name": "生命树之靴",
        "icon": "item_43586",
        "rank": 3,
        "job": [
          "0"
        ],
        "position": 5,
        "effect": "物理防御+90",
        "buff": "体质+6\nHP恢复+10%\n生命上限+5%\n受治疗加成+5%\n每10秒恢复1000点HP",
        "isCompose": 0,
        "isUpgrade": 0,
        "isHigh": 0,
        "canSlot": 1,
        "canUpgrade": 0
      },
      {
        "id": "43585",
        "name": "绿萝藤编鞋",
        "icon": "item_43585",
        "rank": 4,
        "job": [
          "12",
          "13",
          "14",
          "15",
          "22",
          "23",
          "24",
          "25",
          "32",
          "33",
          "34",
          "35",
          "42",
          "43",
          "44",
          "45",
          "52",
          "53",
          "54",
          "55",
          "62",
          "63",
          "64",
          "65",
          "72",
          "73",
          "74",
          "75",
          "82",
          "83",
          "84",
          "85",
          "92",
          "93",
          "94",
          "95",
          "102",
          "103",
          "104",
          "105",
          "112",
          "113",
          "114",
          "115",
          "122",
          "123",
          "124",
          "125",
          "132",
          "133",
          "134",
          "135",
          "143",
          "144",
          "145",
          "152",
          "153",
          "154",
          "155",
          "163",
          "164",
          "165",
          "173",
          "174",
          "175",
          "183",
          "184",
          "185",
          "203",
          "204",
          "205",
          "213",
          "214",
          "215",
          "223",
          "224",
          "225"
        ],
        "position": 5,
        "effect": "物理防御+120",
        "buff": "移动速度+12%\n生命上限+3000\n魔法防御+80\n魔伤减免+8%\n精炼+5时，物伤减免+3%；精炼+10时，物伤减免+5%；精炼+15时，魔伤减免+5%、物伤减免+5%",
        "isCompose": 0,
        "isUpgrade": 0,
        "isHigh": 1,
        "canSlot": 0,
        "canUpgrade": 0
      },
      {
        "id": "43584",
        "name": "皇帝的高筒靴",
        "icon": "item_43584",
        "rank": 4,
        "job": [
          "0"
        ],
        "position": 5,
        "effect": "物理防御+120",
        "buff": "移动速度+12%\n生命上限+2500\n魔法上限+500\n精炼+5时，魔法上限+3%；精炼+10时，魔法上限+4%，生命上限+2%；精炼+15时，魔法上限+5%，生命上限+3%",
        "isCompose": 0,
        "isUpgrade": 0,
        "isHigh": 1,
        "canSlot": 0,
        "canUpgrade": 0
      }
    ]
  }
}