{
  "code": 0,
  "status": "success",
  "timeStamp": 1643703732,
  "staticDomain": "http:\/\/rosc1.zhaiwuyu.com",
  "ip": "101.87.201.112",
  "language": "cn",
  "dbArea": 0,
  "data": {
    "page": 73,
    "pageSize": 10,
    "pageCount": 77,
    "total": 765,
    "list": [
      {
        "id": "40914",
        "name": "代理者拳刃[1]",
        "icon": "item_40914",
        "rank": 3,
        "job": [
          "32",
          "33",
          "34",
          "35"
        ],
        "position": 1,
        "effect": "物理攻击+200",
        "buff": "使暴击翻倍\n物理攻击+30\n暴击+10\n暴击伤害+25%",
        "isCompose": 0,
        "isUpgrade": 1,
        "isHigh": 0,
        "canSlot": 1,
        "canUpgrade": 1
      },
      {
        "id": "40912",
        "name": "斩首拳刃[1]",
        "icon": "item_40912",
        "rank": 3,
        "job": [
          "32",
          "33",
          "34",
          "35"
        ],
        "position": 1,
        "effect": "物理攻击+180",
        "buff": "使暴击翻倍\n生命上限+800\n当自身生命值低于25%时获得嗜血效果，使接下来攻击加速并获得伤害吸血效果持续10秒（嗜血效果内置CD120秒）",
        "isCompose": 1,
        "isUpgrade": 0,
        "isHigh": 0,
        "canSlot": 1,
        "canUpgrade": 0
      },
      {
        "id": "40920",
        "name": "漆黑之牙[1]",
        "icon": "item_40920",
        "rank": 2,
        "job": [
          "31",
          "32",
          "33",
          "34",
          "35",
          "92",
          "93",
          "94",
          "95"
        ],
        "position": 1,
        "effect": "物理攻击+57",
        "buff": "使暴击翻倍\n力量+2\n物理攻击+10\n力量达到75以上时近战物理攻击力+10%",
        "isCompose": 1,
        "isUpgrade": 0,
        "isHigh": 0,
        "canSlot": 1,
        "canUpgrade": 1
      },
      {
        "id": "40919",
        "name": "洛奇的指甲[1]",
        "icon": "item_40919",
        "rank": 4,
        "job": [
          "32",
          "33",
          "34",
          "35"
        ],
        "position": 1,
        "effect": "物理攻击+144",
        "buff": "使暴击翻倍\n敏捷+2\n普攻时概率进入急速状态：装备攻速+30%持续7秒\n【洛奇的指甲Ⅴ】+【华贵腕甲】：每2%装备攻速转换1点物理攻击力\n【洛奇的指甲Ⅸ】+【风行者斗篷】：【回旋十字斩】的伤害+5%\n【洛奇的指甲Ⅴ】+【金腕】：每2%装备攻速转换1点物理攻击力",
        "isCompose": 0,
        "isUpgrade": 0,
        "isHigh": 0,
        "canSlot": 1,
        "canUpgrade": 1
      },
      {
        "id": "40909",
        "name": "血之泪[1]",
        "icon": "item_40909",
        "rank": 4,
        "job": [
          "32",
          "33",
          "34",
          "35"
        ],
        "position": 1,
        "effect": "物理攻击+159",
        "buff": "使暴击翻倍\n习得拳刃修炼时命中+40\n【毒刃】伤害提升25%\n【无影之牙】伤害提升50%",
        "isCompose": 0,
        "isUpgrade": 0,
        "isHigh": 0,
        "canSlot": 1,
        "canUpgrade": 1
      },
      {
        "id": "40904",
        "name": "刺藤拳刃[1]",
        "icon": "item_40904",
        "rank": 3,
        "job": [
          "32",
          "33",
          "34",
          "35"
        ],
        "position": 1,
        "effect": "物理攻击+115",
        "buff": "使暴击翻倍\n暴击+5\n暴击伤害+15%",
        "isCompose": 1,
        "isUpgrade": 0,
        "isHigh": 0,
        "canSlot": 1,
        "canUpgrade": 1
      },
      {
        "id": "40738",
        "name": "紫毒短剑[1]",
        "icon": "item_40738",
        "rank": 3,
        "job": [
          "32",
          "33",
          "34",
          "35"
        ],
        "position": 1,
        "effect": "物理攻击+210",
        "buff": "力量+5\n有较高几率在普攻时使目标陷入中毒状态\n精炼每+1，忽视物理防御+3%\n使中毒效果不可被万能药驱散\n【病毒散播】和【毒刃】伤害效果提升100%",
        "isCompose": 0,
        "isUpgrade": 1,
        "isHigh": 0,
        "canSlot": 1,
        "canUpgrade": 1
      },
      {
        "id": "40736",
        "name": "水灵短剑[1]",
        "icon": "item_40736",
        "rank": 3,
        "job": [
          "0"
        ],
        "position": 1,
        "effect": "物理攻击+120",
        "buff": "水属性\n力量+5\n精炼每+1物理伤害+1%",
        "isCompose": 1,
        "isUpgrade": 0,
        "isHigh": 0,
        "canSlot": 1,
        "canUpgrade": 0
      },
      {
        "id": "40735",
        "name": "地灵短剑[1]",
        "icon": "item_40735",
        "rank": 3,
        "job": [
          "0"
        ],
        "position": 1,
        "effect": "物理攻击+120",
        "buff": "地属性\n力量+5\n精炼每+1物理伤害+1%",
        "isCompose": 1,
        "isUpgrade": 0,
        "isHigh": 0,
        "canSlot": 1,
        "canUpgrade": 0
      },
      {
        "id": "40734",
        "name": "火灵短剑[1]",
        "icon": "item_40734",
        "rank": 3,
        "job": [
          "0"
        ],
        "position": 1,
        "effect": "物理攻击+120",
        "buff": "火属性\n力量+5\n精炼每+1物理伤害+1%",
        "isCompose": 1,
        "isUpgrade": 0,
        "isHigh": 0,
        "canSlot": 1,
        "canUpgrade": 0
      }
    ]
  }
}