{
  "code": 0,
  "status": "success",
  "timeStamp": 1642843296,
  "staticDomain": "http:\/\/rosc1.zhaiwuyu.com",
  "ip": "101.87.200.160",
  "language": "cn",
  "dbArea": 0,
  "data": {
    "page": 11,
    "pageSize": 10,
    "pageCount": 74,
    "total": 731,
    "list": [
      {
        "id": "42165",
        "name": "生息之袍",
        "icon": "item_42165",
        "rank": 4,
        "job": [
          "0"
        ],
        "position": 3,
        "effect": "物理防御+243",
        "buff": "智力+20\n生命上限+4000\n物理防御+15%；每精炼+1，魔法防御+1%\n魔法上限+500、物理攻击+5%、对大型魔物伤害+15%；精炼+10时，魔法上限+8%；精炼+15时，魔法上限+8%",
        "isCompose": 0,
        "isUpgrade": 0,
        "isHigh": 0,
        "canSlot": 0,
        "canUpgrade": 0,
        "randomBuff": "魔法上限+24%\n物伤、魔伤减免+15%\n物理、魔法防御+24%\n生命上限+15%\n受治疗加成+30%\n受到中型魔物伤害-20%\nPVP\/GVG中受玩家伤害-7.5%"
      },
      {
        "id": "42162",
        "name": "迷雾行者",
        "icon": "item_42162",
        "rank": 4,
        "job": [
          "0"
        ],
        "position": 3,
        "effect": "物理防御+205",
        "buff": "智力+20\n生命上限+3500\n魔法防御+15%；每精炼+1，物理防御+1%\n魔法攻击+500、魔法上限+200；精炼+10时，魔法攻击+200；精炼+15时，魔法攻击+200",
        "isCompose": 0,
        "isUpgrade": 0,
        "isHigh": 0,
        "canSlot": 0,
        "canUpgrade": 0,
        "randomBuff": "魔法攻击+24%\n物伤、魔伤减免+15%\n物理、魔法防御+24%\n生命上限+15%\n风、地、水、火、无属性攻击+20%\n魔法上限+24%\nPVP\/GVG中受玩家伤害-7.5%"
      },
      {
        "id": "42159",
        "name": "猎魔者的决意",
        "icon": "item_42159",
        "rank": 4,
        "job": [
          "0"
        ],
        "position": 3,
        "effect": "物理防御+205",
        "buff": "智力+10、敏捷+10\n生命上限+3500\n魔法防御+15%；每精炼+1，物理防御+1%\n装备攻速+10%、忽视魔法防御+10%、生命上限+5%；精炼+10时，魔法攻击+8%；精炼+15时，魔法攻击+8%",
        "isCompose": 0,
        "isUpgrade": 0,
        "isHigh": 0,
        "canSlot": 0,
        "canUpgrade": 0,
        "randomBuff": "魔法穿刺+15%\n物伤、魔伤减免+15%\n物理、魔法防御+24%\n生命上限+15%\n风、地、水、火、无属性攻击+20%\n魔法上限+24%\nPVP\/GVG中受玩家伤害-7.5%"
      },
      {
        "id": "42156",
        "name": "彼岸巡行者",
        "icon": "item_42156",
        "rank": 4,
        "job": [
          "0"
        ],
        "position": 3,
        "effect": "物理防御+205",
        "buff": "智力+20\n生命上限+3500\n魔法防御+15%；每精炼+1，物理防御+1%\n可变吟唱时间-10%，风、地、水、火属性攻击+15%；精炼+10时，忽视魔法防御+8%；精炼+15时，忽视魔法防御+8%",
        "isCompose": 0,
        "isUpgrade": 0,
        "isHigh": 0,
        "canSlot": 0,
        "canUpgrade": 0,
        "randomBuff": "魔法穿刺+15%\n物伤、魔伤减免+15%\n物理、魔法防御+24%\n生命上限+15%\n风、地、水、火、无属性攻击+20%\n魔法上限+24%\nPVP\/GVG中受玩家伤害-7.5%"
      },
      {
        "id": "42153",
        "name": "天神的指引",
        "icon": "item_42153",
        "rank": 4,
        "job": [
          "0"
        ],
        "position": 3,
        "effect": "物理防御+205",
        "buff": "智力+10、灵巧+10\n生命上限+3500\n魔法防御+15%；每精炼+1，物理防御+1%\n魔法伤害+10%；精炼+10时，魔法伤害+4%；精炼+15时，魔法伤害+4%",
        "isCompose": 0,
        "isUpgrade": 0,
        "isHigh": 0,
        "canSlot": 0,
        "canUpgrade": 0,
        "randomBuff": "魔法伤害+15%\n物伤、魔伤减免+15%\n物理、魔法防御+24%\n生命上限+15%\n风、地、水、火、无属性攻击+20%\n魔法上限+24%\nPVP\/GVG中受玩家伤害-7.5%"
      },
      {
        "id": "42150",
        "name": "不死鸟战铠",
        "icon": "item_42150",
        "rank": 4,
        "job": [
          "0"
        ],
        "position": 3,
        "effect": "物理防御+243",
        "buff": "体质+20\n生命上限+4000\n魔法防御+15%；每精炼+1，物理防御+1%\n生命上限+8%、受治疗加成+20%；精炼+10时，生命上限+4%；精炼+15时，生命上限+4%",
        "isCompose": 0,
        "isUpgrade": 0,
        "isHigh": 0,
        "canSlot": 0,
        "canUpgrade": 0,
        "randomBuff": "生命上限+15%\n物伤、魔伤减免+15%\n物理、魔法防御+24%\n魔法上限+24%\n受治疗加成+30%\n受到中型魔物伤害-20%\nPVP\/GVG中受玩家伤害-7.5%"
      },
      {
        "id": "42147",
        "name": "灵魂的囚笼",
        "icon": "item_42147",
        "rank": 4,
        "job": [
          "0"
        ],
        "position": 3,
        "effect": "物理防御+205",
        "buff": "力量+10、智力+10\n生命上限+3500\n物理防御+15%；每精炼+1，魔法防御+1%\n物理、魔法攻击+15%；精炼+10时，物理、魔法攻击+6%；精炼+15时，物理、魔法攻击+6%",
        "isCompose": 0,
        "isUpgrade": 0,
        "isHigh": 0,
        "canSlot": 0,
        "canUpgrade": 0,
        "randomBuff": "物理、魔法伤害+15%\n物伤、魔伤减免+15%\n物理、魔法防御+24%\n生命上限+15%\n对大型魔物伤害+20%\n对中型魔物伤害+20%\n对小型魔物伤害+20%\nPVP\/GVG中受玩家伤害-7.5%"
      },
      {
        "id": "42144",
        "name": "不屈战团甲胄",
        "icon": "item_42144",
        "rank": 4,
        "job": [
          "0"
        ],
        "position": 3,
        "effect": "物理防御+205",
        "buff": "力量+10、灵巧+10、敏捷+10\n生命上限+3500\n物理防御+15%；每精炼+1，魔法防御+1%\n装备攻速+30%；精炼+10时，物理攻击+8%；精炼+15时，物理攻击+8%",
        "isCompose": 0,
        "isUpgrade": 0,
        "isHigh": 0,
        "canSlot": 0,
        "canUpgrade": 0,
        "randomBuff": "物理攻击+24%\n物伤、魔伤减免+15%\n物理、魔法防御+24%\n生命上限+15%\n对大型魔物伤害+20%\n对中型魔物伤害+20%\n对小型魔物伤害+20%\nPVP\/GVG中受玩家伤害-7.5%"
      },
      {
        "id": "42141",
        "name": "大地使者套装",
        "icon": "item_42141",
        "rank": 4,
        "job": [
          "0"
        ],
        "position": 3,
        "effect": "物理防御+205",
        "buff": "力量+15、灵巧+15\n生命上限+3500\n物理防御+15%；每精炼+1，魔法防御+1%\n物理攻击+500；精炼+10时，物理攻击+200；精炼+15时，物理攻击+200",
        "isCompose": 0,
        "isUpgrade": 0,
        "isHigh": 0,
        "canSlot": 0,
        "canUpgrade": 0,
        "randomBuff": "物理攻击+24%\n物伤、魔伤减免+15%\n物理、魔法防御+24%\n生命上限+15%\n对大型魔物伤害+20%\n对中型魔物伤害+20%\n对小型魔物伤害+20%\nPVP\/GVG中受玩家伤害-7.5%"
      },
      {
        "id": "42138",
        "name": "恩赐解脱",
        "icon": "item_42138",
        "rank": 4,
        "job": [
          "0"
        ],
        "position": 3,
        "effect": "物理防御+205",
        "buff": "敏捷+10、幸运+10\n生命上限+3500\n物理防御+15%；每精炼+1，魔法防御+1%\n暴击+20、暴击伤害+25%；精炼+10时，暴击伤害+10%；精炼+15时，暴击伤害+10%",
        "isCompose": 0,
        "isUpgrade": 0,
        "isHigh": 0,
        "canSlot": 0,
        "canUpgrade": 0,
        "randomBuff": "暴击伤害+30%\n物伤、魔伤减免+15%\n物理、魔法防御+24%\n生命上限+15%\n对大型魔物伤害+20%\n对中型魔物伤害+20%\n对小型魔物伤害+20%\nPVP\/GVG中受玩家伤害-7.5%"
      }
    ]
  }
}