{
  "code": 0,
  "status": "success",
  "timeStamp": 1642843659,
  "staticDomain": "http:\/\/rosc1.zhaiwuyu.com",
  "ip": "101.87.200.160",
  "language": "cn",
  "dbArea": 0,
  "data": {
    "page": 47,
    "pageSize": 10,
    "pageCount": 74,
    "total": 731,
    "list": [
      {
        "id": "41855",
        "name": "硝烟终结者",
        "icon": "item_41855",
        "rank": 4,
        "job": [
          "12",
          "13",
          "14",
          "15",
          "62",
          "63",
          "64",
          "65",
          "72",
          "73",
          "74",
          "75",
          "132",
          "133",
          "134",
          "135",
          "143",
          "144",
          "145",
          "203",
          "204",
          "205",
          "213",
          "214",
          "215"
        ],
        "position": 14,
        "effect": "物理攻击+450",
        "buff": "力量+15\n体质+15\n全能力+8\n装备攻速+10%\n物理攻击+15%\n忽视物理防御+15%\n人形种族伤害+30%\n生命上限+15000",
        "isCompose": 1,
        "isUpgrade": 0,
        "isHigh": 0,
        "canSlot": 0,
        "canUpgrade": 0
      },
      {
        "id": "41553",
        "name": "雷神之锤·神铸",
        "icon": "item_41553",
        "rank": 4,
        "job": [
          "12",
          "13",
          "14",
          "15",
          "52",
          "53",
          "54",
          "55",
          "62",
          "63",
          "64",
          "65",
          "122",
          "123",
          "124",
          "125",
          "132",
          "133",
          "134",
          "135",
          "203",
          "204",
          "205",
          "213",
          "214",
          "215"
        ],
        "position": 14,
        "effect": "魔法攻击+1000\n物理攻击+1000",
        "buff": "力量+10\n智力+10\n体质+10\n全能力+20\n命中+50\n物理穿刺+30%\n人形种族伤害+50%\n生命上限+31500\n物伤减免+10%，魔伤减免+10%\n雷神之锤充满了雷神的雷电力量，在每次普通攻击敌人时都将施放【雷神之怒】。【雷神之怒】：对目标造成额外（自身物理攻击+魔法攻击）*100%的真实伤害，并对目标周围5米范围内最多5名敌对目标造成自身攻击100%的伤害。每个被【雷神之怒】及溅射伤害影响的目标都有20%的概率减速30%，持续2秒",
        "isCompose": 1,
        "isUpgrade": 0,
        "isHigh": 0,
        "canSlot": 0,
        "canUpgrade": 0
      },
      {
        "id": "41552",
        "name": "雷神之锤·精锻",
        "icon": "item_41552",
        "rank": 4,
        "job": [
          "12",
          "13",
          "14",
          "15",
          "52",
          "53",
          "54",
          "55",
          "62",
          "63",
          "64",
          "65",
          "122",
          "123",
          "124",
          "125",
          "132",
          "133",
          "134",
          "135",
          "203",
          "204",
          "205",
          "213",
          "214",
          "215"
        ],
        "position": 14,
        "effect": "魔法攻击+750\n物理攻击+750",
        "buff": "力量+10\n智力+10\n体质+10\n全能力+14\n命中+50\n物理穿刺+25%\n人形种族伤害+40%\n生命上限+23000\n物伤减免+5%，魔伤减免+5%\n雷神之锤充满了雷神的雷电力量，在每次普通攻击敌人时都将施放【雷神之怒】。【雷神之怒】：对目标造成额外（自身物理攻击+魔法攻击）*50%的真实伤害，并对目标周围5米范围内最多5名敌对目标造成自身攻击50%的伤害。每个被【雷神之怒】及溅射伤害影响的目标都有20%的概率减速30%，持续2秒。",
        "isCompose": 1,
        "isUpgrade": 0,
        "isHigh": 0,
        "canSlot": 0,
        "canUpgrade": 0
      },
      {
        "id": "41551",
        "name": "雷神之锤",
        "icon": "item_41551",
        "rank": 4,
        "job": [
          "12",
          "13",
          "14",
          "15",
          "52",
          "53",
          "54",
          "55",
          "62",
          "63",
          "64",
          "65",
          "122",
          "123",
          "124",
          "125",
          "132",
          "133",
          "134",
          "135",
          "203",
          "204",
          "205",
          "213",
          "214",
          "215"
        ],
        "position": 14,
        "effect": "魔法攻击+500\n物理攻击+500",
        "buff": "力量+10\n智力+10\n体质+10\n全能力+8\n命中+50\n物理穿刺+20%\n人形种族伤害+30%\n生命上限+14500",
        "isCompose": 1,
        "isUpgrade": 0,
        "isHigh": 0,
        "canSlot": 0,
        "canUpgrade": 0
      },
      {
        "id": "41243",
        "name": "凛冬结晶·神铸",
        "icon": "item_41243",
        "rank": 4,
        "job": [
          "42",
          "43",
          "44",
          "45",
          "92",
          "93",
          "94",
          "95"
        ],
        "position": 14,
        "effect": "物理攻击+1000",
        "buff": "灵巧+18\n敏捷+12\n全能力+20\n暴击+50\n暴击伤害+50%\n人形种族伤害+50%\n生命上限+30000\n物伤减免+10%，魔伤减免+10%\n被凛冬结晶攻击的目标将受到冰霜结晶的额外伤害。每次普通攻击冰霜结晶将对被攻击者额外造成自身攻击*（1.5+暴伤）*50%的真实伤害，并对该目标周围4米内最多6名敌对目标造成攻击*（1.5+暴伤）*25%的真实伤害。受到冰霜结晶影响的目标有5%的概率被冰冻，冰冻时间持续2秒。",
        "isCompose": 1,
        "isUpgrade": 0,
        "isHigh": 0,
        "canSlot": 0,
        "canUpgrade": 0
      },
      {
        "id": "41242",
        "name": "凛冬结晶·精锻",
        "icon": "item_41242",
        "rank": 4,
        "job": [
          "42",
          "43",
          "44",
          "45",
          "92",
          "93",
          "94",
          "95"
        ],
        "position": 14,
        "effect": "物理攻击+725",
        "buff": "灵巧+18\n敏捷+12\n全能力+14\n暴击+50\n暴击伤害+40%\n人形种族伤害+40%\n生命上限+23000\n物伤减免+5%，魔伤减免+5%\n被凛冬结晶攻击的目标将受到冰霜结晶的额外伤害。每次普通攻击冰霜结晶将对被攻击者额外造成自身攻击*（1.5+暴伤）*30%的真实伤害，并对该目标周围4米内最多6名敌对目标造成攻击*（1.5+暴伤）*15%的真实伤害。受到冰霜结晶影响的目标有5%的概率被冰冻，冰冻时间持续2秒。",
        "isCompose": 1,
        "isUpgrade": 0,
        "isHigh": 0,
        "canSlot": 0,
        "canUpgrade": 0
      },
      {
        "id": "41241",
        "name": "凛冬结晶",
        "icon": "item_41241",
        "rank": 4,
        "job": [
          "42",
          "43",
          "44",
          "45",
          "92",
          "93",
          "94",
          "95"
        ],
        "position": 14,
        "effect": "物理攻击+450",
        "buff": "灵巧+18\n敏捷+12\n全能力+8\n暴击+50\n暴击伤害+30%\n人形种族伤害+30%\n生命上限+16000",
        "isCompose": 1,
        "isUpgrade": 0,
        "isHigh": 0,
        "canSlot": 0,
        "canUpgrade": 0
      },
      {
        "id": "40934",
        "name": "万物安息·神铸",
        "icon": "item_40933",
        "rank": 4,
        "job": [
          "32",
          "33",
          "34",
          "35"
        ],
        "position": 14,
        "effect": "物理攻击+2400",
        "buff": "力量+20\n幸运+10\n全能力+20\n暴击+35\n暴击伤害+24%\n人形种族伤害+50%\n生命上限+30000\n物伤减免+10%，魔伤减免+10%\n万物安息拥有无声无息暗杀的特殊能力，使用万物安息的暗杀者们总是能够神不知鬼不觉的完成暗杀任务。万物安息可以使5米范围内所有友方都获得【幻境保护】效果。【幻境保护】：进入隐匿的状态，无法被直接看到，持续15秒，CD：135秒。【幻境保护】状态下不会被范围技能攻击而解除状态，但是伤害及异常状态依然可以击中【幻境保护】状态下的玩家。攻击目标后隐身状态解除",
        "isCompose": 1,
        "isUpgrade": 0,
        "isHigh": 0,
        "canSlot": 0,
        "canUpgrade": 0
      },
      {
        "id": "40933",
        "name": "万物安息·精锻",
        "icon": "item_40933",
        "rank": 4,
        "job": [
          "32",
          "33",
          "34",
          "35"
        ],
        "position": 14,
        "effect": "物理攻击+1800",
        "buff": "力量+20\n幸运+10\n全能力+14\n暴击+35\n暴击伤害+20%\n人形种族伤害+40%\n生命上限+23000\n物伤减免+5%，魔伤减免+5%\n万物安息拥有无声无息暗杀的特殊能力，使用万物安息的暗杀者们总是能够神不知鬼不觉的完成暗杀任务。万物安息可以使5米范围内所有友方都获得【幻境保护】效果。【幻境保护】：进入隐匿的状态，无法被直接看到，持续8秒，CD：200秒。【幻境保护】状态下不会被范围技能攻击而解除状态，但是伤害及异常状态依然可以击中【幻境保护】状态下的玩家。攻击目标后隐身状态解除。",
        "isCompose": 1,
        "isUpgrade": 0,
        "isHigh": 0,
        "canSlot": 0,
        "canUpgrade": 0
      },
      {
        "id": "40932",
        "name": "万物安息",
        "icon": "item_40932",
        "rank": 4,
        "job": [
          "32",
          "33",
          "34",
          "35"
        ],
        "position": 14,
        "effect": "物理攻击+1200",
        "buff": "力量+20\n幸运+10\n全能力+8\n暴击+35\n暴击伤害+16%\n人形种族伤害+30%\n生命上限+16000",
        "isCompose": 1,
        "isUpgrade": 0,
        "isHigh": 0,
        "canSlot": 0,
        "canUpgrade": 0
      }
    ]
  }
}