{
  "code": 0,
  "status": "success",
  "timeStamp": 1642843578,
  "staticDomain": "http:\/\/rosc1.zhaiwuyu.com",
  "ip": "101.87.200.160",
  "language": "cn",
  "dbArea": 0,
  "data": {
    "page": 39,
    "pageSize": 10,
    "pageCount": 74,
    "total": 731,
    "list": [
      {
        "id": "62803",
        "name": "拂晓之光",
        "icon": "item_62803",
        "rank": 4,
        "job": [
          "112",
          "113",
          "114",
          "115"
        ],
        "position": 14,
        "effect": "物理攻击+400",
        "buff": "灵巧+12\n智力+8\n体质+10\n全能力+20\n生命上限+10%\n物理攻击+8%\n物理穿刺+8%\n人形种族伤害+30%\n生命上限+20000",
        "isCompose": 1,
        "isUpgrade": 0,
        "isHigh": 0,
        "canSlot": 0,
        "canUpgrade": 0
      },
      {
        "id": "62542",
        "name": "泰坦[1]",
        "icon": "item_62542",
        "rank": 4,
        "job": [
          "122",
          "123",
          "124",
          "125"
        ],
        "position": 1,
        "effect": "物理攻击+650",
        "buff": "力量+20\n对大型魔物伤害+30%\n对中型魔物伤害+15%\n精炼每+1对大型魔物伤害+2%\n精炼+5时，物理攻击+60、物理攻击+2%；精炼+10时，魔法上限+400、对大型魔物伤害+10%；精炼+15时，物理攻击+8%，物理伤害+5%",
        "isCompose": 0,
        "isUpgrade": 0,
        "isHigh": 1,
        "canSlot": 0,
        "canUpgrade": 0
      },
      {
        "id": "62541",
        "name": "苍天霸皇[1]",
        "icon": "item_62541",
        "rank": 4,
        "job": [
          "124",
          "125"
        ],
        "position": 1,
        "effect": "物理攻击+650",
        "buff": "力量+10、智力+10\n所有技能SP消耗-10%\n使【罗刹破凰拳】倍率+100%\n每精炼+1，使【罗刹破凰拳】伤害+1%\n精炼+5，+10，+15时，使【罗刹破凰拳】在【大锤崩坠】后使用伤害+5%，+5%，+10%\n每精炼+1，【气弹爆破】技能的伤害+2%\n精炼+5时，魔法上限+10%；精炼+10时，物理伤害+5%；精炼+15时，对中型魔物的伤害+15%\n【苍天霸皇】+【坚定战袍Ⅹ】+【坚定指环Ⅳ】（或【赤心权戒】）：使【罗刹破凰拳】伤害+5%\n【苍天霸皇】+【天选者战袍】+【坚定指环Ⅳ】：使【罗刹破凰拳】伤害+5%",
        "isCompose": 0,
        "isUpgrade": 0,
        "isHigh": 1,
        "canSlot": 0,
        "canUpgrade": 0
      },
      {
        "id": "62540",
        "name": "格里芬之爪[1]",
        "icon": "item_62540",
        "rank": 4,
        "job": [
          "122",
          "123",
          "124",
          "125"
        ],
        "position": 1,
        "effect": "物理攻击+650",
        "buff": "智力+10、力量+10\n魔法上限+200\n可变吟唱时间-10%\n魔法上限+5%\n物理伤害+5%\n精炼等级+5、+10、+15时，魔法上限+6%、+9%、+12%\n使【阿修罗霸凰拳】公式中【技能等级*4+剩余SP\/100】部分的伤害倍率增加5\n对大型魔物的伤害+15%\n【阿修罗霸凰拳】有10%概率不消耗Sp\n精炼每+1，【阿修罗霸凰拳】额外有2%概率不消耗Sp",
        "isCompose": 0,
        "isUpgrade": 0,
        "isHigh": 1,
        "canSlot": 0,
        "canUpgrade": 0
      },
      {
        "id": "43557",
        "name": "舞蹈鞋",
        "icon": "item_43557",
        "rank": 3,
        "job": [
          "102",
          "103",
          "104",
          "105",
          "112",
          "113",
          "114",
          "115"
        ],
        "position": 5,
        "effect": "物理防御+60",
        "buff": "移动速度+12%\n灵巧+4\n精炼+5且使用演奏类技能时，受到的伤害降低5%；精炼+10且使用演奏类技能时，受到的伤害降低5%\n【华丽演出服IV】（【流云衣】）+【舞蹈鞋IV】（【芭蕾鞋】）+【吟游诗人的披风IV】：生命上限+10%，体质+5",
        "isCompose": 0,
        "isUpgrade": 0,
        "isHigh": 0,
        "canSlot": 1,
        "canUpgrade": 1
      },
      {
        "id": "43556",
        "name": "狼外婆的拖鞋",
        "icon": "item_43556",
        "rank": 4,
        "job": [
          "12",
          "13",
          "14",
          "15",
          "32",
          "33",
          "34",
          "35",
          "62",
          "63",
          "64",
          "65",
          "72",
          "73",
          "74",
          "75",
          "92",
          "93",
          "94",
          "95",
          "122",
          "123",
          "124",
          "125",
          "143",
          "144",
          "145",
          "163",
          "164",
          "165",
          "203",
          "204",
          "205",
          "213",
          "214",
          "215"
        ],
        "position": 5,
        "effect": "物理防御+60",
        "buff": "移动速度+8%\n体质+5\n物理攻击+2%\n精炼+12时，近战物理伤害+3%",
        "isCompose": 0,
        "isUpgrade": 0,
        "isHigh": 0,
        "canSlot": 1,
        "canUpgrade": 1
      },
      {
        "id": "43555",
        "name": "法力风暴之靴",
        "icon": "item_43555",
        "rank": 4,
        "job": [
          "24",
          "25",
          "184",
          "185",
          "224",
          "225"
        ],
        "position": 5,
        "effect": "物理防御+64",
        "buff": "移动速度+8%\n魔法攻击+2%\n智力+4\n【法力风暴之杖Ⅱ】+【法力风暴之靴】：魔法攻击+5%，法力风暴之杖精炼+10时，魔法攻击+10%",
        "isCompose": 0,
        "isUpgrade": 0,
        "isHigh": 0,
        "canSlot": 1,
        "canUpgrade": 1
      },
      {
        "id": "43040",
        "name": "吟游诗人的披风",
        "icon": "item_43040",
        "rank": 3,
        "job": [
          "102",
          "103",
          "104",
          "105",
          "112",
          "113",
          "114",
          "115"
        ],
        "position": 4,
        "effect": "物理防御+60",
        "buff": "全能力+2\n生命上限+1000\n物理防御+5%，魔法防御+5%\n【华丽演出服IV】（【流云衣】）+【舞蹈鞋IV】（【芭蕾鞋】）+【吟游诗人的披风IV】：生命上限+10%，体质+5",
        "isCompose": 0,
        "isUpgrade": 0,
        "isHigh": 0,
        "canSlot": 1,
        "canUpgrade": 1
      },
      {
        "id": "43039",
        "name": "纳户特基格的斗篷",
        "icon": "item_43039",
        "rank": 3,
        "job": [
          "22",
          "23",
          "24",
          "25",
          "52",
          "53",
          "54",
          "55",
          "82",
          "83",
          "84",
          "85",
          "132",
          "133",
          "134",
          "135",
          "143",
          "144",
          "145",
          "152",
          "153",
          "154",
          "155",
          "163",
          "164",
          "165",
          "183",
          "184",
          "185",
          "223",
          "224",
          "225"
        ],
        "position": 4,
        "effect": "物理防御+56",
        "buff": "智力+2\n生命上限+500\n装备攻速+5%\n精炼+5时，可变吟唱时间-3%；精炼+10时，忽视魔法防御+5%",
        "isCompose": 0,
        "isUpgrade": 0,
        "isHigh": 0,
        "canSlot": 1,
        "canUpgrade": 1
      },
      {
        "id": "42557",
        "name": "灵犀宝珠",
        "icon": "item_42557",
        "rank": 2,
        "job": [
          "82",
          "83",
          "84",
          "85"
        ],
        "position": 2,
        "effect": "物理防御+23",
        "buff": "装备攻速+10%",
        "isCompose": 1,
        "isUpgrade": 0,
        "isHigh": 0,
        "canSlot": 1,
        "canUpgrade": 1
      }
    ]
  }
}