{
  "code": 0,
  "status": "success",
  "timeStamp": 1643703143,
  "staticDomain": "http:\/\/rosc1.zhaiwuyu.com",
  "ip": "101.87.201.112",
  "language": "cn",
  "dbArea": 0,
  "data": {
    "page": 15,
    "pageSize": 10,
    "pageCount": 77,
    "total": 765,
    "list": [
      {
        "id": "42147",
        "name": "灵魂的囚笼",
        "icon": "item_42147",
        "rank": 4,
        "job": [
          "0"
        ],
        "position": 3,
        "effect": "物理防御+205",
        "buff": "力量+10、智力+10\n生命上限+3500\n物理防御+15%；每精炼+1，魔法防御+1%\n物理、魔法攻击+15%；精炼+10时，物理、魔法攻击+6%；精炼+15时，物理、魔法攻击+6%",
        "isCompose": 0,
        "isUpgrade": 0,
        "isHigh": 0,
        "canSlot": 0,
        "canUpgrade": 0,
        "randomBuff": "物理、魔法伤害+15%\n物伤、魔伤减免+15%\n物理、魔法防御+24%\n生命上限+15%\n对大型魔物伤害+20%\n对中型魔物伤害+20%\n对小型魔物伤害+20%\nPVP\/GVG中受玩家伤害-7.5%"
      },
      {
        "id": "42144",
        "name": "不屈战团甲胄",
        "icon": "item_42144",
        "rank": 4,
        "job": [
          "0"
        ],
        "position": 3,
        "effect": "物理防御+205",
        "buff": "力量+10、灵巧+10、敏捷+10\n生命上限+3500\n物理防御+15%；每精炼+1，魔法防御+1%\n装备攻速+30%；精炼+10时，物理攻击+8%；精炼+15时，物理攻击+8%",
        "isCompose": 0,
        "isUpgrade": 0,
        "isHigh": 0,
        "canSlot": 0,
        "canUpgrade": 0,
        "randomBuff": "物理攻击+24%\n物伤、魔伤减免+15%\n物理、魔法防御+24%\n生命上限+15%\n对大型魔物伤害+20%\n对中型魔物伤害+20%\n对小型魔物伤害+20%\nPVP\/GVG中受玩家伤害-7.5%"
      },
      {
        "id": "42141",
        "name": "大地使者套装",
        "icon": "item_42141",
        "rank": 4,
        "job": [
          "0"
        ],
        "position": 3,
        "effect": "物理防御+205",
        "buff": "力量+15、灵巧+15\n生命上限+3500\n物理防御+15%；每精炼+1，魔法防御+1%\n物理攻击+500；精炼+10时，物理攻击+200；精炼+15时，物理攻击+200",
        "isCompose": 0,
        "isUpgrade": 0,
        "isHigh": 0,
        "canSlot": 0,
        "canUpgrade": 0,
        "randomBuff": "物理攻击+24%\n物伤、魔伤减免+15%\n物理、魔法防御+24%\n生命上限+15%\n对大型魔物伤害+20%\n对中型魔物伤害+20%\n对小型魔物伤害+20%\nPVP\/GVG中受玩家伤害-7.5%"
      },
      {
        "id": "42138",
        "name": "恩赐解脱",
        "icon": "item_42138",
        "rank": 4,
        "job": [
          "0"
        ],
        "position": 3,
        "effect": "物理防御+205",
        "buff": "敏捷+10、幸运+10\n生命上限+3500\n物理防御+15%；每精炼+1，魔法防御+1%\n暴击+20、暴击伤害+25%；精炼+10时，暴击伤害+10%；精炼+15时，暴击伤害+10%",
        "isCompose": 0,
        "isUpgrade": 0,
        "isHigh": 0,
        "canSlot": 0,
        "canUpgrade": 0,
        "randomBuff": "暴击伤害+30%\n物伤、魔伤减免+15%\n物理、魔法防御+24%\n生命上限+15%\n对大型魔物伤害+20%\n对中型魔物伤害+20%\n对小型魔物伤害+20%\nPVP\/GVG中受玩家伤害-7.5%"
      },
      {
        "id": "42135",
        "name": "诅咒战甲",
        "icon": "item_42135",
        "rank": 4,
        "job": [
          "0"
        ],
        "position": 3,
        "effect": "物理防御+205",
        "buff": "力量+15、灵巧+15\n生命上限+3500\n物理防御+15%；每精炼+1，魔法防御+1%\n物理攻击+20%；精炼+10时，忽视物理防御+8%；精炼+15时，忽视物理防御+8%",
        "isCompose": 0,
        "isUpgrade": 0,
        "isHigh": 0,
        "canSlot": 0,
        "canUpgrade": 0,
        "randomBuff": "物理穿刺+15%\n物伤、魔伤减免+15%\n物理、魔法防御+24%\n生命上限+15%\n对大型魔物伤害+20%\n对中型魔物伤害+20%\n对小型魔物伤害+20%\nPVP\/GVG中受玩家伤害-7.5%"
      },
      {
        "id": "42132",
        "name": "风暴之御",
        "icon": "item_42132",
        "rank": 4,
        "job": [
          "0"
        ],
        "position": 3,
        "effect": "物理防御+205",
        "buff": "力量+10、灵巧+10、敏捷+10\n生命上限+3500\n物理防御+15%；每精炼+1，魔法防御+1%\n暴击伤害+15%、装备攻速+15%；精炼+10时，暴击伤害+10%；精炼+15时，暴击伤害+10%",
        "isCompose": 0,
        "isUpgrade": 0,
        "isHigh": 0,
        "canSlot": 0,
        "canUpgrade": 0,
        "randomBuff": "物理穿刺+15%\n物伤、魔伤减免+15%\n物理、魔法防御+24%\n生命上限+15%\n对大型魔物伤害+20%\n对中型魔物伤害+20%\n对小型魔物伤害+20%\nPVP\/GVG中受玩家伤害-7.5%"
      },
      {
        "id": "42129",
        "name": "龙血之浴",
        "icon": "item_42129",
        "rank": 4,
        "job": [
          "0"
        ],
        "position": 3,
        "effect": "物理防御+205",
        "buff": "力量+15、灵巧+15\n生命上限+3500\n物理防御+15%；每精炼+1，魔法防御+1%\n物理伤害+10%；精炼+10时，物理伤害+4%；精炼+15时，物理伤害+4%",
        "isCompose": 0,
        "isUpgrade": 0,
        "isHigh": 0,
        "canSlot": 0,
        "canUpgrade": 0,
        "randomBuff": "物理伤害+15%\n物伤、魔伤减免+15%\n物理、魔法防御+24%\n生命上限+15%\n对大型魔物伤害+20%\n对中型魔物伤害+20%\n对小型魔物伤害+20%\nPVP\/GVG中受玩家伤害-7.5%"
      },
      {
        "id": "63913",
        "name": "强袭型终结者[1]",
        "icon": "item_63913",
        "rank": 4,
        "job": [
          "173",
          "174",
          "175"
        ],
        "position": 1,
        "effect": "物理攻击+650",
        "buff": "弹药量：5\n灵巧+8、幸运+20\n远程物理伤害+5%；精炼+5时，忽视物理防御+5%；精炼+10时，远程物理伤害+5%；精炼+15时，远程物理伤害+5%\n每精炼+1，【弹无虚发】伤害+2%",
        "isCompose": 0,
        "isUpgrade": 0,
        "isHigh": 1,
        "canSlot": 0,
        "canUpgrade": 0
      },
      {
        "id": "63912",
        "name": "终结者狙击步枪[1]",
        "icon": "item_63912",
        "rank": 3,
        "job": [
          "173",
          "174",
          "175"
        ],
        "position": 1,
        "effect": "物理攻击+200",
        "buff": "弹药量：5\n灵巧+4、幸运+4\n远程物理伤害+5%\n每精炼+1，【弹无虚发】伤害+1%",
        "isCompose": 1,
        "isUpgrade": 0,
        "isHigh": 0,
        "canSlot": 1,
        "canUpgrade": 1
      },
      {
        "id": "63615",
        "name": "地狱火手枪[1]",
        "icon": "item_63615",
        "rank": 4,
        "job": [
          "173",
          "174",
          "175"
        ],
        "position": 1,
        "effect": "物理攻击+605",
        "buff": "弹药量：15\n灵巧+8、体质+8\n生命上限+1000\n流血攻击+30%\n人形种族加伤+5%；精炼+5时，人形种族加伤+5%；精炼+10时，生命上限+5%；精炼+15时，人形种族加伤+5%、生命上限+5%\n每精炼+1，人形种族加伤、减伤+1%",
        "isCompose": 0,
        "isUpgrade": 0,
        "isHigh": 1,
        "canSlot": 0,
        "canUpgrade": 0
      }
    ]
  }
}