{
  "code": 0,
  "status": "success",
  "timeStamp": 1643703773,
  "staticDomain": "http:\/\/rosc1.zhaiwuyu.com",
  "ip": "101.87.201.112",
  "language": "cn",
  "dbArea": 0,
  "data": {
    "page": 77,
    "pageSize": 10,
    "pageCount": 77,
    "total": 765,
    "list": [
      {
        "id": "40021",
        "name": "长角之矛[1]",
        "icon": "item_40021",
        "rank": 4,
        "job": [
          "12",
          "13",
          "14",
          "15",
          "72",
          "73",
          "74",
          "75",
          "203",
          "204",
          "205"
        ],
        "position": 1,
        "effect": "物理攻击+180",
        "buff": "圣属性\n装备攻速+10%\n普攻时有概率使目标出血持续10秒\n可使用【解毒】技能",
        "isCompose": 0,
        "isUpgrade": 0,
        "isHigh": 0,
        "canSlot": 1,
        "canUpgrade": 0
      },
      {
        "id": "40016",
        "name": "柱枪[1]",
        "icon": "item_40016",
        "rank": 3,
        "job": [
          "11",
          "12",
          "13",
          "14",
          "15",
          "72",
          "73",
          "74",
          "75",
          "203",
          "204",
          "205"
        ],
        "position": 1,
        "effect": "物理攻击+202",
        "buff": "体质+3\n精炼每+1物理防御+1%，魔法防御+0.5%",
        "isCompose": 1,
        "isUpgrade": 0,
        "isHigh": 0,
        "canSlot": 1,
        "canUpgrade": 1
      },
      {
        "id": "40011",
        "name": "修尔特长矛[1]",
        "icon": "item_40011",
        "rank": 3,
        "job": [
          "12",
          "13",
          "14",
          "15",
          "72",
          "73",
          "74",
          "75",
          "203",
          "204",
          "205"
        ],
        "position": 1,
        "effect": "物理攻击+185",
        "buff": "命中+25\n对MVP、Mini魔物伤害+10%",
        "isCompose": 0,
        "isUpgrade": 0,
        "isHigh": 0,
        "canSlot": 1,
        "canUpgrade": 1
      },
      {
        "id": "40008",
        "name": "镰戟[1]",
        "icon": "item_40008",
        "rank": 2,
        "job": [
          "11",
          "12",
          "13",
          "14",
          "15",
          "72",
          "73",
          "74",
          "75",
          "203",
          "204",
          "205"
        ],
        "position": 1,
        "effect": "物理攻击+157",
        "buff": "力量+3\n命中+15",
        "isCompose": 1,
        "isUpgrade": 0,
        "isHigh": 0,
        "canSlot": 1,
        "canUpgrade": 1
      },
      {
        "id": "40007",
        "name": "象牙长矛[1]",
        "icon": "item_40007",
        "rank": 3,
        "job": [
          "11",
          "12",
          "13",
          "14",
          "15",
          "72",
          "73",
          "74",
          "75",
          "203",
          "204",
          "205"
        ],
        "position": 1,
        "effect": "物理攻击+175",
        "buff": "攻击时无视敌方乘算物理防御（对MVP、Mini魔物无效）\n对无属性魔物伤害+25%",
        "isCompose": 0,
        "isUpgrade": 0,
        "isHigh": 0,
        "canSlot": 1,
        "canUpgrade": 0
      }
    ]
  }
}