{
  "code": 0,
  "status": "success",
  "timeStamp": 1643703002,
  "staticDomain": "http:\/\/rosc1.zhaiwuyu.com",
  "ip": "101.87.201.112",
  "language": "cn",
  "dbArea": 0,
  "data": {
    "page": 1,
    "pageSize": 10,
    "pageCount": 77,
    "total": 765,
    "list": [
      {
        "id": "44137",
        "name": "虚空根源",
        "icon": "item_44137",
        "rank": 4,
        "job": [
          "0"
        ],
        "position": 6,
        "effect": "物理攻击+224",
        "buff": "力量+8、灵巧+8\n忽视物理防御+3%；精炼+12时，忽视物理防御+3%；精炼+15时，忽视物理防御+3%",
        "isCompose": 0,
        "isUpgrade": 0,
        "isHigh": 0,
        "canSlot": 0,
        "canUpgrade": 0,
        "randomBuff": "物理伤害+4.5%\n物伤减免+9%\n魔伤减免+9%\n生命上限+6%\n物理防御+12%\n魔法防御+12%\nPVP\/GVG中对玩家伤害+10%"
      },
      {
        "id": "44134",
        "name": "银灰圣痕",
        "icon": "item_44134",
        "rank": 4,
        "job": [
          "0"
        ],
        "position": 6,
        "effect": "物理攻击+224",
        "buff": "敏捷+12\n装备攻速+5%；精炼+12时，装备攻速+5%；精炼+15时，装备攻速+5%",
        "isCompose": 0,
        "isUpgrade": 0,
        "isHigh": 0,
        "canSlot": 0,
        "canUpgrade": 0,
        "randomBuff": "物理穿刺+4.5%\n物伤减免+9%\n魔伤减免+9%\n生命上限+6%\n物理防御+12%\n魔法防御+12%\nPVP\/GVG中对玩家伤害+10%"
      },
      {
        "id": "44128",
        "name": "神铸银币",
        "icon": "item_44128",
        "rank": 4,
        "job": [
          "0"
        ],
        "position": 6,
        "effect": "物理攻击+224",
        "buff": "力量+12\n普攻攻击力+60；精炼+12时，普攻攻击力+60；精炼+15时，普攻攻击力+60",
        "isCompose": 0,
        "isUpgrade": 0,
        "isHigh": 0,
        "canSlot": 0,
        "canUpgrade": 0,
        "randomBuff": "普攻伤害+4.5%\n物伤减免+9%\n魔伤减免+9%\n生命上限+6%\n物理防御+12%\n魔法防御+12%\nPVP\/GVG中对玩家伤害+10%"
      },
      {
        "id": "44125",
        "name": "双子星之吻",
        "icon": "item_44125",
        "rank": 4,
        "job": [
          "0"
        ],
        "position": 6,
        "effect": "物理攻击+224",
        "buff": "灵巧+12\n远程物理攻击+3%；精炼+12时，远程物理攻击+3%；精炼+15时，远程物理攻击+3%",
        "isCompose": 0,
        "isUpgrade": 0,
        "isHigh": 0,
        "canSlot": 0,
        "canUpgrade": 0,
        "randomBuff": "物理伤害+4.5%\n物伤减免+9%\n魔伤减免+9%\n生命上限+6%\n物理防御+12%\n魔法防御+12%\nPVP\/GVG中对玩家伤害+10%"
      },
      {
        "id": "44122",
        "name": "贤者的使命",
        "icon": "item_44122",
        "rank": 4,
        "job": [
          "0"
        ],
        "position": 6,
        "effect": "魔法攻击+200",
        "buff": "智力+8、灵巧+8\n装备攻速+10%；精炼+12时，忽视魔法防御+5%；精炼+15时，忽视魔法防御+5%",
        "isCompose": 0,
        "isUpgrade": 0,
        "isHigh": 0,
        "canSlot": 0,
        "canUpgrade": 0,
        "randomBuff": "魔法穿刺+9%\n物伤减免+9%\n魔伤减免+9%\n生命上限+6%\n物理防御+12%\n魔法防御+12%\nPVP\/GVG中对玩家伤害+10%"
      },
      {
        "id": "44119",
        "name": "钢铁雄心",
        "icon": "item_44119",
        "rank": 4,
        "job": [
          "0"
        ],
        "position": 6,
        "effect": "物理攻击+224",
        "buff": "力量+12\n近战物理攻击+3%；精炼+12时，近战物理攻击+3%；精炼+15时，近战物理攻击+3%",
        "isCompose": 0,
        "isUpgrade": 0,
        "isHigh": 0,
        "canSlot": 0,
        "canUpgrade": 0,
        "randomBuff": "物理伤害+4.5%\n物伤减免+9%\n魔伤减免+9%\n生命上限+6%\n物理防御+12%\n魔法防御+12%\nPVP\/GVG中对玩家伤害+10%"
      },
      {
        "id": "44116",
        "name": "熔火之心",
        "icon": "item_44116",
        "rank": 4,
        "job": [
          "0"
        ],
        "position": 6,
        "effect": "魔法攻击+200",
        "buff": "智力+8、力量+8\n火属性攻击+4%；精炼+12时，火属性攻击+4%；精炼+15时，火属性攻击+4%",
        "isCompose": 0,
        "isUpgrade": 0,
        "isHigh": 0,
        "canSlot": 0,
        "canUpgrade": 0,
        "randomBuff": "火属性攻击+12%\n物伤减免+9%\n魔伤减免+9%\n生命上限+6%\n物理防御+12%\n魔法防御+12%\nPVP\/GVG中对玩家伤害+10%"
      },
      {
        "id": "44113",
        "name": "绿宝石纽扣",
        "icon": "item_44113",
        "rank": 4,
        "job": [
          "0"
        ],
        "position": 6,
        "effect": "魔法攻击+200",
        "buff": "智力+8、力量+8\n水属性攻击+4%；精炼+12时，水属性攻击+4%；精炼+15时，水属性攻击+4%",
        "isCompose": 0,
        "isUpgrade": 0,
        "isHigh": 0,
        "canSlot": 0,
        "canUpgrade": 0,
        "randomBuff": "水属性攻击+12%\n物伤减免+9%\n魔伤减免+9%\n生命上限+6%\n物理防御+12%\n魔法防御+12%\nPVP\/GVG中对玩家伤害+10%"
      },
      {
        "id": "44110",
        "name": "红玫瑰发卡",
        "icon": "item_44110",
        "rank": 4,
        "job": [
          "0"
        ],
        "position": 6,
        "effect": "魔法攻击+200",
        "buff": "智力+8、灵巧+8\n魔法攻击+5%；精炼+12时，魔法攻击+5%；精炼+15时，魔法攻击+5%",
        "isCompose": 0,
        "isUpgrade": 0,
        "isHigh": 0,
        "canSlot": 0,
        "canUpgrade": 0,
        "randomBuff": "魔法攻击+15%\n物伤减免+9%\n魔伤减免+9%\n生命上限+6%\n物理防御+12%\n魔法防御+12%\nPVP\/GVG中对玩家伤害+10%"
      },
      {
        "id": "44107",
        "name": "挚爱胸针",
        "icon": "item_44107",
        "rank": 4,
        "job": [
          "0"
        ],
        "position": 6,
        "effect": "物理攻击+224",
        "buff": "幸运+16\n暴击伤害+4%；精炼+12时，暴击伤害+4%；精炼+15时，暴击伤害+4%",
        "isCompose": 0,
        "isUpgrade": 0,
        "isHigh": 0,
        "canSlot": 0,
        "canUpgrade": 0,
        "randomBuff": "暴击伤害+12%\n物伤减免+9%\n魔伤减免+9%\n生命上限+6%\n物理防御+12%\n魔法防御+12%\nPVP\/GVG中对玩家伤害+10%"
      }
    ],
    "partner": {
      "id": 30301,
      "pos": 6,
      "title": "交易所订阅",
      "tip": "",
      "pic": "\/\/rosc3.zhaiwuyu.com\/partner\/self\/find-exchange-202103.jpg",
      "link": "http:\/\/romel.wiki\/article\/exchange-remind"
    }
  }
}