{
  "code": 0,
  "status": "success",
  "timeStamp": 1643703661,
  "staticDomain": "http:\/\/rosc1.zhaiwuyu.com",
  "ip": "101.87.201.112",
  "language": "cn",
  "dbArea": 0,
  "data": {
    "page": 66,
    "pageSize": 10,
    "pageCount": 77,
    "total": 765,
    "list": [
      {
        "id": "42047",
        "name": "山地游侠装",
        "icon": "item_42047",
        "rank": 3,
        "job": [
          "42",
          "43",
          "44",
          "45"
        ],
        "position": 3,
        "effect": "物理防御+46",
        "buff": "灵巧+5\n物理攻击+8%\n提升智力对猎鹰攻击力的影响\n【诅咒之弓IV】+【山地游侠装IV】：提升物理攻击对猎鹰攻击力的影响\n【痛苦折磨】+【山地游侠装IV】：提升物理攻击对野兽攻击力的影响",
        "isCompose": 0,
        "isUpgrade": 1,
        "isHigh": 0,
        "canSlot": 1,
        "canUpgrade": 1
      },
      {
        "id": "42046",
        "name": "侠盗之衣",
        "icon": "item_42046",
        "rank": 3,
        "job": [
          "0"
        ],
        "position": 3,
        "effect": "物理防御+31",
        "buff": "魔法防御+20\n敏捷+5\n力量+10\n【侠盗之衣Ⅷ】+【神圣大驹短剑Ⅷ】：对小型目标伤害+15%，对中型目标伤害+5%，对大型目标伤害+10%\n【潜行者短剑】+【侠盗之衣Ⅷ】：对小型目标伤害+15%，对中型目标伤害+5%，对大型目标伤害+10%",
        "isCompose": 0,
        "isUpgrade": 1,
        "isHigh": 0,
        "canSlot": 1,
        "canUpgrade": 1
      },
      {
        "id": "42045",
        "name": "星尘外套",
        "icon": "item_42045",
        "rank": 3,
        "job": [
          "0"
        ],
        "position": 3,
        "effect": "物理防御+31",
        "buff": "灵巧+4\n魔法上限+240",
        "isCompose": 0,
        "isUpgrade": 1,
        "isHigh": 0,
        "canSlot": 1,
        "canUpgrade": 1
      },
      {
        "id": "42044",
        "name": "野兽之心",
        "icon": "item_42044",
        "rank": 3,
        "job": [
          "0"
        ],
        "position": 3,
        "effect": "物理防御+31",
        "buff": "敏捷+4\n暴击+5\n生命上限+800\n【水纹之剑Ⅹ】（【怒涛勇者】）+【野兽之心Ⅷ】（【暴戾之甲】）+【高等布袋熊长靴IV】（【猪鬃毛长靴】）+【衬衫Ⅷ】（【云朵衬衫】）：物理攻击+3%，暴击伤害+3%，攻击速度+5%，生命上限+10%",
        "isCompose": 0,
        "isUpgrade": 1,
        "isHigh": 0,
        "canSlot": 1,
        "canUpgrade": 1
      },
      {
        "id": "42043",
        "name": "创作者外袍",
        "icon": "item_42043",
        "rank": 3,
        "job": [
          "21",
          "22",
          "23",
          "24",
          "25",
          "82",
          "83",
          "84",
          "85",
          "143",
          "144",
          "145",
          "163",
          "164",
          "165",
          "183",
          "184",
          "185",
          "223",
          "224",
          "225"
        ],
        "position": 3,
        "effect": "物理防御+31",
        "buff": "智力+4\n魔法攻击+5%\n可变吟唱时间-10%\n【大巫师之杖Ⅷ】（【巫师之力】）+【创作者外袍Ⅷ】（【碎星者外袍】）+【永恒戒指Ⅷ】（【克拉肯之眼】）+【水晶靴Ⅳ】（【白宝石之靴】）：可变吟唱时间-5%，魔法伤害+3%，忽视魔法防御+3%",
        "isCompose": 0,
        "isUpgrade": 1,
        "isHigh": 0,
        "canSlot": 1,
        "canUpgrade": 1
      },
      {
        "id": "42042",
        "name": "奥尔里昂的制服",
        "icon": "item_42042",
        "rank": 4,
        "job": [
          "0"
        ],
        "position": 3,
        "effect": "物理防御+46",
        "buff": "可变吟唱时间+20%\n但施法不会中断",
        "isCompose": 0,
        "isUpgrade": 0,
        "isHigh": 0,
        "canSlot": 1,
        "canUpgrade": 1
      },
      {
        "id": "42041",
        "name": "大猫的祝福",
        "icon": "item_42041",
        "rank": 4,
        "job": [
          "0"
        ],
        "position": 3,
        "effect": "物理防御+46",
        "buff": "生命上限+1000\n【高等布袋熊长靴】+【大猫的祝福Ⅵ】+【时之蓝披肩Ⅳ】：力量+5，装备攻速+5%\n【大猫的祝福Ⅵ】+【水晶靴】：火\/水\/地\/风\/元素属性攻击+7%\n【大猫的祝福Ⅵ】+【白宝石之靴】：火、水、地、风属性攻击+7%",
        "isCompose": 0,
        "isUpgrade": 0,
        "isHigh": 0,
        "canSlot": 1,
        "canUpgrade": 1
      },
      {
        "id": "42040",
        "name": "陨石铠甲",
        "icon": "item_42040",
        "rank": 4,
        "job": [
          "0"
        ],
        "position": 3,
        "effect": "物理防御+33",
        "buff": "眩晕，冰冻抵抗+50%",
        "isCompose": 0,
        "isUpgrade": 0,
        "isHigh": 0,
        "canSlot": 1,
        "canUpgrade": 1
      },
      {
        "id": "42039",
        "name": "天使的加护",
        "icon": "item_42039",
        "rank": 4,
        "job": [
          "0"
        ],
        "position": 3,
        "effect": "物理防御+33",
        "buff": "生命上限+500\n魔法上限+200\n受到物理攻击时有5%概率获得【圣母之祈福】Lv.1状态",
        "isCompose": 0,
        "isUpgrade": 0,
        "isHigh": 0,
        "canSlot": 1,
        "canUpgrade": 1
      },
      {
        "id": "42038",
        "name": "坚定战袍",
        "icon": "item_42038",
        "rank": 4,
        "job": [
          "21",
          "22",
          "23",
          "24",
          "25",
          "41",
          "42",
          "43",
          "44",
          "45",
          "51",
          "52",
          "53",
          "54",
          "55",
          "82",
          "83",
          "84",
          "85",
          "102",
          "103",
          "104",
          "105",
          "112",
          "113",
          "114",
          "115",
          "122",
          "123",
          "124",
          "125",
          "143",
          "144",
          "145",
          "151",
          "152",
          "153",
          "154",
          "155",
          "173",
          "174",
          "175",
          "183",
          "184",
          "185",
          "223",
          "224",
          "225"
        ],
        "position": 3,
        "effect": "物理防御+37",
        "buff": "灵巧+1\n智力+2\n避免陷入恐惧状态\n【霸王乱舞】+【坚定战袍Ⅹ】+【坚定指环Ⅳ】（或【赤心权戒】）：使【罗刹破凰拳】伤害+5%\n【苍天霸皇】+【坚定战袍Ⅹ】+【坚定指环Ⅳ】（或【赤心权戒】）：使【罗刹破凰拳】伤害+5%",
        "isCompose": 0,
        "isUpgrade": 0,
        "isHigh": 0,
        "canSlot": 1,
        "canUpgrade": 1
      }
    ]
  }
}