{
  "code": 0,
  "status": "success",
  "timeStamp": 1642843870,
  "staticDomain": "http:\/\/rosc1.zhaiwuyu.com",
  "ip": "101.87.200.160",
  "language": "cn",
  "dbArea": 0,
  "data": {
    "page": 68,
    "pageSize": 10,
    "pageCount": 74,
    "total": 731,
    "list": [
      {
        "id": "41510",
        "name": "红十字杖[1]",
        "icon": "item_41510",
        "rank": 3,
        "job": [
          "21",
          "22",
          "23",
          "24",
          "25",
          "51",
          "52",
          "53",
          "54",
          "55",
          "82",
          "83",
          "84",
          "85",
          "183",
          "184",
          "185",
          "223",
          "224",
          "225"
        ],
        "position": 1,
        "effect": "魔法攻击+144",
        "buff": "智力+5\nSP恢复+30%\n精炼每+1，治疗加成+4%\n【红十字杖Ⅳ】+【天衣月舞Ⅳ】：治疗加成+5%，【天衣月舞Ⅳ】精炼+10以上时治疗加成提升至10%\n【红十字杖Ⅳ】+【光辉礼赞】：治疗加成+5%，【光辉礼赞】精炼+10以上时治疗加成提升至10%",
        "isCompose": 0,
        "isUpgrade": 1,
        "isHigh": 0,
        "canSlot": 1,
        "canUpgrade": 1
      },
      {
        "id": "41519",
        "name": "神圣权杖[1]",
        "icon": "item_41519",
        "rank": 2,
        "job": [
          "51",
          "52",
          "53",
          "54",
          "55"
        ],
        "position": 1,
        "effect": "魔法攻击+75",
        "buff": "魔法攻击+10%\n【神圣之击】，【转生术】，【十字驱魔攻击】的可变吟唱时间-25%",
        "isCompose": 1,
        "isUpgrade": 0,
        "isHigh": 0,
        "canSlot": 1,
        "canUpgrade": 1
      },
      {
        "id": "41518",
        "name": "恢复之杖[1]",
        "icon": "item_41518",
        "rank": 3,
        "job": [
          "21",
          "22",
          "23",
          "24",
          "25",
          "51",
          "52",
          "53",
          "54",
          "55",
          "82",
          "83",
          "84",
          "85",
          "183",
          "184",
          "185",
          "223",
          "224",
          "225"
        ],
        "position": 1,
        "effect": "魔法攻击+54",
        "buff": "SP恢复+20%\n精炼每+1，治疗加成+3%",
        "isCompose": 1,
        "isUpgrade": 0,
        "isHigh": 0,
        "canSlot": 1,
        "canUpgrade": 1
      },
      {
        "id": "41509",
        "name": "魔锤安魂曲[1]",
        "icon": "item_41509",
        "rank": 4,
        "job": [
          "51",
          "52",
          "53",
          "54",
          "55",
          "61",
          "62",
          "63",
          "64",
          "65",
          "122",
          "123",
          "124",
          "125",
          "132",
          "133",
          "134",
          "135",
          "213",
          "214",
          "215"
        ],
        "position": 1,
        "effect": "物理攻击+198",
        "buff": "暴击+20\n装备者物理防御下降1\/3\n每精炼+1，普通攻击伤害提高3%\n【魔锤安魂曲V】+【圣者法袍IV】：装备攻速+5%，物理攻击+5%\n【魔锤安魂曲V】+【星河之法袍】：装备攻速+5%，物理攻击+5%",
        "isCompose": 0,
        "isUpgrade": 0,
        "isHigh": 0,
        "canSlot": 1,
        "canUpgrade": 1
      },
      {
        "id": "41507",
        "name": "庄严十字[1]",
        "icon": "item_41507",
        "rank": 3,
        "job": [
          "52",
          "53",
          "54",
          "55",
          "62",
          "63",
          "64",
          "65",
          "122",
          "123",
          "124",
          "125",
          "132",
          "133",
          "134",
          "135",
          "213",
          "214",
          "215"
        ],
        "position": 1,
        "effect": "物理攻击+162",
        "buff": "敏捷+3\n装备攻速+10%\n不死种族加伤+20%\n对暗属性魔物伤害+20%\n普攻时有5%概率在10秒内物理攻击+50\n精练达到10以上时物理攻击+50",
        "isCompose": 0,
        "isUpgrade": 1,
        "isHigh": 0,
        "canSlot": 1,
        "canUpgrade": 1
      },
      {
        "id": "41504",
        "name": "尖刃铁锤[1]",
        "icon": "item_41504",
        "rank": 2,
        "job": [
          "51",
          "52",
          "53",
          "54",
          "55",
          "61",
          "62",
          "63",
          "64",
          "65",
          "122",
          "123",
          "124",
          "125",
          "132",
          "133",
          "134",
          "135",
          "213",
          "214",
          "215"
        ],
        "position": 1,
        "effect": "物理攻击+90",
        "buff": "装备攻速+5%\n不死种族加伤+10%\n对暗属性魔物伤害+10%",
        "isCompose": 1,
        "isUpgrade": 0,
        "isHigh": 0,
        "canSlot": 1,
        "canUpgrade": 1
      },
      {
        "id": "41233",
        "name": "诅咒之弓[1]",
        "icon": "item_41233",
        "rank": 3,
        "job": [
          "42",
          "43",
          "44",
          "45"
        ],
        "position": 1,
        "effect": "物理攻击+180",
        "buff": "敏捷+5\n智力+5\n普攻时有概率发动【二连矢】Lv.10\n习得【驯兽术】Lv.10时，【驯兽术】伤害增加100%\n使普攻触发【闪电冲击】效果时概率降低目标一定魔法值（该效果只在PVP生效）\n【诅咒之弓IV】+【山地游侠装IV】：提升物理攻击对猎鹰攻击力的影响\n【诅咒之弓IV】+【暗星潜行衣】：提升物理攻击对野兽攻击力的影响",
        "isCompose": 0,
        "isUpgrade": 1,
        "isHigh": 0,
        "canSlot": 1,
        "canUpgrade": 1
      },
      {
        "id": "41232",
        "name": "深红闪电[1]",
        "icon": "item_41232",
        "rank": 3,
        "job": [
          "42",
          "43",
          "44",
          "45"
        ],
        "position": 1,
        "effect": "物理攻击+180",
        "buff": "灵巧+5\n【冲锋箭】、【重伤箭】的消耗降低40%\n【重伤箭】技能CD减少1秒\n【冲锋箭】伤害增加100%\n普通攻击时有一定概率触发【重伤箭】Lv.1\n每精炼+1，普通攻击力提高20点",
        "isCompose": 0,
        "isUpgrade": 1,
        "isHigh": 0,
        "canSlot": 1,
        "canUpgrade": 1
      },
      {
        "id": "41217",
        "name": "神秘之弓[1]",
        "icon": "item_41217",
        "rank": 3,
        "job": [
          "41",
          "42",
          "43",
          "44",
          "45",
          "92",
          "93",
          "94",
          "95",
          "102",
          "103",
          "104",
          "105",
          "112",
          "113",
          "114",
          "115"
        ],
        "position": 1,
        "effect": "物理攻击+192",
        "buff": "灵巧+5\n物理攻击+75\n灵巧达到95时物理攻击力+10%\n灵巧达到120时物理攻击力+3%\n灵巧达到150时物理攻击力+3%",
        "isCompose": 0,
        "isUpgrade": 1,
        "isHigh": 0,
        "canSlot": 1,
        "canUpgrade": 1
      },
      {
        "id": "41205",
        "name": "喵喵大蟹弓[1]",
        "icon": "item_41205",
        "rank": 3,
        "job": [
          "42",
          "43",
          "44",
          "45",
          "92",
          "93",
          "94",
          "95",
          "102",
          "103",
          "104",
          "105",
          "112",
          "113",
          "114",
          "115"
        ],
        "position": 1,
        "effect": "物理攻击+210",
        "buff": "幸运+5\n暴击伤害+15%\n幸运达到90时暴击伤害+10%\n精炼+5、+10、+15时暴击伤害分别额外增加+5%、5%、15%\n【神射手之衣IV】+【喵喵大蟹弓IV】：敏捷+5，暴击伤害+10%\n【喵喵大蟹弓IV】+【提尔的护甲】：敏捷+5，暴击伤害+10%",
        "isCompose": 0,
        "isUpgrade": 1,
        "isHigh": 0,
        "canSlot": 1,
        "canUpgrade": 1
      }
    ]
  }
}