{
  "code": 0,
  "status": "success",
  "timeStamp": 1642843286,
  "staticDomain": "http:\/\/rosc1.zhaiwuyu.com",
  "ip": "101.87.200.160",
  "language": "cn",
  "dbArea": 0,
  "data": {
    "page": 10,
    "pageSize": 10,
    "pageCount": 74,
    "total": 731,
    "list": [
      {
        "id": "42638",
        "name": "生者的罪孽",
        "icon": "item_42638",
        "rank": 4,
        "job": [
          "0"
        ],
        "position": 2,
        "effect": "物理防御+200",
        "buff": "智力+12\n生命上限+3000\n所有技能SP消耗-20%、SP恢复+20%；精炼+10时，所有技能SP消耗-10%；精炼+15时，技能冷却-10%",
        "isCompose": 0,
        "isUpgrade": 0,
        "isHigh": 0,
        "canSlot": 0,
        "canUpgrade": 0,
        "randomBuff": "技能延迟-18%\n物伤减免+24%\n魔伤减免+24%\n生命上限+18%\n物理防御+36%\n魔法防御+36%\nPVP\/GVG中受玩家伤害-7.5%"
      },
      {
        "id": "42635",
        "name": "猎魔人的战利品",
        "icon": "item_42635",
        "rank": 4,
        "job": [
          "0"
        ],
        "position": 2,
        "effect": "物理防御+180",
        "buff": "智力+12\n生命上限+2800\n忽视魔法防御+20%；精炼+10时，忽视魔法防御+8%；精炼+15时，忽视魔法防御+8%",
        "isCompose": 0,
        "isUpgrade": 0,
        "isHigh": 0,
        "canSlot": 0,
        "canUpgrade": 0,
        "randomBuff": "忽视魔法防御+30%\n物伤减免+24%\n魔伤减免+24%\n生命上限+18%\n物理防御+36%\n魔法防御+36%\nPVP\/GVG中受玩家伤害-7.5%"
      },
      {
        "id": "42632",
        "name": "恶毒之伤",
        "icon": "item_42632",
        "rank": 4,
        "job": [
          "0"
        ],
        "position": 2,
        "effect": "物理防御+180",
        "buff": "力量+8、灵巧+8\n生命上限+2800\n忽视物理防御+20%；精炼+10时，忽视物理防御+8%；精炼+15时，忽视物理防御+8%",
        "isCompose": 0,
        "isUpgrade": 0,
        "isHigh": 0,
        "canSlot": 0,
        "canUpgrade": 0,
        "randomBuff": "忽视物理防御+30%\n物伤减免+24%\n魔伤减免+24%\n生命上限+18%\n物理防御+36%\n魔法防御+36%\nPVP\/GVG中受玩家伤害-7.5%"
      },
      {
        "id": "42629",
        "name": "狩龙武勋",
        "icon": "item_42629",
        "rank": 4,
        "job": [
          "0"
        ],
        "position": 2,
        "effect": "物理防御+180",
        "buff": "力量+12\n生命上限+2800\n近战物理伤害+10%；精炼+10时，近战物理伤害+4%；精炼+15时，近战物理伤害+4%",
        "isCompose": 0,
        "isUpgrade": 0,
        "isHigh": 0,
        "canSlot": 0,
        "canUpgrade": 0,
        "randomBuff": "物理伤害+18%\n物伤减免+24%\n魔伤减免+24%\n生命上限+18%\n物理防御+36%\n魔法防御+36%\nPVP\/GVG中受玩家伤害-7.5%"
      },
      {
        "id": "42626",
        "name": "灵骨之音",
        "icon": "item_42626",
        "rank": 4,
        "job": [
          "0"
        ],
        "position": 2,
        "effect": "物理防御+180",
        "buff": "灵巧+12\n生命上限+2800\n远程物理伤害+10%；精炼+10时，远程物理伤害+4%；精炼+15时，远程物理伤害+4%",
        "isCompose": 0,
        "isUpgrade": 0,
        "isHigh": 0,
        "canSlot": 0,
        "canUpgrade": 0,
        "randomBuff": "物理伤害+18%\n物伤减免+24%\n魔伤减免+24%\n生命上限+18%\n物理防御+36%\n魔法防御+36%\nPVP\/GVG中受玩家伤害-7.5%"
      },
      {
        "id": "42610",
        "name": "天神的启示",
        "icon": "item_42610",
        "rank": 4,
        "job": [
          "0"
        ],
        "position": 2,
        "effect": "物理防御+180",
        "buff": "智力+12\n生命上限+2800\n魔法伤害+10%；精炼+10时，魔法伤害+4%；精炼+15时，魔法伤害+4%",
        "isCompose": 0,
        "isUpgrade": 0,
        "isHigh": 0,
        "canSlot": 0,
        "canUpgrade": 0,
        "randomBuff": "魔法伤害+18%\n物伤减免+24%\n魔伤减免+24%\n生命上限+18%\n物理防御+36%\n魔法防御+36%\nPVP\/GVG中受玩家伤害-7.5%"
      },
      {
        "id": "42180",
        "name": "古圣之契",
        "icon": "item_42180",
        "rank": 4,
        "job": [
          "0"
        ],
        "position": 3,
        "effect": "物理防御+243",
        "buff": "体质+20\n生命上限+4000\n物理防御+15%；每精炼+1，魔法防御+1%\n人形种族减伤+10%；精炼+10时，人形种族减伤+4%；精炼+15时，人形种族减伤+4%",
        "isCompose": 0,
        "isUpgrade": 0,
        "isHigh": 0,
        "canSlot": 0,
        "canUpgrade": 0,
        "randomBuff": "人形种族减伤+15%\n物伤、魔伤减免+15%\n物理、魔法防御+24%\n生命上限+15%\n受治疗加成+30%\n受到中型魔物伤害-20%\nPVP\/GVG中受玩家伤害-7.5%"
      },
      {
        "id": "42177",
        "name": "祖灵之羁",
        "icon": "item_42177",
        "rank": 4,
        "job": [
          "0"
        ],
        "position": 3,
        "effect": "物理防御+243",
        "buff": "体质+20\n生命上限+4000\n魔法防御+15%；每精炼+1，物理防御+1%\n生命上限+4%，定身、恐惧抵抗+30%；精炼+10时，受到无、圣、暗、念、毒属性伤害-5%；精炼+15时，受到无、圣、暗、念、毒属性伤害-5%",
        "isCompose": 0,
        "isUpgrade": 0,
        "isHigh": 0,
        "canSlot": 0,
        "canUpgrade": 0,
        "randomBuff": "受到无、圣、暗、念、毒属性伤害-20%\n物伤、魔伤减免+15%\n物理、魔法防御+24%\n生命上限+15%\n受治疗加成+30%\n受到中型魔物伤害-20%\nPVP\/GVG中受玩家伤害-7.5%"
      },
      {
        "id": "42171",
        "name": "踏浪者战甲",
        "icon": "item_42171",
        "rank": 4,
        "job": [
          "0"
        ],
        "position": 3,
        "effect": "物理防御+243",
        "buff": "体质+20\n生命上限+4000\n魔法防御+15%；每精炼+1，物理防御+1%\n生命上限+4%，眩晕、冰冻抵抗+30%；精炼+10时，受到风、地、水、火、无属性伤害-5%；精炼+15时，受到风、地、水、火、无属性伤害-5%",
        "isCompose": 0,
        "isUpgrade": 0,
        "isHigh": 0,
        "canSlot": 0,
        "canUpgrade": 0,
        "randomBuff": "受到风、地、水、火、无属性伤害-20%\n物伤、魔伤减免+15%\n物理、魔法防御+24%\n生命上限+15%\n受治疗加成+30%\n受到中型魔物伤害-20%\nPVP\/GVG中受玩家伤害-7.5%"
      },
      {
        "id": "42168",
        "name": "全村最好的铠甲",
        "icon": "item_42168",
        "rank": 4,
        "job": [
          "0"
        ],
        "position": 3,
        "effect": "物理防御+243",
        "buff": "智力+10、体质+10\n生命上限+4000\n魔法防御+15%，每精炼+1，物理防御+1%\n生命上限+8%、治疗加成+8%；精炼+10时，治疗加成+8%；精炼+15时，治疗加成+8%",
        "isCompose": 0,
        "isUpgrade": 0,
        "isHigh": 0,
        "canSlot": 0,
        "canUpgrade": 0,
        "randomBuff": "生命上限+15%\n物伤、魔伤减免+15%\n物理、魔法防御+24%\n魔法上限+24%\n受治疗加成+30%\n受到中型魔物伤害-20%\nPVP\/GVG中受玩家伤害-7.5%"
      }
    ]
  }
}