{
  "code": 0,
  "status": "success",
  "timeStamp": 1642843507,
  "staticDomain": "http:\/\/rosc1.zhaiwuyu.com",
  "ip": "101.87.200.160",
  "language": "cn",
  "dbArea": 0,
  "data": {
    "page": 32,
    "pageSize": 10,
    "pageCount": 74,
    "total": 731,
    "list": [
      {
        "id": "42569",
        "name": "誓约之书第二卷",
        "icon": "item_42569",
        "rank": 3,
        "job": [
          "21",
          "22",
          "23",
          "24",
          "25",
          "52",
          "53",
          "54",
          "55",
          "82",
          "83",
          "84",
          "85",
          "143",
          "144",
          "145",
          "151",
          "152",
          "153",
          "154",
          "155",
          "163",
          "164",
          "165",
          "173",
          "174",
          "175",
          "183",
          "184",
          "185",
          "223",
          "224",
          "225"
        ],
        "position": 2,
        "effect": "物理防御+92",
        "buff": "生命上限+1000\n受治疗加成+5%\n每精炼+1，魔法攻击+1%",
        "isCompose": 0,
        "isUpgrade": 0,
        "isHigh": 0,
        "canSlot": 1,
        "canUpgrade": 1
      },
      {
        "id": "42568",
        "name": "火焰喷射器",
        "icon": "item_42568",
        "rank": 3,
        "job": [
          "62",
          "63",
          "64",
          "65",
          "143",
          "144",
          "145",
          "213",
          "214",
          "215"
        ],
        "position": 2,
        "effect": "物理防御+92",
        "buff": "生命上限+500\n火属性攻击+10%\n攻击目标时，有15%概率使目标陷入灼烧状态，持续3秒",
        "isCompose": 0,
        "isUpgrade": 0,
        "isHigh": 0,
        "canSlot": 1,
        "canUpgrade": 1
      },
      {
        "id": "42113",
        "name": "慵懒喵喵外套",
        "icon": "item_42113",
        "rank": 3,
        "job": [
          "151",
          "152",
          "153",
          "154",
          "155"
        ],
        "position": 3,
        "effect": "物理防御+196",
        "buff": "吟唱不会被打断\n智力+10、灵巧+10\n可变吟唱时间-10%\n生命上限+4000\n物理防御+10%\n每精炼+1，魔法防御+1%\n物理攻击+5%、魔法攻击+5%\n精炼+5时，生命上限+5%、魔法上限+5%\n精炼+10时，物理攻击+5%、魔法攻击+5%、生命上限+5%\n精炼+15时，物理攻击+5%、魔法攻击+5%、生命上限+5%、魔法上限+5%\n精炼+8开始，每精炼+1，物理伤害+1%、魔法伤害+1%（总计8%）",
        "isCompose": 0,
        "isUpgrade": 0,
        "isHigh": 1,
        "canSlot": 0,
        "canUpgrade": 0
      },
      {
        "id": "42112",
        "name": "喵族优雅外套",
        "icon": "item_42112",
        "rank": 3,
        "job": [
          "151",
          "152",
          "153",
          "154",
          "155"
        ],
        "position": 3,
        "effect": "物理防御+37",
        "buff": "吟唱不会被打断\n智力+3、灵巧+3\n物理攻击+5%、魔法攻击+5%",
        "isCompose": 0,
        "isUpgrade": 1,
        "isHigh": 0,
        "canSlot": 1,
        "canUpgrade": 1
      },
      {
        "id": "42111",
        "name": "喵族优雅斗篷",
        "icon": "item_42111",
        "rank": 2,
        "job": [
          "150",
          "151",
          "152",
          "153",
          "154",
          "155"
        ],
        "position": 3,
        "effect": "物理防御+24",
        "buff": "吟唱不会被打断\n智力+2、灵巧+2\n物理攻击+3%、魔法攻击+3%",
        "isCompose": 1,
        "isUpgrade": 0,
        "isHigh": 0,
        "canSlot": 1,
        "canUpgrade": 1
      },
      {
        "id": "42110",
        "name": "乌鲁兹符文盔甲",
        "icon": "item_42110",
        "rank": 3,
        "job": [
          "0"
        ],
        "position": 3,
        "effect": "物理防御+105",
        "buff": "魔法防御+40\n生命上限+1000\n每精炼+1，人形种族减伤+1%\n使用技能时SP消耗+15%",
        "isCompose": 0,
        "isUpgrade": 0,
        "isHigh": 0,
        "canSlot": 1,
        "canUpgrade": 0
      },
      {
        "id": "41882",
        "name": "狂暴飓风[1]",
        "icon": "item_41882",
        "rank": 4,
        "job": [
          "11",
          "12",
          "13",
          "14",
          "15",
          "61",
          "62",
          "63",
          "64",
          "65",
          "132",
          "133",
          "134",
          "135",
          "143",
          "144",
          "145",
          "203",
          "204",
          "205",
          "213",
          "214",
          "215"
        ],
        "position": 1,
        "effect": "物理攻击+480",
        "buff": "力量+6\n受到中型魔物伤害-10%\n每精炼+1，受中体型魔物伤害-1%\n攻击目标时，有10%概率释放技能“狂暴飓风”，对自身周围3米范围内敌对目标，造成30倍风属性伤害，并击退目标2米",
        "isCompose": 0,
        "isUpgrade": 0,
        "isHigh": 0,
        "canSlot": 1,
        "canUpgrade": 0
      },
      {
        "id": "41269",
        "name": "冰冻之弓[1]",
        "icon": "item_41269",
        "rank": 4,
        "job": [
          "41",
          "42",
          "43",
          "44",
          "45",
          "92",
          "93",
          "94",
          "95"
        ],
        "position": 1,
        "effect": "物理攻击+448",
        "buff": "灵巧+6\n对火属性魔物伤害+5%\n精炼+5时，对火属性魔物伤害+5%；精炼+10时，对火属性魔物伤害+5%\n攻击目标时，有10%概率使目标冰冻，持续2秒\n攻击冰冻单位时不会打破冰冻",
        "isCompose": 0,
        "isUpgrade": 0,
        "isHigh": 0,
        "canSlot": 1,
        "canUpgrade": 0
      },
      {
        "id": "40373",
        "name": "红莲[1]",
        "icon": "item_40373",
        "rank": 4,
        "job": [
          "11",
          "12",
          "13",
          "14",
          "15",
          "61",
          "62",
          "63",
          "64",
          "65",
          "72",
          "73",
          "74",
          "75",
          "132",
          "133",
          "134",
          "135",
          "143",
          "144",
          "145",
          "164",
          "165",
          "203",
          "204",
          "205",
          "213",
          "214",
          "215"
        ],
        "position": 1,
        "effect": "物理攻击+480",
        "buff": "力量+4 、智力+4\n装备攻速+5%\n精炼+10时，装备攻速+5%\n物理攻击时，有5%概率使用【陨石术】Lv.5技能",
        "isCompose": 0,
        "isUpgrade": 0,
        "isHigh": 0,
        "canSlot": 1,
        "canUpgrade": 0
      },
      {
        "id": "63444",
        "name": "冰霜典籍[1]",
        "icon": "item_63444",
        "rank": 4,
        "job": [
          "84",
          "85"
        ],
        "position": 1,
        "effect": "魔法攻击+405",
        "buff": "智力+10、灵巧+10\n忽视魔法防御+15%\n生命上限+5%\n每精炼+1，冰冻攻击+2%\n每精炼+1，【钻石星尘】的伤害+2%\n技能【钻石星尘】可变吟唱时间-20%\n精炼+5时，忽视魔法防御+5%；精炼+10时，魔法攻击+5%；精炼+15时，魔法伤害+5%",
        "isCompose": 0,
        "isUpgrade": 0,
        "isHigh": 1,
        "canSlot": 0,
        "canUpgrade": 0
      }
    ]
  }
}