{
  "code": 0,
  "status": "success",
  "timeStamp": 1642843567,
  "staticDomain": "http:\/\/rosc1.zhaiwuyu.com",
  "ip": "101.87.200.160",
  "language": "cn",
  "dbArea": 0,
  "data": {
    "page": 38,
    "pageSize": 10,
    "pageCount": 74,
    "total": 731,
    "list": [
      {
        "id": "63402",
        "name": "全知魔神书",
        "icon": "item_63402",
        "rank": 4,
        "job": [
          "82",
          "83",
          "84",
          "85"
        ],
        "position": 14,
        "effect": "魔法攻击+330",
        "buff": "智力+15\n敏捷+5\n体质+10\n全能力+8\n提升贤者系范围型技能伤害+15%\n魔法攻击+12%\n魔法穿刺+12%\n人形种族伤害+30%\n生命上限+15000",
        "isCompose": 1,
        "isUpgrade": 0,
        "isHigh": 0,
        "canSlot": 0,
        "canUpgrade": 0
      },
      {
        "id": "63113",
        "name": "琵琶[1]",
        "icon": "item_63113",
        "rank": 3,
        "job": [
          "102",
          "103",
          "104",
          "105"
        ],
        "position": 1,
        "effect": "物理攻击+144",
        "buff": "智力+2\n灵巧+2\n魔法上限+100\n生命上限+5%\nSP恢复速度+10%",
        "isCompose": 1,
        "isUpgrade": 0,
        "isHigh": 0,
        "canSlot": 1,
        "canUpgrade": 1
      },
      {
        "id": "63109",
        "name": "贝斯[1]",
        "icon": "item_63109",
        "rank": 4,
        "job": [
          "104",
          "105"
        ],
        "position": 1,
        "effect": "物理攻击+420",
        "buff": "灵巧+8\n忽视物理防御+10%\n物理攻击+10%\n每精炼+1，【狂风暴雨】的伤害+2%",
        "isCompose": 0,
        "isUpgrade": 0,
        "isHigh": 0,
        "canSlot": 1,
        "canUpgrade": 1
      },
      {
        "id": "63105",
        "name": "月神的呢喃·神铸",
        "icon": "item_63105",
        "rank": 4,
        "job": [
          "102",
          "103",
          "104",
          "105"
        ],
        "position": 14,
        "effect": "物理攻击+800",
        "buff": "灵巧+12\n智力+8\n体质+10\n全能力+40\n生命上限+10%\n物理攻击+12%\n物理穿刺+12%\n人形种族伤害+50%\n生命上限+40000\n物伤减免+10%，魔伤减免+10%\n可对队伍中的所有目标施放【守护天使】。【守护天使】：使目标受到的伤害降低30%，攻击速度+30%，移动速度和攻击速度不会受到任何效果降低（包括神器技能），当目标死亡时守护天使将使目标避免死亡并为其回复80%MaxHp和50%MaxSp，【守护天使】效果不会被任何技能解除。【守护天使】持续8秒，冷却时间150s",
        "isCompose": 1,
        "isUpgrade": 0,
        "isHigh": 0,
        "canSlot": 0,
        "canUpgrade": 0
      },
      {
        "id": "63104",
        "name": "月神的呢喃·精锻",
        "icon": "item_63104",
        "rank": 4,
        "job": [
          "102",
          "103",
          "104",
          "105"
        ],
        "position": 14,
        "effect": "物理攻击+600",
        "buff": "灵巧+12\n智力+8\n体质+10\n全能力+30\n生命上限+10%\n物理攻击+10%\n物理穿刺+10%\n人形种族伤害+40%\n生命上限+30000\n物伤减免+5%，魔伤减免+5%\n可对队伍中的所有目标施放【守护天使】。【守护天使】：使目标受到的伤害降低20%，攻击速度+20%，移动速度和攻击速度不会受到任何效果降低（包括神器技能），当目标死亡时守护天使将使目标避免死亡并为其回复50%MaxHp和20%MaxSp，【守护天使】效果不会被任何技能解除。【守护天使】持续5秒，冷却时间180s",
        "isCompose": 1,
        "isUpgrade": 0,
        "isHigh": 0,
        "canSlot": 0,
        "canUpgrade": 0
      },
      {
        "id": "63103",
        "name": "月神的呢喃",
        "icon": "item_63103",
        "rank": 4,
        "job": [
          "102",
          "103",
          "104",
          "105"
        ],
        "position": 14,
        "effect": "物理攻击+400",
        "buff": "灵巧+12\n智力+8\n体质+10\n全能力+20\n生命上限+10%\n物理攻击+8%\n物理穿刺+8%\n人形种族伤害+30%\n生命上限+20000",
        "isCompose": 1,
        "isUpgrade": 0,
        "isHigh": 0,
        "canSlot": 0,
        "canUpgrade": 0
      },
      {
        "id": "62820",
        "name": "秘鞭 眷恋[1]",
        "icon": "item_62820",
        "rank": 4,
        "job": [
          "114",
          "115"
        ],
        "position": 1,
        "effect": "物理攻击+420",
        "buff": "灵巧+8\n忽视物理防御+10%\n物理攻击+10%\n每精炼+1，【狂风暴雨】的伤害+2%",
        "isCompose": 0,
        "isUpgrade": 0,
        "isHigh": 0,
        "canSlot": 1,
        "canUpgrade": 1
      },
      {
        "id": "62809",
        "name": "流星鞭子[1]",
        "icon": "item_62809",
        "rank": 3,
        "job": [
          "112",
          "113",
          "114",
          "115"
        ],
        "position": 1,
        "effect": "物理攻击+144",
        "buff": "智力+2\n灵巧+2\n魔法上限+100\n生命上限+5%\nSP恢复速度+10%",
        "isCompose": 1,
        "isUpgrade": 0,
        "isHigh": 0,
        "canSlot": 1,
        "canUpgrade": 1
      },
      {
        "id": "62805",
        "name": "拂晓之光·神铸",
        "icon": "item_62805",
        "rank": 4,
        "job": [
          "112",
          "113",
          "114",
          "115"
        ],
        "position": 14,
        "effect": "物理攻击+800",
        "buff": "灵巧+12\n智力+8\n体质+10\n全能力+40\n生命上限+10%\n物理攻击+12%\n物理穿刺+12%\n人形种族伤害+50%\n生命上限+40000\n物伤减免+10%，魔伤减免+10%\n可对范围内的5个敌对目标施放【恐惧炸弹】。【恐惧炸弹】：目标因恐惧而四处乱跑，目标在恐惧炸弹效果结束后若仍存活，将对周围3米的所有友方目标施放【深层恐惧】，持续3s，冷却时间75s。【深层恐惧】：目标将被恐惧而四处乱跑，移动速度+30%，受到伤害+30%，持续 5 秒",
        "isCompose": 1,
        "isUpgrade": 0,
        "isHigh": 0,
        "canSlot": 0,
        "canUpgrade": 0
      },
      {
        "id": "62804",
        "name": "拂晓之光·精锻",
        "icon": "item_62804",
        "rank": 4,
        "job": [
          "112",
          "113",
          "114",
          "115"
        ],
        "position": 14,
        "effect": "物理攻击+600",
        "buff": "灵巧+12\n智力+8\n体质+10\n全能力+30\n生命上限+10%\n物理攻击+10%\n物理穿刺+10%\n人形种族伤害+40%\n生命上限+30000\n物伤减免+5%，魔伤减免+5%\n可对范围内的5个敌对目标施放【恐惧炸弹】。【恐惧炸弹】：目标因恐惧而四处乱跑，目标在恐惧炸弹效果结束后若仍存活，将对周围3米的所有友方目标施放【深层恐惧】，持续3s，冷却时间90s。【深层恐惧】：目标将被恐惧而四处乱跑，移动速度+30%，受到伤害+20%，持续 3 秒",
        "isCompose": 1,
        "isUpgrade": 0,
        "isHigh": 0,
        "canSlot": 0,
        "canUpgrade": 0
      }
    ]
  }
}