{
  "code": 0,
  "status": "success",
  "timeStamp": 1643703254,
  "staticDomain": "http:\/\/rosc1.zhaiwuyu.com",
  "ip": "101.87.201.112",
  "language": "cn",
  "dbArea": 0,
  "data": {
    "page": 26,
    "pageSize": 10,
    "pageCount": 77,
    "total": 765,
    "list": [
      {
        "id": "43577",
        "name": "软底登山靴",
        "icon": "item_43577",
        "rank": 4,
        "job": [
          "132",
          "133",
          "134",
          "135"
        ],
        "position": 5,
        "effect": "物理防御+120",
        "buff": "移动速度+10%\n体质+8、力量+4、灵巧+4\n生命上限+2500\n使【生命药水投掷】和【魔力药水投掷】的效果提升+40%；精炼+8时，忽视物理防御+4%；精炼+12时，物理穿刺+3%；精炼+15时，物理穿刺+4%",
        "isCompose": 0,
        "isUpgrade": 0,
        "isHigh": 1,
        "canSlot": 0,
        "canUpgrade": 0
      },
      {
        "id": "43576",
        "name": "芭蕾鞋",
        "icon": "item_43576",
        "rank": 4,
        "job": [
          "102",
          "103",
          "104",
          "105",
          "112",
          "113",
          "114",
          "115"
        ],
        "position": 5,
        "effect": "物理防御+120",
        "buff": "移动速度+12%\n智力+6、体质+6、灵巧+6\n生命上限+3000\n精炼+5且使用演奏类技能时，受到的伤害降低5%；精炼+10且使用演奏类技能时，受到的伤害降低5%；精炼+12时，生命上限+5%；精炼+15时，物理伤害+5%\n【华丽演出服IV】（【流云衣】）+【舞蹈鞋IV】（【芭蕾鞋】）+【吟游诗人的披风IV】：生命上限+10%，体质+5",
        "isCompose": 0,
        "isUpgrade": 0,
        "isHigh": 1,
        "canSlot": 0,
        "canUpgrade": 0
      },
      {
        "id": "43575",
        "name": "小猫的脚踝铃铛",
        "icon": "item_43575",
        "rank": 4,
        "job": [
          "150",
          "151",
          "152",
          "153",
          "154",
          "155"
        ],
        "position": 5,
        "effect": "物理防御+120",
        "buff": "移动速度+12%\n智力+6、灵巧+6\nHP恢复+30%、SP恢复+30%\n生命上限+2500\n精炼+8时，物理伤害+2%、魔法伤害+2%；精炼+12时，物理伤害+3%、魔法伤害+3%；精炼+15时，物理伤害+4%、魔法伤害+4%",
        "isCompose": 0,
        "isUpgrade": 0,
        "isHigh": 1,
        "canSlot": 0,
        "canUpgrade": 0
      },
      {
        "id": "43067",
        "name": "秘银魔法斗篷",
        "icon": "item_43067",
        "rank": 3,
        "job": [
          "0"
        ],
        "position": 4,
        "effect": "物理防御+80",
        "buff": "体质+6\n魔法防御+100\n魔法防御+10%；每精炼+1，魔法防御+1%",
        "isCompose": 0,
        "isUpgrade": 0,
        "isHigh": 0,
        "canSlot": 1,
        "canUpgrade": 0
      },
      {
        "id": "43066",
        "name": "幻影伯爵披风",
        "icon": "item_43066",
        "rank": 4,
        "job": [
          "163",
          "164",
          "165"
        ],
        "position": 4,
        "effect": "物理防御+100",
        "buff": "力量+8\n移动速度+3%\n生命上限+2800\n暴击伤害+5%\n精炼+5时，暴击+5；精炼+10时，普攻伤害+5%；精炼+15时，普攻伤害+5%\n精炼+8开始，每精炼+1，普攻伤害+1%（总计8%）",
        "isCompose": 0,
        "isUpgrade": 0,
        "isHigh": 1,
        "canSlot": 0,
        "canUpgrade": 0
      },
      {
        "id": "43065",
        "name": "幻影披风",
        "icon": "item_43065",
        "rank": 3,
        "job": [
          "163",
          "164",
          "165"
        ],
        "position": 4,
        "effect": "物理防御+25",
        "buff": "力量+2\n移动速度+3%\n生命上限+200\n精炼+10时，普攻伤害+5%",
        "isCompose": 1,
        "isUpgrade": 0,
        "isHigh": 0,
        "canSlot": 1,
        "canUpgrade": 1
      },
      {
        "id": "43064",
        "name": "梅林的时空长袍",
        "icon": "item_43064",
        "rank": 4,
        "job": [
          "12",
          "13",
          "14",
          "15",
          "22",
          "23",
          "24",
          "25",
          "32",
          "33",
          "34",
          "35",
          "42",
          "43",
          "44",
          "45",
          "52",
          "53",
          "54",
          "55",
          "62",
          "63",
          "64",
          "65",
          "72",
          "73",
          "74",
          "75",
          "82",
          "83",
          "84",
          "85",
          "92",
          "93",
          "94",
          "95",
          "102",
          "103",
          "104",
          "105",
          "112",
          "113",
          "114",
          "115",
          "122",
          "123",
          "124",
          "125",
          "132",
          "133",
          "134",
          "135",
          "143",
          "144",
          "145",
          "152",
          "153",
          "154",
          "155",
          "163",
          "164",
          "165",
          "173",
          "174",
          "175",
          "183",
          "184",
          "185",
          "203",
          "204",
          "205",
          "213",
          "214",
          "215",
          "223",
          "224",
          "225"
        ],
        "position": 4,
        "effect": "物理防御+100",
        "buff": "体质+10、生命上限+3000\n受到远距离物理伤害减免+15%\n精炼+5时，受到远距离物理伤害减免+5%；精炼+10时，受到远距离物理伤害减免+5%；精炼+15时，受到远距离物理伤害减免+5%、物理防御+15%\n精炼+8开始，每精炼+1，普攻伤害减免+1%（总计8%）",
        "isCompose": 0,
        "isUpgrade": 0,
        "isHigh": 1,
        "canSlot": 0,
        "canUpgrade": 0
      },
      {
        "id": "43063",
        "name": "神之羽衣",
        "icon": "item_43063",
        "rank": 4,
        "job": [
          "22",
          "23",
          "24",
          "25",
          "52",
          "53",
          "54",
          "55",
          "82",
          "83",
          "84",
          "85",
          "132",
          "133",
          "134",
          "135",
          "143",
          "144",
          "145",
          "152",
          "153",
          "154",
          "155",
          "163",
          "164",
          "165",
          "183",
          "184",
          "185",
          "223",
          "224",
          "225"
        ],
        "position": 4,
        "effect": "物理防御+100",
        "buff": "智力+10、生命上限+2000\n装备攻速+5%\n精炼+5时，可变吟唱时间-5%；精炼+10时，忽视魔法防御+10%；精炼+12时，魔法攻击+3%；精炼+15时，忽视魔法防御+10%\n精炼+8开始，每精炼+1，技能伤害+1%（总计8%）",
        "isCompose": 0,
        "isUpgrade": 0,
        "isHigh": 1,
        "canSlot": 0,
        "canUpgrade": 0
      },
      {
        "id": "43062",
        "name": "软鹿皮斗篷",
        "icon": "item_43062",
        "rank": 4,
        "job": [
          "12",
          "13",
          "14",
          "15",
          "22",
          "23",
          "24",
          "25",
          "32",
          "33",
          "34",
          "35",
          "42",
          "43",
          "44",
          "45",
          "52",
          "53",
          "54",
          "55",
          "62",
          "63",
          "64",
          "65",
          "72",
          "73",
          "74",
          "75",
          "82",
          "83",
          "84",
          "85",
          "92",
          "93",
          "94",
          "95",
          "102",
          "103",
          "104",
          "105",
          "112",
          "113",
          "114",
          "115",
          "122",
          "123",
          "124",
          "125",
          "132",
          "133",
          "134",
          "135",
          "143",
          "144",
          "145",
          "152",
          "153",
          "154",
          "155",
          "163",
          "164",
          "165",
          "173",
          "174",
          "175",
          "183",
          "184",
          "185",
          "203",
          "204",
          "205",
          "213",
          "214",
          "215",
          "223",
          "224",
          "225"
        ],
        "position": 4,
        "effect": "物理防御+100",
        "buff": "生命上限+3000\n受到无属性伤害-15%\n精炼+5时，受到无属性伤害-5%；精炼+10时，受到无属性伤害-10%；精炼+15时，魔法防御+15%\n精炼+8开始，每精炼+1，技能伤害减免+1%（总计8%）\n【软鹿皮斗篷】+【高级凉鞋IV】：魔伤减免+5%",
        "isCompose": 0,
        "isUpgrade": 0,
        "isHigh": 1,
        "canSlot": 0,
        "canUpgrade": 0
      },
      {
        "id": "43061",
        "name": "灰精灵斗篷",
        "icon": "item_43061",
        "rank": 4,
        "job": [
          "12",
          "13",
          "14",
          "15",
          "22",
          "23",
          "24",
          "25",
          "32",
          "33",
          "34",
          "35",
          "42",
          "43",
          "44",
          "45",
          "52",
          "53",
          "54",
          "55",
          "62",
          "63",
          "64",
          "65",
          "72",
          "73",
          "74",
          "75",
          "82",
          "83",
          "84",
          "85",
          "92",
          "93",
          "94",
          "95",
          "102",
          "103",
          "104",
          "105",
          "112",
          "113",
          "114",
          "115",
          "122",
          "123",
          "124",
          "125",
          "132",
          "133",
          "134",
          "135",
          "143",
          "144",
          "145",
          "152",
          "153",
          "154",
          "155",
          "163",
          "164",
          "165",
          "173",
          "174",
          "175",
          "183",
          "184",
          "185",
          "203",
          "204",
          "205",
          "213",
          "214",
          "215",
          "223",
          "224",
          "225"
        ],
        "position": 4,
        "effect": "物理防御+100",
        "buff": "生命上限+3000\n生命上限+5%\n精炼+10时，生命上限+5%；精炼+15时，生命上限+5%\n精炼+8开始，每精炼+1，技能伤害减免+1%（总计8%）",
        "isCompose": 0,
        "isUpgrade": 0,
        "isHigh": 1,
        "canSlot": 0,
        "canUpgrade": 0
      }
    ]
  }
}