{
  "code": 0,
  "status": "success",
  "timeStamp": 1643703479,
  "staticDomain": "http:\/\/rosc1.zhaiwuyu.com",
  "ip": "101.87.201.112",
  "language": "cn",
  "dbArea": 0,
  "data": {
    "page": 48,
    "pageSize": 10,
    "pageCount": 77,
    "total": 765,
    "list": [
      {
        "id": "45557",
        "name": "星辰头盔",
        "icon": "item_45557",
        "rank": 4,
        "job": [
          "0"
        ],
        "position": 14,
        "effect": "",
        "buff": "生命上限+3000\n物理防御+10%\n魔法防御+10%\n暴击防护+8\n受毒、圣、暗、念、无、火、水、地、风属性伤害-5%",
        "isCompose": 1,
        "isUpgrade": 0,
        "isHigh": 0,
        "canSlot": 0,
        "canUpgrade": 0
      },
      {
        "id": "45556",
        "name": "胧月神头盔",
        "icon": "item_45556",
        "rank": 4,
        "job": [
          "0"
        ],
        "position": 14,
        "effect": "",
        "buff": "生命上限+5000\n物理防御+5%\n魔法防御+15%\n暴击防护+15\n物伤减免+2.5%\n魔伤减免+7.5%\n受毒、圣、暗、念、无属性伤害-5%，火、水、地、风属性伤害-15%\n获得被动技能【辉月之环】：每隔10秒自动释放一次，自身周边5M范围内敌人的装备攻速降低50%，暴击-50，持续5秒。",
        "isCompose": 1,
        "isUpgrade": 0,
        "isHigh": 0,
        "canSlot": 0,
        "canUpgrade": 0
      },
      {
        "id": "45555",
        "name": "月神头盔",
        "icon": "item_45555",
        "rank": 4,
        "job": [
          "0"
        ],
        "position": 14,
        "effect": "",
        "buff": "生命上限+4000\n物理防御+5%\n魔法防御+15%\n暴击防护+15\n受毒、圣、暗、念、无属性伤害-5%，火、水、地、风属性伤害-15%\n获得被动技能【辉月之环】：每隔10秒自动释放一次，自身周边5M范围内敌人的装备攻速降低30%，暴击-30，持续5秒。",
        "isCompose": 1,
        "isUpgrade": 0,
        "isHigh": 0,
        "canSlot": 0,
        "canUpgrade": 0
      },
      {
        "id": "45554",
        "name": "月亮头盔",
        "icon": "item_45554",
        "rank": 4,
        "job": [
          "0"
        ],
        "position": 14,
        "effect": "",
        "buff": "生命上限+3000\n物理防御+5%\n魔法防御+15%\n暴击防护+8\n受火、水、地、风属性伤害-10%",
        "isCompose": 1,
        "isUpgrade": 0,
        "isHigh": 0,
        "canSlot": 0,
        "canUpgrade": 0
      },
      {
        "id": "45553",
        "name": "光耀太阳神头盔",
        "icon": "item_45553",
        "rank": 4,
        "job": [
          "0"
        ],
        "position": 14,
        "effect": "",
        "buff": "生命上限+5000\n物理防御+15%\n魔法防御+5%\n暴击防护+15\n物伤减免+7.5%\n魔伤减免+2.5%\n受毒、圣、暗、念、无属性伤害-15%，火、水、地、风属性伤害-5%\n获得被动技能【烈阳光辉】：被攻击时有30%触发烈阳光辉效果，每秒对自身3米周围敌人造成自身最大生命值（以野外生命值为准）1%的真实伤害，持续5秒",
        "isCompose": 1,
        "isUpgrade": 0,
        "isHigh": 0,
        "canSlot": 0,
        "canUpgrade": 0
      },
      {
        "id": "45552",
        "name": "太阳神头盔",
        "icon": "item_45552",
        "rank": 4,
        "job": [
          "0"
        ],
        "position": 14,
        "effect": "",
        "buff": "生命上限+4000\n物理防御+15%\n魔法防御+5%\n暴击防护+15\n受毒、圣、暗、念、无属性伤害-15%，火、水、地、风属性伤害-5%\n获得被动技能【烈阳光辉】：被攻击时有30%触发烈阳光辉效果，每秒对自身3米周围敌人造成自身最大生命值（以野外生命值为准）0.5%的真实伤害，持续5秒",
        "isCompose": 1,
        "isUpgrade": 0,
        "isHigh": 0,
        "canSlot": 0,
        "canUpgrade": 0
      },
      {
        "id": "45551",
        "name": "太阳头盔",
        "icon": "item_45551",
        "rank": 4,
        "job": [
          "0"
        ],
        "position": 14,
        "effect": "",
        "buff": "生命上限+3000\n物理防御+15%\n魔法防御+5%\n暴击防护+8\n受毒、圣、暗、念、无属性伤害-10%",
        "isCompose": 1,
        "isUpgrade": 0,
        "isHigh": 0,
        "canSlot": 0,
        "canUpgrade": 0
      },
      {
        "id": "43553",
        "name": "白翼之靴",
        "icon": "item_43553",
        "rank": 2,
        "job": [
          "44",
          "45"
        ],
        "position": 5,
        "effect": "物理防御+48",
        "buff": "移动速度+10%\n敏捷+4\n生命上限+500\n精炼+10时，暴击+2、暴击伤害+2%；精炼+15时，暴击+6、暴击伤害+6%\n【白翼之铠】+【白翼之靴IV】：暴击+10,【死亡狙击】伤害+15%",
        "isCompose": 1,
        "isUpgrade": 0,
        "isHigh": 0,
        "canSlot": 1,
        "canUpgrade": 1
      },
      {
        "id": "43552",
        "name": "审判之靴",
        "icon": "item_43552",
        "rank": 2,
        "job": [
          "54",
          "55"
        ],
        "position": 5,
        "effect": "物理防御+48",
        "buff": "移动速度+8%\n生命上限+1000\n精炼+10以后，再每精炼+1，圣属性攻击+1%（总计5%）\n精炼+10时，【赞歌】的技能倍率+50%；精炼+15时，【赞歌】的技能倍率+100%",
        "isCompose": 1,
        "isUpgrade": 0,
        "isHigh": 0,
        "canSlot": 1,
        "canUpgrade": 1
      },
      {
        "id": "42551",
        "name": "红色手提包",
        "icon": "item_41547",
        "rank": 2,
        "job": [
          "134",
          "135"
        ],
        "position": 2,
        "effect": "物理防御+78",
        "buff": "魔法防御+30\n力量+3\n魔法上限+150\n【气泡虫召唤】和【气泡虫寄生】的伤害+15%\n【疯狂野草】的伤害+15%",
        "isCompose": 0,
        "isUpgrade": 0,
        "isHigh": 0,
        "canSlot": 1,
        "canUpgrade": 1
      }
    ]
  }
}