{
  "code": 0,
  "status": "success",
  "timeStamp": 1642843557,
  "staticDomain": "http:\/\/rosc1.zhaiwuyu.com",
  "ip": "101.87.200.160",
  "language": "cn",
  "dbArea": 0,
  "data": {
    "page": 37,
    "pageSize": 10,
    "pageCount": 74,
    "total": 731,
    "list": [
      {
        "id": "63140",
        "name": "南音琵琶[1]",
        "icon": "item_63140",
        "rank": 4,
        "job": [
          "102",
          "103",
          "104",
          "105"
        ],
        "position": 1,
        "effect": "物理攻击+580",
        "buff": "智力+10\n灵巧+10\n生命上限+2000\n魔法上限+300\n生命上限+10%\nSP恢复速度+10%\n使用【奥义箭乱舞】后，物理攻击增加5%，持续10秒\n使用演奏类技能时，Hp恢复+10%，Sp恢复+10\n使用演奏类技能时，每精炼+1，物理防御、魔法防御+1%\n精炼+5时，物理攻击+5%；精炼+10时，生命上限+5%；精炼+15时，全能力+8",
        "isCompose": 0,
        "isUpgrade": 0,
        "isHigh": 1,
        "canSlot": 0,
        "canUpgrade": 0
      },
      {
        "id": "62840",
        "name": "梦幻许愿星[1]",
        "icon": "item_62840",
        "rank": 4,
        "job": [
          "112",
          "113",
          "114",
          "115"
        ],
        "position": 1,
        "effect": "物理攻击+580",
        "buff": "智力+10\n灵巧+10\n生命上限+2000\n魔法上限+300\n生命上限+10%\nSP恢复速度+10%\n使用【奥义箭乱舞】后，物理攻击增加5%，持续10秒\n使用演奏类技能时，Hp恢复+10%，Sp恢复+10\n使用演奏类技能时，每精炼+1，物理防御、魔法防御+1%\n精炼+5时，物理攻击+5%；精炼+10时，生命上限+5%；精炼+15时，全能力+8",
        "isCompose": 0,
        "isUpgrade": 0,
        "isHigh": 1,
        "canSlot": 0,
        "canUpgrade": 0
      },
      {
        "id": "44040",
        "name": "黑猫胸针",
        "icon": "item_44040",
        "rank": 3,
        "job": [
          "0"
        ],
        "position": 6,
        "effect": "物理攻击+108",
        "buff": "灵巧+8\n对不死种族魔物伤害+5%\n精炼+12时，物理穿刺+3%",
        "isCompose": 1,
        "isUpgrade": 0,
        "isHigh": 0,
        "canSlot": 1,
        "canUpgrade": 1
      },
      {
        "id": "42083",
        "name": "优雅的制服",
        "icon": "item_42083",
        "rank": 3,
        "job": [
          "102",
          "103",
          "104",
          "105",
          "112",
          "113",
          "114",
          "115"
        ],
        "position": 3,
        "effect": "物理防御+105",
        "buff": "灵巧+4、幸运+4\n物理攻击+5%\n魔法上限+200\n【箭雨】（【狂风暴雨】）伤害+10%",
        "isCompose": 1,
        "isUpgrade": 0,
        "isHigh": 0,
        "canSlot": 1,
        "canUpgrade": 1
      },
      {
        "id": "40671",
        "name": "星屑龙之杖[1]",
        "icon": "item_40671",
        "rank": 4,
        "job": [
          "22",
          "23",
          "24",
          "25",
          "52",
          "53",
          "54",
          "55",
          "82",
          "83",
          "84",
          "85",
          "152",
          "153",
          "154",
          "155",
          "183",
          "184",
          "185",
          "223",
          "224",
          "225"
        ],
        "position": 1,
        "effect": "魔法攻击+405",
        "buff": "灵巧+10、智力+10\n生命上限+2000\n生命上限+15%\n每精炼+1，生命上限+200、魔法防御+1%\n精炼+5时，治疗加成5%；精炼+10时，治疗加成5%；精炼+15时，生命上限+5%、魔伤减免+5%",
        "isCompose": 0,
        "isUpgrade": 0,
        "isHigh": 1,
        "canSlot": 0,
        "canUpgrade": 0
      },
      {
        "id": "40066",
        "name": "无妄的断头台[1]",
        "icon": "item_40066",
        "rank": 4,
        "job": [
          "12",
          "13",
          "14",
          "15",
          "72",
          "73",
          "74",
          "75",
          "203",
          "204",
          "205"
        ],
        "position": 1,
        "effect": "物理攻击+625",
        "buff": "命中+50、力量+10\n忽视物理防御+5%\n每精炼+1，忽视物理防御+1%\n对MVP、Mini魔物伤害+20%\n精炼+5时，对MVP、Mini魔物的伤害+10%；精炼+10时，对MVP、Mini魔物的伤害+10%；精炼+15时，对MVP、Mini魔物的伤害+30%",
        "isCompose": 0,
        "isUpgrade": 0,
        "isHigh": 1,
        "canSlot": 0,
        "canUpgrade": 0
      },
      {
        "id": "63433",
        "name": "冷澈之魔法书[1]",
        "icon": "item_63433",
        "rank": 4,
        "job": [
          "84",
          "85"
        ],
        "position": 1,
        "effect": "魔法攻击+285",
        "buff": "智力+10\n忽视魔法防御+15%\n生命上限+5%\n每精炼+1，【钻石星尘】的伤害+2%",
        "isCompose": 0,
        "isUpgrade": 0,
        "isHigh": 0,
        "canSlot": 1,
        "canUpgrade": 1
      },
      {
        "id": "63417",
        "name": "贤者日记[1]",
        "icon": "item_63417",
        "rank": 3,
        "job": [
          "82",
          "83",
          "84",
          "85"
        ],
        "position": 1,
        "effect": "魔法攻击+96",
        "buff": "智力+3\n装备攻速+5%\n每精炼+1，【自动念咒】的触发概率提高0.3%\n【魔能涌动外袍IV】+【贤者日记Ⅷ】：【双倍投掷】触发概率+3%；魔法伤害+5%\n【魔力之渊】+【贤者日记Ⅷ】：【双倍投掷】触发概率+3%；魔法伤害+5%",
        "isCompose": 1,
        "isUpgrade": 0,
        "isHigh": 0,
        "canSlot": 1,
        "canUpgrade": 1
      },
      {
        "id": "63404",
        "name": "全知魔神书·神铸",
        "icon": "item_63404",
        "rank": 4,
        "job": [
          "82",
          "83",
          "84",
          "85"
        ],
        "position": 14,
        "effect": "魔法攻击+720",
        "buff": "智力+15\n敏捷+5\n体质+10\n全能力+20\n提升贤者系范围型技能伤害+15%\n魔法攻击+20%\n魔法穿刺+20%\n人形种族伤害+50%\n生命上限+30000\n物伤减免+10%，魔伤减免+10%\n获得技能【风暴之心】：在施法者周围形成半径6米的风暴，在风暴中的所有敌对目标每秒将受到300%的风属性和300%的水属性魔法伤害，移动速度下降75%，攻击速度下降75%，物理和魔法攻击下降40%。风暴可跟随施法者一起移动。风暴可以击中隐匿的敌对目标并使其出现。施法者在使用风暴之心技能时，魔法穿刺+30%，受到的所有伤害降低50%。风暴持续 12 秒，技能冷却时间 120 秒",
        "isCompose": 1,
        "isUpgrade": 0,
        "isHigh": 0,
        "canSlot": 0,
        "canUpgrade": 0
      },
      {
        "id": "63403",
        "name": "全知魔神书·精锻",
        "icon": "item_63403",
        "rank": 4,
        "job": [
          "82",
          "83",
          "84",
          "85"
        ],
        "position": 14,
        "effect": "魔法攻击+525",
        "buff": "智力+15\n敏捷+5\n体质+10\n全能力+14\n提升贤者系范围型技能伤害+15%\n魔法攻击+16%\n魔法穿刺+16%\n人形种族伤害+40%\n生命上限+22500\n物伤减免+5%，魔伤减免+5%\n获得技能【风暴之心】：在施法者周围形成半径6米的风暴，在风暴中的所有敌对目标每秒将受到200%的风属性和200%的水属性魔法伤害，移动速度下降50%，攻击速度下降50%，物理和魔法攻击下降20%。风暴可跟随施法者一起移动。风暴可以击中隐匿的敌对目标并使其出现。施法者在使用风暴之心技能时，魔法穿刺+20%，受到的所有伤害降低50%。风暴持续 8 秒，技能冷却时间 150 秒",
        "isCompose": 1,
        "isUpgrade": 0,
        "isHigh": 0,
        "canSlot": 0,
        "canUpgrade": 0
      }
    ]
  }
}