{
  "code": 0,
  "status": "success",
  "timeStamp": 1642843517,
  "staticDomain": "http:\/\/rosc1.zhaiwuyu.com",
  "ip": "101.87.200.160",
  "language": "cn",
  "dbArea": 0,
  "data": {
    "page": 33,
    "pageSize": 10,
    "pageCount": 74,
    "total": 731,
    "list": [
      {
        "id": "63144",
        "name": "里拉[1]",
        "icon": "item_63144",
        "rank": 4,
        "job": [
          "104",
          "105"
        ],
        "position": 1,
        "effect": "物理攻击+580",
        "buff": "灵巧+18\n忽视物理防御+10%\n物理攻击+10%\n每精炼+1，【狂风暴雨】的伤害+2%\n【狂风暴雨】的SP消耗降低15%\n精炼+5时，忽视物理防御+5%；精炼+10时，物理攻击+5%；精炼+15时，物理伤害+5%",
        "isCompose": 0,
        "isUpgrade": 0,
        "isHigh": 1,
        "canSlot": 0,
        "canUpgrade": 0
      },
      {
        "id": "62844",
        "name": "沉沦[1]",
        "icon": "item_62844",
        "rank": 4,
        "job": [
          "114",
          "115"
        ],
        "position": 1,
        "effect": "物理攻击+580",
        "buff": "灵巧+18\n忽视物理防御+10%\n物理攻击+10%\n每精炼+1，【狂风暴雨】的伤害+2%\n【狂风暴雨】的SP消耗降低15%\n精炼+5时，忽视物理防御+5%；精炼+10时，物理攻击+5%；精炼+15时，物理伤害+5%",
        "isCompose": 0,
        "isUpgrade": 0,
        "isHigh": 1,
        "canSlot": 0,
        "canUpgrade": 0
      },
      {
        "id": "62551",
        "name": "塔卡罗[1]",
        "icon": "item_62551",
        "rank": 4,
        "job": [
          "122",
          "123",
          "124",
          "125"
        ],
        "position": 1,
        "effect": "物理攻击+650",
        "buff": "力量+18\n精炼+5、+10、+15时，物理攻击+5%、+10%、+15%\n普通攻击力提高150点\n每精炼+1，普通攻击力提高60点\n【双龙摆尾】的SP消耗-10%；【大锤崩坠】的SP消耗-10%；【六合拳】伤害提升10%；每精炼+1，【六合拳】伤害+2%\n普通攻击时有5%概率使物理伤害+5%，持续10秒，最多可叠加3层\n普通攻击时有30%的概率获得一颗气弹，每颗气弹，可使携带者触发【六合拳】的概率提升1%\n击杀目标时，移动速度+15%，持续5秒\n【塔卡罗】（【升龙拳套IV】）+【华贵腕甲IV】（【金腕】）：每次普通攻击获得气弹的概率提升至60%",
        "isCompose": 0,
        "isUpgrade": 0,
        "isHigh": 1,
        "canSlot": 0,
        "canUpgrade": 0
      },
      {
        "id": "40676",
        "name": "淬星魔杖[1]",
        "icon": "item_40676",
        "rank": 4,
        "job": [
          "82",
          "83",
          "84",
          "85"
        ],
        "position": 1,
        "effect": "魔法攻击+405",
        "buff": "智力+8、体质+8、灵巧+8\n魔法攻击+15%\n忽视魔法防御+5%\n【精神耗弱术】技能冷却时间-0.5秒；【精神耗弱术】成功概率+4%；每精炼+1，【精神耗弱术】伤害+1%\n精炼+5时，忽视魔法防御+5%；精炼+10时，忽视魔法防御+10%；精炼+12时，魔法伤害+5%；精炼+15时，魔法攻击+5%，【精神耗弱术】伤害+15%，成功概率+5%",
        "isCompose": 0,
        "isUpgrade": 0,
        "isHigh": 1,
        "canSlot": 0,
        "canUpgrade": 0
      },
      {
        "id": "44046",
        "name": "摩菲斯戒指",
        "icon": "item_44046",
        "rank": 3,
        "job": [
          "0"
        ],
        "position": 6,
        "effect": "物理攻击+108",
        "buff": "智力+8\n魔法上限+100\n魔法上限+4%\n精炼+12，魔法上限+6%",
        "isCompose": 1,
        "isUpgrade": 0,
        "isHigh": 0,
        "canSlot": 1,
        "canUpgrade": 0
      },
      {
        "id": "42514",
        "name": "巨人护盾",
        "icon": "item_42514",
        "rank": 3,
        "job": [
          "11",
          "12",
          "13",
          "14",
          "15",
          "72",
          "73",
          "74",
          "75",
          "203",
          "204",
          "205"
        ],
        "position": 2,
        "effect": "物理防御+110",
        "buff": "体质+6\n生命上限+1000\n受到MVP、Mini魔物伤害-10%\n每精炼+1，对MVP、Mini魔物伤害+1%",
        "isCompose": 0,
        "isUpgrade": 0,
        "isHigh": 0,
        "canSlot": 1,
        "canUpgrade": 0
      },
      {
        "id": "40320",
        "name": "妖剑弑光[1]",
        "icon": "item_40320",
        "rank": 4,
        "job": [
          "11",
          "12",
          "13",
          "14",
          "15",
          "31",
          "32",
          "33",
          "34",
          "35",
          "61",
          "62",
          "63",
          "64",
          "65",
          "72",
          "73",
          "74",
          "75",
          "92",
          "93",
          "94",
          "95",
          "132",
          "133",
          "134",
          "135",
          "203",
          "204",
          "205",
          "213",
          "214",
          "215"
        ],
        "position": 1,
        "effect": "物理攻击+500",
        "buff": "暗属性\n灵巧+6、力量+6\n对念属性魔物伤害+15%\n当力量达到150时，物理攻击+5%\n每精炼+1，对念属性魔物伤害+2%",
        "isCompose": 0,
        "isUpgrade": 0,
        "isHigh": 0,
        "canSlot": 1,
        "canUpgrade": 0
      },
      {
        "id": "44045",
        "name": "火忍西怒毕的腰带",
        "icon": "item_44045",
        "rank": 3,
        "job": [
          "0"
        ],
        "position": 6,
        "effect": "物理攻击+108",
        "buff": "力量+8\n对无形种族魔物伤害+5%\n精炼+12时，近战物理伤害+4%\n【忍服·十六月夜Ⅷ】+【火忍西怒毕的腰带】（或【隐之束】）：暴击伤害+10%，生命上限+1000",
        "isCompose": 0,
        "isUpgrade": 0,
        "isHigh": 0,
        "canSlot": 1,
        "canUpgrade": 1
      },
      {
        "id": "44044",
        "name": "怀表",
        "icon": "item_44044",
        "rank": 3,
        "job": [
          "0"
        ],
        "position": 6,
        "effect": "魔法攻击+108",
        "buff": "智力+4、灵巧+4\n忽视魔法防御+5%\n精炼+8时，魔法攻击+5%；精炼+12时，魔法穿刺+3%，装备攻速+3%",
        "isCompose": 0,
        "isUpgrade": 0,
        "isHigh": 0,
        "canSlot": 1,
        "canUpgrade": 1
      },
      {
        "id": "44015",
        "name": "潜能戒指",
        "icon": "item_44015",
        "rank": 3,
        "job": [
          "0"
        ],
        "position": 6,
        "effect": "物理攻击+108",
        "buff": "暴击+4\n精炼+12时，暴击+6，物理攻击+4%",
        "isCompose": 0,
        "isUpgrade": 0,
        "isHigh": 0,
        "canSlot": 1,
        "canUpgrade": 1
      }
    ]
  }
}