{
  "code": 0,
  "status": "success",
  "timeStamp": 1642843679,
  "staticDomain": "http:\/\/rosc1.zhaiwuyu.com",
  "ip": "101.87.200.160",
  "language": "cn",
  "dbArea": 0,
  "data": {
    "page": 49,
    "pageSize": 10,
    "pageCount": 74,
    "total": 731,
    "list": [
      {
        "id": "40348",
        "name": "提尔锋·精锻",
        "icon": "item_40348",
        "rank": 4,
        "job": [
          "12",
          "13",
          "14",
          "15",
          "62",
          "63",
          "64",
          "65",
          "72",
          "73",
          "74",
          "75",
          "132",
          "133",
          "134",
          "135",
          "143",
          "144",
          "145",
          "163",
          "164",
          "165",
          "203",
          "204",
          "205",
          "213",
          "214",
          "215"
        ],
        "position": 14,
        "effect": "物理攻击+760",
        "buff": "力量+10\n敏捷+10\n灵巧+10\n全能力+14\n命中+50\n物理攻击+20%\n物理伤害+15%\n人形种族伤害+40%\n生命上限+26000\n物伤减免+5%，魔伤减免+5%\n提尔的力量将治愈范围内所有的疾病及异常状态，为所有人带来健康。使范围8米内的所有友方获得【提尔祝福】效果。【提尔祝福】：瞬间恢复25%MaxHp，解除所有异常状态（包括万能无法解除的异常状态）并免疫异常状态，持续5秒，CD：180秒。",
        "isCompose": 1,
        "isUpgrade": 0,
        "isHigh": 0,
        "canSlot": 0,
        "canUpgrade": 0
      },
      {
        "id": "40347",
        "name": "提尔锋",
        "icon": "item_40347",
        "rank": 4,
        "job": [
          "12",
          "13",
          "14",
          "15",
          "62",
          "63",
          "64",
          "65",
          "72",
          "73",
          "74",
          "75",
          "132",
          "133",
          "134",
          "135",
          "143",
          "144",
          "145",
          "163",
          "164",
          "165",
          "203",
          "204",
          "205",
          "213",
          "214",
          "215"
        ],
        "position": 14,
        "effect": "物理攻击+440",
        "buff": "力量+10\n敏捷+10\n灵巧+10\n全能力+8\n命中+50\n物理攻击+16%\n物理伤害+12%\n人形种族伤害+30%\n生命上限+17000",
        "isCompose": 1,
        "isUpgrade": 0,
        "isHigh": 0,
        "canSlot": 0,
        "canUpgrade": 0
      },
      {
        "id": "40044",
        "name": "永恒之枪·神铸",
        "icon": "item_40044",
        "rank": 4,
        "job": [
          "12",
          "13",
          "14",
          "15",
          "72",
          "73",
          "74",
          "75",
          "203",
          "204",
          "205"
        ],
        "position": 14,
        "effect": "物理攻击+1100",
        "buff": "力量+18\n敏捷+12\n全能力+20\n装备攻速+10%\n物理伤害+18%\n忽视物理防御+35%\n人形种族伤害+50%\n生命上限+33000\n物伤减免+10%，魔伤减免+10%\n从永恒之枪中迸发出【女武神的意志】照耀6米范围内所有的敌方目标。【女武神的意志】：受到女武神的意志影响无法施放技能。该效果不能被万能药解除（沉默），持续6秒，CD：90秒",
        "isCompose": 1,
        "isUpgrade": 0,
        "isHigh": 0,
        "canSlot": 0,
        "canUpgrade": 0
      },
      {
        "id": "40043",
        "name": "永恒之枪·精锻",
        "icon": "item_40043",
        "rank": 4,
        "job": [
          "12",
          "13",
          "14",
          "15",
          "72",
          "73",
          "74",
          "75",
          "203",
          "204",
          "205"
        ],
        "position": 14,
        "effect": "物理攻击+775",
        "buff": "力量+18\n敏捷+12\n全能力+14\n装备攻速+10%\n物理伤害+15%\n忽视物理防御+25%\n人形种族伤害+40%\n生命上限+25000\n物伤减免+5%，魔伤减免+5%\n从永恒之枪中迸发出【女武神的意志】照耀6米范围内所有的敌方目标。【女武神的意志】：受到女武神的意志影响无法施放技能。该效果不能被万能药解除（沉默），持续4秒，CD：120秒",
        "isCompose": 1,
        "isUpgrade": 0,
        "isHigh": 0,
        "canSlot": 0,
        "canUpgrade": 0
      },
      {
        "id": "40042",
        "name": "永恒之枪",
        "icon": "item_40042",
        "rank": 4,
        "job": [
          "12",
          "13",
          "14",
          "15",
          "72",
          "73",
          "74",
          "75",
          "203",
          "204",
          "205"
        ],
        "position": 14,
        "effect": "物理攻击+450",
        "buff": "力量+18\n敏捷+12\n全能力+8\n装备攻速+10%\n物理伤害+12%\n忽视物理防御+15%\n人形种族伤害+30%\n生命上限+17000",
        "isCompose": 1,
        "isUpgrade": 0,
        "isHigh": 0,
        "canSlot": 0,
        "canUpgrade": 0
      },
      {
        "id": "44038",
        "name": "瓶中精灵",
        "icon": "item_44038",
        "rank": 4,
        "job": [
          "0"
        ],
        "position": 6,
        "effect": "物理攻击+94",
        "buff": "命中+20\n普通攻击5%概率获得【怒火释放】，【怒火释放】：暴击伤害+100%，持续3秒",
        "isCompose": 0,
        "isUpgrade": 0,
        "isHigh": 0,
        "canSlot": 1,
        "canUpgrade": 1
      },
      {
        "id": "43551",
        "name": "援护者皮靴",
        "icon": "item_43551",
        "rank": 2,
        "job": [
          "132",
          "133",
          "134",
          "135"
        ],
        "position": 5,
        "effect": "物理防御+22",
        "buff": "移动速度+5%\n体质+4\n使【生命药水投掷】和【魔力药水投掷】的效果提升+20%",
        "isCompose": 1,
        "isUpgrade": 0,
        "isHigh": 0,
        "canSlot": 1,
        "canUpgrade": 1
      },
      {
        "id": "43038",
        "name": "预言者披风",
        "icon": "item_43038",
        "rank": 2,
        "job": [
          "132",
          "133",
          "134",
          "135"
        ],
        "position": 4,
        "effect": "物理防御+33",
        "buff": "体质+2\n精炼+10时，生命上限+5%",
        "isCompose": 1,
        "isUpgrade": 0,
        "isHigh": 0,
        "canSlot": 1,
        "canUpgrade": 1
      },
      {
        "id": "42075",
        "name": "炼金合金装甲",
        "icon": "item_42075",
        "rank": 3,
        "job": [
          "132",
          "133",
          "134",
          "135"
        ],
        "position": 3,
        "effect": "物理防御+46",
        "buff": "体质+5，生命上限+100\n丽芙在场时，炼金生命\/魔法自然恢复+8，【强酸攻击】、【强酸火烟瓶投掷】固定吟唱-0.5秒\n艾米斯可鲁在场时，炼金物理攻击+8%\n巴尼米乐斯在场时，炼金魔法攻击+8%\n伊琳诺雅在场时，炼金物理穿刺+4%",
        "isCompose": 0,
        "isUpgrade": 1,
        "isHigh": 0,
        "canSlot": 1,
        "canUpgrade": 1
      },
      {
        "id": "42074",
        "name": "炼金铠甲",
        "icon": "item_42074",
        "rank": 3,
        "job": [
          "132",
          "133",
          "134",
          "135"
        ],
        "position": 3,
        "effect": "物理防御+23",
        "buff": "体质+2\n丽芙在场时，炼金生命\/魔法自然恢复+4\n艾米斯可鲁在场时，炼金物理攻击+4%\n巴尼米乐斯在场时，炼金魔法攻击+4%\n伊琳诺雅在场时，炼金物理穿刺+2%",
        "isCompose": 1,
        "isUpgrade": 0,
        "isHigh": 0,
        "canSlot": 1,
        "canUpgrade": 1
      }
    ]
  }
}