{
  "code": 0,
  "status": "success",
  "timeStamp": 1642843880,
  "staticDomain": "http:\/\/rosc1.zhaiwuyu.com",
  "ip": "101.87.200.160",
  "language": "cn",
  "dbArea": 0,
  "data": {
    "page": 69,
    "pageSize": 10,
    "pageCount": 74,
    "total": 731,
    "list": [
      {
        "id": "41228",
        "name": "十字弓[1]",
        "icon": "item_41228",
        "rank": 2,
        "job": [
          "41",
          "42",
          "43",
          "44",
          "45",
          "92",
          "93",
          "94",
          "95",
          "102",
          "103",
          "104",
          "105",
          "112",
          "113",
          "114",
          "115"
        ],
        "position": 1,
        "effect": "物理攻击+57",
        "buff": "灵巧+2\n物理攻击+10\n灵巧达到95以上时远距离物理攻击力+10%",
        "isCompose": 1,
        "isUpgrade": 0,
        "isHigh": 0,
        "canSlot": 1,
        "canUpgrade": 1
      },
      {
        "id": "41226",
        "name": "炽天使之弓[1]",
        "icon": "item_41226",
        "rank": 4,
        "job": [
          "41",
          "42",
          "43",
          "44",
          "45",
          "102",
          "103",
          "104",
          "105",
          "112",
          "113",
          "114",
          "115"
        ],
        "position": 1,
        "effect": "物理攻击+72",
        "buff": "圣属性\n智力+3\n装备后获得【治愈术】Lv.1",
        "isCompose": 0,
        "isUpgrade": 0,
        "isHigh": 0,
        "canSlot": 1,
        "canUpgrade": 1
      },
      {
        "id": "41221",
        "name": "露娜弓[1]",
        "icon": "item_41221",
        "rank": 3,
        "job": [
          "41",
          "42",
          "43",
          "44",
          "45",
          "102",
          "103",
          "104",
          "105",
          "112",
          "113",
          "114",
          "115"
        ],
        "position": 1,
        "effect": "物理攻击+100",
        "buff": "物理攻击+24\n【露娜弓Ⅵ】+【月亮胸针Ⅵ】（或【皎月】）：智力+2，SP恢复+10%",
        "isCompose": 0,
        "isUpgrade": 0,
        "isHigh": 0,
        "canSlot": 1,
        "canUpgrade": 1
      },
      {
        "id": "41216",
        "name": "红色闪电[1]",
        "icon": "item_41216",
        "rank": 2,
        "job": [
          "41",
          "42",
          "43",
          "44",
          "45"
        ],
        "position": 1,
        "effect": "物理攻击+115",
        "buff": "灵巧+3\n【冲锋箭】、【重伤箭】的消耗降低40%",
        "isCompose": 1,
        "isUpgrade": 0,
        "isHigh": 0,
        "canSlot": 1,
        "canUpgrade": 1
      },
      {
        "id": "41211",
        "name": "角弓[1]",
        "icon": "item_41211",
        "rank": 2,
        "job": [
          "41",
          "42",
          "43",
          "44",
          "45",
          "92",
          "93",
          "94",
          "95",
          "102",
          "103",
          "104",
          "105",
          "112",
          "113",
          "114",
          "115"
        ],
        "position": 1,
        "effect": "物理攻击+87",
        "buff": "幸运+3\n暴击伤害+10%",
        "isCompose": 1,
        "isUpgrade": 0,
        "isHigh": 0,
        "canSlot": 1,
        "canUpgrade": 1
      },
      {
        "id": "41208",
        "name": "连发弓[1]",
        "icon": "item_41208",
        "rank": 2,
        "job": [
          "41",
          "42",
          "43",
          "44",
          "45",
          "92",
          "93",
          "94",
          "95",
          "102",
          "103",
          "104",
          "105",
          "112",
          "113",
          "114",
          "115"
        ],
        "position": 1,
        "effect": "物理攻击+100",
        "buff": "敏捷+2\n普攻时有概率发动【二连矢】5级\n习得【驯兽术】10级时，【驯兽术】伤害增加20%",
        "isCompose": 1,
        "isUpgrade": 0,
        "isHigh": 0,
        "canSlot": 1,
        "canUpgrade": 1
      },
      {
        "id": "40914",
        "name": "代理者拳刃[1]",
        "icon": "item_40914",
        "rank": 3,
        "job": [
          "32",
          "33",
          "34",
          "35"
        ],
        "position": 1,
        "effect": "物理攻击+200",
        "buff": "使暴击翻倍\n物理攻击+30\n暴击+10\n暴击伤害+25%",
        "isCompose": 0,
        "isUpgrade": 1,
        "isHigh": 0,
        "canSlot": 1,
        "canUpgrade": 1
      },
      {
        "id": "40912",
        "name": "斩首拳刃[1]",
        "icon": "item_40912",
        "rank": 3,
        "job": [
          "32",
          "33",
          "34",
          "35"
        ],
        "position": 1,
        "effect": "物理攻击+180",
        "buff": "使暴击翻倍\n生命上限+800\n当自身生命值低于25%时获得嗜血效果，使接下来攻击加速并获得伤害吸血效果持续10秒（嗜血效果内置CD120秒）",
        "isCompose": 1,
        "isUpgrade": 0,
        "isHigh": 0,
        "canSlot": 1,
        "canUpgrade": 0
      },
      {
        "id": "40920",
        "name": "漆黑之牙[1]",
        "icon": "item_40920",
        "rank": 2,
        "job": [
          "31",
          "32",
          "33",
          "34",
          "35",
          "92",
          "93",
          "94",
          "95"
        ],
        "position": 1,
        "effect": "物理攻击+57",
        "buff": "使暴击翻倍\n力量+2\n物理攻击+10\n力量达到75以上时近战物理攻击力+10%",
        "isCompose": 1,
        "isUpgrade": 0,
        "isHigh": 0,
        "canSlot": 1,
        "canUpgrade": 1
      },
      {
        "id": "40919",
        "name": "洛奇的指甲[1]",
        "icon": "item_40919",
        "rank": 4,
        "job": [
          "32",
          "33",
          "34",
          "35"
        ],
        "position": 1,
        "effect": "物理攻击+144",
        "buff": "使暴击翻倍\n敏捷+2\n普攻时概率进入急速状态：装备攻速+30%持续7秒\n【洛奇的指甲Ⅴ】+【华贵腕甲】：每2%装备攻速转换1点物理攻击力\n【洛奇的指甲Ⅸ】+【风行者斗篷】：【回旋十字斩】的伤害+5%\n【洛奇的指甲Ⅴ】+【金腕】：每2%装备攻速转换1点物理攻击力",
        "isCompose": 0,
        "isUpgrade": 0,
        "isHigh": 0,
        "canSlot": 1,
        "canUpgrade": 1
      }
    ]
  }
}