{
  "code": 0,
  "status": "success",
  "timeStamp": 1642843467,
  "staticDomain": "http:\/\/rosc1.zhaiwuyu.com",
  "ip": "101.87.200.160",
  "language": "cn",
  "dbArea": 0,
  "data": {
    "page": 28,
    "pageSize": 10,
    "pageCount": 74,
    "total": 731,
    "list": [
      {
        "id": "42580",
        "name": "陨坚圆盾",
        "icon": "item_42580",
        "rank": 4,
        "job": [
          "0"
        ],
        "position": 2,
        "effect": "物理防御+200",
        "buff": "体质+12\n生命上限+3000\n生命上限+5%\n受到大型魔物伤害-30%；受到中、小型魔物伤害-15%；精炼每+1，受到中、小型魔物伤害-1%\n精炼+8开始，每精炼+1，生命上限+1%（总计8%）\n【青铁柱枪Ⅳ】（【圣佑长枪】）+【重靴Ⅷ】+【石制圆盾Ⅳ】（陨坚圆盾）：忽视物理防御+5%、物理攻击+5%",
        "isCompose": 0,
        "isUpgrade": 0,
        "isHigh": 1,
        "canSlot": 0,
        "canUpgrade": 0
      },
      {
        "id": "42579",
        "name": "巨翼圣盾",
        "icon": "item_42579",
        "rank": 4,
        "job": [
          "72",
          "73",
          "74",
          "75"
        ],
        "position": 2,
        "effect": "物理防御+225",
        "buff": "智力+10、体质+5\n生命上限+3000\n魔法上限+200\n受治疗加成+10%\n每精炼+1，【反伤盾】反射魔法伤害比例+1%、【治愈术】治愈效果+1%、技能【圣音】的恢复效果+2%\n精炼+5时，生命上限+2%、【治愈术】治愈效果+5%；精炼+10时，生命上限+3%、【治愈术】治愈效果+10%；精炼+15时，生命上限+5%、魔伤减免+5%、物伤减免+5%\n精炼+8开始，每精炼+1，魔伤减免、物伤减免+1%（总计8%）",
        "isCompose": 0,
        "isUpgrade": 0,
        "isHigh": 1,
        "canSlot": 0,
        "canUpgrade": 0
      },
      {
        "id": "41582",
        "name": "忽克连的精炼之锤[1]",
        "icon": "item_41582",
        "rank": 4,
        "job": [
          "51",
          "52",
          "53",
          "54",
          "55",
          "61",
          "62",
          "63",
          "64",
          "65",
          "132",
          "133",
          "134",
          "135",
          "213",
          "214",
          "215"
        ],
        "position": 1,
        "effect": "物理攻击+480",
        "buff": "力量+8\n技能攻击玩家时，有10%概率破坏玩家的武器和铠甲\n精炼+5时，技能造成玩家武器破坏时有10%概率破坏目标副手，技能造成玩家铠甲破坏时有10%概率破坏目标头盔；\n精炼+10时，施法者造成的武器破坏、副手破坏、铠甲破坏、头盔破坏触发概率提升5%，且受到灵巧和幸运的影响（最多额外提升10%）；\n精炼+15时，保护全身装备不会被破坏",
        "isCompose": 0,
        "isUpgrade": 0,
        "isHigh": 0,
        "canSlot": 1,
        "canUpgrade": 0
      },
      {
        "id": "40781",
        "name": "魔短剑·暗噬[1]",
        "icon": "item_40781",
        "rank": 4,
        "job": [
          "32",
          "33",
          "34",
          "35",
          "92",
          "93",
          "94",
          "95",
          "152",
          "153",
          "154",
          "155"
        ],
        "position": 1,
        "effect": "物理攻击+448",
        "buff": "力量+6\n装备者的物理防御和魔法防御下降50%\n攻击目标时，10%概率最终伤害翻倍\n精炼+5时，最终伤害翻倍概率提升至15%；精炼+10时，最终伤害翻倍概率提升至20%；精炼+15时，最终伤害翻倍概率提升至30%",
        "isCompose": 0,
        "isUpgrade": 0,
        "isHigh": 0,
        "canSlot": 1,
        "canUpgrade": 0
      },
      {
        "id": "40679",
        "name": "波尔多之杖[1]",
        "icon": "item_40679",
        "rank": 4,
        "job": [
          "22",
          "23",
          "24",
          "25",
          "82",
          "83",
          "84",
          "85",
          "143",
          "144",
          "145",
          "151",
          "152",
          "153",
          "154",
          "155",
          "183",
          "184",
          "185",
          "223",
          "224",
          "225"
        ],
        "position": 1,
        "effect": "魔法攻击+308",
        "buff": "智力+4、灵巧+4\n使用技能Sp消耗量-5%\n每精炼+1，使用技能Sp消耗量-1%\n精炼+5时，全种族伤害+5%；精炼+10时，全种族伤害+5%；精炼+15时，全种族伤害+10%",
        "isCompose": 0,
        "isUpgrade": 0,
        "isHigh": 0,
        "canSlot": 1,
        "canUpgrade": 0
      },
      {
        "id": "40376",
        "name": "黑炎剑[1]",
        "icon": "item_40376",
        "rank": 4,
        "job": [
          "12",
          "13",
          "14",
          "15",
          "72",
          "73",
          "74",
          "75",
          "164",
          "165",
          "203",
          "204",
          "205"
        ],
        "position": 1,
        "effect": "物理攻击+480",
        "buff": "力量+4、敏捷+4\n暗属性\n普通攻击时额外扣除目标20点SP；精炼+5时，普通攻击时额外扣除目标SP提升至40点；精炼+10时，普通攻击时额外扣除目标SP提升至60点；精炼+15时，普通攻击时额外扣除目标SP提升至100点\n对于SP小于50%的目标最终伤害增加20%",
        "isCompose": 0,
        "isUpgrade": 0,
        "isHigh": 0,
        "canSlot": 1,
        "canUpgrade": 0
      },
      {
        "id": "44310",
        "name": "精工粉色狐尾草[1]",
        "icon": "item_44310",
        "rank": 4,
        "job": [
          "151",
          "152",
          "153",
          "154",
          "155"
        ],
        "position": 1,
        "effect": "物理攻击+640",
        "buff": "灵巧+18\n生命上限+10%\n每精炼+1，【疯兔胡萝卜重击】伤害+2%\n每精炼+1，【野猪之魂】伤害+2%\n精炼+5时，物理攻击+5%\n精炼+10时，物理攻击+5%、生命上限+5%\n精炼+15时，物理伤害+5%",
        "isCompose": 0,
        "isUpgrade": 0,
        "isHigh": 1,
        "canSlot": 0,
        "canUpgrade": 0
      },
      {
        "id": "44309",
        "name": "魔力黄色狐尾草[1]",
        "icon": "item_44309",
        "rank": 4,
        "job": [
          "151",
          "152",
          "153",
          "154",
          "155"
        ],
        "position": 1,
        "effect": "魔法攻击+408",
        "buff": "智力+18\n地属性攻击+10%\n无属性攻击+10%\n每精炼+1，【猫薄荷陨石】伤害+2%\n精炼+5时，可变吟唱时间-10%、忽视魔法防御+5%；精炼+10时，魔法攻击+5%；精炼+12时，魔法伤害+3%；精炼+15时，魔法伤害+3%",
        "isCompose": 0,
        "isUpgrade": 0,
        "isHigh": 1,
        "canSlot": 0,
        "canUpgrade": 0
      },
      {
        "id": "44308",
        "name": "巨大狐尾草[1]",
        "icon": "item_44308",
        "rank": 4,
        "job": [
          "151",
          "152",
          "153",
          "154",
          "155"
        ],
        "position": 1,
        "effect": "魔法攻击+408",
        "buff": "智力+10、体质+10\n生命上限+1000、魔法上限+200\n魔法攻击+5%\n治疗加成+10%\n每精炼+1，【活虾】效果+2%\n精炼+5%，治疗加成+5%；精炼+10时，【鲔鱼派对】效果+10%、治疗加成+5%；精炼+15时，治疗加成+10%，生命上限+5%",
        "isCompose": 0,
        "isUpgrade": 0,
        "isHigh": 1,
        "canSlot": 0,
        "canUpgrade": 0
      },
      {
        "id": "44305",
        "name": "茂盛狐尾草[1]",
        "icon": "item_44305",
        "rank": 4,
        "job": [
          "151",
          "152",
          "153",
          "154",
          "155"
        ],
        "position": 1,
        "effect": "魔法攻击+108",
        "buff": "智力+4\n生命上限+200\n魔法上限+100\n治疗加成+5%",
        "isCompose": 0,
        "isUpgrade": 0,
        "isHigh": 0,
        "canSlot": 1,
        "canUpgrade": 1
      }
    ]
  }
}