{
  "code": 0,
  "status": "success",
  "timeStamp": 1643703345,
  "staticDomain": "http:\/\/rosc1.zhaiwuyu.com",
  "ip": "101.87.201.112",
  "language": "cn",
  "dbArea": 0,
  "data": {
    "page": 35,
    "pageSize": 10,
    "pageCount": 77,
    "total": 765,
    "list": [
      {
        "id": "44047",
        "name": "赤心权戒",
        "icon": "item_44047",
        "rank": 4,
        "job": [
          "0"
        ],
        "position": 6,
        "effect": "物理攻击+224",
        "buff": "生命上限+1600\n魔法上限+400\n受治疗加成+5%\n使【阿修罗霸凰拳】公式中【技能等级*4+剩余SP\/100】部分的伤害倍率增加2\n精炼+5时，魔法上限+100；精炼+10时，使【罗刹破凰拳】对小体型和大型目标的伤害额外+5%，魔法上限+100；精炼+15时，使【罗刹破凰拳】对小体型和大型目标的伤害额外+10%，魔法上限+200\n【霸王乱舞】+【坚定战袍Ⅹ】+【坚定指环Ⅳ】（或【赤心权戒】）：使【罗刹破凰拳】伤害+5%\n【苍天霸皇】+【坚定战袍Ⅹ】+【坚定指环Ⅳ】（或【赤心权戒】）：使【罗刹破凰拳】伤害+5%",
        "isCompose": 0,
        "isUpgrade": 0,
        "isHigh": 1,
        "canSlot": 0,
        "canUpgrade": 0
      },
      {
        "id": "43562",
        "name": "喵族优雅鞋子",
        "icon": "item_43562",
        "rank": 3,
        "job": [
          "150",
          "151",
          "152",
          "153",
          "154",
          "155"
        ],
        "position": 5,
        "effect": "物理防御+22",
        "buff": "移动速度+5%\n生命上限+200\nHP恢复+10%\nSP恢复+10%",
        "isCompose": 1,
        "isUpgrade": 0,
        "isHigh": 0,
        "canSlot": 1,
        "canUpgrade": 1
      },
      {
        "id": "43561",
        "name": "恐惧战靴",
        "icon": "item_43561",
        "rank": 3,
        "job": [
          "0"
        ],
        "position": 5,
        "effect": "物理防御+72",
        "buff": "移动速度+8%\n魔伤减免+5%\n精炼+10时，魔伤减免+3%",
        "isCompose": 1,
        "isUpgrade": 0,
        "isHigh": 0,
        "canSlot": 1,
        "canUpgrade": 1
      },
      {
        "id": "43046",
        "name": "恐惧斗篷",
        "icon": "item_43046",
        "rank": 3,
        "job": [
          "0"
        ],
        "position": 4,
        "effect": "物理防御+68",
        "buff": "体质+2\n物伤减免+8%\n精炼+10时，物伤减免+5%",
        "isCompose": 1,
        "isUpgrade": 0,
        "isHigh": 0,
        "canSlot": 1,
        "canUpgrade": 1
      },
      {
        "id": "42569",
        "name": "誓约之书第二卷",
        "icon": "item_42569",
        "rank": 3,
        "job": [
          "21",
          "22",
          "23",
          "24",
          "25",
          "52",
          "53",
          "54",
          "55",
          "82",
          "83",
          "84",
          "85",
          "143",
          "144",
          "145",
          "151",
          "152",
          "153",
          "154",
          "155",
          "163",
          "164",
          "165",
          "173",
          "174",
          "175",
          "183",
          "184",
          "185",
          "223",
          "224",
          "225"
        ],
        "position": 2,
        "effect": "物理防御+92",
        "buff": "生命上限+1000\n受治疗加成+5%\n每精炼+1，魔法攻击+1%",
        "isCompose": 0,
        "isUpgrade": 0,
        "isHigh": 0,
        "canSlot": 1,
        "canUpgrade": 1
      },
      {
        "id": "42568",
        "name": "火焰喷射器",
        "icon": "item_42568",
        "rank": 3,
        "job": [
          "62",
          "63",
          "64",
          "65",
          "143",
          "144",
          "145",
          "213",
          "214",
          "215"
        ],
        "position": 2,
        "effect": "物理防御+92",
        "buff": "生命上限+500\n火属性攻击+10%\n攻击目标时，有15%概率使目标陷入灼烧状态，持续3秒",
        "isCompose": 0,
        "isUpgrade": 0,
        "isHigh": 0,
        "canSlot": 1,
        "canUpgrade": 1
      },
      {
        "id": "42113",
        "name": "慵懒喵喵外套",
        "icon": "item_42113",
        "rank": 3,
        "job": [
          "151",
          "152",
          "153",
          "154",
          "155"
        ],
        "position": 3,
        "effect": "物理防御+196",
        "buff": "吟唱不会被打断\n智力+10、灵巧+10\n可变吟唱时间-10%\n生命上限+4000\n物理防御+10%\n每精炼+1，魔法防御+1%\n物理攻击+5%、魔法攻击+5%\n精炼+5时，生命上限+5%、魔法上限+5%\n精炼+10时，物理攻击+5%、魔法攻击+5%、生命上限+5%\n精炼+15时，物理攻击+5%、魔法攻击+5%、生命上限+5%、魔法上限+5%\n精炼+8开始，每精炼+1，物理伤害+1%、魔法伤害+1%（总计8%）",
        "isCompose": 0,
        "isUpgrade": 0,
        "isHigh": 1,
        "canSlot": 0,
        "canUpgrade": 0
      },
      {
        "id": "42112",
        "name": "喵族优雅外套",
        "icon": "item_42112",
        "rank": 3,
        "job": [
          "151",
          "152",
          "153",
          "154",
          "155"
        ],
        "position": 3,
        "effect": "物理防御+37",
        "buff": "吟唱不会被打断\n智力+3、灵巧+3\n物理攻击+5%、魔法攻击+5%",
        "isCompose": 0,
        "isUpgrade": 1,
        "isHigh": 0,
        "canSlot": 1,
        "canUpgrade": 1
      },
      {
        "id": "42111",
        "name": "喵族优雅斗篷",
        "icon": "item_42111",
        "rank": 2,
        "job": [
          "150",
          "151",
          "152",
          "153",
          "154",
          "155"
        ],
        "position": 3,
        "effect": "物理防御+24",
        "buff": "吟唱不会被打断\n智力+2、灵巧+2\n物理攻击+3%、魔法攻击+3%",
        "isCompose": 1,
        "isUpgrade": 0,
        "isHigh": 0,
        "canSlot": 1,
        "canUpgrade": 1
      },
      {
        "id": "42110",
        "name": "乌鲁兹符文盔甲",
        "icon": "item_42110",
        "rank": 3,
        "job": [
          "0"
        ],
        "position": 3,
        "effect": "物理防御+105",
        "buff": "魔法防御+40\n生命上限+1000\n每精炼+1，人形种族减伤+1%\n使用技能时SP消耗+15%",
        "isCompose": 0,
        "isUpgrade": 0,
        "isHigh": 0,
        "canSlot": 1,
        "canUpgrade": 0
      }
    ]
  }
}