{
  "code": 0,
  "status": "success",
  "timeStamp": 1643703133,
  "staticDomain": "http:\/\/rosc1.zhaiwuyu.com",
  "ip": "101.87.201.112",
  "language": "cn",
  "dbArea": 0,
  "data": {
    "page": 14,
    "pageSize": 10,
    "pageCount": 77,
    "total": 765,
    "list": [
      {
        "id": "42180",
        "name": "古圣之契",
        "icon": "item_42180",
        "rank": 4,
        "job": [
          "0"
        ],
        "position": 3,
        "effect": "物理防御+243",
        "buff": "体质+20\n生命上限+4000\n物理防御+15%；每精炼+1，魔法防御+1%\n人形种族减伤+10%；精炼+10时，人形种族减伤+4%；精炼+15时，人形种族减伤+4%",
        "isCompose": 0,
        "isUpgrade": 0,
        "isHigh": 0,
        "canSlot": 0,
        "canUpgrade": 0,
        "randomBuff": "人形种族减伤+15%\n物伤、魔伤减免+15%\n物理、魔法防御+24%\n生命上限+15%\n受治疗加成+30%\n受到中型魔物伤害-20%\nPVP\/GVG中受玩家伤害-7.5%"
      },
      {
        "id": "42177",
        "name": "祖灵之羁",
        "icon": "item_42177",
        "rank": 4,
        "job": [
          "0"
        ],
        "position": 3,
        "effect": "物理防御+243",
        "buff": "体质+20\n生命上限+4000\n魔法防御+15%；每精炼+1，物理防御+1%\n生命上限+4%，定身、恐惧抵抗+30%；精炼+10时，受到无、圣、暗、念、毒属性伤害-5%；精炼+15时，受到无、圣、暗、念、毒属性伤害-5%",
        "isCompose": 0,
        "isUpgrade": 0,
        "isHigh": 0,
        "canSlot": 0,
        "canUpgrade": 0,
        "randomBuff": "受到无、圣、暗、念、毒属性伤害-20%\n物伤、魔伤减免+15%\n物理、魔法防御+24%\n生命上限+15%\n受治疗加成+30%\n受到中型魔物伤害-20%\nPVP\/GVG中受玩家伤害-7.5%"
      },
      {
        "id": "42171",
        "name": "踏浪者战甲",
        "icon": "item_42171",
        "rank": 4,
        "job": [
          "0"
        ],
        "position": 3,
        "effect": "物理防御+243",
        "buff": "体质+20\n生命上限+4000\n魔法防御+15%；每精炼+1，物理防御+1%\n生命上限+4%，眩晕、冰冻抵抗+30%；精炼+10时，受到风、地、水、火、无属性伤害-5%；精炼+15时，受到风、地、水、火、无属性伤害-5%",
        "isCompose": 0,
        "isUpgrade": 0,
        "isHigh": 0,
        "canSlot": 0,
        "canUpgrade": 0,
        "randomBuff": "受到风、地、水、火、无属性伤害-20%\n物伤、魔伤减免+15%\n物理、魔法防御+24%\n生命上限+15%\n受治疗加成+30%\n受到中型魔物伤害-20%\nPVP\/GVG中受玩家伤害-7.5%"
      },
      {
        "id": "42168",
        "name": "全村最好的铠甲",
        "icon": "item_42168",
        "rank": 4,
        "job": [
          "0"
        ],
        "position": 3,
        "effect": "物理防御+243",
        "buff": "智力+10、体质+10\n生命上限+4000\n魔法防御+15%，每精炼+1，物理防御+1%\n生命上限+8%、治疗加成+8%；精炼+10时，治疗加成+8%；精炼+15时，治疗加成+8%",
        "isCompose": 0,
        "isUpgrade": 0,
        "isHigh": 0,
        "canSlot": 0,
        "canUpgrade": 0,
        "randomBuff": "生命上限+15%\n物伤、魔伤减免+15%\n物理、魔法防御+24%\n魔法上限+24%\n受治疗加成+30%\n受到中型魔物伤害-20%\nPVP\/GVG中受玩家伤害-7.5%"
      },
      {
        "id": "42165",
        "name": "生息之袍",
        "icon": "item_42165",
        "rank": 4,
        "job": [
          "0"
        ],
        "position": 3,
        "effect": "物理防御+243",
        "buff": "智力+20\n生命上限+4000\n物理防御+15%；每精炼+1，魔法防御+1%\n魔法上限+500、物理攻击+5%、对大型魔物伤害+15%；精炼+10时，魔法上限+8%；精炼+15时，魔法上限+8%",
        "isCompose": 0,
        "isUpgrade": 0,
        "isHigh": 0,
        "canSlot": 0,
        "canUpgrade": 0,
        "randomBuff": "魔法上限+24%\n物伤、魔伤减免+15%\n物理、魔法防御+24%\n生命上限+15%\n受治疗加成+30%\n受到中型魔物伤害-20%\nPVP\/GVG中受玩家伤害-7.5%"
      },
      {
        "id": "42162",
        "name": "迷雾行者",
        "icon": "item_42162",
        "rank": 4,
        "job": [
          "0"
        ],
        "position": 3,
        "effect": "物理防御+205",
        "buff": "智力+20\n生命上限+3500\n魔法防御+15%；每精炼+1，物理防御+1%\n魔法攻击+500、魔法上限+200；精炼+10时，魔法攻击+200；精炼+15时，魔法攻击+200",
        "isCompose": 0,
        "isUpgrade": 0,
        "isHigh": 0,
        "canSlot": 0,
        "canUpgrade": 0,
        "randomBuff": "魔法攻击+24%\n物伤、魔伤减免+15%\n物理、魔法防御+24%\n生命上限+15%\n风、地、水、火、无属性攻击+20%\n魔法上限+24%\nPVP\/GVG中受玩家伤害-7.5%"
      },
      {
        "id": "42159",
        "name": "猎魔者的决意",
        "icon": "item_42159",
        "rank": 4,
        "job": [
          "0"
        ],
        "position": 3,
        "effect": "物理防御+205",
        "buff": "智力+10、敏捷+10\n生命上限+3500\n魔法防御+15%；每精炼+1，物理防御+1%\n装备攻速+10%、忽视魔法防御+10%、生命上限+5%；精炼+10时，魔法攻击+8%；精炼+15时，魔法攻击+8%",
        "isCompose": 0,
        "isUpgrade": 0,
        "isHigh": 0,
        "canSlot": 0,
        "canUpgrade": 0,
        "randomBuff": "魔法穿刺+15%\n物伤、魔伤减免+15%\n物理、魔法防御+24%\n生命上限+15%\n风、地、水、火、无属性攻击+20%\n魔法上限+24%\nPVP\/GVG中受玩家伤害-7.5%"
      },
      {
        "id": "42156",
        "name": "彼岸巡行者",
        "icon": "item_42156",
        "rank": 4,
        "job": [
          "0"
        ],
        "position": 3,
        "effect": "物理防御+205",
        "buff": "智力+20\n生命上限+3500\n魔法防御+15%；每精炼+1，物理防御+1%\n可变吟唱时间-10%，风、地、水、火属性攻击+15%；精炼+10时，忽视魔法防御+8%；精炼+15时，忽视魔法防御+8%",
        "isCompose": 0,
        "isUpgrade": 0,
        "isHigh": 0,
        "canSlot": 0,
        "canUpgrade": 0,
        "randomBuff": "魔法穿刺+15%\n物伤、魔伤减免+15%\n物理、魔法防御+24%\n生命上限+15%\n风、地、水、火、无属性攻击+20%\n魔法上限+24%\nPVP\/GVG中受玩家伤害-7.5%"
      },
      {
        "id": "42153",
        "name": "天神的指引",
        "icon": "item_42153",
        "rank": 4,
        "job": [
          "0"
        ],
        "position": 3,
        "effect": "物理防御+205",
        "buff": "智力+10、灵巧+10\n生命上限+3500\n魔法防御+15%；每精炼+1，物理防御+1%\n魔法伤害+10%；精炼+10时，魔法伤害+4%；精炼+15时，魔法伤害+4%",
        "isCompose": 0,
        "isUpgrade": 0,
        "isHigh": 0,
        "canSlot": 0,
        "canUpgrade": 0,
        "randomBuff": "魔法伤害+15%\n物伤、魔伤减免+15%\n物理、魔法防御+24%\n生命上限+15%\n风、地、水、火、无属性攻击+20%\n魔法上限+24%\nPVP\/GVG中受玩家伤害-7.5%"
      },
      {
        "id": "42150",
        "name": "不死鸟战铠",
        "icon": "item_42150",
        "rank": 4,
        "job": [
          "0"
        ],
        "position": 3,
        "effect": "物理防御+243",
        "buff": "体质+20\n生命上限+4000\n魔法防御+15%；每精炼+1，物理防御+1%\n生命上限+8%、受治疗加成+20%；精炼+10时，生命上限+4%；精炼+15时，生命上限+4%",
        "isCompose": 0,
        "isUpgrade": 0,
        "isHigh": 0,
        "canSlot": 0,
        "canUpgrade": 0,
        "randomBuff": "生命上限+15%\n物伤、魔伤减免+15%\n物理、魔法防御+24%\n魔法上限+24%\n受治疗加成+30%\n受到中型魔物伤害-20%\nPVP\/GVG中受玩家伤害-7.5%"
      }
    ]
  }
}