{
  "code": 0,
  "status": "success",
  "timeStamp": 1643703294,
  "staticDomain": "http:\/\/rosc1.zhaiwuyu.com",
  "ip": "101.87.201.112",
  "language": "cn",
  "dbArea": 0,
  "data": {
    "page": 30,
    "pageSize": 10,
    "pageCount": 77,
    "total": 765,
    "list": [
      {
        "id": "42594",
        "name": "蔷薇锁链",
        "icon": "item_42594",
        "rank": 4,
        "job": [
          "0"
        ],
        "position": 2,
        "effect": "物理防御+175",
        "buff": "力量+12\n生命上限+2800\n忽视物理防御+25%\n物理攻击+30\n精炼+8时，每1%忽视物理防御加0.5物理攻击；精炼+12时，物理攻击+3%、忽视物理防御+2%；精炼+15时，忽视物理防御+8%\n精炼+8开始，每精炼+1，忽视物理防御+2%（总计16%）",
        "isCompose": 0,
        "isUpgrade": 0,
        "isHigh": 1,
        "canSlot": 0,
        "canUpgrade": 0
      },
      {
        "id": "42593",
        "name": "海利翁手环",
        "icon": "item_42593",
        "rank": 4,
        "job": [
          "0"
        ],
        "position": 2,
        "effect": "物理防御+175",
        "buff": "灵巧+12\n生命上限+2800\n远程物理伤害+15%\n精炼+5时，物理攻击+4%；精炼+10时，物理攻击+2%、远程物理伤害+2%；精炼+15时，物理攻击+2%、远程物理伤害+4%\n精炼+8开始，每精炼+1，远程物理伤害+1%（总计8%）",
        "isCompose": 0,
        "isUpgrade": 0,
        "isHigh": 1,
        "canSlot": 0,
        "canUpgrade": 0
      },
      {
        "id": "42592",
        "name": "毒牙护手",
        "icon": "item_42592",
        "rank": 4,
        "job": [
          "132",
          "133",
          "134",
          "135"
        ],
        "position": 2,
        "effect": "物理防御+180",
        "buff": "力量+6、灵巧+6\n生命上限+2800\n魔法防御+10\n【强酸火烟瓶投掷】伤害+5%；【气泡虫召唤】和【气泡虫寄生】的伤害+15%；【疯狂野草】的伤害+15%；精炼+5时，【气泡虫召唤】和【气泡虫寄生】的伤害+15%；精炼+10时，【手推车加农炮】伤害+15%，【疯狂野草】伤害+15%\n精炼+8时，物理攻击+5%；精炼+12时，忽视物理防御+5%；精炼+15时，忽视物理防御+10%\n精炼+8开始，每精炼+1，物理伤害+1%（总计8%）",
        "isCompose": 0,
        "isUpgrade": 0,
        "isHigh": 1,
        "canSlot": 0,
        "canUpgrade": 0
      },
      {
        "id": "42591",
        "name": "骷髅护腕",
        "icon": "item_42591",
        "rank": 4,
        "job": [
          "12",
          "13",
          "14",
          "15",
          "22",
          "23",
          "24",
          "25",
          "32",
          "33",
          "34",
          "35",
          "42",
          "43",
          "44",
          "45",
          "52",
          "53",
          "54",
          "55",
          "62",
          "63",
          "64",
          "65",
          "72",
          "73",
          "74",
          "75",
          "82",
          "83",
          "84",
          "85",
          "92",
          "93",
          "94",
          "95",
          "102",
          "103",
          "104",
          "105",
          "112",
          "113",
          "114",
          "115",
          "122",
          "123",
          "124",
          "125",
          "132",
          "133",
          "134",
          "135",
          "143",
          "144",
          "145",
          "152",
          "153",
          "154",
          "155",
          "163",
          "164",
          "165",
          "173",
          "174",
          "175",
          "183",
          "184",
          "185",
          "203",
          "204",
          "205",
          "213",
          "214",
          "215",
          "223",
          "224",
          "225"
        ],
        "position": 2,
        "effect": "物理防御+175",
        "buff": "闪避+20、力量+8\n生命上限+2800\n魔法上限+250\n使用锁定单体类技能攻击时有概率（15%）使下一次物理技能造成100%的额外伤害\n精炼+5时，近战物理攻击+5%；精炼+10时，近战物理攻击+5%；精炼+15时，生命上限+5%，近战物理伤害+5%\n精炼+8开始，每精炼+1，近战物理伤害+1%（总计8%）",
        "isCompose": 0,
        "isUpgrade": 0,
        "isHigh": 1,
        "canSlot": 0,
        "canUpgrade": 0
      },
      {
        "id": "42590",
        "name": "金腕",
        "icon": "item_42590",
        "rank": 4,
        "job": [
          "12",
          "13",
          "14",
          "15",
          "22",
          "23",
          "24",
          "25",
          "32",
          "33",
          "34",
          "35",
          "42",
          "43",
          "44",
          "45",
          "52",
          "53",
          "54",
          "55",
          "62",
          "63",
          "64",
          "65",
          "72",
          "73",
          "74",
          "75",
          "82",
          "83",
          "84",
          "85",
          "92",
          "93",
          "94",
          "95",
          "102",
          "103",
          "104",
          "105",
          "112",
          "113",
          "114",
          "115",
          "122",
          "123",
          "124",
          "125",
          "132",
          "133",
          "134",
          "135",
          "143",
          "144",
          "145",
          "152",
          "153",
          "154",
          "155",
          "163",
          "164",
          "165",
          "173",
          "174",
          "175",
          "183",
          "184",
          "185",
          "203",
          "204",
          "205",
          "213",
          "214",
          "215",
          "223",
          "224",
          "225"
        ],
        "position": 2,
        "effect": "物理防御+175",
        "buff": "力量+6、敏捷+6\n生命上限+2800\n装备攻速+15%；每精炼+1，装备攻速+1%\n当剑士系\/商人系\/超初系\/忍者系\/枪手系装备时每1%装备攻速将会为其带来1点物理攻击\n【神圣复仇者】星陨的触发概率+12%\n精炼+10时，近战职业普通攻击有5%概率触发【高昂】效果。【高昂】：物理攻击+10%，持续5秒\n精炼+15时，物理穿刺+5%\n精炼+8开始，每精炼+1，物理攻击+2%（总计16%）\n【洛奇的指甲Ⅴ】+【金腕】：每2%装备攻速转换1点物理攻击力\n【塔卡罗】（【升龙拳套IV】）+【华贵腕甲IV】（【金腕】）：每次普通攻击获得气弹的概率提升至60%",
        "isCompose": 0,
        "isUpgrade": 0,
        "isHigh": 1,
        "canSlot": 0,
        "canUpgrade": 0
      },
      {
        "id": "42589",
        "name": "圣母光辉[1]",
        "icon": "item_42589",
        "rank": 4,
        "job": [
          "12",
          "13",
          "14",
          "15",
          "22",
          "23",
          "24",
          "25",
          "32",
          "33",
          "34",
          "35",
          "42",
          "43",
          "44",
          "45",
          "52",
          "53",
          "54",
          "55",
          "62",
          "63",
          "64",
          "65",
          "72",
          "73",
          "74",
          "75",
          "82",
          "83",
          "84",
          "85",
          "92",
          "93",
          "94",
          "95",
          "102",
          "103",
          "104",
          "105",
          "112",
          "113",
          "114",
          "115",
          "122",
          "123",
          "124",
          "125",
          "132",
          "133",
          "134",
          "135",
          "143",
          "144",
          "145",
          "152",
          "153",
          "154",
          "155",
          "163",
          "164",
          "165",
          "173",
          "174",
          "175",
          "183",
          "184",
          "185",
          "203",
          "204",
          "205",
          "213",
          "214",
          "215",
          "223",
          "224",
          "225"
        ],
        "position": 2,
        "effect": "物理防御+200",
        "buff": "灵巧+6、智力+6\n生命上限+3000\n物理防御+40、魔法防御+40\n魔法上限+300\nSP恢复+10%\nSP恢复+10\n精炼+5时，魔法上限+5%；精炼+10时，魔法上限+10%；精炼+15时，魔法上限+10%，每10点魔法防御会额外为其带来1点魔法攻击，每20点物理防御会额外为其带来1点物理攻击\n精炼+8开始，每精炼+1，魔法上限+2%（总计16%）",
        "isCompose": 0,
        "isUpgrade": 0,
        "isHigh": 1,
        "canSlot": 0,
        "canUpgrade": 0
      },
      {
        "id": "42588",
        "name": "契约宝珠",
        "icon": "item_42588",
        "rank": 4,
        "job": [
          "82",
          "83",
          "84",
          "85"
        ],
        "position": 2,
        "effect": "物理防御+175",
        "buff": "智力+6、敏捷+6\n生命上限+2800\n装备攻速+10%；每精炼+1，装备攻速+1%\n精炼+10时，魔法攻击+5%；精炼+15时，魔法攻击+5%\n精炼+8开始，每精炼+1，魔法穿刺+1%（总计8%）",
        "isCompose": 0,
        "isUpgrade": 0,
        "isHigh": 1,
        "canSlot": 0,
        "canUpgrade": 0
      },
      {
        "id": "42587",
        "name": "奥术法典",
        "icon": "item_42587",
        "rank": 4,
        "job": [
          "12",
          "13",
          "14",
          "15",
          "22",
          "23",
          "24",
          "25",
          "32",
          "33",
          "34",
          "35",
          "42",
          "43",
          "44",
          "45",
          "52",
          "53",
          "54",
          "55",
          "62",
          "63",
          "64",
          "65",
          "72",
          "73",
          "74",
          "75",
          "82",
          "83",
          "84",
          "85",
          "92",
          "93",
          "94",
          "95",
          "102",
          "103",
          "104",
          "105",
          "112",
          "113",
          "114",
          "115",
          "122",
          "123",
          "124",
          "125",
          "132",
          "133",
          "134",
          "135",
          "143",
          "144",
          "145",
          "152",
          "153",
          "154",
          "155",
          "163",
          "164",
          "165",
          "173",
          "174",
          "175",
          "183",
          "184",
          "185",
          "203",
          "204",
          "205",
          "213",
          "214",
          "215",
          "223",
          "224",
          "225"
        ],
        "position": 2,
        "effect": "物理防御+175",
        "buff": "智力+12\n生命上限+2800\nSp恢复+20\n所有技能SP消耗-12%；每精炼+1，所有技能SP消耗额外减少1%\n精炼+10时，所有技能SP消耗-8%；精炼+15时，所有技能SP消耗-5%、技能冷却-10%\n精炼+8开始，每精炼+1，技能延迟-2%（总计16%）",
        "isCompose": 0,
        "isUpgrade": 0,
        "isHigh": 1,
        "canSlot": 0,
        "canUpgrade": 0
      },
      {
        "id": "42586",
        "name": "束缚之约",
        "icon": "item_42586",
        "rank": 4,
        "job": [
          "12",
          "13",
          "14",
          "15",
          "22",
          "23",
          "24",
          "25",
          "32",
          "33",
          "34",
          "35",
          "42",
          "43",
          "44",
          "45",
          "52",
          "53",
          "54",
          "55",
          "62",
          "63",
          "64",
          "65",
          "72",
          "73",
          "74",
          "75",
          "82",
          "83",
          "84",
          "85",
          "92",
          "93",
          "94",
          "95",
          "102",
          "103",
          "104",
          "105",
          "112",
          "113",
          "114",
          "115",
          "122",
          "123",
          "124",
          "125",
          "132",
          "133",
          "134",
          "135",
          "143",
          "144",
          "145",
          "152",
          "153",
          "154",
          "155",
          "163",
          "164",
          "165",
          "173",
          "174",
          "175",
          "183",
          "184",
          "185",
          "203",
          "204",
          "205",
          "213",
          "214",
          "215",
          "223",
          "224",
          "225"
        ],
        "position": 2,
        "effect": "物理防御+175",
        "buff": "智力+6、灵巧+6\n生命上限+2800\n忽视魔法防御+30%\n每1%忽视魔法防御加0.5点魔法攻击\n精炼+10时，当忽视魔法防御大于60%时，魔法攻击+3%；精炼+15时，忽视魔法防御+5%\n精炼+8开始，每精炼+1，忽视魔法防御+2%（总计16%）",
        "isCompose": 0,
        "isUpgrade": 0,
        "isHigh": 1,
        "canSlot": 0,
        "canUpgrade": 0
      },
      {
        "id": "42585",
        "name": "巅峰料理盘",
        "icon": "item_42585",
        "rank": 4,
        "job": [
          "0"
        ],
        "position": 2,
        "effect": "物理防御+200",
        "buff": "智力+12\n生命上限+3000\n魔法防御+70\n魔法伤害反射+10%\n魔法攻击+5%；每精炼+1时，魔法攻击+1%\n精炼+15时，固定吟唱时间-10%\n精炼+8开始，每精炼+1，魔法穿刺+1%（总计8%）",
        "isCompose": 0,
        "isUpgrade": 0,
        "isHigh": 1,
        "canSlot": 0,
        "canUpgrade": 0
      }
    ]
  }
}