{
  "code": 0,
  "status": "success",
  "timeStamp": 1642843618,
  "staticDomain": "http:\/\/rosc1.zhaiwuyu.com",
  "ip": "101.87.200.160",
  "language": "cn",
  "dbArea": 0,
  "data": {
    "page": 43,
    "pageSize": 10,
    "pageCount": 74,
    "total": 731,
    "list": [
      {
        "id": "40057",
        "name": "巨龙咆哮[1]",
        "icon": "item_40057",
        "rank": 4,
        "job": [
          "14",
          "15",
          "204",
          "205"
        ],
        "position": 1,
        "effect": "魔法攻击+420\n物理攻击+625",
        "buff": "智力+6、力量+6\n魔法上限+300\n火属性攻击+5%\n每精炼+1，使【龙之吐息】【龙之吐息·水】技能的伤害+1%\n精炼+10时，使用【龙之吐息】【龙之吐息·水】技能后，物伤减免与魔伤减免+10%，持续10秒\n精炼+15时，额外增加【龙之吐息】【龙之吐息·水】技能倍率+200%",
        "isCompose": 0,
        "isUpgrade": 0,
        "isHigh": 1,
        "canSlot": 0,
        "canUpgrade": 0
      },
      {
        "id": "40055",
        "name": "戮魂长矛[1]",
        "icon": "item_40055",
        "rank": 4,
        "job": [
          "12",
          "13",
          "14",
          "15",
          "72",
          "73",
          "74",
          "75",
          "203",
          "204",
          "205"
        ],
        "position": 1,
        "effect": "物理攻击+625",
        "buff": "力量+15\n命中+25\n【连刺攻击】的SP消耗降低50%，【连刺攻击】对大型魔物伤害增加70%\n【螺旋击刺】伤害+15%\n物理技能攻击时有15%的概率获得【怒火】，【怒火】：物理攻击+5%，持续10秒\n精炼+10，物理攻击+5%；精炼+15，物理伤害+5%",
        "isCompose": 0,
        "isUpgrade": 0,
        "isHigh": 1,
        "canSlot": 0,
        "canUpgrade": 0
      },
      {
        "id": "62515",
        "name": "霸王乱舞[1]",
        "icon": "item_62515",
        "rank": 4,
        "job": [
          "124",
          "125"
        ],
        "position": 1,
        "effect": "物理攻击+470",
        "buff": "力量+6\n智力+6\n使【罗刹破凰拳】倍率+100%\n每精炼+1，使【罗刹破凰拳】伤害+1%\n精炼+5，+10，+15时，使【罗刹破凰拳】在【大锤崩坠】后使用伤害+5%，+5%，+10%\n【霸王乱舞】+【坚定战袍Ⅹ】+【坚定指环Ⅳ】（或【赤心权戒】）：使【罗刹破凰拳】伤害+5%\n【霸王乱舞】+【天选者战袍】+【坚定指环Ⅳ】：使【罗刹破凰拳】伤害+5%",
        "isCompose": 0,
        "isUpgrade": 0,
        "isHigh": 0,
        "canSlot": 1,
        "canUpgrade": 1
      },
      {
        "id": "61005",
        "name": "涂毒的腕甲",
        "icon": "item_61005",
        "rank": 4,
        "job": [
          "0"
        ],
        "position": 2,
        "effect": "物理防御+46",
        "buff": "物理攻击+25\n暴击伤害+15%",
        "isCompose": 0,
        "isUpgrade": 0,
        "isHigh": 0,
        "canSlot": 1,
        "canUpgrade": 0
      },
      {
        "id": "47075",
        "name": "璀璨星神背饰",
        "icon": "item_47075",
        "rank": 4,
        "job": [
          "0"
        ],
        "position": 14,
        "effect": "",
        "buff": "生命上限+5000\n物理防御+10%\n魔法防御+10%\n暴击防护+15\n物伤减免+5%\n魔伤减免+5%\n受毒、圣、暗、念、无、火、水、地、风属性伤害-10%\n获得被动技能【凋零之星】：降低自身周围3米范围内全部敌人15%物理攻击力和15%魔法攻击力。",
        "isCompose": 1,
        "isUpgrade": 0,
        "isHigh": 0,
        "canSlot": 0,
        "canUpgrade": 0
      },
      {
        "id": "47074",
        "name": "星神背饰",
        "icon": "item_47074",
        "rank": 4,
        "job": [
          "0"
        ],
        "position": 14,
        "effect": "",
        "buff": "生命上限+4000\n物理防御+10%\n魔法防御+10%\n暴击防护+15\n受毒、圣、暗、念、无、火、水、地、风属性伤害-10%\n获得被动技能【凋零之星】：降低自身周围3米范围内全部敌人8%物理攻击力和8%魔法攻击力。",
        "isCompose": 1,
        "isUpgrade": 0,
        "isHigh": 0,
        "canSlot": 0,
        "canUpgrade": 0
      },
      {
        "id": "47073",
        "name": "星辰背饰",
        "icon": "item_47073",
        "rank": 4,
        "job": [
          "0"
        ],
        "position": 14,
        "effect": "",
        "buff": "生命上限+3000\n物理防御+10%\n魔法防御+10%\n暴击防护+8\n受毒、圣、暗、念、无、火、水、地、风属性伤害-5%",
        "isCompose": 1,
        "isUpgrade": 0,
        "isHigh": 0,
        "canSlot": 0,
        "canUpgrade": 0
      },
      {
        "id": "47072",
        "name": "胧月神背饰",
        "icon": "item_47072",
        "rank": 4,
        "job": [
          "0"
        ],
        "position": 14,
        "effect": "",
        "buff": "生命上限+5000\n物理防御+15%\n魔法防御+5%\n暴击防护+15\n物伤减免+7.5%\n魔伤减免+2.5%\n受毒、圣、暗、念、无属性伤害-15%，火、水、地、风属性伤害-5%\n获得被动技能【月华镜盾】：受到远程物理攻击时有30%使自己在之后的2秒内免疫远程物理伤害",
        "isCompose": 1,
        "isUpgrade": 0,
        "isHigh": 0,
        "canSlot": 0,
        "canUpgrade": 0
      },
      {
        "id": "47071",
        "name": "月神背饰",
        "icon": "item_47071",
        "rank": 4,
        "job": [
          "0"
        ],
        "position": 14,
        "effect": "",
        "buff": "生命上限+4000\n物理防御+15%\n魔法防御+5%\n暴击防护+15\n受毒、圣、暗、念、无属性伤害-15%，火、水、地、风属性伤害-5%\n获得被动技能【月华镜盾】：受到远程物理攻击时有15%使自己在之后的2秒内免疫远程物理伤害",
        "isCompose": 1,
        "isUpgrade": 0,
        "isHigh": 0,
        "canSlot": 0,
        "canUpgrade": 0
      },
      {
        "id": "47070",
        "name": "月亮背饰",
        "icon": "item_47070",
        "rank": 4,
        "job": [
          "0"
        ],
        "position": 14,
        "effect": "",
        "buff": "生命上限+3000\n物理防御+15%\n魔法防御+5%\n暴击防护+8\n受毒、圣、暗、念、无属性伤害-10%",
        "isCompose": 1,
        "isUpgrade": 0,
        "isHigh": 0,
        "canSlot": 0,
        "canUpgrade": 0
      }
    ]
  }
}