{
  "code": 0,
  "status": "success",
  "timeStamp": 1642843608,
  "staticDomain": "http:\/\/rosc1.zhaiwuyu.com",
  "ip": "101.87.200.160",
  "language": "cn",
  "dbArea": 0,
  "data": {
    "page": 42,
    "pageSize": 10,
    "pageCount": 74,
    "total": 731,
    "list": [
      {
        "id": "40664",
        "name": "精神手杖[1]",
        "icon": "item_40664",
        "rank": 3,
        "job": [
          "82",
          "83",
          "84",
          "85"
        ],
        "position": 1,
        "effect": "魔法攻击+96",
        "buff": "体质+2\n灵巧+2\n魔法攻击+5%",
        "isCompose": 1,
        "isUpgrade": 0,
        "isHigh": 0,
        "canSlot": 1,
        "canUpgrade": 1
      },
      {
        "id": "40663",
        "name": "生机之杖[1]",
        "icon": "item_40663",
        "rank": 4,
        "job": [
          "21",
          "22",
          "23",
          "24",
          "25",
          "51",
          "52",
          "53",
          "54",
          "55",
          "82",
          "83",
          "84",
          "85",
          "183",
          "184",
          "185",
          "223",
          "224",
          "225"
        ],
        "position": 1,
        "effect": "魔法攻击+408",
        "buff": "智力+15、灵巧+5\nSP恢复+45%\n治疗加成+20%\n精炼每+1，治疗加成+4%\n精炼+5时，治疗加成+10%；精炼+10时，生命上限+10%；精炼+13时，魔法攻击+5%、治疗加成+10%\n【生机之杖】+【天衣月舞Ⅳ】：治疗加成+5%，【天衣月舞Ⅳ】精炼+10以上时治疗加成提升至10%",
        "isCompose": 0,
        "isUpgrade": 0,
        "isHigh": 1,
        "canSlot": 0,
        "canUpgrade": 0
      },
      {
        "id": "40662",
        "name": "迷失之杖[1]",
        "icon": "item_40662",
        "rank": 4,
        "job": [
          "22",
          "23",
          "24",
          "25",
          "52",
          "53",
          "54",
          "55",
          "183",
          "184",
          "185",
          "223",
          "224",
          "225"
        ],
        "position": 1,
        "effect": "魔法攻击+408",
        "buff": "敏捷+10、智力+10\n装备攻速+15%\n魔法攻击+10%\n普攻时对目标及周围小范围内所有目标造成溅射伤害（仅魔法师系列有效）\n每精炼+1，闪避+3，装备攻速+2%，普攻攻击力+30",
        "isCompose": 0,
        "isUpgrade": 0,
        "isHigh": 1,
        "canSlot": 0,
        "canUpgrade": 0
      },
      {
        "id": "40661",
        "name": "无限[1]",
        "icon": "item_40661",
        "rank": 4,
        "job": [
          "21",
          "22",
          "23",
          "24",
          "25",
          "51",
          "52",
          "53",
          "54",
          "55",
          "143",
          "144",
          "145",
          "183",
          "184",
          "185",
          "223",
          "224",
          "225"
        ],
        "position": 1,
        "effect": "魔法攻击+408",
        "buff": "灵巧+10、智力+10\n风、火、水、地属性攻击+10%\n提升30%魔法范围型技能伤害\n精炼+8、+10、+15时伤害分别提升10%、10%、10%（范围型技能包括：【暴风雪】，【怒雷强击】，【火之猎杀】，【崩裂术】等）",
        "isCompose": 0,
        "isUpgrade": 0,
        "isHigh": 1,
        "canSlot": 0,
        "canUpgrade": 0
      },
      {
        "id": "40660",
        "name": "巫师之力[1]",
        "icon": "item_40660",
        "rank": 4,
        "job": [
          "21",
          "22",
          "23",
          "24",
          "25",
          "82",
          "83",
          "84",
          "85",
          "143",
          "144",
          "145",
          "151",
          "152",
          "153",
          "154",
          "155",
          "183",
          "184",
          "185",
          "223",
          "224",
          "225"
        ],
        "position": 1,
        "effect": "魔法攻击+408",
        "buff": "智力+18\n魔法攻击+15%\n精炼每+1，忽视魔法防御+2%\n精炼+5时，忽视魔法防御+5%；精炼+10时，魔法攻击+5%；精炼+10开始，每精炼+1，魔法伤害+1%（总计6%）\n【大巫师之杖Ⅷ】（【巫师之力】）+【创作者外袍Ⅷ】（【碎星者外袍】）+【永恒戒指Ⅷ】（【克拉肯之眼】）+【水晶靴Ⅳ】（【白宝石之靴】）：可变吟唱时间-5%，魔法伤害+3%，忽视魔法防御+3%",
        "isCompose": 0,
        "isUpgrade": 0,
        "isHigh": 1,
        "canSlot": 0,
        "canUpgrade": 0
      },
      {
        "id": "40361",
        "name": "怒涛勇者[1]",
        "icon": "item_40361",
        "rank": 4,
        "job": [
          "11",
          "12",
          "13",
          "14",
          "15",
          "72",
          "73",
          "74",
          "75",
          "164",
          "165",
          "203",
          "204",
          "205"
        ],
        "position": 1,
        "effect": "物理攻击+625",
        "buff": "敏捷+10、力量+5\n装备攻速+20%\n闪避+30\n击杀目标时获得物理攻击+30持续10秒，最多可叠加5层\n普通攻击暴击时有15%概率使使用者暴击伤害+5%，持续10秒，可叠加3层\n装备者的物理防御和魔法防御都会下降到1\/3；精炼+5时，物理攻击+3%；精炼+10时，装备者的物理防御和魔法防御都只会下降到2\/3，暴击伤害+5%，物理攻击+2%；精炼+15时，装备者的物理防御和魔法防御不再降低，物理攻击+10%\n【水纹之剑Ⅹ】（【怒涛勇者】）+【野兽之心Ⅷ】（【暴戾之甲】）+【高等布袋熊长靴IV】（【猪鬃毛长靴】）+【衬衫Ⅷ】（【云朵衬衫】）：物理攻击+3%，暴击伤害+3%，攻击速度+5%，生命上限+10%",
        "isCompose": 0,
        "isUpgrade": 0,
        "isHigh": 1,
        "canSlot": 0,
        "canUpgrade": 0
      },
      {
        "id": "40360",
        "name": "天谴[1]",
        "icon": "item_40360",
        "rank": 4,
        "job": [
          "12",
          "13",
          "14",
          "15",
          "72",
          "73",
          "74",
          "75",
          "203",
          "204",
          "205"
        ],
        "position": 1,
        "effect": "物理攻击+625",
        "buff": "圣属性\n命中+25\n智力+4、力量+8\n物理攻击+5%\n普攻时8%概率触发【星陨】，使目标及范围内目标受到圣属性伤害\n使用【舍命攻击】时，触发神圣复仇者附加技能的概率提升到40%，降低【舍命攻击】每次生命损失2%\n精炼每+1，剑士系普通攻击伤害+5%，【星陨】伤害+5%\n精炼+5时，暴击+5、暴击伤害+3%；精炼+10时，暴击+5、暴击伤害+5%；精炼+15时，暴击+5、暴击伤害+7%",
        "isCompose": 0,
        "isUpgrade": 0,
        "isHigh": 1,
        "canSlot": 0,
        "canUpgrade": 0
      },
      {
        "id": "40359",
        "name": "狂怒之刃[1]",
        "icon": "item_40359",
        "rank": 4,
        "job": [
          "12",
          "13",
          "14",
          "15",
          "72",
          "73",
          "74",
          "75",
          "143",
          "144",
          "145",
          "203",
          "204",
          "205"
        ],
        "position": 1,
        "effect": "物理攻击+625",
        "buff": "力量+10\n灵巧+15\n习得【狂击】10级时，【狂击】伤害增加100%\n习得【狂击】10级时，【狂击】对中体型魔物时额外增加50%伤害\n习得【怪物互击】10级时，【怪物互击】伤害增加100%\n【怪物互击】对中型魔物额外增加伤害10%\n攻击时无视敌方25%乘算物理防御（对MVP、Mini魔物无效）\n精炼+5时，物理攻击+5%，精炼+10时，物理攻击+5%",
        "isCompose": 0,
        "isUpgrade": 0,
        "isHigh": 1,
        "canSlot": 0,
        "canUpgrade": 0
      },
      {
        "id": "40059",
        "name": "圣佑长枪[1]",
        "icon": "item_40059",
        "rank": 4,
        "job": [
          "12",
          "13",
          "14",
          "15",
          "72",
          "73",
          "74",
          "75",
          "203",
          "204",
          "205"
        ],
        "position": 1,
        "effect": "物理攻击+625",
        "buff": "体质+12\n生命上限+1000\n精炼每+1则物理防御+1.5%，魔法防御+1%\n对MVP、Mini魔物伤害+5%；精炼+5时，对MVP、Mini魔物伤害+5%，物伤减免+2%、魔伤减免+2%；精炼+10时，对MVP、Mini魔物伤害+10%，物伤减免+3%、魔伤减免+3%；精炼+15时，对MVP、Mini魔物伤害+10%，物伤减免+5%、魔伤减免+5%\n【青铁柱枪Ⅳ】（【圣佑长枪】）+【重靴Ⅷ】+【石制圆盾Ⅳ】（陨坚圆盾）：忽视物理防御+5%、物理攻击+5%",
        "isCompose": 0,
        "isUpgrade": 0,
        "isHigh": 1,
        "canSlot": 0,
        "canUpgrade": 0
      },
      {
        "id": "40058",
        "name": "深海恐惧[1]",
        "icon": "item_40058",
        "rank": 4,
        "job": [
          "12",
          "13",
          "14",
          "15",
          "72",
          "73",
          "74",
          "75",
          "203",
          "204",
          "205"
        ],
        "position": 1,
        "effect": "魔法攻击+360\n物理攻击+625",
        "buff": "力量+12\n敏捷+8\n使【圣十字攻击】技能倍率+150%\n精炼每+1，装备攻速+1%，【圣十字攻击】技能倍率+30%\n【枪阵-血十字】伤害+30%；精炼+10，物理攻击+5%；精炼+15，物理伤害+5%\n【旗鱼枪IV】（【深海恐惧】）+【娜迦鳞盾Ⅷ】（龙焰盾）：【枪阵-血十字】伤害+10%，【枪阵-血十字】SP消耗-10%",
        "isCompose": 0,
        "isUpgrade": 0,
        "isHigh": 1,
        "canSlot": 0,
        "canUpgrade": 0
      }
    ]
  }
}