{
  "code": 0,
  "status": "success",
  "timeStamp": 1642843840,
  "staticDomain": "http:\/\/rosc1.zhaiwuyu.com",
  "ip": "101.87.200.160",
  "language": "cn",
  "dbArea": 0,
  "data": {
    "page": 65,
    "pageSize": 10,
    "pageCount": 74,
    "total": 731,
    "list": [
      {
        "id": "42011",
        "name": "盗贼之衣",
        "icon": "item_42011",
        "rank": 2,
        "job": [
          "0"
        ],
        "position": 3,
        "effect": "物理防御+28",
        "buff": "敏捷+3\n力量+1",
        "isCompose": 1,
        "isUpgrade": 0,
        "isHigh": 0,
        "canSlot": 1,
        "canUpgrade": 1
      },
      {
        "id": "42010",
        "name": "圣职之袍",
        "icon": "item_42010",
        "rank": 2,
        "job": [
          "0"
        ],
        "position": 3,
        "effect": "物理防御+24",
        "buff": "智力+2\n魔法上限+3%",
        "isCompose": 1,
        "isUpgrade": 0,
        "isHigh": 0,
        "canSlot": 1,
        "canUpgrade": 1
      },
      {
        "id": "42009",
        "name": "丝质外袍",
        "icon": "item_42009",
        "rank": 3,
        "job": [
          "21",
          "22",
          "23",
          "24",
          "25",
          "82",
          "83",
          "84",
          "85",
          "183",
          "184",
          "185",
          "223",
          "224",
          "225"
        ],
        "position": 3,
        "effect": "物理防御+28",
        "buff": "魔法防御+20\n受到水属性伤害-15%\n【防水靴Ⅵ】（蜉蝣长靴）+【丝质外袍Ⅵ】（魔光茧织）：普通攻击10%概率使目标变成水属性，持续10秒",
        "isCompose": 0,
        "isUpgrade": 0,
        "isHigh": 0,
        "canSlot": 1,
        "canUpgrade": 1
      },
      {
        "id": "42008",
        "name": "水鳞铠甲",
        "icon": "item_42008",
        "rank": 3,
        "job": [
          "0"
        ],
        "position": 3,
        "effect": "物理防御+28",
        "buff": "铠甲本身永远赋予水属性",
        "isCompose": 0,
        "isUpgrade": 0,
        "isHigh": 0,
        "canSlot": 1,
        "canUpgrade": 0
      },
      {
        "id": "42007",
        "name": "铁制铠甲",
        "icon": "item_42007",
        "rank": 2,
        "job": [
          "11",
          "12",
          "13",
          "14",
          "15",
          "31",
          "32",
          "33",
          "34",
          "35",
          "61",
          "62",
          "63",
          "64",
          "65",
          "72",
          "73",
          "74",
          "75",
          "92",
          "93",
          "94",
          "95",
          "132",
          "133",
          "134",
          "135",
          "143",
          "144",
          "145",
          "163",
          "164",
          "165",
          "203",
          "204",
          "205",
          "213",
          "214",
          "215"
        ],
        "position": 3,
        "effect": "物理防御+75",
        "buff": "力量+3\n体质+2\n近战职业装备时物理攻击+20",
        "isCompose": 0,
        "isUpgrade": 1,
        "isHigh": 0,
        "canSlot": 1,
        "canUpgrade": 1
      },
      {
        "id": "42006",
        "name": "驱魔师长袍",
        "icon": "item_42006",
        "rank": 3,
        "job": [
          "51",
          "52",
          "53",
          "54",
          "55",
          "122",
          "123",
          "124",
          "125"
        ],
        "position": 3,
        "effect": "物理防御+42",
        "buff": "魔法防御+25\n不死种族减伤+15%\n受到暗属性伤害-15%",
        "isCompose": 0,
        "isUpgrade": 0,
        "isHigh": 0,
        "canSlot": 1,
        "canUpgrade": 1
      },
      {
        "id": "42005",
        "name": "钢铁锁子甲",
        "icon": "item_42005",
        "rank": 2,
        "job": [
          "11",
          "12",
          "13",
          "14",
          "15",
          "61",
          "62",
          "63",
          "64",
          "65",
          "72",
          "73",
          "74",
          "75",
          "132",
          "133",
          "134",
          "135",
          "143",
          "144",
          "145",
          "203",
          "204",
          "205",
          "213",
          "214",
          "215"
        ],
        "position": 3,
        "effect": "物理防御+66",
        "buff": "体质+2\nHP恢复+3%",
        "isCompose": 1,
        "isUpgrade": 0,
        "isHigh": 0,
        "canSlot": 1,
        "canUpgrade": 1
      },
      {
        "id": "42004",
        "name": "秘银之衣",
        "icon": "item_42004",
        "rank": 3,
        "job": [
          "0"
        ],
        "position": 3,
        "effect": "物理防御+33",
        "buff": "智力+2\n吟唱打断耐性+20%",
        "isCompose": 1,
        "isUpgrade": 0,
        "isHigh": 0,
        "canSlot": 1,
        "canUpgrade": 1
      },
      {
        "id": "42003",
        "name": "毛皮大衣",
        "icon": "item_42003",
        "rank": 2,
        "job": [
          "0"
        ],
        "position": 3,
        "effect": "物理防御+24",
        "buff": "敏捷+2\n生命上限+50",
        "isCompose": 1,
        "isUpgrade": 0,
        "isHigh": 0,
        "canSlot": 1,
        "canUpgrade": 1
      },
      {
        "id": "42002",
        "name": "火鳞铠甲",
        "icon": "item_42002",
        "rank": 3,
        "job": [
          "0"
        ],
        "position": 3,
        "effect": "物理防御+42",
        "buff": "铠甲本身永远赋予火属性",
        "isCompose": 0,
        "isUpgrade": 0,
        "isHigh": 0,
        "canSlot": 1,
        "canUpgrade": 0
      }
    ]
  }
}