{
  "code": 0,
  "status": "success",
  "timeStamp": 1642843910,
  "staticDomain": "http:\/\/rosc1.zhaiwuyu.com",
  "ip": "101.87.200.160",
  "language": "cn",
  "dbArea": 0,
  "data": {
    "page": 72,
    "pageSize": 10,
    "pageCount": 74,
    "total": 731,
    "list": [
      {
        "id": "40615",
        "name": "许愿之杖[1]",
        "icon": "item_40615",
        "rank": 3,
        "job": [
          "21",
          "22",
          "23",
          "24",
          "25",
          "82",
          "83",
          "84",
          "85",
          "183",
          "184",
          "185",
          "223",
          "224",
          "225"
        ],
        "position": 1,
        "effect": "魔法攻击+75",
        "buff": "智力+2\n使用单体锁定类魔法技能时有10%概率立即恢复5%HP和5%SP",
        "isCompose": 1,
        "isUpgrade": 0,
        "isHigh": 0,
        "canSlot": 1,
        "canUpgrade": 1
      },
      {
        "id": "40611",
        "name": "洞察之杖[1]",
        "icon": "item_40611",
        "rank": 2,
        "job": [
          "21",
          "22",
          "23",
          "24",
          "25",
          "51",
          "52",
          "53",
          "54",
          "55",
          "82",
          "83",
          "84",
          "85",
          "143",
          "144",
          "145",
          "151",
          "152",
          "153",
          "154",
          "155",
          "183",
          "184",
          "185",
          "223",
          "224",
          "225"
        ],
        "position": 1,
        "effect": "魔法攻击+43",
        "buff": "智力+2\n魔法攻击+5%",
        "isCompose": 1,
        "isUpgrade": 0,
        "isHigh": 0,
        "canSlot": 1,
        "canUpgrade": 1
      },
      {
        "id": "40610",
        "name": "巫杖魂咬[1]",
        "icon": "item_40610",
        "rank": 4,
        "job": [
          "21",
          "22",
          "23",
          "24",
          "25",
          "51",
          "52",
          "53",
          "54",
          "55",
          "82",
          "83",
          "84",
          "85",
          "183",
          "184",
          "185",
          "223",
          "224",
          "225"
        ],
        "position": 1,
        "effect": "魔法攻击+87",
        "buff": "灵巧+5\n可变吟唱时间-20%",
        "isCompose": 0,
        "isUpgrade": 0,
        "isHigh": 0,
        "canSlot": 1,
        "canUpgrade": 1
      },
      {
        "id": "40607",
        "name": "绅士的手杖[1]",
        "icon": "item_40607",
        "rank": 3,
        "job": [
          "22",
          "23",
          "24",
          "25",
          "52",
          "53",
          "54",
          "55",
          "82",
          "83",
          "84",
          "85",
          "183",
          "184",
          "185",
          "223",
          "224",
          "225"
        ],
        "position": 1,
        "effect": "魔法攻击+108",
        "buff": "灵巧+3\n智力+3\n体质+3",
        "isCompose": 0,
        "isUpgrade": 0,
        "isHigh": 0,
        "canSlot": 1,
        "canUpgrade": 1
      },
      {
        "id": "40606",
        "name": "生存的魔杖[1]",
        "icon": "item_40606",
        "rank": 2,
        "job": [
          "21",
          "22",
          "23",
          "24",
          "25",
          "51",
          "52",
          "53",
          "54",
          "55",
          "82",
          "83",
          "84",
          "85",
          "151",
          "152",
          "153",
          "154",
          "155",
          "183",
          "184",
          "185",
          "223",
          "224",
          "225"
        ],
        "position": 1,
        "effect": "魔法攻击+64",
        "buff": "灵巧+3\n生命上限+200",
        "isCompose": 1,
        "isUpgrade": 0,
        "isHigh": 0,
        "canSlot": 1,
        "canUpgrade": 1
      },
      {
        "id": "40322",
        "name": "名刀不知火[1]",
        "icon": "item_40322",
        "rank": 3,
        "job": [
          "12",
          "13",
          "14",
          "15",
          "72",
          "73",
          "74",
          "75",
          "164",
          "165",
          "203",
          "204",
          "205"
        ],
        "position": 1,
        "effect": "物理攻击+190",
        "buff": "暴击+25\n装备攻速+10%\n普通攻击时有概率使目标眩晕3秒，且目标眩晕期间剑士系对其造成的普攻伤害会增加50%",
        "isCompose": 0,
        "isUpgrade": 1,
        "isHigh": 0,
        "canSlot": 1,
        "canUpgrade": 1
      },
      {
        "id": "40319",
        "name": "神圣复仇者[1]",
        "icon": "item_40319",
        "rank": 4,
        "job": [
          "12",
          "13",
          "14",
          "15",
          "72",
          "73",
          "74",
          "75",
          "203",
          "204",
          "205"
        ],
        "position": 1,
        "effect": "物理攻击+225",
        "buff": "圣属性\n普攻时8%概率触发【星陨】，使目标及范围内目标受到圣属性伤害\n精炼每+1，剑士系普通攻击伤害+5%，【星陨】伤害+5%",
        "isCompose": 0,
        "isUpgrade": 0,
        "isHigh": 0,
        "canSlot": 1,
        "canUpgrade": 1
      },
      {
        "id": "40308",
        "name": "多刃尖刺刀[1]",
        "icon": "item_40308",
        "rank": 3,
        "job": [
          "12",
          "13",
          "14",
          "15",
          "72",
          "73",
          "74",
          "75",
          "143",
          "144",
          "145",
          "203",
          "204",
          "205"
        ],
        "position": 1,
        "effect": "物理攻击+200",
        "buff": "力量+5\n灵巧+10\n习得【狂击】10级时，【狂击】伤害增加100%\n习得【怪物互击】10级时，【怪物互击】伤害增加100%\n习得【狂击】10级时，【狂击】对中体型魔物时额外增加50%伤害",
        "isCompose": 0,
        "isUpgrade": 1,
        "isHigh": 0,
        "canSlot": 1,
        "canUpgrade": 1
      },
      {
        "id": "40317",
        "name": "秘剑眷恋[1]",
        "icon": "item_40317",
        "rank": 3,
        "job": [
          "11",
          "12",
          "13",
          "14",
          "15",
          "72",
          "73",
          "74",
          "75",
          "164",
          "165",
          "203",
          "204",
          "205"
        ],
        "position": 1,
        "effect": "物理攻击+126",
        "buff": "暴击+10\n装备攻速+5%",
        "isCompose": 1,
        "isUpgrade": 0,
        "isHigh": 0,
        "canSlot": 1,
        "canUpgrade": 1
      },
      {
        "id": "40314",
        "name": "生鱼片刀[1]",
        "icon": "item_40314",
        "rank": 3,
        "job": [
          "11",
          "12",
          "13",
          "14",
          "15",
          "72",
          "73",
          "74",
          "75",
          "143",
          "144",
          "145",
          "203",
          "204",
          "205"
        ],
        "position": 1,
        "effect": "物理攻击+162",
        "buff": "力量+5\n物理防御+40\n力量在75以上时，物理攻击+5%\n普攻一定概率对目标造成高倍率的属性物理伤害",
        "isCompose": 0,
        "isUpgrade": 1,
        "isHigh": 0,
        "canSlot": 1,
        "canUpgrade": 0
      }
    ]
  }
}