{
  "code": 0,
  "status": "success",
  "timeStamp": 1643703335,
  "staticDomain": "http:\/\/rosc1.zhaiwuyu.com",
  "ip": "101.87.201.112",
  "language": "cn",
  "dbArea": 0,
  "data": {
    "page": 34,
    "pageSize": 10,
    "pageCount": 77,
    "total": 765,
    "list": [
      {
        "id": "44057",
        "name": "不朽之戒",
        "icon": "item_44057",
        "rank": 4,
        "job": [
          "0"
        ],
        "position": 6,
        "effect": "物理攻击+224",
        "buff": "体质+12\n生命上限+3%\n精炼+8时，生命上限+2%；精炼+12时，生命上限+3%；精炼+15时，生命上限+4%",
        "isCompose": 0,
        "isUpgrade": 0,
        "isHigh": 1,
        "canSlot": 0,
        "canUpgrade": 0
      },
      {
        "id": "44056",
        "name": "契约之戒",
        "icon": "item_44056",
        "rank": 4,
        "job": [
          "0"
        ],
        "position": 6,
        "effect": "物理攻击+224",
        "buff": "力量+12\n物理攻击+3%\n精炼+8时，物理攻击+2%；精炼+12时，物理攻击+3%；精炼+15时，物理攻击+4%",
        "isCompose": 0,
        "isUpgrade": 0,
        "isHigh": 1,
        "canSlot": 0,
        "canUpgrade": 0
      },
      {
        "id": "44055",
        "name": "焰翎",
        "icon": "item_44055",
        "rank": 4,
        "job": [
          "0"
        ],
        "position": 6,
        "effect": "魔法攻击+200",
        "buff": "智力+12\n火属性攻击+10%\n精炼+8时，可变吟唱时间-10%；精炼+12时，火属性攻击+4%；精炼+15时，火属性攻击+6%",
        "isCompose": 0,
        "isUpgrade": 0,
        "isHigh": 1,
        "canSlot": 0,
        "canUpgrade": 0
      },
      {
        "id": "44054",
        "name": "第七感",
        "icon": "item_44054",
        "rank": 4,
        "job": [
          "0"
        ],
        "position": 6,
        "effect": "物理攻击+224",
        "buff": "敏捷+12\n装备攻速+6%\n精炼+8时，装备攻速+3%；精炼+12时，装备攻速+6%；精炼+15时，装备攻速+6%",
        "isCompose": 0,
        "isUpgrade": 0,
        "isHigh": 1,
        "canSlot": 0,
        "canUpgrade": 0
      },
      {
        "id": "44053",
        "name": "狐牙",
        "icon": "item_44053",
        "rank": 4,
        "job": [
          "0"
        ],
        "position": 6,
        "effect": "物理攻击+224",
        "buff": "全能力+1\n可以使用【疾走】技能（提升移速100%，持续5秒。CD：60）\n精炼+10时，【疾走】技能的持续时间增加1秒，【疾走】技能冷却时间减少5秒（不可叠加）；精炼+15时，【疾走】技能的持续时间增加2秒，【疾走】技能冷却时间减少5秒（不可叠加）",
        "isCompose": 0,
        "isUpgrade": 0,
        "isHigh": 1,
        "canSlot": 0,
        "canUpgrade": 0
      },
      {
        "id": "44052",
        "name": "犬奴",
        "icon": "item_44052",
        "rank": 4,
        "job": [
          "0"
        ],
        "position": 6,
        "effect": "物理攻击+224",
        "buff": "灵巧+12\n恶魔种族加伤+5%、动物种族加伤+5%\n精炼+8时，远程物理攻击+2%；精炼+12时，远程物理伤害+4%；精炼+15时，远程物理攻击+4%",
        "isCompose": 0,
        "isUpgrade": 0,
        "isHigh": 1,
        "canSlot": 0,
        "canUpgrade": 0
      },
      {
        "id": "44051",
        "name": "克拉肯之眼",
        "icon": "item_44051",
        "rank": 4,
        "job": [
          "0"
        ],
        "position": 6,
        "effect": "魔法攻击+200",
        "buff": "灵巧+10、智力+10\nSp恢复+5%\n精炼+10时，魔法攻击+10%，再每精炼+1，魔法攻击+1%（总计5%）；精炼+12时，忽视魔法防御+5%，可变吟唱时间-5%；精炼+15时，魔法攻击+5%\n【大巫师之杖Ⅷ】（【巫师之力】）+【创作者外袍Ⅷ】（【碎星者外袍】）+【永恒戒指Ⅷ】（【克拉肯之眼】）+【水晶靴Ⅳ】（【白宝石之靴】）：可变吟唱时间-5%，魔法伤害+3%，忽视魔法防御+3%",
        "isCompose": 0,
        "isUpgrade": 0,
        "isHigh": 1,
        "canSlot": 0,
        "canUpgrade": 0
      },
      {
        "id": "44050",
        "name": "皎月",
        "icon": "item_44050",
        "rank": 4,
        "job": [
          "0"
        ],
        "position": 6,
        "effect": "物理攻击+224",
        "buff": "智力+8、灵巧+8\n魔法上限+405\nSp恢复+10\nSP恢复+25%\n【定位陷阱】使目标定身时受到伤害+10%\n每精炼+1，所有陷阱类技能的伤害+2%\n【露娜弓Ⅵ】+【月亮胸针Ⅵ】（或【皎月】）：智力+2，SP恢复+10%\n【星尘外套Ⅳ】+【皎月】：猎人陷阱类技能的伤害+10%",
        "isCompose": 0,
        "isUpgrade": 0,
        "isHigh": 1,
        "canSlot": 0,
        "canUpgrade": 0
      },
      {
        "id": "44049",
        "name": "提伯斯之手",
        "icon": "item_44049",
        "rank": 4,
        "job": [
          "0"
        ],
        "position": 6,
        "effect": "魔法攻击+200",
        "buff": "灵巧+8、智力+8\n魔法攻击+13%\n精炼+8时，魔法攻击+3%；精炼+12时，魔法攻击+4%；精炼+15时，忽视魔法防御+8%",
        "isCompose": 0,
        "isUpgrade": 0,
        "isHigh": 1,
        "canSlot": 0,
        "canUpgrade": 0
      },
      {
        "id": "44048",
        "name": "提伯斯的救赎",
        "icon": "item_44048",
        "rank": 4,
        "job": [
          "0"
        ],
        "position": 6,
        "effect": "魔法攻击+200",
        "buff": "灵巧+8、智力+8\n魔法攻击+80\n精炼+5时，灵巧+4、魔法攻击+40、可变吟唱时间-5%；精炼+10时，魔法攻击+8%、可变吟唱时间-5%；精炼+15时，可变吟唱时间-20%、魔法攻击+80",
        "isCompose": 0,
        "isUpgrade": 0,
        "isHigh": 1,
        "canSlot": 0,
        "canUpgrade": 0
      }
    ]
  }
}