{
  "code": 0,
  "status": "success",
  "timeStamp": 1643703032,
  "staticDomain": "http:\/\/rosc1.zhaiwuyu.com",
  "ip": "101.87.201.112",
  "language": "cn",
  "dbArea": 0,
  "data": {
    "page": 4,
    "pageSize": 10,
    "pageCount": 77,
    "total": 765,
    "list": [
      {
        "id": "43084",
        "name": "荣耀肩章",
        "icon": "item_43084",
        "rank": 4,
        "job": [
          "0"
        ],
        "position": 4,
        "effect": "物理防御+100",
        "buff": "体质+10\n生命上限+3000\n生命上限+4%、生命上限+3000；精炼+10时，生命上限+4%；精炼+15时，生命上限+4%",
        "isCompose": 0,
        "isUpgrade": 0,
        "isHigh": 0,
        "canSlot": 0,
        "canUpgrade": 0,
        "randomBuff": "技能伤害减免+12%\n普攻伤害减免+12%\n物伤减免+15%\n魔伤减免+15%\n物理防御+24%\n魔法防御+24%\nPVP\/GVG中受玩家伤害-7.5%"
      },
      {
        "id": "43081",
        "name": "钻石流苏",
        "icon": "item_43081",
        "rank": 4,
        "job": [
          "0"
        ],
        "position": 4,
        "effect": "物理防御+100",
        "buff": "力量+10、灵巧+10、敏捷+10\n生命上限+2000\n装备攻速+15%；精炼+10时，装备攻速+7.5%；精炼+15时，装备攻速+7.5%",
        "isCompose": 0,
        "isUpgrade": 0,
        "isHigh": 0,
        "canSlot": 0,
        "canUpgrade": 0,
        "randomBuff": "普攻伤害+12%\n普攻伤害减免+12%\n技能伤害减免+12%\n生命上限+12%\n物理防御+24%\n魔法防御+24%\nPVP\/GVG中受玩家伤害-7.5%"
      },
      {
        "id": "43078",
        "name": "领袖肩甲",
        "icon": "item_43078",
        "rank": 4,
        "job": [
          "0"
        ],
        "position": 4,
        "effect": "物理防御+100",
        "buff": "力量+10\n生命上限+2000\n忽视物理防御+12%；精炼+10时，忽视物理防御+6%；精炼+15时，忽视物理防御+6%",
        "isCompose": 0,
        "isUpgrade": 0,
        "isHigh": 0,
        "canSlot": 0,
        "canUpgrade": 0,
        "randomBuff": "技能伤害+12%\n普攻伤害减免+12%\n技能伤害减免+12%\n生命上限+12%\n物理防御+24%\n魔法防御+24%\nPVP\/GVG中受玩家伤害-7.5%"
      },
      {
        "id": "43072",
        "name": "皇家骑士披风",
        "icon": "item_43072",
        "rank": 4,
        "job": [
          "0"
        ],
        "position": 4,
        "effect": "物理防御+100",
        "buff": "幸运+20、暴击+5\n生命上限+2000\n暴击伤害+15%；精炼+10时，暴击伤害+7.5%；精炼+15时，暴击伤害+7.5%",
        "isCompose": 0,
        "isUpgrade": 0,
        "isHigh": 0,
        "canSlot": 0,
        "canUpgrade": 0,
        "randomBuff": "普攻伤害+12%\n普攻伤害减免+12%\n技能伤害减免+12%\n生命上限+12%\n物理防御+24%\n魔法防御+24%\nPVP\/GVG中受玩家伤害-7.5%"
      },
      {
        "id": "64203",
        "name": "彼岸之钥[1]",
        "icon": "item_64203",
        "rank": 4,
        "job": [
          "183",
          "184",
          "185"
        ],
        "position": 1,
        "effect": "魔法攻击+405",
        "buff": "智力+10、体质+10\n生命上限+15%\n受到大型魔物伤害-10%\n每精炼+1，人形种族减伤+1%\n精炼+5时，受到小型魔物伤害-10%；精炼+10时，受到中型魔物伤害-10%；精炼+15时，受到大、中、小型魔物伤害-10%",
        "isCompose": 0,
        "isUpgrade": 0,
        "isHigh": 1,
        "canSlot": 0,
        "canUpgrade": 0
      },
      {
        "id": "64202",
        "name": "往生之刃[1]",
        "icon": "item_64202",
        "rank": 3,
        "job": [
          "183",
          "184",
          "185"
        ],
        "position": 1,
        "effect": "魔法攻击+105",
        "buff": "智力+4、体质+4\n生命上限+5%\n受到大型魔物伤害-5%\n每精炼+1，人形种族减伤+1%",
        "isCompose": 1,
        "isUpgrade": 0,
        "isHigh": 0,
        "canSlot": 1,
        "canUpgrade": 1
      },
      {
        "id": "64201",
        "name": "万灵渊噬[1]",
        "icon": "item_64201",
        "rank": 4,
        "job": [
          "183",
          "184",
          "185"
        ],
        "position": 1,
        "effect": "魔法攻击+420",
        "buff": "智力+10、幸运+10\n念属性攻击+15%\n每精炼+1，魔法攻击+2%\n对大型魔物伤害+15%\n精炼+5时，忽视魔法防御+5%；精炼+10时，忽视魔法防御+5%；精炼+15时，魔法伤害+8%",
        "isCompose": 0,
        "isUpgrade": 0,
        "isHigh": 1,
        "canSlot": 0,
        "canUpgrade": 0
      },
      {
        "id": "64200",
        "name": "暴噬之刃[1]",
        "icon": "item_64200",
        "rank": 3,
        "job": [
          "183",
          "184",
          "185"
        ],
        "position": 1,
        "effect": "魔法攻击+110",
        "buff": "智力+4、幸运+4\n念属性攻击+15%\n每精炼+1，魔法攻击+2%",
        "isCompose": 1,
        "isUpgrade": 0,
        "isHigh": 0,
        "canSlot": 1,
        "canUpgrade": 1
      },
      {
        "id": "44136",
        "name": "虚无之晶",
        "icon": "item_44136",
        "rank": 3,
        "job": [
          "0"
        ],
        "position": 6,
        "effect": "物理攻击+224",
        "buff": "力量+8、灵巧+8\n忽视物理防御+3%；精炼+12时，忽视物理防御+3%；精炼+15时，忽视物理防御+3%",
        "isCompose": 0,
        "isUpgrade": 0,
        "isHigh": 0,
        "canSlot": 0,
        "canUpgrade": 0,
        "randomBuff": "物理伤害+4.5%\n物伤减免+9%\n魔伤减免+9%\n生命上限+6%\n物理防御+12%\n魔法防御+12%"
      },
      {
        "id": "44135",
        "name": "透明晶块",
        "icon": "item_44022",
        "rank": 2,
        "job": [
          "0"
        ],
        "position": 6,
        "effect": "物理攻击+224",
        "buff": "力量+8、灵巧+8\n忽视物理防御+3%；精炼+12时，忽视物理防御+3%；精炼+15时，忽视物理防御+3%",
        "isCompose": 0,
        "isUpgrade": 0,
        "isHigh": 0,
        "canSlot": 0,
        "canUpgrade": 0
      }
    ]
  }
}