{
  "code": 0,
  "status": "success",
  "timeStamp": 1643703509,
  "staticDomain": "http:\/\/rosc1.zhaiwuyu.com",
  "ip": "101.87.201.112",
  "language": "cn",
  "dbArea": 0,
  "data": {
    "page": 51,
    "pageSize": 10,
    "pageCount": 77,
    "total": 765,
    "list": [
      {
        "id": "41241",
        "name": "凛冬结晶",
        "icon": "item_41241",
        "rank": 4,
        "job": [
          "42",
          "43",
          "44",
          "45",
          "92",
          "93",
          "94",
          "95"
        ],
        "position": 14,
        "effect": "物理攻击+450",
        "buff": "灵巧+18\n敏捷+12\n全能力+8\n暴击+50\n暴击伤害+30%\n人形种族伤害+30%\n生命上限+16000",
        "isCompose": 1,
        "isUpgrade": 0,
        "isHigh": 0,
        "canSlot": 0,
        "canUpgrade": 0
      },
      {
        "id": "40934",
        "name": "万物安息·神铸",
        "icon": "item_40933",
        "rank": 4,
        "job": [
          "32",
          "33",
          "34",
          "35"
        ],
        "position": 14,
        "effect": "物理攻击+2400",
        "buff": "力量+20\n幸运+10\n全能力+20\n暴击+35\n暴击伤害+24%\n人形种族伤害+50%\n生命上限+30000\n物伤减免+10%，魔伤减免+10%\n万物安息拥有无声无息暗杀的特殊能力，使用万物安息的暗杀者们总是能够神不知鬼不觉的完成暗杀任务。万物安息可以使5米范围内所有友方都获得【幻境保护】效果。【幻境保护】：进入隐匿的状态，无法被直接看到，持续15秒，CD：135秒。【幻境保护】状态下不会被范围技能攻击而解除状态，但是伤害及异常状态依然可以击中【幻境保护】状态下的玩家。攻击目标后隐身状态解除",
        "isCompose": 1,
        "isUpgrade": 0,
        "isHigh": 0,
        "canSlot": 0,
        "canUpgrade": 0
      },
      {
        "id": "40933",
        "name": "万物安息·精锻",
        "icon": "item_40933",
        "rank": 4,
        "job": [
          "32",
          "33",
          "34",
          "35"
        ],
        "position": 14,
        "effect": "物理攻击+1800",
        "buff": "力量+20\n幸运+10\n全能力+14\n暴击+35\n暴击伤害+20%\n人形种族伤害+40%\n生命上限+23000\n物伤减免+5%，魔伤减免+5%\n万物安息拥有无声无息暗杀的特殊能力，使用万物安息的暗杀者们总是能够神不知鬼不觉的完成暗杀任务。万物安息可以使5米范围内所有友方都获得【幻境保护】效果。【幻境保护】：进入隐匿的状态，无法被直接看到，持续8秒，CD：200秒。【幻境保护】状态下不会被范围技能攻击而解除状态，但是伤害及异常状态依然可以击中【幻境保护】状态下的玩家。攻击目标后隐身状态解除。",
        "isCompose": 1,
        "isUpgrade": 0,
        "isHigh": 0,
        "canSlot": 0,
        "canUpgrade": 0
      },
      {
        "id": "40932",
        "name": "万物安息",
        "icon": "item_40932",
        "rank": 4,
        "job": [
          "32",
          "33",
          "34",
          "35"
        ],
        "position": 14,
        "effect": "物理攻击+1200",
        "buff": "力量+20\n幸运+10\n全能力+8\n暴击+35\n暴击伤害+16%\n人形种族伤害+30%\n生命上限+16000",
        "isCompose": 1,
        "isUpgrade": 0,
        "isHigh": 0,
        "canSlot": 0,
        "canUpgrade": 0
      },
      {
        "id": "40754",
        "name": "银槲之剑·神铸",
        "icon": "item_40754",
        "rank": 4,
        "job": [
          "12",
          "13",
          "14",
          "15",
          "32",
          "33",
          "34",
          "35",
          "72",
          "73",
          "74",
          "75",
          "92",
          "93",
          "94",
          "95",
          "152",
          "153",
          "154",
          "155",
          "203",
          "204",
          "205"
        ],
        "position": 14,
        "effect": "物理攻击+1030",
        "buff": "力量+18\n体质+12\n全能力+20\n命中+50\n物理攻击+48%\n人形种族伤害+50%\n生命上限+32000\n物伤减免+10%，魔伤减免+10%\n银槲之剑施放虚无力量可能让使用者在【虚无空间】内进行短距离瞬移。【虚无空间】：玩家可以瞬间移动至6米范围内任何位置，银槲之剑的力量将可以使玩家在第一次使用后的6秒内使用第二次虚无空间（使用后1秒内不能连续使用）。不过虚无空间的力量过于强大，每次使用后都会在原位置残存虚无空间的能量。残存的能量能被所有人察觉。每次使用【虚无空间】后都会将玩家进入【虚空隐匿】状态，【虚空隐匿】会让使用者进入隐匿，持续5秒。【虚空隐匿】状态下首次攻击提升60%伤害，CD：60秒。",
        "isCompose": 1,
        "isUpgrade": 0,
        "isHigh": 0,
        "canSlot": 0,
        "canUpgrade": 0
      },
      {
        "id": "40753",
        "name": "银槲之剑·精锻",
        "icon": "item_40753",
        "rank": 4,
        "job": [
          "12",
          "13",
          "14",
          "15",
          "32",
          "33",
          "34",
          "35",
          "72",
          "73",
          "74",
          "75",
          "92",
          "93",
          "94",
          "95",
          "152",
          "153",
          "154",
          "155",
          "203",
          "204",
          "205"
        ],
        "position": 14,
        "effect": "物理攻击+755",
        "buff": "力量+18\n体质+12\n全能力+14\n命中+50\n物理攻击+36%\n人形种族伤害+40%\n生命上限+23500\n物伤减免+5%，魔伤减免+5%\n银槲之剑施放虚无力量可能让使用者在【虚无空间】内进行短距离瞬移。【虚无空间】：玩家可以瞬间移动至6米范围内任何位置，银槲之剑的力量将可以使玩家在第一次使用后的6秒内使用第二次虚无空间（使用后1秒内不能连续使用）。不过虚无空间的力量过于强大，每次使用后都会在原位置残存虚无空间的能量。残存的能量能被所有人察觉。每次使用【虚无空间】后都会将玩家进入【虚空隐匿】状态，【虚空隐匿】会让使用者进入隐匿，持续5秒。【虚空隐匿】状态下首次攻击提升30%伤害，CD：90秒。",
        "isCompose": 1,
        "isUpgrade": 0,
        "isHigh": 0,
        "canSlot": 0,
        "canUpgrade": 0
      },
      {
        "id": "40752",
        "name": "银槲之剑",
        "icon": "item_40752",
        "rank": 4,
        "job": [
          "12",
          "13",
          "14",
          "15",
          "32",
          "33",
          "34",
          "35",
          "72",
          "73",
          "74",
          "75",
          "92",
          "93",
          "94",
          "95",
          "152",
          "153",
          "154",
          "155",
          "203",
          "204",
          "205"
        ],
        "position": 14,
        "effect": "物理攻击+480",
        "buff": "力量+18\n体质+12\n全能力+8\n命中+50\n物理攻击+24%\n人形种族伤害+30%\n生命上限+15000",
        "isCompose": 1,
        "isUpgrade": 0,
        "isHigh": 0,
        "canSlot": 0,
        "canUpgrade": 0
      },
      {
        "id": "40649",
        "name": "金枝·神铸",
        "icon": "item_40649",
        "rank": 4,
        "job": [
          "22",
          "23",
          "24",
          "25",
          "52",
          "53",
          "54",
          "55",
          "143",
          "144",
          "145",
          "152",
          "153",
          "154",
          "155",
          "183",
          "184",
          "185",
          "223",
          "224",
          "225"
        ],
        "position": 14,
        "effect": "魔法攻击+700",
        "buff": "智力+18\n体质+12\n全能力+20\n治疗加成+15%\n所有技能SP消耗-10%\n魔法攻击+25%\n忽视魔法防御+35%\n人形种族伤害+50%\n生命上限+28000\n物伤减免+10%，魔伤减免+10%\n金枝中散发出天地树之力量，使16米范围内所有阵亡的友方目标全部复活，并恢复被复活目标100%MaxHp。该效果不受GVG中复活时间限制。CD：135秒",
        "isCompose": 1,
        "isUpgrade": 0,
        "isHigh": 0,
        "canSlot": 0,
        "canUpgrade": 0
      },
      {
        "id": "40648",
        "name": "万神的注视·神铸",
        "icon": "item_40648",
        "rank": 4,
        "job": [
          "22",
          "23",
          "24",
          "25",
          "52",
          "53",
          "54",
          "55",
          "82",
          "83",
          "84",
          "85",
          "143",
          "144",
          "145",
          "152",
          "153",
          "154",
          "155",
          "183",
          "184",
          "185",
          "223",
          "224",
          "225"
        ],
        "position": 14,
        "effect": "魔法攻击+700",
        "buff": "智力+20\n灵巧+10\n全能力+20\n提升15%法师系范围型技能伤害\n可变吟唱时间-5%\n魔法攻击+50%\n人形种族伤害+50%\n生命上限+26500\n物伤减免+10%，魔伤减免+10%\n万神赐予众生无比的智慧及爱护，使范围8米内的所有友方获得【万神的眷顾】效果。【万神的眷顾】：所有吟唱不会被打断，所有技能可变吟唱缩减100%，所有技能固定吟唱时间减少100%，持续8秒，CD：90秒",
        "isCompose": 1,
        "isUpgrade": 0,
        "isHigh": 0,
        "canSlot": 0,
        "canUpgrade": 0
      },
      {
        "id": "40647",
        "name": "金枝·精锻",
        "icon": "item_40647",
        "rank": 4,
        "job": [
          "22",
          "23",
          "24",
          "25",
          "52",
          "53",
          "54",
          "55",
          "143",
          "144",
          "145",
          "152",
          "153",
          "154",
          "155",
          "183",
          "184",
          "185",
          "223",
          "224",
          "225"
        ],
        "position": 14,
        "effect": "魔法攻击+500",
        "buff": "智力+18\n体质+12\n全能力+14\n治疗加成+15%\n所有技能SP消耗-10%\n魔法攻击+20%\n忽视魔法防御+25%\n人形种族伤害+40%\n生命上限+21000\n物伤减免+5%，魔伤减免+5%\n金枝中散发出天地树之力量，使12米范围内所有阵亡的友方目标全部复活，并恢复被复活目标60%生命上限。该效果不受GVG中复活时间限制。CD：200秒",
        "isCompose": 1,
        "isUpgrade": 0,
        "isHigh": 0,
        "canSlot": 0,
        "canUpgrade": 0
      }
    ]
  }
}