{
  "code": 0,
  "status": "success",
  "timeStamp": 1642843426,
  "staticDomain": "http:\/\/rosc1.zhaiwuyu.com",
  "ip": "101.87.200.160",
  "language": "cn",
  "dbArea": 0,
  "data": {
    "page": 24,
    "pageSize": 10,
    "pageCount": 74,
    "total": 731,
    "list": [
      {
        "id": "42605",
        "name": "手臂防护具",
        "icon": "item_42605",
        "rank": 3,
        "job": [
          "163",
          "164",
          "165"
        ],
        "position": 2,
        "effect": "物理防御+46",
        "buff": "魔法防御+40\n移动速度+3%\n近战物理伤害+10%",
        "isCompose": 1,
        "isUpgrade": 0,
        "isHigh": 0,
        "canSlot": 1,
        "canUpgrade": 1
      },
      {
        "id": "42521",
        "name": "阴影守护",
        "icon": "item_42521",
        "rank": 3,
        "job": [
          "0"
        ],
        "position": 2,
        "effect": "物理防御+132",
        "buff": "体质+8\n闪避+20\n物理防御+15%\n每精炼+1，物理防御+1%\n受到攻击时，有5%概率使攻击者陷入不可解除的黑暗状态，持续3秒",
        "isCompose": 0,
        "isUpgrade": 0,
        "isHigh": 0,
        "canSlot": 1,
        "canUpgrade": 0
      },
      {
        "id": "42126",
        "name": "魔光茧织",
        "icon": "item_42126",
        "rank": 3,
        "job": [
          "21",
          "22",
          "23",
          "24",
          "25",
          "82",
          "83",
          "84",
          "85",
          "183",
          "184",
          "185",
          "223",
          "224",
          "225"
        ],
        "position": 3,
        "effect": "物理防御+196",
        "buff": "敏捷+20\n生命上限+3000\n魔法防御+20\n受到水属性伤害-25%\n魔法防御+10%\n每精炼+1，物理防御+1%\n法术普攻暴击伤害+10%\n每精炼+1，法术普攻暴击伤害+1%\n精炼+15时，法术普攻暴击伤害+5%\n精炼+8开始，每精炼+1，魔法穿刺+1%（总计8%）\n【防水靴Ⅵ】（蜉蝣长靴）+【丝质外袍Ⅵ】（魔光茧织）：普通攻击10%概率使目标变成水属性，持续10秒",
        "isCompose": 0,
        "isUpgrade": 0,
        "isHigh": 1,
        "canSlot": 0,
        "canUpgrade": 0
      },
      {
        "id": "42125",
        "name": "生命之环",
        "icon": "item_42125",
        "rank": 3,
        "job": [
          "0"
        ],
        "position": 3,
        "effect": "物理防御+105",
        "buff": "体质+8\n生命上限+5000\nHP恢复+50%\n每精炼+1，生命上限+1000，HP恢复+10%\n自身血量低于30%时，HP恢复+100%",
        "isCompose": 0,
        "isUpgrade": 0,
        "isHigh": 0,
        "canSlot": 1,
        "canUpgrade": 0
      },
      {
        "id": "40688",
        "name": "混沌之手[1]",
        "icon": "item_40688",
        "rank": 4,
        "job": [
          "223",
          "224",
          "225"
        ],
        "position": 1,
        "effect": "魔法攻击+418",
        "buff": "智力+18\n魔法攻击+10%\n每精炼+1，忽视魔法防御+2%\n提升15%魔语者系范围型技能伤害\n每精炼+1，提升1%魔语者系范围型技能伤害\n精炼+5时，忽视魔法防御+5%；精炼+10时，魔法伤害+5%；精炼+15时，魔法伤害+5%",
        "isCompose": 0,
        "isUpgrade": 0,
        "isHigh": 1,
        "canSlot": 0,
        "canUpgrade": 0
      },
      {
        "id": "40687",
        "name": "咒言护手[1]",
        "icon": "item_40687",
        "rank": 4,
        "job": [
          "223",
          "224",
          "225"
        ],
        "position": 1,
        "effect": "魔法攻击+110",
        "buff": "智力+4\n魔法攻击+10%\n每精炼+1，忽视魔法防御+2%\n提升10%魔语者系范围型技能伤害",
        "isCompose": 1,
        "isUpgrade": 0,
        "isHigh": 0,
        "canSlot": 1,
        "canUpgrade": 1
      },
      {
        "id": "40625",
        "name": "毁灭之杖[1]",
        "icon": "item_40625",
        "rank": 4,
        "job": [
          "1",
          "21",
          "22",
          "23",
          "24",
          "25",
          "51",
          "52",
          "53",
          "54",
          "55",
          "151",
          "152",
          "153",
          "154",
          "155",
          "183",
          "184",
          "185",
          "223",
          "224",
          "225"
        ],
        "position": 1,
        "effect": "魔法攻击+308",
        "buff": "智力+8\n可变吟唱-15%\n每精炼+1，魔法攻击+2%，使用技能Sp消耗量+1%\n精炼+10时，自身SP每减少10%，最终伤害+1%",
        "isCompose": 0,
        "isUpgrade": 0,
        "isHigh": 0,
        "canSlot": 1,
        "canUpgrade": 0
      },
      {
        "id": "44605",
        "name": "风魔手里剑-疾影[1]",
        "icon": "item_44605",
        "rank": 4,
        "job": [
          "163",
          "164",
          "165"
        ],
        "position": 1,
        "effect": "物理攻击+610",
        "buff": "力量+18、命中+50\n忽视物理防御+5%\n每精炼+1，移动速度+1%；每精炼+1，【风魔飞镖扔】伤害+2%\n精炼+5时，忽视物理防御+5%；精炼+10时，忽视物理防御+10%；精炼+15时，物理伤害+5%",
        "isCompose": 0,
        "isUpgrade": 0,
        "isHigh": 1,
        "canSlot": 0,
        "canUpgrade": 0
      },
      {
        "id": "44604",
        "name": "风魔手里剑[1]",
        "icon": "item_44604",
        "rank": 3,
        "job": [
          "163",
          "164",
          "165"
        ],
        "position": 1,
        "effect": "物理攻击+175",
        "buff": "力量+4、命中+20\n忽视物理防御+5%\n每精炼+1，【风魔飞镖扔】伤害+1%",
        "isCompose": 1,
        "isUpgrade": 0,
        "isHigh": 0,
        "canSlot": 1,
        "canUpgrade": 1
      },
      {
        "id": "44603",
        "name": "妖刀-村正[1]",
        "icon": "item_44603",
        "rank": 4,
        "job": [
          "164",
          "165"
        ],
        "position": 1,
        "effect": "物理攻击+625",
        "buff": "力量+12、暴击+20\n物理攻击+5%\n每精炼+1，移动速度+1%；每精炼+1，【流刃】伤害+3%\n精炼+5时，物理攻击+5%；精炼+10时，近战物理伤害+5%；精炼+15时，近战物理伤害+5%",
        "isCompose": 0,
        "isUpgrade": 0,
        "isHigh": 1,
        "canSlot": 0,
        "canUpgrade": 0
      }
    ]
  }
}