{
  "code": 0,
  "status": "success",
  "timeStamp": 1642843719,
  "staticDomain": "http:\/\/rosc1.zhaiwuyu.com",
  "ip": "101.87.200.160",
  "language": "cn",
  "dbArea": 0,
  "data": {
    "page": 53,
    "pageSize": 10,
    "pageCount": 74,
    "total": 731,
    "list": [
      {
        "id": "62503",
        "name": "虎爪拳套[1]",
        "icon": "item_62503",
        "rank": 3,
        "job": [
          "122",
          "123",
          "124",
          "125"
        ],
        "position": 1,
        "effect": "物理攻击+202",
        "buff": "力量+3\n精炼+5，+10时，物理攻击+5%，+10%",
        "isCompose": 1,
        "isUpgrade": 0,
        "isHigh": 0,
        "canSlot": 1,
        "canUpgrade": 1
      },
      {
        "id": "42539",
        "name": "坚固盾牌",
        "icon": "item_42539",
        "rank": 3,
        "job": [
          "12",
          "13",
          "14",
          "15",
          "72",
          "73",
          "74",
          "75",
          "203",
          "204",
          "205"
        ],
        "position": 2,
        "effect": "物理防御+46",
        "buff": "体质+5\n魔法防御+15\n受到来自【牺牲】的伤害降低5%",
        "isCompose": 1,
        "isUpgrade": 0,
        "isHigh": 0,
        "canSlot": 1,
        "canUpgrade": 1
      },
      {
        "id": "42060",
        "name": "秘银重型铠甲",
        "icon": "item_42060",
        "rank": 3,
        "job": [
          "72",
          "73",
          "74",
          "75"
        ],
        "position": 3,
        "effect": "物理防御+157",
        "buff": "体质+6\n生命上限+15%\n精炼+5，+10，+15时，受到暴击伤害-5%，-10%，-15%",
        "isCompose": 0,
        "isUpgrade": 1,
        "isHigh": 0,
        "canSlot": 1,
        "canUpgrade": 1
      },
      {
        "id": "42059",
        "name": "秘银金属铠甲",
        "icon": "item_42059",
        "rank": 3,
        "job": [
          "72",
          "73",
          "74",
          "75"
        ],
        "position": 3,
        "effect": "物理防御+90",
        "buff": "体质+2\n生命上限+10%\n精炼+5，+10时，受到暴击伤害-5%，-10%",
        "isCompose": 1,
        "isUpgrade": 0,
        "isHigh": 0,
        "canSlot": 1,
        "canUpgrade": 1
      },
      {
        "id": "41848",
        "name": "鲜血斧[1]",
        "icon": "item_41848",
        "rank": 3,
        "job": [
          "12",
          "13",
          "14",
          "15",
          "62",
          "63",
          "64",
          "65",
          "132",
          "133",
          "134",
          "135",
          "203",
          "204",
          "205",
          "213",
          "214",
          "215"
        ],
        "position": 1,
        "effect": "物理攻击+288",
        "buff": "幸运达到90时物理攻击+100\n灵巧达到90以上时【金钱攻击】伤害+50%\n精炼+5，+10，+15时【金钱攻击】伤害+10%，20%，30%\n使用【金钱攻击】时10%概率暴击使技能造成1.5倍伤害",
        "isCompose": 0,
        "isUpgrade": 1,
        "isHigh": 0,
        "canSlot": 1,
        "canUpgrade": 1
      },
      {
        "id": "40038",
        "name": "青铁柱枪[1]",
        "icon": "item_40038",
        "rank": 3,
        "job": [
          "12",
          "13",
          "14",
          "15",
          "72",
          "73",
          "74",
          "75",
          "203",
          "204",
          "205"
        ],
        "position": 1,
        "effect": "物理攻击+353",
        "buff": "体质+9\n精炼每+1则物理防御+1.5%，魔法防御+1%\n【青铁柱枪Ⅳ】（【圣佑长枪】）+【重靴Ⅷ】+【石制圆盾Ⅳ】（陨坚圆盾）：忽视物理防御+5%、物理攻击+5%",
        "isCompose": 0,
        "isUpgrade": 1,
        "isHigh": 0,
        "canSlot": 1,
        "canUpgrade": 1
      },
      {
        "id": "40034",
        "name": "锥骑枪[1]",
        "icon": "item_40034",
        "rank": 3,
        "job": [
          "11",
          "12",
          "13",
          "14",
          "15",
          "72",
          "73",
          "74",
          "75",
          "203",
          "204",
          "205"
        ],
        "position": 1,
        "effect": "魔法攻击+180\n物理攻击+180",
        "buff": "力量+2\n装备攻速+10%\n圣属性攻击+10%",
        "isCompose": 1,
        "isUpgrade": 0,
        "isHigh": 0,
        "canSlot": 1,
        "canUpgrade": 1
      },
      {
        "id": "40031",
        "name": "重炮长矛[1]",
        "icon": "item_40031",
        "rank": 3,
        "job": [
          "11",
          "12",
          "13",
          "14",
          "15",
          "72",
          "73",
          "74",
          "75",
          "203",
          "204",
          "205"
        ],
        "position": 1,
        "effect": "魔法攻击+270\n物理攻击+270",
        "buff": "力量+8\n装备攻速+15%\n圣属性攻击+20%",
        "isCompose": 0,
        "isUpgrade": 1,
        "isHigh": 0,
        "canSlot": 1,
        "canUpgrade": 1
      },
      {
        "id": "44027",
        "name": "炽焰耳坠",
        "icon": "item_44027",
        "rank": 3,
        "job": [
          "12",
          "13",
          "14",
          "15",
          "22",
          "23",
          "24",
          "25",
          "32",
          "33",
          "34",
          "35",
          "42",
          "43",
          "44",
          "45",
          "52",
          "53",
          "54",
          "55",
          "62",
          "63",
          "64",
          "65",
          "72",
          "73",
          "74",
          "75",
          "82",
          "83",
          "84",
          "85",
          "92",
          "93",
          "94",
          "95",
          "102",
          "103",
          "104",
          "105",
          "112",
          "113",
          "114",
          "115",
          "122",
          "123",
          "124",
          "125",
          "132",
          "133",
          "134",
          "135",
          "143",
          "144",
          "145",
          "152",
          "153",
          "154",
          "155",
          "163",
          "164",
          "165",
          "173",
          "174",
          "175",
          "183",
          "184",
          "185",
          "203",
          "204",
          "205",
          "213",
          "214",
          "215",
          "223",
          "224",
          "225"
        ],
        "position": 6,
        "effect": "魔法攻击+80",
        "buff": "智力+5\n火属性攻击+10%",
        "isCompose": 0,
        "isUpgrade": 1,
        "isHigh": 0,
        "canSlot": 1,
        "canUpgrade": 1
      },
      {
        "id": "44023",
        "name": "防御手套",
        "icon": "item_44023",
        "rank": 3,
        "job": [
          "0"
        ],
        "position": 6,
        "effect": "物理攻击+42",
        "buff": "灵巧+2",
        "isCompose": 0,
        "isUpgrade": 0,
        "isHigh": 0,
        "canSlot": 1,
        "canUpgrade": 1
      }
    ]
  }
}