{
  "code": 0,
  "status": "success",
  "timeStamp": 1643703244,
  "staticDomain": "http:\/\/rosc1.zhaiwuyu.com",
  "ip": "101.87.201.112",
  "language": "cn",
  "dbArea": 0,
  "data": {
    "page": 25,
    "pageSize": 10,
    "pageCount": 77,
    "total": 765,
    "list": [
      {
        "id": "43587",
        "name": "蜉蝣长靴",
        "icon": "item_43587",
        "rank": 4,
        "job": [
          "0"
        ],
        "position": 5,
        "effect": "物理防御+120",
        "buff": "移动速度+13%\n幸运+12\n生命上限+3000\n受到水属性伤害-30%\n法术普攻暴击概率+10%；精炼+5时，法术普攻暴击概率+5%；精炼+10时，法术普攻暴击概率+5%；精炼+15时，法术普攻暴击概率+5%\n【防水靴Ⅵ】（蜉蝣长靴）+【丝质外袍Ⅵ】（魔光茧织）：普通攻击10%概率使目标变成水属性，持续10秒",
        "isCompose": 0,
        "isUpgrade": 0,
        "isHigh": 1,
        "canSlot": 0,
        "canUpgrade": 0
      },
      {
        "id": "43586",
        "name": "生命树之靴",
        "icon": "item_43586",
        "rank": 3,
        "job": [
          "0"
        ],
        "position": 5,
        "effect": "物理防御+90",
        "buff": "体质+6\nHP恢复+10%\n生命上限+5%\n受治疗加成+5%\n每10秒恢复1000点HP",
        "isCompose": 0,
        "isUpgrade": 0,
        "isHigh": 0,
        "canSlot": 1,
        "canUpgrade": 0
      },
      {
        "id": "43585",
        "name": "绿萝藤编鞋",
        "icon": "item_43585",
        "rank": 4,
        "job": [
          "12",
          "13",
          "14",
          "15",
          "22",
          "23",
          "24",
          "25",
          "32",
          "33",
          "34",
          "35",
          "42",
          "43",
          "44",
          "45",
          "52",
          "53",
          "54",
          "55",
          "62",
          "63",
          "64",
          "65",
          "72",
          "73",
          "74",
          "75",
          "82",
          "83",
          "84",
          "85",
          "92",
          "93",
          "94",
          "95",
          "102",
          "103",
          "104",
          "105",
          "112",
          "113",
          "114",
          "115",
          "122",
          "123",
          "124",
          "125",
          "132",
          "133",
          "134",
          "135",
          "143",
          "144",
          "145",
          "152",
          "153",
          "154",
          "155",
          "163",
          "164",
          "165",
          "173",
          "174",
          "175",
          "183",
          "184",
          "185",
          "203",
          "204",
          "205",
          "213",
          "214",
          "215",
          "223",
          "224",
          "225"
        ],
        "position": 5,
        "effect": "物理防御+120",
        "buff": "移动速度+12%\n生命上限+3000\n魔法防御+80\n魔伤减免+8%\n精炼+5时，物伤减免+3%；精炼+10时，物伤减免+5%；精炼+15时，魔伤减免+5%、物伤减免+5%",
        "isCompose": 0,
        "isUpgrade": 0,
        "isHigh": 1,
        "canSlot": 0,
        "canUpgrade": 0
      },
      {
        "id": "43584",
        "name": "皇帝的高筒靴",
        "icon": "item_43584",
        "rank": 4,
        "job": [
          "0"
        ],
        "position": 5,
        "effect": "物理防御+120",
        "buff": "移动速度+12%\n生命上限+2500\n魔法上限+500\n精炼+5时，魔法上限+3%；精炼+10时，魔法上限+4%，生命上限+2%；精炼+15时，魔法上限+5%，生命上限+3%",
        "isCompose": 0,
        "isUpgrade": 0,
        "isHigh": 1,
        "canSlot": 0,
        "canUpgrade": 0
      },
      {
        "id": "43583",
        "name": "精钢长筒靴",
        "icon": "item_43583",
        "rank": 4,
        "job": [
          "12",
          "13",
          "14",
          "15",
          "32",
          "33",
          "34",
          "35",
          "62",
          "63",
          "64",
          "65",
          "72",
          "73",
          "74",
          "75",
          "92",
          "93",
          "94",
          "95",
          "132",
          "133",
          "134",
          "135",
          "143",
          "144",
          "145",
          "163",
          "164",
          "165",
          "173",
          "174",
          "175",
          "203",
          "204",
          "205",
          "213",
          "214",
          "215"
        ],
        "position": 5,
        "effect": "物理防御+120",
        "buff": "移动速度+10%\n体质+12\nHP恢复+15%\n生命上限+3000\n精炼+8时，生命上限+3%；精炼+12时，生命上限+4%；精炼+15时，生命上限+5%",
        "isCompose": 0,
        "isUpgrade": 0,
        "isHigh": 1,
        "canSlot": 0,
        "canUpgrade": 0
      },
      {
        "id": "43582",
        "name": "猪鬃毛长靴",
        "icon": "item_43582",
        "rank": 4,
        "job": [
          "12",
          "13",
          "14",
          "15",
          "22",
          "23",
          "24",
          "25",
          "32",
          "33",
          "34",
          "35",
          "42",
          "43",
          "44",
          "45",
          "52",
          "53",
          "54",
          "55",
          "62",
          "63",
          "64",
          "65",
          "72",
          "73",
          "74",
          "75",
          "82",
          "83",
          "84",
          "85",
          "92",
          "93",
          "94",
          "95",
          "102",
          "103",
          "104",
          "105",
          "112",
          "113",
          "114",
          "115",
          "122",
          "123",
          "124",
          "125",
          "132",
          "133",
          "134",
          "135",
          "143",
          "144",
          "145",
          "152",
          "153",
          "154",
          "155",
          "163",
          "164",
          "165",
          "173",
          "174",
          "175",
          "183",
          "184",
          "185",
          "203",
          "204",
          "205",
          "213",
          "214",
          "215",
          "223",
          "224",
          "225"
        ],
        "position": 5,
        "effect": "物理防御+120",
        "buff": "移动速度+12%\n敏捷+12\n生命上限+2500\n当力量或者灵巧达到225时，物理攻击+3%\n暴击伤害+2%；精炼+8时，暴击伤害+4%；精炼+12时，当敏捷达到150，暴击伤害+6%；精炼+15时，暴击伤害+8%\n【水纹之剑Ⅹ】（【怒涛勇者】）+【野兽之心Ⅷ】（【暴戾之甲】）+【高等布袋熊长靴IV】（【猪鬃毛长靴】）+【衬衫Ⅷ】（【云朵衬衫】）：物理攻击+3%，暴击伤害+3%，攻击速度+5%，生命上限+10%",
        "isCompose": 0,
        "isUpgrade": 0,
        "isHigh": 1,
        "canSlot": 0,
        "canUpgrade": 0
      },
      {
        "id": "43581",
        "name": "白宝石之靴",
        "icon": "item_43581",
        "rank": 4,
        "job": [
          "0"
        ],
        "position": 5,
        "effect": "物理防御+120",
        "buff": "移动速度+10%\n智力+12\n生命上限+2500\n魔法攻击+4%\n精炼+8时，魔法攻击+4%；精炼+12时，魔法攻击+4%；精炼+15时，魔法攻击+6%\n【大巫师之杖Ⅷ】（【巫师之力】）+【创作者外袍Ⅷ】（【碎星者外袍】）+【永恒戒指Ⅷ】（【克拉肯之眼】）+【水晶靴Ⅳ】（【白宝石之靴】）：可变吟唱时间-5%，魔法伤害+3%，忽视魔法防御+3%\n【大猫的祝福Ⅵ】+【白宝石之靴】：火、水、地、风属性攻击+7%",
        "isCompose": 0,
        "isUpgrade": 0,
        "isHigh": 1,
        "canSlot": 0,
        "canUpgrade": 0
      },
      {
        "id": "43580",
        "name": "圣玛丽布鞋",
        "icon": "item_43580",
        "rank": 4,
        "job": [
          "12",
          "13",
          "14",
          "15",
          "22",
          "23",
          "24",
          "25",
          "32",
          "33",
          "34",
          "35",
          "42",
          "43",
          "44",
          "45",
          "52",
          "53",
          "54",
          "55",
          "62",
          "63",
          "64",
          "65",
          "72",
          "73",
          "74",
          "75",
          "82",
          "83",
          "84",
          "85",
          "92",
          "93",
          "94",
          "95",
          "102",
          "103",
          "104",
          "105",
          "112",
          "113",
          "114",
          "115",
          "122",
          "123",
          "124",
          "125",
          "132",
          "133",
          "134",
          "135",
          "143",
          "144",
          "145",
          "152",
          "153",
          "154",
          "155",
          "163",
          "164",
          "165",
          "173",
          "174",
          "175",
          "183",
          "184",
          "185",
          "203",
          "204",
          "205",
          "213",
          "214",
          "215",
          "223",
          "224",
          "225"
        ],
        "position": 5,
        "effect": "物理防御+120",
        "buff": "移动速度+10%\n智力+6、力量+6\n生命上限+2500\n受治疗加成+30%\n物理攻击+3%、魔法攻击+3%\n当精炼到+8时，物理攻击+3%、魔法攻击+3%；当精炼到+12时，物理攻击+4%、魔法攻击+4%；当精炼到+15时，物理攻击+6%、魔法攻击+6%",
        "isCompose": 0,
        "isUpgrade": 0,
        "isHigh": 1,
        "canSlot": 0,
        "canUpgrade": 0
      },
      {
        "id": "43579",
        "name": "小仙女拖鞋",
        "icon": "item_43579",
        "rank": 4,
        "job": [
          "12",
          "13",
          "14",
          "15",
          "32",
          "33",
          "34",
          "35",
          "62",
          "63",
          "64",
          "65",
          "72",
          "73",
          "74",
          "75",
          "92",
          "93",
          "94",
          "95",
          "122",
          "123",
          "124",
          "125",
          "143",
          "144",
          "145",
          "163",
          "164",
          "165",
          "203",
          "204",
          "205",
          "213",
          "214",
          "215"
        ],
        "position": 5,
        "effect": "物理防御+120",
        "buff": "移动速度+12%\n力量+6、体质+6\n生命上限+3000\n物理攻击+2%\n精炼+8时，忽视物理防御+4%；精炼+12时，近战物理伤害+3%；精炼+15时，近战物理伤害+4%",
        "isCompose": 0,
        "isUpgrade": 0,
        "isHigh": 1,
        "canSlot": 0,
        "canUpgrade": 0
      },
      {
        "id": "43578",
        "name": "真理之光长靴",
        "icon": "item_43578",
        "rank": 4,
        "job": [
          "54",
          "55"
        ],
        "position": 5,
        "effect": "物理防御+120",
        "buff": "移动速度+12%\n智力+12\n生命上限+3000\n每精炼+1，圣属性攻击+1%\n精炼+5时，魔法攻击+3%\n精炼+10时，【赞歌】的技能倍率+50%；精炼+15时，【赞歌】的技能倍率+100%，魔法伤害+3%",
        "isCompose": 0,
        "isUpgrade": 0,
        "isHigh": 1,
        "canSlot": 0,
        "canUpgrade": 0
      }
    ]
  }
}