{
  "code": 0,
  "status": "success",
  "timeStamp": 1643703459,
  "staticDomain": "http:\/\/rosc1.zhaiwuyu.com",
  "ip": "101.87.201.112",
  "language": "cn",
  "dbArea": 0,
  "data": {
    "page": 46,
    "pageSize": 10,
    "pageCount": 77,
    "total": 765,
    "list": [
      {
        "id": "40360",
        "name": "天谴[1]",
        "icon": "item_40360",
        "rank": 4,
        "job": [
          "12",
          "13",
          "14",
          "15",
          "72",
          "73",
          "74",
          "75",
          "203",
          "204",
          "205"
        ],
        "position": 1,
        "effect": "物理攻击+625",
        "buff": "圣属性\n命中+25\n智力+4、力量+8\n物理攻击+5%\n普攻时8%概率触发【星陨】，使目标及范围内目标受到圣属性伤害\n使用【舍命攻击】时，触发神圣复仇者附加技能的概率提升到40%，降低【舍命攻击】每次生命损失2%\n精炼每+1，剑士系普通攻击伤害+5%，【星陨】伤害+5%\n精炼+5时，暴击+5、暴击伤害+3%；精炼+10时，暴击+5、暴击伤害+5%；精炼+15时，暴击+5、暴击伤害+7%",
        "isCompose": 0,
        "isUpgrade": 0,
        "isHigh": 1,
        "canSlot": 0,
        "canUpgrade": 0
      },
      {
        "id": "40359",
        "name": "狂怒之刃[1]",
        "icon": "item_40359",
        "rank": 4,
        "job": [
          "12",
          "13",
          "14",
          "15",
          "72",
          "73",
          "74",
          "75",
          "143",
          "144",
          "145",
          "203",
          "204",
          "205"
        ],
        "position": 1,
        "effect": "物理攻击+625",
        "buff": "力量+10\n灵巧+15\n习得【狂击】10级时，【狂击】伤害增加100%\n习得【狂击】10级时，【狂击】对中体型魔物时额外增加50%伤害\n习得【怪物互击】10级时，【怪物互击】伤害增加100%\n【怪物互击】对中型魔物额外增加伤害10%\n攻击时无视敌方25%乘算物理防御（对MVP、Mini魔物无效）\n精炼+5时，物理攻击+5%，精炼+10时，物理攻击+5%",
        "isCompose": 0,
        "isUpgrade": 0,
        "isHigh": 1,
        "canSlot": 0,
        "canUpgrade": 0
      },
      {
        "id": "40059",
        "name": "圣佑长枪[1]",
        "icon": "item_40059",
        "rank": 4,
        "job": [
          "12",
          "13",
          "14",
          "15",
          "72",
          "73",
          "74",
          "75",
          "203",
          "204",
          "205"
        ],
        "position": 1,
        "effect": "物理攻击+625",
        "buff": "体质+12\n生命上限+1000\n精炼每+1则物理防御+1.5%，魔法防御+1%\n对MVP、Mini魔物伤害+5%；精炼+5时，对MVP、Mini魔物伤害+5%，物伤减免+2%、魔伤减免+2%；精炼+10时，对MVP、Mini魔物伤害+10%，物伤减免+3%、魔伤减免+3%；精炼+15时，对MVP、Mini魔物伤害+10%，物伤减免+5%、魔伤减免+5%\n【青铁柱枪Ⅳ】（【圣佑长枪】）+【重靴Ⅷ】+【石制圆盾Ⅳ】（陨坚圆盾）：忽视物理防御+5%、物理攻击+5%",
        "isCompose": 0,
        "isUpgrade": 0,
        "isHigh": 1,
        "canSlot": 0,
        "canUpgrade": 0
      },
      {
        "id": "40058",
        "name": "深海恐惧[1]",
        "icon": "item_40058",
        "rank": 4,
        "job": [
          "12",
          "13",
          "14",
          "15",
          "72",
          "73",
          "74",
          "75",
          "203",
          "204",
          "205"
        ],
        "position": 1,
        "effect": "魔法攻击+360\n物理攻击+625",
        "buff": "力量+12\n敏捷+8\n使【圣十字攻击】技能倍率+150%\n精炼每+1，装备攻速+1%，【圣十字攻击】技能倍率+30%\n【枪阵-血十字】伤害+30%；精炼+10，物理攻击+5%；精炼+15，物理伤害+5%\n【旗鱼枪IV】（【深海恐惧】）+【娜迦鳞盾Ⅷ】（龙焰盾）：【枪阵-血十字】伤害+10%，【枪阵-血十字】SP消耗-10%",
        "isCompose": 0,
        "isUpgrade": 0,
        "isHigh": 1,
        "canSlot": 0,
        "canUpgrade": 0
      },
      {
        "id": "40057",
        "name": "巨龙咆哮[1]",
        "icon": "item_40057",
        "rank": 4,
        "job": [
          "14",
          "15",
          "204",
          "205"
        ],
        "position": 1,
        "effect": "魔法攻击+420\n物理攻击+625",
        "buff": "智力+6、力量+6\n魔法上限+300\n火属性攻击+5%\n每精炼+1，使【龙之吐息】【龙之吐息·水】技能的伤害+1%\n精炼+10时，使用【龙之吐息】【龙之吐息·水】技能后，物伤减免与魔伤减免+10%，持续10秒\n精炼+15时，额外增加【龙之吐息】【龙之吐息·水】技能倍率+200%",
        "isCompose": 0,
        "isUpgrade": 0,
        "isHigh": 1,
        "canSlot": 0,
        "canUpgrade": 0
      },
      {
        "id": "40055",
        "name": "戮魂长矛[1]",
        "icon": "item_40055",
        "rank": 4,
        "job": [
          "12",
          "13",
          "14",
          "15",
          "72",
          "73",
          "74",
          "75",
          "203",
          "204",
          "205"
        ],
        "position": 1,
        "effect": "物理攻击+625",
        "buff": "力量+15\n命中+25\n【连刺攻击】的SP消耗降低50%，【连刺攻击】对大型魔物伤害增加70%\n【螺旋击刺】伤害+15%\n物理技能攻击时有15%的概率获得【怒火】，【怒火】：物理攻击+5%，持续10秒\n精炼+10，物理攻击+5%；精炼+15，物理伤害+5%",
        "isCompose": 0,
        "isUpgrade": 0,
        "isHigh": 1,
        "canSlot": 0,
        "canUpgrade": 0
      },
      {
        "id": "62515",
        "name": "霸王乱舞[1]",
        "icon": "item_62515",
        "rank": 4,
        "job": [
          "124",
          "125"
        ],
        "position": 1,
        "effect": "物理攻击+470",
        "buff": "力量+6\n智力+6\n使【罗刹破凰拳】倍率+100%\n每精炼+1，使【罗刹破凰拳】伤害+1%\n精炼+5，+10，+15时，使【罗刹破凰拳】在【大锤崩坠】后使用伤害+5%，+5%，+10%\n【霸王乱舞】+【坚定战袍Ⅹ】+【坚定指环Ⅳ】（或【赤心权戒】）：使【罗刹破凰拳】伤害+5%\n【霸王乱舞】+【天选者战袍】+【坚定指环Ⅳ】：使【罗刹破凰拳】伤害+5%",
        "isCompose": 0,
        "isUpgrade": 0,
        "isHigh": 0,
        "canSlot": 1,
        "canUpgrade": 1
      },
      {
        "id": "61005",
        "name": "涂毒的腕甲",
        "icon": "item_61005",
        "rank": 4,
        "job": [
          "0"
        ],
        "position": 2,
        "effect": "物理防御+46",
        "buff": "物理攻击+25\n暴击伤害+15%",
        "isCompose": 0,
        "isUpgrade": 0,
        "isHigh": 0,
        "canSlot": 1,
        "canUpgrade": 0
      },
      {
        "id": "47075",
        "name": "璀璨星神背饰",
        "icon": "item_47075",
        "rank": 4,
        "job": [
          "0"
        ],
        "position": 14,
        "effect": "",
        "buff": "生命上限+5000\n物理防御+10%\n魔法防御+10%\n暴击防护+15\n物伤减免+5%\n魔伤减免+5%\n受毒、圣、暗、念、无、火、水、地、风属性伤害-10%\n获得被动技能【凋零之星】：降低自身周围3米范围内全部敌人15%物理攻击力和15%魔法攻击力。",
        "isCompose": 1,
        "isUpgrade": 0,
        "isHigh": 0,
        "canSlot": 0,
        "canUpgrade": 0
      },
      {
        "id": "47074",
        "name": "星神背饰",
        "icon": "item_47074",
        "rank": 4,
        "job": [
          "0"
        ],
        "position": 14,
        "effect": "",
        "buff": "生命上限+4000\n物理防御+10%\n魔法防御+10%\n暴击防护+15\n受毒、圣、暗、念、无、火、水、地、风属性伤害-10%\n获得被动技能【凋零之星】：降低自身周围3米范围内全部敌人8%物理攻击力和8%魔法攻击力。",
        "isCompose": 1,
        "isUpgrade": 0,
        "isHigh": 0,
        "canSlot": 0,
        "canUpgrade": 0
      }
    ]
  }
}