{
  "code": 0,
  "status": "success",
  "timeStamp": 1643703438,
  "staticDomain": "http:\/\/rosc1.zhaiwuyu.com",
  "ip": "101.87.201.112",
  "language": "cn",
  "dbArea": 0,
  "data": {
    "page": 44,
    "pageSize": 10,
    "pageCount": 77,
    "total": 765,
    "list": [
      {
        "id": "41867",
        "name": "破坏者战斧[1]",
        "icon": "item_41867",
        "rank": 4,
        "job": [
          "61",
          "62",
          "63",
          "64",
          "65",
          "132",
          "133",
          "134",
          "135",
          "143",
          "144",
          "145",
          "213",
          "214",
          "215"
        ],
        "position": 1,
        "effect": "物理攻击+650",
        "buff": "敏捷+15、力量+10\n对小型魔物伤害+5%、对中型魔物伤害+15%、对大型魔物伤害+5%\n普攻时5%概率施放Lv.10【手推车攻击】\n【手推车攻击】伤害+15%；精炼+5以后，再每精炼+1，使【手推车攻击】伤害+2%（总计20%）\n精炼+5时，物理攻击+5%；精炼+10时，物理攻击+5%；精炼+15时，对小、中、大型魔物伤害+5%",
        "isCompose": 0,
        "isUpgrade": 0,
        "isHigh": 1,
        "canSlot": 0,
        "canUpgrade": 0
      },
      {
        "id": "41568",
        "name": "厄利尼厄斯之杖[1]",
        "icon": "item_41568",
        "rank": 4,
        "job": [
          "52",
          "53",
          "54",
          "55"
        ],
        "position": 1,
        "effect": "魔法攻击+405",
        "buff": "魔法攻击+20%\n幸运+20\n【神圣之击】，【转生术】，【十字驱魔攻击】的可变吟唱时间-25%\n幸运可为【神圣之击】、【审判】带来额外伤害\n每精炼+1，十字驱魔伤害+1%，精炼+10时提升幸运为【神圣之击】增加的伤害，精炼+15时提升幸运为【审判】增加的伤害\n精炼+5时，圣属性攻击+5%；精炼+10时，魔法攻击+5%；精炼+15时，魔法伤害+5%",
        "isCompose": 0,
        "isUpgrade": 0,
        "isHigh": 1,
        "canSlot": 0,
        "canUpgrade": 0
      },
      {
        "id": "41567",
        "name": "酸蚀之触[1]",
        "icon": "item_41567",
        "rank": 4,
        "job": [
          "132",
          "133",
          "134",
          "135"
        ],
        "position": 1,
        "effect": "物理攻击+645",
        "buff": "力量+10、智力+8\n生命上限+1000\n使炼金使用【强酸攻击】【火烟瓶投掷】【强酸火烟瓶投掷】导致的装备部位破坏基础率上升\n精炼每+1【火烟瓶投掷】的伤害+5%，【强酸攻击】的伤害+2%，【强酸火烟瓶投掷】的技能倍率+30%\n当智力、力量都达到119以上时，【火烟瓶投掷】伤害+10%，【强酸攻击】伤害+5%，【强酸火烟瓶投掷】技能倍率+75%\n精炼+5时，物理攻击+5%；精炼+10时，忽视物理防御+10%；精炼+15时，物理伤害+5%",
        "isCompose": 0,
        "isUpgrade": 0,
        "isHigh": 1,
        "canSlot": 0,
        "canUpgrade": 0
      },
      {
        "id": "41566",
        "name": "神怒之日[1]",
        "icon": "item_41566",
        "rank": 4,
        "job": [
          "51",
          "52",
          "53",
          "54",
          "55",
          "61",
          "62",
          "63",
          "64",
          "65",
          "122",
          "123",
          "124",
          "125",
          "132",
          "133",
          "134",
          "135",
          "213",
          "214",
          "215"
        ],
        "position": 1,
        "effect": "物理攻击+650",
        "buff": "力量+4、敏捷+4\n暴击+30\n装备攻速+10%\n暴击伤害+5%\n装备者物理防御下降1\/3；精炼+10时，装备者物理防御不再下降\n普通攻击伤害提高5%\n每精炼+1，普通攻击伤害提高3%\n精炼+5时，暴击伤害+5%；精炼+10时，暴击伤害+10%；精炼+15时，暴击伤害+15%\n【神怒之日】+【圣者法袍IV】：装备攻速+5%，物理攻击+5%",
        "isCompose": 0,
        "isUpgrade": 0,
        "isHigh": 1,
        "canSlot": 0,
        "canUpgrade": 0
      },
      {
        "id": "41565",
        "name": "裁决之锤[1]",
        "icon": "item_41565",
        "rank": 4,
        "job": [
          "54",
          "55"
        ],
        "position": 1,
        "effect": "魔法攻击+630",
        "buff": "智力+12、灵巧+8\n精炼+5以后，再每精炼+1，【赞歌】的技能倍率+20%（总计200%）\n对于30%血量以下的目标造成的伤害+15%\n精炼+5时，魔法攻击+5%；精炼+10时，使用【赞歌】技能后有15%概率获得魔法攻击+10%效果，持续10秒；精炼+15时，魔法伤害+5%",
        "isCompose": 0,
        "isUpgrade": 0,
        "isHigh": 1,
        "canSlot": 0,
        "canUpgrade": 0
      },
      {
        "id": "41258",
        "name": "罗宾汉之弓[1]",
        "icon": "item_41258",
        "rank": 4,
        "job": [
          "92",
          "93",
          "94",
          "95"
        ],
        "position": 1,
        "effect": "物理攻击+580",
        "buff": "灵巧+12、敏捷+6\n攻击速度+10%\n魔法上限+200\n【三连矢】伤害+20%\n每精炼+1时，【三连矢】伤害+3%\n普通攻击时有6%概率触发【精通弓箭】效果，【精通弓箭】：攻速+5%，远程物理伤害+10%，持续5秒\n精炼+5时，物理攻击+5%；精炼+10时，忽视物理防御10%；精炼+15时，物理伤害+5%",
        "isCompose": 0,
        "isUpgrade": 0,
        "isHigh": 1,
        "canSlot": 0,
        "canUpgrade": 0
      },
      {
        "id": "41257",
        "name": "月光女神[1]",
        "icon": "item_41257",
        "rank": 4,
        "job": [
          "41",
          "42",
          "43",
          "44",
          "45",
          "102",
          "103",
          "104",
          "105",
          "112",
          "113",
          "114",
          "115"
        ],
        "position": 1,
        "effect": "物理攻击+580",
        "buff": "智力+15、灵巧+5\n魔法上限+200\n风、火、水、地属性攻击+5%\n使陷阱类技能SP消耗-30%\n精炼+5，+10，+15时，陷阱类技能的伤害+5%，+10%，+15%",
        "isCompose": 0,
        "isUpgrade": 0,
        "isHigh": 1,
        "canSlot": 0,
        "canUpgrade": 0
      },
      {
        "id": "41256",
        "name": "痛苦折磨[1]",
        "icon": "item_41256",
        "rank": 4,
        "job": [
          "42",
          "43",
          "44",
          "45"
        ],
        "position": 1,
        "effect": "物理攻击+580",
        "buff": "敏捷+10、智力+20\n普攻时有概率发动【二连矢】Lv.10\n【驯兽术】伤害增加30%\n习得【驯兽术】Lv.10时，【驯兽术】伤害增加100%\n使普攻触发【闪电冲击】效果时概率降低目标一定魔法值（该效果在PVP、GVG等玩家对战场合生效）\n所有技能SP消耗降低10%；提升物理攻击对野兽攻击力的影响；每精炼+1，无属性攻击+1%\n【痛苦折磨】+【山地游侠装IV】：提升物理攻击对野兽攻击力的影响",
        "isCompose": 0,
        "isUpgrade": 0,
        "isHigh": 1,
        "canSlot": 0,
        "canUpgrade": 0
      },
      {
        "id": "41255",
        "name": "霸王大蟹弓[1]",
        "icon": "item_41255",
        "rank": 4,
        "job": [
          "42",
          "43",
          "44",
          "45",
          "92",
          "93",
          "94",
          "95",
          "102",
          "103",
          "104",
          "105",
          "112",
          "113",
          "114",
          "115"
        ],
        "position": 1,
        "effect": "物理攻击+580",
        "buff": "幸运+20\n暴击伤害+15%\n幸运达到90时暴击伤害+10%\n普通攻击暴击时有概率触发【精确瞄准】，【精确瞄准】：远程物理伤害+10%，持续5秒。\n普攻时有一定概率触发【重伤箭】Lv1\n每精炼+1，普攻攻击力提高20点\n精炼+5、+10、+15时暴击伤害分别额外增加+5%、5%、15%\n【霸王大蟹弓】+【神射手之衣IV】：敏捷+5，暴击伤害+10%",
        "isCompose": 0,
        "isUpgrade": 0,
        "isHigh": 1,
        "canSlot": 0,
        "canUpgrade": 0
      },
      {
        "id": "41254",
        "name": "追风者之弓[1]",
        "icon": "item_41254",
        "rank": 4,
        "job": [
          "41",
          "42",
          "43",
          "44",
          "45",
          "92",
          "93",
          "94",
          "95",
          "102",
          "103",
          "104",
          "105",
          "112",
          "113",
          "114",
          "115"
        ],
        "position": 1,
        "effect": "物理攻击+580",
        "buff": "灵巧+18\n物理攻击+75\n忽视物理防御+5%\n灵巧达到95时物理攻击力+10%\n灵巧达到120时物理攻击力+3%\n灵巧达到150时物理攻击力+3%\n灵巧达到240时物理攻击力+4%\n普通攻击时有30%概率使自身普通攻击的伤害+25，可叠加3层，持续10秒\n普通攻击时有概率触发【箭雨】Lv1\n精炼+5时，物理攻击+2%；精炼+10时，物理攻击+5%；精炼+15时，物理伤害+5%、每10点灵巧增加4点物理攻击",
        "isCompose": 0,
        "isUpgrade": 0,
        "isHigh": 1,
        "canSlot": 0,
        "canUpgrade": 0
      }
    ]
  }
}