{
  "code": 0,
  "status": "success",
  "timeStamp": 1642843547,
  "staticDomain": "http:\/\/rosc1.zhaiwuyu.com",
  "ip": "101.87.200.160",
  "language": "cn",
  "dbArea": 0,
  "data": {
    "page": 36,
    "pageSize": 10,
    "pageCount": 74,
    "total": 731,
    "list": [
      {
        "id": "42090",
        "name": "碎星者外袍",
        "icon": "item_42090",
        "rank": 3,
        "job": [
          "21",
          "22",
          "23",
          "24",
          "25",
          "82",
          "83",
          "84",
          "85",
          "143",
          "144",
          "145",
          "163",
          "164",
          "165",
          "183",
          "184",
          "185",
          "223",
          "224",
          "225"
        ],
        "position": 3,
        "effect": "物理防御+196",
        "buff": "智力+12、灵巧+8\n魔法攻击+10%\n可变吟唱时间-10%\n生命上限+3500\n魔法防御+10%\n每精炼+1，物理防御+1%\n精炼+5时，风、地、水、火属性攻击+5%；精炼+10时，忽视魔法防御+5%；精炼+15时，魔法攻击+5%\n精炼+8开始，每精炼+1，魔法穿刺+1%（总计8%）\n【大巫师之杖Ⅷ】（【巫师之力】）+【创作者外袍Ⅷ】（【碎星者外袍】）+【永恒戒指Ⅷ】（【克拉肯之眼】）+【水晶靴Ⅳ】（【白宝石之靴】）：可变吟唱时间-5%，魔法伤害+3%，忽视魔法防御+3%",
        "isCompose": 0,
        "isUpgrade": 0,
        "isHigh": 1,
        "canSlot": 0,
        "canUpgrade": 0
      },
      {
        "id": "42089",
        "name": "天选者战袍",
        "icon": "item_42089",
        "rank": 4,
        "job": [
          "21",
          "22",
          "23",
          "24",
          "25",
          "41",
          "42",
          "43",
          "44",
          "45",
          "51",
          "52",
          "53",
          "54",
          "55",
          "82",
          "83",
          "84",
          "85",
          "102",
          "103",
          "104",
          "105",
          "112",
          "113",
          "114",
          "115",
          "122",
          "123",
          "124",
          "125",
          "143",
          "144",
          "145",
          "151",
          "152",
          "153",
          "154",
          "155",
          "173",
          "174",
          "175",
          "183",
          "184",
          "185",
          "223",
          "224",
          "225"
        ],
        "position": 3,
        "effect": "物理防御+205",
        "buff": "灵巧+10、智力+10\n生命上限+4000\n魔法上限+500\n避免陷入恐惧状态\n物理防御+10%\n每精炼+1，魔法防御+1%\n使【阿修罗霸凰拳】公式中【技能等级*4+剩余SP\/100】部分的伤害倍率增加2\n使【罗刹破凰拳】倍率+50%；每精炼+1，使【罗刹破凰拳】倍率+20%\n精炼+5时，魔法上限+5%；精炼+10时，魔法上限+5%、生命上限+5%；精炼+15时，物理攻击+5%，对大型魔物的伤害+15%\n精炼+8开始，每精炼+1，魔法上限+2%（总计16%）\n【霸王乱舞】+【天选者战袍】+【坚定指环Ⅳ】：使【罗刹破凰拳】伤害+5%\n【苍天霸皇】+【天选者战袍】+【坚定指环Ⅳ】：使【罗刹破凰拳】伤害+5%",
        "isCompose": 0,
        "isUpgrade": 0,
        "isHigh": 1,
        "canSlot": 0,
        "canUpgrade": 0
      },
      {
        "id": "42088",
        "name": "天选者战甲",
        "icon": "item_42088",
        "rank": 4,
        "job": [
          "11",
          "12",
          "13",
          "14",
          "15",
          "31",
          "32",
          "33",
          "34",
          "35",
          "61",
          "62",
          "63",
          "64",
          "65",
          "72",
          "73",
          "74",
          "75",
          "92",
          "93",
          "94",
          "95",
          "132",
          "133",
          "134",
          "135",
          "143",
          "144",
          "145",
          "163",
          "164",
          "165",
          "173",
          "174",
          "175",
          "203",
          "204",
          "205",
          "213",
          "214",
          "215"
        ],
        "position": 3,
        "effect": "物理防御+243",
        "buff": "力量+12、灵巧+12\n生命上限+4000\n避免陷入恐惧状态\n使【圣十字审判】中物理攻击的伤害+20%\n【枪阵-血十字】伤害+10%\n物理防御+10%\n每精炼+1，魔法防御+1%\n物理攻击+2%、魔法攻击+2%；精炼+5时，物理攻击+2%、魔法攻击+2%；精炼+10时，物理攻击+3%、魔法攻击+3%；精炼+15时，物理攻击+5%、魔法攻击+5%\n精炼+8开始，每精炼+1，物理伤害+1%、魔法伤害+1%（总计8%）",
        "isCompose": 0,
        "isUpgrade": 0,
        "isHigh": 1,
        "canSlot": 0,
        "canUpgrade": 0
      },
      {
        "id": "42087",
        "name": "光辉礼赞",
        "icon": "item_42087",
        "rank": 3,
        "job": [
          "51",
          "52",
          "53",
          "54",
          "55",
          "122",
          "123",
          "124",
          "125"
        ],
        "position": 3,
        "effect": "物理防御+196",
        "buff": "智力+10、灵巧+10\n生命上限+4000\n魔法防御+10%\n每精炼+1，物理防御+1%\n【霸邪之阵】、【圣母之颂歌】、【圣母之祈福】技能的SP消耗降低50%\n魔法上限+10%、生命上限+5%、治疗加成+5%；精炼+5时，治疗加成+5%；精炼+10时，治疗加成+5%、生命上限+5%；精炼+15时，魔法上限+5%、生命上限+5%\n精炼+8开始，每精炼+1，受无、风、地、水、火属性伤害-1%（总计8%）\n【红十字杖Ⅳ】+【光辉礼赞】：治疗加成+5%，【光辉礼赞】精炼+10以上时治疗加成提升至10%",
        "isCompose": 0,
        "isUpgrade": 0,
        "isHigh": 1,
        "canSlot": 0,
        "canUpgrade": 0
      },
      {
        "id": "42086",
        "name": "坚毅之铠",
        "icon": "item_42086",
        "rank": 3,
        "job": [
          "11",
          "12",
          "13",
          "14",
          "15",
          "31",
          "32",
          "33",
          "34",
          "35",
          "61",
          "62",
          "63",
          "64",
          "65",
          "72",
          "73",
          "74",
          "75",
          "92",
          "93",
          "94",
          "95",
          "132",
          "133",
          "134",
          "135",
          "143",
          "144",
          "145",
          "163",
          "164",
          "165",
          "203",
          "204",
          "205",
          "213",
          "214",
          "215"
        ],
        "position": 3,
        "effect": "物理防御+205",
        "buff": "力量+10、体质+10\n生命上限+4000\n物理防御+10%\n每精炼+1，魔法防御+1%\n近战职业装备时物理攻击+160\n精炼+5且近战职业装备时，物理攻击+3%；精炼+10且近战职业装备时，物理攻击+4%；精炼+15且近战职业装备时，物理攻击+5%、生命上限+5%\n精炼+8开始，每精炼+1，物理穿刺+1%（总计8%）",
        "isCompose": 0,
        "isUpgrade": 0,
        "isHigh": 1,
        "canSlot": 0,
        "canUpgrade": 0
      },
      {
        "id": "42085",
        "name": "白翼之铠",
        "icon": "item_42085",
        "rank": 3,
        "job": [
          "42",
          "43",
          "44",
          "45"
        ],
        "position": 3,
        "effect": "物理防御+110",
        "buff": "敏捷+6、灵巧+6\n【死亡狙击】伤害+15%\n当精炼+5时，暴击+5、暴击伤害+2%；当精炼+10时，暴击+5、暴击伤害+3%；当精炼+15时，暴击+10、暴击伤害+5%\n【白翼之铠】+【白翼之靴IV】：暴击+10,【死亡狙击】伤害+15%",
        "isCompose": 1,
        "isUpgrade": 0,
        "isHigh": 0,
        "canSlot": 1,
        "canUpgrade": 0
      },
      {
        "id": "41877",
        "name": "首领之斧[1]",
        "icon": "item_41877",
        "rank": 4,
        "job": [
          "61",
          "62",
          "63",
          "64",
          "65",
          "132",
          "133",
          "134",
          "135",
          "213",
          "214",
          "215"
        ],
        "position": 1,
        "effect": "物理攻击+480",
        "buff": "力量+6、灵巧+6\n生命上限+1000\n对MVP、Mini魔物伤害+15%\n对中体型魔物伤害+10%\n每精炼+1，忽视物理防御+2%",
        "isCompose": 0,
        "isUpgrade": 0,
        "isHigh": 0,
        "canSlot": 1,
        "canUpgrade": 0
      },
      {
        "id": "41218",
        "name": "天龙之翼[1]",
        "icon": "item_41218",
        "rank": 4,
        "job": [
          "42",
          "43",
          "44",
          "45"
        ],
        "position": 1,
        "effect": "物理攻击+440",
        "buff": "装备攻速+10%\n灵巧+5、智力+5\n对龙族魔物伤害+10%\n每精炼+1，对龙族魔物伤害+2%\n击杀龙族魔物时，有0.1%概率获得【天龙之鳞】\n天龙之鳞：使用后智力+5、忽视物理防御+15%，持续60秒，持续时间可叠加（物品可叠加9999，可交易，猎人系生效）",
        "isCompose": 0,
        "isUpgrade": 0,
        "isHigh": 0,
        "canSlot": 1,
        "canUpgrade": 0
      },
      {
        "id": "40773",
        "name": "除灵短剑[1]",
        "icon": "item_40773",
        "rank": 4,
        "job": [
          "31",
          "32",
          "33",
          "34",
          "35",
          "92",
          "93",
          "94",
          "95"
        ],
        "position": 1,
        "effect": "物理攻击+440",
        "buff": "力量+6、敏捷+6\n对恶魔种族魔物伤害+30%\n对人形种族魔物伤害+15%\n受到恶魔种族魔物伤害-15%",
        "isCompose": 0,
        "isUpgrade": 0,
        "isHigh": 0,
        "canSlot": 1,
        "canUpgrade": 0
      },
      {
        "id": "63440",
        "name": "神贤的手账本[1]",
        "icon": "item_63440",
        "rank": 4,
        "job": [
          "82",
          "83",
          "84",
          "85"
        ],
        "position": 1,
        "effect": "魔法攻击+405",
        "buff": "智力+18\n装备攻速+10%\n魔法攻击+5%\n每精炼+1，【自动念咒】的触发概率提高0.3%\n每精炼+1，【火箭术】、【冰箭术】、【雷击术】、【时空箭】的伤害提升1%\n精炼+5时，装备攻速+5%；精炼+10时，装备攻速+5%，忽视魔法防御+5%；精炼+12时，魔法伤害+5%；精炼+15时，魔法攻击+5%，忽视魔法防御+5%\n【魔能涌动外袍IV】+【神贤的手账本】：【双倍投掷】触发概率+3%；魔法伤害+5%",
        "isCompose": 0,
        "isUpgrade": 0,
        "isHigh": 1,
        "canSlot": 0,
        "canUpgrade": 0
      }
    ]
  }
}