{
  "code": 0,
  "status": "success",
  "timeStamp": 1643703539,
  "staticDomain": "http:\/\/rosc1.zhaiwuyu.com",
  "ip": "101.87.201.112",
  "language": "cn",
  "dbArea": 0,
  "data": {
    "page": 54,
    "pageSize": 10,
    "pageCount": 77,
    "total": 765,
    "list": [
      {
        "id": "41237",
        "name": "盗贼之弓[1]",
        "icon": "item_41237",
        "rank": 3,
        "job": [
          "92",
          "93",
          "94",
          "95"
        ],
        "position": 1,
        "effect": "物理攻击+180",
        "buff": "灵巧+4\n攻击速度+5%\n普通攻击时有概率触发【精通弓箭】效果，【精通弓箭】：攻速+5%，远程物理伤害+10%，持续3秒",
        "isCompose": 1,
        "isUpgrade": 0,
        "isHigh": 0,
        "canSlot": 1,
        "canUpgrade": 1
      },
      {
        "id": "40747",
        "name": "黑翼[1]",
        "icon": "item_40747",
        "rank": 3,
        "job": [
          "92",
          "93",
          "94",
          "95"
        ],
        "position": 1,
        "effect": "物理攻击+144",
        "buff": "敏捷+4\n装备攻速+4%\n每精炼+1，普通攻击力提高30点\n【黑翼V】+【放浪者外套IV】：力量+5，忽视物理防御+10%\n【黑翼V】+【狂徒外套】：力量+5，忽视物理防御+10%",
        "isCompose": 1,
        "isUpgrade": 0,
        "isHigh": 0,
        "canSlot": 1,
        "canUpgrade": 1
      },
      {
        "id": "40746",
        "name": "破甲短锥[1]",
        "icon": "item_40746",
        "rank": 3,
        "job": [
          "92",
          "93",
          "94",
          "95"
        ],
        "position": 1,
        "effect": "物理攻击+340",
        "buff": "生命上限+300\n幸运+3\n忽视物理防御+25%\n精炼+5、+10、+15时，使【卸除饰品】【卸除盾牌】基础触发率上升5%、5%、10%",
        "isCompose": 0,
        "isUpgrade": 0,
        "isHigh": 0,
        "canSlot": 1,
        "canUpgrade": 1
      },
      {
        "id": "40745",
        "name": "牙科手术刀[1]",
        "icon": "item_40745",
        "rank": 3,
        "job": [
          "92",
          "93",
          "94",
          "95"
        ],
        "position": 1,
        "effect": "物理攻击+428",
        "buff": "力量+8\n生命上限+1000\n精炼+10，+15时，【背刺】对人型魔物伤害+5，+10%",
        "isCompose": 0,
        "isUpgrade": 1,
        "isHigh": 0,
        "canSlot": 1,
        "canUpgrade": 1
      },
      {
        "id": "40744",
        "name": "手术刀[1]",
        "icon": "item_40744",
        "rank": 3,
        "job": [
          "92",
          "93",
          "94",
          "95"
        ],
        "position": 1,
        "effect": "物理攻击+180",
        "buff": "力量+4\n生命上限+500\n精炼+10，+15时，【背刺】对人型魔物伤害+5，+10%",
        "isCompose": 1,
        "isUpgrade": 0,
        "isHigh": 0,
        "canSlot": 1,
        "canUpgrade": 1
      },
      {
        "id": "40743",
        "name": "象牙匕首[1]",
        "icon": "item_40743",
        "rank": 3,
        "job": [
          "92",
          "93",
          "94",
          "95"
        ],
        "position": 1,
        "effect": "物理攻击+180",
        "buff": "幸运+4\n灵巧+4\n【卸除饰品】【卸除盾牌】基础触发率上升3%",
        "isCompose": 1,
        "isUpgrade": 0,
        "isHigh": 0,
        "canSlot": 1,
        "canUpgrade": 1
      },
      {
        "id": "40742",
        "name": "考尔德短剑[1]",
        "icon": "item_40742",
        "rank": 2,
        "job": [
          "92",
          "93",
          "94",
          "95"
        ],
        "position": 1,
        "effect": "物理攻击+132",
        "buff": "力量+4\n敏捷+3\n普通攻击有概率（8%）获得【消散】效果，【消散】：【背刺】，【致残袭击】伤害+50%，持续2秒",
        "isCompose": 1,
        "isUpgrade": 0,
        "isHigh": 0,
        "canSlot": 1,
        "canUpgrade": 1
      },
      {
        "id": "40346",
        "name": "卡仑之牙[1]",
        "icon": "item_40346",
        "rank": 4,
        "job": [
          "92",
          "93",
          "94",
          "95"
        ],
        "position": 1,
        "effect": "物理攻击+355",
        "buff": "敏捷+8\n攻击速度+5%\n物理攻击+5%\n对火属性魔物伤害+10%\n精炼+10时，物理攻击+5%、对火属性魔物伤害+10%；精炼+15时，物理攻击+5%、对火属性魔物伤害+10%\n普通攻击有概率施放【寒风】效果，【寒风】：物理攻击+5%，对火属性魔物伤害+15%，持续5秒",
        "isCompose": 0,
        "isUpgrade": 0,
        "isHigh": 0,
        "canSlot": 1,
        "canUpgrade": 0
      },
      {
        "id": "40041",
        "name": "风暴之枪[1]",
        "icon": "item_40041",
        "rank": 4,
        "job": [
          "11",
          "12",
          "13",
          "14",
          "15",
          "72",
          "73",
          "74",
          "75",
          "203",
          "204",
          "205"
        ],
        "position": 1,
        "effect": "物理攻击+345",
        "buff": "力量+6\n体质+6\n【螺旋击刺】伤害+10%\n精炼+10时，物理攻击+5%、对水属性魔物伤害+10%；精炼+15时，物理攻击+5%、对水属性魔物伤害+10%\n对水属性魔物伤害+10%\n使用技能时概率触发【风暴之力】效果，【风暴之力】：物理攻击+10%，对水属性魔物伤害+10%，持续10秒",
        "isCompose": 0,
        "isUpgrade": 0,
        "isHigh": 0,
        "canSlot": 1,
        "canUpgrade": 1
      },
      {
        "id": "44032",
        "name": "强运项链",
        "icon": "item_44032",
        "rank": 3,
        "job": [
          "12",
          "13",
          "14",
          "15",
          "22",
          "23",
          "24",
          "25",
          "32",
          "33",
          "34",
          "35",
          "42",
          "43",
          "44",
          "45",
          "52",
          "53",
          "54",
          "55",
          "62",
          "63",
          "64",
          "65",
          "72",
          "73",
          "74",
          "75",
          "82",
          "83",
          "84",
          "85",
          "92",
          "93",
          "94",
          "95",
          "102",
          "103",
          "104",
          "105",
          "112",
          "113",
          "114",
          "115",
          "122",
          "123",
          "124",
          "125",
          "132",
          "133",
          "134",
          "135",
          "143",
          "144",
          "145",
          "152",
          "153",
          "154",
          "155",
          "163",
          "164",
          "165",
          "173",
          "174",
          "175",
          "183",
          "184",
          "185",
          "203",
          "204",
          "205",
          "213",
          "214",
          "215",
          "223",
          "224",
          "225"
        ],
        "position": 6,
        "effect": "物理攻击+84",
        "buff": "幸运+6\n暴击伤害+2%",
        "isCompose": 0,
        "isUpgrade": 1,
        "isHigh": 0,
        "canSlot": 1,
        "canUpgrade": 1
      }
    ]
  }
}