{
  "code": 0,
  "status": "success",
  "timeStamp": 1643703163,
  "staticDomain": "http:\/\/rosc1.zhaiwuyu.com",
  "ip": "101.87.201.112",
  "language": "cn",
  "dbArea": 0,
  "data": {
    "page": 17,
    "pageSize": 10,
    "pageCount": 77,
    "total": 765,
    "list": [
      {
        "id": "42667",
        "name": "神秘抄本",
        "icon": "item_42667",
        "rank": 3,
        "job": [
          "0"
        ],
        "position": 2,
        "effect": "物理防御+180",
        "buff": "敏捷+12\n生命上限+2800\n装备攻速+24%；精炼+10时，魔法攻击+8%；精炼+15时，魔法攻击+8%",
        "isCompose": 0,
        "isUpgrade": 0,
        "isHigh": 0,
        "canSlot": 0,
        "canUpgrade": 0,
        "randomBuff": "魔法攻击+30%\n物伤减免+24%\n魔伤减免+24%\n生命上限+18%\n物理防御+36%\n魔法防御+36%"
      },
      {
        "id": "42666",
        "name": "巫毒秘典",
        "icon": "item_42666",
        "rank": 2,
        "job": [
          "0"
        ],
        "position": 2,
        "effect": "物理防御+180",
        "buff": "敏捷+12\n生命上限+2800\n装备攻速+24%；精炼+10时，魔法攻击+8%；精炼+15时，魔法攻击+8%",
        "isCompose": 0,
        "isUpgrade": 0,
        "isHigh": 0,
        "canSlot": 0,
        "canUpgrade": 0
      },
      {
        "id": "42664",
        "name": "英雄丰碑",
        "icon": "item_42664",
        "rank": 3,
        "job": [
          "0"
        ],
        "position": 2,
        "effect": "物理防御+225",
        "buff": "体质+12\n生命上限+3000\n生命上限+8%、受治疗加成+20%；精炼+10时，生命上限+4%；精炼+15时，生命上限+4%",
        "isCompose": 0,
        "isUpgrade": 0,
        "isHigh": 0,
        "canSlot": 0,
        "canUpgrade": 0,
        "randomBuff": "生命上限+18%\n物伤减免+24%\n魔伤减免+24%\n受治疗加成+45%\n物理防御+36%\n魔法防御+36%"
      },
      {
        "id": "42663",
        "name": "古代石板",
        "icon": "item_42663",
        "rank": 2,
        "job": [
          "0"
        ],
        "position": 2,
        "effect": "物理防御+225",
        "buff": "体质+12\n生命上限+3000\n生命上限+8%、受治疗加成+20%；精炼+10时，生命上限+4%；精炼+15时，生命上限+4%",
        "isCompose": 1,
        "isUpgrade": 0,
        "isHigh": 0,
        "canSlot": 0,
        "canUpgrade": 0
      },
      {
        "id": "42661",
        "name": "海洋恩赐",
        "icon": "item_42661",
        "rank": 3,
        "job": [
          "0"
        ],
        "position": 2,
        "effect": "物理防御+225",
        "buff": "体质+12\n生命上限+3000\n受到风、地、水、火、无属性伤害-12%，物理、魔法防御+10%；精炼+10时，受到风、地、水、火、无属性伤害-6%；精炼+15时，受到风、地、水、火、无属性伤害-6%",
        "isCompose": 0,
        "isUpgrade": 0,
        "isHigh": 0,
        "canSlot": 0,
        "canUpgrade": 0,
        "randomBuff": "受到风、地、水、火、无属性伤害-24%\n物伤减免+24%\n魔伤减免+24%\n生命上限+18%\n物理防御+36%\n魔法防御+36%"
      },
      {
        "id": "42660",
        "name": "龟甲盾",
        "icon": "item_42660",
        "rank": 2,
        "job": [
          "0"
        ],
        "position": 2,
        "effect": "物理防御+225",
        "buff": "体质+12\n生命上限+3000\n受到风、地、水、火、无属性伤害-12%，物理、魔法防御+10%；精炼+10时，受到风、地、水、火、无属性伤害-6%；精炼+15时，受到风、地、水、火、无属性伤害-6%",
        "isCompose": 0,
        "isUpgrade": 0,
        "isHigh": 0,
        "canSlot": 0,
        "canUpgrade": 0
      },
      {
        "id": "42658",
        "name": "仪祭古面",
        "icon": "item_42658",
        "rank": 3,
        "job": [
          "0"
        ],
        "position": 2,
        "effect": "物理防御+225",
        "buff": "体质+12\n生命上限+3000\n受到无、圣、暗、念、毒属性伤害-12%，物理、魔法防御+10%；精炼+10时，受到无、圣、暗、念、毒属性伤害-6%；精炼+15时，受到无、圣、暗、念、毒属性伤害-6%",
        "isCompose": 0,
        "isUpgrade": 0,
        "isHigh": 0,
        "canSlot": 0,
        "canUpgrade": 0,
        "randomBuff": "受到无、圣、暗、念、毒属性伤害-24%\n物伤减免+24%\n魔伤减免+24%\n生命上限+18%\n物理防御+36%\n魔法防御+36%"
      },
      {
        "id": "42657",
        "name": "先祖面具",
        "icon": "item_42657",
        "rank": 2,
        "job": [
          "0"
        ],
        "position": 2,
        "effect": "物理防御+225",
        "buff": "体质+12\n生命上限+3000\n受到无、圣、暗、念、毒属性伤害-12%，物理、魔法防御+10%；精炼+10时，受到无、圣、暗、念、毒属性伤害-6%；精炼+15时，受到无、圣、暗、念、毒属性伤害-6%",
        "isCompose": 0,
        "isUpgrade": 0,
        "isHigh": 0,
        "canSlot": 0,
        "canUpgrade": 0
      },
      {
        "id": "42655",
        "name": "魔女的坩埚",
        "icon": "item_42655",
        "rank": 3,
        "job": [
          "0"
        ],
        "position": 2,
        "effect": "物理防御+200",
        "buff": "智力+12\n生命上限+3000\n魔法上限+12%、魔法上限+300；精炼+10时，魔法上限+6%；精炼+15时，魔法上限+6%",
        "isCompose": 0,
        "isUpgrade": 0,
        "isHigh": 0,
        "canSlot": 0,
        "canUpgrade": 0,
        "randomBuff": "魔法上限+24%\n物伤减免+24%\n魔伤减免+24%\n生命上限+18%\n物理防御+36%\n魔法防御+36%"
      },
      {
        "id": "42654",
        "name": "传统秘药",
        "icon": "item_42654",
        "rank": 2,
        "job": [
          "0"
        ],
        "position": 2,
        "effect": "物理防御+200",
        "buff": "智力+12\n生命上限+3000\n魔法上限+12%、魔法上限+300；精炼+10时，魔法上限+6%；精炼+15时，魔法上限+6%",
        "isCompose": 0,
        "isUpgrade": 0,
        "isHigh": 0,
        "canSlot": 0,
        "canUpgrade": 0
      }
    ]
  }
}