{
  "code": 0,
  "status": "success",
  "timeStamp": 1642843900,
  "staticDomain": "http:\/\/rosc1.zhaiwuyu.com",
  "ip": "101.87.200.160",
  "language": "cn",
  "dbArea": 0,
  "data": {
    "page": 71,
    "pageSize": 10,
    "pageCount": 74,
    "total": 731,
    "list": [
      {
        "id": "40711",
        "name": "华丽短剑[1]",
        "icon": "item_40711",
        "rank": 3,
        "job": [
          "32",
          "33",
          "34",
          "35",
          "92",
          "93",
          "94",
          "95"
        ],
        "position": 1,
        "effect": "物理攻击+360",
        "buff": "普攻时有10%概率标记自己为强袭状态：使盗贼系的下一次技能伤害+50%\n强袭状态下普通攻击伤害+10%",
        "isCompose": 1,
        "isUpgrade": 0,
        "isHigh": 0,
        "canSlot": 1,
        "canUpgrade": 1
      },
      {
        "id": "40724",
        "name": "沙漠之暮[1]",
        "icon": "item_40724",
        "rank": 2,
        "job": [
          "31",
          "32",
          "33",
          "34",
          "35",
          "92",
          "93",
          "94",
          "95"
        ],
        "position": 1,
        "effect": "物理攻击+144",
        "buff": "命中+30\n增加25%对大型魔物的伤害",
        "isCompose": 1,
        "isUpgrade": 0,
        "isHigh": 0,
        "canSlot": 1,
        "canUpgrade": 1
      },
      {
        "id": "40719",
        "name": "巨毒短剑[1]",
        "icon": "item_40719",
        "rank": 2,
        "job": [
          "31",
          "32",
          "33",
          "34",
          "35",
          "92",
          "93",
          "94",
          "95"
        ],
        "position": 1,
        "effect": "物理攻击+126",
        "buff": "有较高几率在普攻时使目标陷入中毒状态\n精炼每+1，忽视物理防御+2%",
        "isCompose": 1,
        "isUpgrade": 0,
        "isHigh": 0,
        "canSlot": 1,
        "canUpgrade": 1
      },
      {
        "id": "40715",
        "name": "幸运短剑[1]",
        "icon": "item_40715",
        "rank": 3,
        "job": [
          "32",
          "33",
          "34",
          "35"
        ],
        "position": 1,
        "effect": "物理攻击+210",
        "buff": "智力+10\n生命上限+600\n心灵震波伤害+20%\n精炼+15时使心灵震波受到远程物理伤害加成",
        "isCompose": 0,
        "isUpgrade": 0,
        "isHigh": 0,
        "canSlot": 1,
        "canUpgrade": 1
      },
      {
        "id": "40624",
        "name": "克罗诺斯之杖[1]",
        "icon": "item_40609",
        "rank": 4,
        "job": [
          "22",
          "23",
          "24",
          "25",
          "183",
          "184",
          "185",
          "223",
          "224",
          "225"
        ],
        "position": 1,
        "effect": "魔法攻击+205",
        "buff": "智力+5\n生命上限+500\n精炼每+1时智力+1，生命上限+100\n使用魔法技能攻击时有3%概率进入“灵视”状态：在10秒内提升魔法攻击+25%，但SP消耗+50%",
        "isCompose": 0,
        "isUpgrade": 0,
        "isHigh": 0,
        "canSlot": 1,
        "canUpgrade": 1
      },
      {
        "id": "40622",
        "name": "森林之杖[1]",
        "icon": "item_40622",
        "rank": 3,
        "job": [
          "22",
          "23",
          "24",
          "25",
          "52",
          "53",
          "54",
          "55",
          "223",
          "224",
          "225"
        ],
        "position": 1,
        "effect": "魔法攻击+210",
        "buff": "敏捷+5\n装备攻速+15%\n普攻时对目标及周围小范围内所有目标造成溅射伤害（仅魔法师系列有效）\n每精炼+1，闪避+3，装备攻速+1%",
        "isCompose": 1,
        "isUpgrade": 0,
        "isHigh": 0,
        "canSlot": 1,
        "canUpgrade": 0
      },
      {
        "id": "40621",
        "name": "高等生存魔杖[1]",
        "icon": "item_40621",
        "rank": 3,
        "job": [
          "22",
          "23",
          "24",
          "25",
          "52",
          "53",
          "54",
          "55",
          "82",
          "83",
          "84",
          "85",
          "152",
          "153",
          "154",
          "155",
          "183",
          "184",
          "185",
          "223",
          "224",
          "225"
        ],
        "position": 1,
        "effect": "魔法攻击+244",
        "buff": "灵巧+5\n智力+10\n生命上限+15%",
        "isCompose": 0,
        "isUpgrade": 1,
        "isHigh": 0,
        "canSlot": 1,
        "canUpgrade": 1
      },
      {
        "id": "40613",
        "name": "羽翼之杖[1]",
        "icon": "item_40613",
        "rank": 3,
        "job": [
          "22",
          "23",
          "24",
          "25",
          "82",
          "83",
          "84",
          "85",
          "183",
          "184",
          "185",
          "223",
          "224",
          "225"
        ],
        "position": 1,
        "effect": "魔法攻击+174",
        "buff": "智力+5\n使用单体锁定类魔法技能时有20%概率立即恢复5%HP和5%SP\n使用单体锁定类魔法技能击杀魔物时立即恢复自身5%HP和5%SP（该效果内置CD：10秒）",
        "isCompose": 0,
        "isUpgrade": 1,
        "isHigh": 0,
        "canSlot": 1,
        "canUpgrade": 0
      },
      {
        "id": "40633",
        "name": "元素融合之杖[1]",
        "icon": "item_40616",
        "rank": 3,
        "job": [
          "21",
          "22",
          "23",
          "24",
          "25",
          "51",
          "52",
          "53",
          "54",
          "55",
          "143",
          "144",
          "145",
          "183",
          "184",
          "185",
          "223",
          "224",
          "225"
        ],
        "position": 1,
        "effect": "魔法攻击+144",
        "buff": "灵巧+5\n提升20%魔法范围型技能伤害\n精炼+8、+10时伤害分别提升到30%、40%（范围型技能包括：【暴风雪】，【怒雷强击】，【火之猎杀】，【崩裂术】等）",
        "isCompose": 1,
        "isUpgrade": 0,
        "isHigh": 0,
        "canSlot": 1,
        "canUpgrade": 1
      },
      {
        "id": "40620",
        "name": "大巫师之杖[1]",
        "icon": "item_40620",
        "rank": 3,
        "job": [
          "21",
          "22",
          "23",
          "24",
          "25",
          "82",
          "83",
          "84",
          "85",
          "143",
          "144",
          "145",
          "151",
          "152",
          "153",
          "154",
          "155",
          "183",
          "184",
          "185",
          "223",
          "224",
          "225"
        ],
        "position": 1,
        "effect": "魔法攻击+97",
        "buff": "智力+3\n魔法攻击+10%\n精炼每+1，忽视魔法防御+2%\n【大巫师之杖Ⅷ】（【巫师之力】）+【创作者外袍Ⅷ】（【碎星者外袍】）+【永恒戒指Ⅷ】（【克拉肯之眼】）+【水晶靴Ⅳ】（【白宝石之靴】）：可变吟唱时间-5%，魔法伤害+3%，忽视魔法防御+3%",
        "isCompose": 0,
        "isUpgrade": 1,
        "isHigh": 0,
        "canSlot": 1,
        "canUpgrade": 1
      }
    ]
  }
}