{
  "code": 0,
  "status": "success",
  "timeStamp": 1642843477,
  "staticDomain": "http:\/\/rosc1.zhaiwuyu.com",
  "ip": "101.87.200.160",
  "language": "cn",
  "dbArea": 0,
  "data": {
    "page": 29,
    "pageSize": 10,
    "pageCount": 74,
    "total": 731,
    "list": [
      {
        "id": "44303",
        "name": "魔力狐尾草[1]",
        "icon": "item_44303",
        "rank": 3,
        "job": [
          "151",
          "152",
          "153",
          "154",
          "155"
        ],
        "position": 1,
        "effect": "魔法攻击+97",
        "buff": "智力+3\n无属性攻击+10%\n每精炼+1，【猫薄荷陨石】伤害+2%",
        "isCompose": 0,
        "isUpgrade": 1,
        "isHigh": 0,
        "canSlot": 1,
        "canUpgrade": 1
      },
      {
        "id": "44302",
        "name": "精工狐尾草[1]",
        "icon": "item_44302",
        "rank": 3,
        "job": [
          "151",
          "152",
          "153",
          "154",
          "155"
        ],
        "position": 1,
        "effect": "物理攻击+180",
        "buff": "灵巧+4\n生命上限+5%\n每精炼+1，【疯兔胡萝卜重击】伤害+2%",
        "isCompose": 0,
        "isUpgrade": 1,
        "isHigh": 0,
        "canSlot": 1,
        "canUpgrade": 1
      },
      {
        "id": "44301",
        "name": "奇妙狐尾草[1]",
        "icon": "item_44301",
        "rank": 2,
        "job": [
          "151",
          "152",
          "153",
          "154",
          "155"
        ],
        "position": 1,
        "effect": "物理攻击+87",
        "buff": "灵巧+2\n生命上限+5%",
        "isCompose": 1,
        "isUpgrade": 0,
        "isHigh": 0,
        "canSlot": 1,
        "canUpgrade": 1
      },
      {
        "id": "44300",
        "name": "精美狐尾草[1]",
        "icon": "item_44300",
        "rank": 2,
        "job": [
          "151",
          "152",
          "153",
          "154",
          "155"
        ],
        "position": 1,
        "effect": "魔法攻击+43",
        "buff": "智力+2\n无属性攻击+5%",
        "isCompose": 1,
        "isUpgrade": 0,
        "isHigh": 0,
        "canSlot": 1,
        "canUpgrade": 1
      },
      {
        "id": "44069",
        "name": "不忘初心护符",
        "icon": "item_44069",
        "rank": 4,
        "job": [
          "151",
          "152",
          "153",
          "154",
          "155"
        ],
        "position": 6,
        "effect": "魔法攻击+200",
        "buff": "智力+8，体质+8\n生命上限+3%\n【鲔鱼派对】冷却时间-5秒（不可叠加，冷却时间最多减少5秒）\n每精炼+1，治疗加成+1%\n精炼+8时，生命上限+2%；精炼+12时，生命上限+3%；精炼+15时，生命上限+4%",
        "isCompose": 0,
        "isUpgrade": 0,
        "isHigh": 1,
        "canSlot": 0,
        "canUpgrade": 0
      },
      {
        "id": "44068",
        "name": "新鲜鲔鱼护符",
        "icon": "item_44068",
        "rank": 3,
        "job": [
          "151",
          "152",
          "153",
          "154",
          "155"
        ],
        "position": 6,
        "effect": "魔法攻击+66",
        "buff": "智力+3、体质+3\n【鲔鱼派对】冷却时间-1秒（不可叠加）\n生命上限+3%",
        "isCompose": 0,
        "isUpgrade": 1,
        "isHigh": 0,
        "canSlot": 1,
        "canUpgrade": 1
      },
      {
        "id": "44067",
        "name": "鲔鱼护符",
        "icon": "item_44067",
        "rank": 2,
        "job": [
          "151",
          "152",
          "153",
          "154",
          "155"
        ],
        "position": 6,
        "effect": "魔法攻击+42",
        "buff": "智力+2、体质+2",
        "isCompose": 0,
        "isUpgrade": 0,
        "isHigh": 0,
        "canSlot": 1,
        "canUpgrade": 1
      },
      {
        "id": "44066",
        "name": "四叶草项链",
        "icon": "item_44066",
        "rank": 4,
        "job": [
          "151",
          "152",
          "153",
          "154",
          "155"
        ],
        "position": 6,
        "effect": "魔法攻击+200",
        "buff": "智力+8、灵巧+8\n无属性攻击+5%\n每精炼+1，【猫薄荷陨石】技能倍率+7%（可叠加）\n精炼+8时，无属性攻击+3%；精炼+12时，魔法攻击+3%；精炼+15时，魔法攻击+5%，【猫薄荷陨石】技能倍率+25%（可叠加）",
        "isCompose": 0,
        "isUpgrade": 0,
        "isHigh": 1,
        "canSlot": 0,
        "canUpgrade": 0
      },
      {
        "id": "44065",
        "name": "护符草项链",
        "icon": "item_44065",
        "rank": 3,
        "job": [
          "151",
          "152",
          "153",
          "154",
          "155"
        ],
        "position": 6,
        "effect": "魔法攻击+48",
        "buff": "智力+2、灵巧+2\n无属性攻击+5%",
        "isCompose": 0,
        "isUpgrade": 0,
        "isHigh": 0,
        "canSlot": 1,
        "canUpgrade": 1
      },
      {
        "id": "44064",
        "name": "生存戒指",
        "icon": "item_44064",
        "rank": 3,
        "job": [
          "0"
        ],
        "position": 6,
        "effect": "魔法攻击+54\n物理攻击+54",
        "buff": "智力+4、体质+4\n生命上限+3%\n人形种族减伤+5%\n精炼+8时，生命上限+3%；精炼+12时，生命上限+4%",
        "isCompose": 1,
        "isUpgrade": 0,
        "isHigh": 0,
        "canSlot": 1,
        "canUpgrade": 0
      }
    ]
  }
}