{
  "code": 0,
  "status": "success",
  "timeStamp": 1644809368,
  "staticDomain": "http:\/\/rosc1.zhaiwuyu.com",
  "ip": "124.74.160.162",
  "language": "cn",
  "dbArea": 0,
  "data": {
    "page": 1,
    "pageSize": 10,
    "pageCount": 3,
    "total": 23,
    "list": [
      {
        "id": "41272",
        "name": "埃布尔雷弓[1]",
        "icon": "item_41272",
        "rank": 4,
        "job": [
          "42",
          "43",
          "44",
          "45",
          "92",
          "93",
          "94",
          "95",
          "102",
          "103",
          "104",
          "105",
          "112",
          "113",
          "114",
          "115"
        ],
        "position": 1,
        "effect": "物理攻击+448",
        "buff": "灵巧+4、敏捷+4\n人形种族减伤+5%\n每精炼+1，人形种族减伤+1%\n精炼+5时，人形种族伤害+5%；精炼+10时，人形种族伤害+5%；精炼+15时，人形种族伤害+10%",
        "isCompose": 0,
        "isUpgrade": 0,
        "isHigh": 0,
        "canSlot": 1,
        "canUpgrade": 0
      },
      {
        "id": "41269",
        "name": "冰冻之弓[1]",
        "icon": "item_41269",
        "rank": 4,
        "job": [
          "41",
          "42",
          "43",
          "44",
          "45",
          "92",
          "93",
          "94",
          "95"
        ],
        "position": 1,
        "effect": "物理攻击+448",
        "buff": "灵巧+6\n对火属性魔物伤害+5%\n精炼+5时，对火属性魔物伤害+5%；精炼+10时，对火属性魔物伤害+5%\n攻击目标时，有10%概率使目标冰冻，持续2秒\n攻击冰冻单位时不会打破冰冻",
        "isCompose": 0,
        "isUpgrade": 0,
        "isHigh": 0,
        "canSlot": 1,
        "canUpgrade": 0
      },
      {
        "id": "41218",
        "name": "天龙之翼[1]",
        "icon": "item_41218",
        "rank": 4,
        "job": [
          "42",
          "43",
          "44",
          "45"
        ],
        "position": 1,
        "effect": "物理攻击+440",
        "buff": "装备攻速+10%\n灵巧+5、智力+5\n对龙族魔物伤害+10%\n每精炼+1，对龙族魔物伤害+2%\n击杀龙族魔物时，有0.1%概率获得【天龙之鳞】\n天龙之鳞：使用后智力+5、忽视物理防御+15%，持续60秒，持续时间可叠加（物品可叠加9999，可交易，猎人系生效）",
        "isCompose": 0,
        "isUpgrade": 0,
        "isHigh": 0,
        "canSlot": 1,
        "canUpgrade": 0
      },
      {
        "id": "41258",
        "name": "罗宾汉之弓[1]",
        "icon": "item_41258",
        "rank": 4,
        "job": [
          "92",
          "93",
          "94",
          "95"
        ],
        "position": 1,
        "effect": "物理攻击+580",
        "buff": "灵巧+12、敏捷+6\n攻击速度+10%\n魔法上限+200\n【三连矢】伤害+20%\n每精炼+1时，【三连矢】伤害+3%\n普通攻击时有6%概率触发【精通弓箭】效果，【精通弓箭】：攻速+5%，远程物理伤害+10%，持续5秒\n精炼+5时，物理攻击+5%；精炼+10时，忽视物理防御10%；精炼+15时，物理伤害+5%",
        "isCompose": 0,
        "isUpgrade": 0,
        "isHigh": 1,
        "canSlot": 0,
        "canUpgrade": 0
      },
      {
        "id": "41257",
        "name": "月光女神[1]",
        "icon": "item_41257",
        "rank": 4,
        "job": [
          "41",
          "42",
          "43",
          "44",
          "45",
          "102",
          "103",
          "104",
          "105",
          "112",
          "113",
          "114",
          "115"
        ],
        "position": 1,
        "effect": "物理攻击+580",
        "buff": "智力+15、灵巧+5\n魔法上限+200\n风、火、水、地属性攻击+5%\n使陷阱类技能SP消耗-30%\n精炼+5，+10，+15时，陷阱类技能的伤害+5%，+10%，+15%",
        "isCompose": 0,
        "isUpgrade": 0,
        "isHigh": 1,
        "canSlot": 0,
        "canUpgrade": 0
      },
      {
        "id": "41256",
        "name": "痛苦折磨[1]",
        "icon": "item_41256",
        "rank": 4,
        "job": [
          "42",
          "43",
          "44",
          "45"
        ],
        "position": 1,
        "effect": "物理攻击+580",
        "buff": "敏捷+10、智力+20\n普攻时有概率发动【二连矢】Lv.10\n【驯兽术】伤害增加30%\n习得【驯兽术】Lv.10时，【驯兽术】伤害增加100%\n使普攻触发【闪电冲击】效果时概率降低目标一定魔法值（该效果在PVP、GVG等玩家对战场合生效）\n所有技能SP消耗降低10%；提升物理攻击对野兽攻击力的影响；每精炼+1，无属性攻击+1%\n【痛苦折磨】+【山地游侠装IV】：提升物理攻击对野兽攻击力的影响",
        "isCompose": 0,
        "isUpgrade": 0,
        "isHigh": 1,
        "canSlot": 0,
        "canUpgrade": 0
      },
      {
        "id": "41255",
        "name": "霸王大蟹弓[1]",
        "icon": "item_41255",
        "rank": 4,
        "job": [
          "42",
          "43",
          "44",
          "45",
          "92",
          "93",
          "94",
          "95",
          "102",
          "103",
          "104",
          "105",
          "112",
          "113",
          "114",
          "115"
        ],
        "position": 1,
        "effect": "物理攻击+580",
        "buff": "幸运+20\n暴击伤害+15%\n幸运达到90时暴击伤害+10%\n普通攻击暴击时有概率触发【精确瞄准】，【精确瞄准】：远程物理伤害+10%，持续5秒。\n普攻时有一定概率触发【重伤箭】Lv1\n每精炼+1，普攻攻击力提高20点\n精炼+5、+10、+15时暴击伤害分别额外增加+5%、5%、15%\n【霸王大蟹弓】+【神射手之衣IV】：敏捷+5，暴击伤害+10%",
        "isCompose": 0,
        "isUpgrade": 0,
        "isHigh": 1,
        "canSlot": 0,
        "canUpgrade": 0
      },
      {
        "id": "41254",
        "name": "追风者之弓[1]",
        "icon": "item_41254",
        "rank": 4,
        "job": [
          "41",
          "42",
          "43",
          "44",
          "45",
          "92",
          "93",
          "94",
          "95",
          "102",
          "103",
          "104",
          "105",
          "112",
          "113",
          "114",
          "115"
        ],
        "position": 1,
        "effect": "物理攻击+580",
        "buff": "灵巧+18\n物理攻击+75\n忽视物理防御+5%\n灵巧达到95时物理攻击力+10%\n灵巧达到120时物理攻击力+3%\n灵巧达到150时物理攻击力+3%\n灵巧达到240时物理攻击力+4%\n普通攻击时有30%概率使自身普通攻击的伤害+25，可叠加3层，持续10秒\n普通攻击时有概率触发【箭雨】Lv1\n精炼+5时，物理攻击+2%；精炼+10时，物理攻击+5%；精炼+15时，物理伤害+5%、每10点灵巧增加4点物理攻击",
        "isCompose": 0,
        "isUpgrade": 0,
        "isHigh": 1,
        "canSlot": 0,
        "canUpgrade": 0
      },
      {
        "id": "41246",
        "name": "森林猎手[1]",
        "icon": "item_41246",
        "rank": 4,
        "job": [
          "44",
          "45"
        ],
        "position": 1,
        "effect": "物理攻击+435",
        "buff": "暴击+5\n暴击伤害+10%\n精炼+8开始，再每精炼+1，【死亡狙击】的技能倍率+10%(总计70%)\n精炼+5时，暴击伤害+5%；精炼+10时，暴击伤害+10%；精炼+15时，【死亡狙击】伤害+10%",
        "isCompose": 0,
        "isUpgrade": 0,
        "isHigh": 0,
        "canSlot": 1,
        "canUpgrade": 1
      },
      {
        "id": "41243",
        "name": "凛冬结晶·神铸",
        "icon": "item_41243",
        "rank": 4,
        "job": [
          "42",
          "43",
          "44",
          "45",
          "92",
          "93",
          "94",
          "95"
        ],
        "position": 14,
        "effect": "物理攻击+1000",
        "buff": "灵巧+18\n敏捷+12\n全能力+20\n暴击+50\n暴击伤害+50%\n人形种族伤害+50%\n生命上限+30000\n物伤减免+10%，魔伤减免+10%\n被凛冬结晶攻击的目标将受到冰霜结晶的额外伤害。每次普通攻击冰霜结晶将对被攻击者额外造成自身攻击*（1.5+暴伤）*50%的真实伤害，并对该目标周围4米内最多6名敌对目标造成攻击*（1.5+暴伤）*25%的真实伤害。受到冰霜结晶影响的目标有5%的概率被冰冻，冰冻时间持续2秒。",
        "isCompose": 1,
        "isUpgrade": 0,
        "isHigh": 0,
        "canSlot": 0,
        "canUpgrade": 0
      }
    ],
    "partner": {
      "id": 30301,
      "pos": 6,
      "title": "交易所订阅",
      "tip": "",
      "pic": "\/\/rosc3.zhaiwuyu.com\/partner\/self\/find-exchange-202103.jpg",
      "link": "http:\/\/romel.wiki\/article\/exchange-remind"
    }
  }
}