{
  "code": 0,
  "status": "success",
  "timeStamp": 1644809378,
  "staticDomain": "http:\/\/rosc1.zhaiwuyu.com",
  "ip": "124.74.160.162",
  "language": "cn",
  "dbArea": 0,
  "data": {
    "page": 3,
    "pageSize": 10,
    "pageCount": 3,
    "total": 23,
    "list": [
      {
        "id": "41216",
        "name": "红色闪电[1]",
        "icon": "item_41216",
        "rank": 2,
        "job": [
          "41",
          "42",
          "43",
          "44",
          "45"
        ],
        "position": 1,
        "effect": "物理攻击+115",
        "buff": "灵巧+3\n【冲锋箭】、【重伤箭】的消耗降低40%",
        "isCompose": 1,
        "isUpgrade": 0,
        "isHigh": 0,
        "canSlot": 1,
        "canUpgrade": 1
      },
      {
        "id": "41211",
        "name": "角弓[1]",
        "icon": "item_41211",
        "rank": 2,
        "job": [
          "41",
          "42",
          "43",
          "44",
          "45",
          "92",
          "93",
          "94",
          "95",
          "102",
          "103",
          "104",
          "105",
          "112",
          "113",
          "114",
          "115"
        ],
        "position": 1,
        "effect": "物理攻击+87",
        "buff": "幸运+3\n暴击伤害+10%",
        "isCompose": 1,
        "isUpgrade": 0,
        "isHigh": 0,
        "canSlot": 1,
        "canUpgrade": 1
      },
      {
        "id": "41208",
        "name": "连发弓[1]",
        "icon": "item_41208",
        "rank": 2,
        "job": [
          "41",
          "42",
          "43",
          "44",
          "45",
          "92",
          "93",
          "94",
          "95",
          "102",
          "103",
          "104",
          "105",
          "112",
          "113",
          "114",
          "115"
        ],
        "position": 1,
        "effect": "物理攻击+100",
        "buff": "敏捷+2\n普攻时有概率发动【二连矢】5级\n习得【驯兽术】10级时，【驯兽术】伤害增加20%",
        "isCompose": 1,
        "isUpgrade": 0,
        "isHigh": 0,
        "canSlot": 1,
        "canUpgrade": 1
      }
    ]
  }
}