{
  "code": 0,
  "status": "success",
  "timeStamp": 1644809373,
  "staticDomain": "http:\/\/rosc1.zhaiwuyu.com",
  "ip": "124.74.160.162",
  "language": "cn",
  "dbArea": 0,
  "data": {
    "page": 2,
    "pageSize": 10,
    "pageCount": 3,
    "total": 23,
    "list": [
      {
        "id": "41242",
        "name": "凛冬结晶·精锻",
        "icon": "item_41242",
        "rank": 4,
        "job": [
          "42",
          "43",
          "44",
          "45",
          "92",
          "93",
          "94",
          "95"
        ],
        "position": 14,
        "effect": "物理攻击+725",
        "buff": "灵巧+18\n敏捷+12\n全能力+14\n暴击+50\n暴击伤害+40%\n人形种族伤害+40%\n生命上限+23000\n物伤减免+5%，魔伤减免+5%\n被凛冬结晶攻击的目标将受到冰霜结晶的额外伤害。每次普通攻击冰霜结晶将对被攻击者额外造成自身攻击*（1.5+暴伤）*30%的真实伤害，并对该目标周围4米内最多6名敌对目标造成攻击*（1.5+暴伤）*15%的真实伤害。受到冰霜结晶影响的目标有5%的概率被冰冻，冰冻时间持续2秒。",
        "isCompose": 1,
        "isUpgrade": 0,
        "isHigh": 0,
        "canSlot": 0,
        "canUpgrade": 0
      },
      {
        "id": "41241",
        "name": "凛冬结晶",
        "icon": "item_41241",
        "rank": 4,
        "job": [
          "42",
          "43",
          "44",
          "45",
          "92",
          "93",
          "94",
          "95"
        ],
        "position": 14,
        "effect": "物理攻击+450",
        "buff": "灵巧+18\n敏捷+12\n全能力+8\n暴击+50\n暴击伤害+30%\n人形种族伤害+30%\n生命上限+16000",
        "isCompose": 1,
        "isUpgrade": 0,
        "isHigh": 0,
        "canSlot": 0,
        "canUpgrade": 0
      },
      {
        "id": "41237",
        "name": "盗贼之弓[1]",
        "icon": "item_41237",
        "rank": 3,
        "job": [
          "92",
          "93",
          "94",
          "95"
        ],
        "position": 1,
        "effect": "物理攻击+180",
        "buff": "灵巧+4\n攻击速度+5%\n普通攻击时有概率触发【精通弓箭】效果，【精通弓箭】：攻速+5%，远程物理伤害+10%，持续3秒",
        "isCompose": 1,
        "isUpgrade": 0,
        "isHigh": 0,
        "canSlot": 1,
        "canUpgrade": 1
      },
      {
        "id": "41233",
        "name": "诅咒之弓[1]",
        "icon": "item_41233",
        "rank": 3,
        "job": [
          "42",
          "43",
          "44",
          "45"
        ],
        "position": 1,
        "effect": "物理攻击+180",
        "buff": "敏捷+5\n智力+5\n普攻时有概率发动【二连矢】Lv.10\n习得【驯兽术】Lv.10时，【驯兽术】伤害增加100%\n使普攻触发【闪电冲击】效果时概率降低目标一定魔法值（该效果只在PVP生效）\n【诅咒之弓IV】+【山地游侠装IV】：提升物理攻击对猎鹰攻击力的影响\n【诅咒之弓IV】+【暗星潜行衣】：提升物理攻击对野兽攻击力的影响",
        "isCompose": 0,
        "isUpgrade": 1,
        "isHigh": 0,
        "canSlot": 1,
        "canUpgrade": 1
      },
      {
        "id": "41232",
        "name": "深红闪电[1]",
        "icon": "item_41232",
        "rank": 3,
        "job": [
          "42",
          "43",
          "44",
          "45"
        ],
        "position": 1,
        "effect": "物理攻击+180",
        "buff": "灵巧+5\n【冲锋箭】、【重伤箭】的消耗降低40%\n【重伤箭】技能CD减少1秒\n【冲锋箭】伤害增加100%\n普通攻击时有一定概率触发【重伤箭】Lv.1\n每精炼+1，普通攻击力提高20点",
        "isCompose": 0,
        "isUpgrade": 1,
        "isHigh": 0,
        "canSlot": 1,
        "canUpgrade": 1
      },
      {
        "id": "41217",
        "name": "神秘之弓[1]",
        "icon": "item_41217",
        "rank": 3,
        "job": [
          "41",
          "42",
          "43",
          "44",
          "45",
          "92",
          "93",
          "94",
          "95",
          "102",
          "103",
          "104",
          "105",
          "112",
          "113",
          "114",
          "115"
        ],
        "position": 1,
        "effect": "物理攻击+192",
        "buff": "灵巧+5\n物理攻击+75\n灵巧达到95时物理攻击力+10%\n灵巧达到120时物理攻击力+3%\n灵巧达到150时物理攻击力+3%",
        "isCompose": 0,
        "isUpgrade": 1,
        "isHigh": 0,
        "canSlot": 1,
        "canUpgrade": 1
      },
      {
        "id": "41205",
        "name": "喵喵大蟹弓[1]",
        "icon": "item_41205",
        "rank": 3,
        "job": [
          "42",
          "43",
          "44",
          "45",
          "92",
          "93",
          "94",
          "95",
          "102",
          "103",
          "104",
          "105",
          "112",
          "113",
          "114",
          "115"
        ],
        "position": 1,
        "effect": "物理攻击+210",
        "buff": "幸运+5\n暴击伤害+15%\n幸运达到90时暴击伤害+10%\n精炼+5、+10、+15时暴击伤害分别额外增加+5%、5%、15%\n【神射手之衣IV】+【喵喵大蟹弓IV】：敏捷+5，暴击伤害+10%\n【喵喵大蟹弓IV】+【提尔的护甲】：敏捷+5，暴击伤害+10%",
        "isCompose": 0,
        "isUpgrade": 1,
        "isHigh": 0,
        "canSlot": 1,
        "canUpgrade": 1
      },
      {
        "id": "41228",
        "name": "十字弓[1]",
        "icon": "item_41228",
        "rank": 2,
        "job": [
          "41",
          "42",
          "43",
          "44",
          "45",
          "92",
          "93",
          "94",
          "95",
          "102",
          "103",
          "104",
          "105",
          "112",
          "113",
          "114",
          "115"
        ],
        "position": 1,
        "effect": "物理攻击+57",
        "buff": "灵巧+2\n物理攻击+10\n灵巧达到95以上时远距离物理攻击力+10%",
        "isCompose": 1,
        "isUpgrade": 0,
        "isHigh": 0,
        "canSlot": 1,
        "canUpgrade": 1
      },
      {
        "id": "41226",
        "name": "炽天使之弓[1]",
        "icon": "item_41226",
        "rank": 4,
        "job": [
          "41",
          "42",
          "43",
          "44",
          "45",
          "102",
          "103",
          "104",
          "105",
          "112",
          "113",
          "114",
          "115"
        ],
        "position": 1,
        "effect": "物理攻击+72",
        "buff": "圣属性\n智力+3\n装备后获得【治愈术】Lv.1",
        "isCompose": 0,
        "isUpgrade": 0,
        "isHigh": 0,
        "canSlot": 1,
        "canUpgrade": 1
      },
      {
        "id": "41221",
        "name": "露娜弓[1]",
        "icon": "item_41221",
        "rank": 3,
        "job": [
          "41",
          "42",
          "43",
          "44",
          "45",
          "102",
          "103",
          "104",
          "105",
          "112",
          "113",
          "114",
          "115"
        ],
        "position": 1,
        "effect": "物理攻击+100",
        "buff": "物理攻击+24\n【露娜弓Ⅵ】+【月亮胸针Ⅵ】（或【皎月】）：智力+2，SP恢复+10%",
        "isCompose": 0,
        "isUpgrade": 0,
        "isHigh": 0,
        "canSlot": 1,
        "canUpgrade": 1
      }
    ]
  }
}