{
  "code": 0,
  "status": "success",
  "timeStamp": 1644809307,
  "staticDomain": "http:\/\/rosc1.zhaiwuyu.com",
  "ip": "124.74.160.162",
  "language": "cn",
  "dbArea": 0,
  "data": {
    "page": 1,
    "pageSize": 10,
    "pageCount": 3,
    "total": 22,
    "list": [
      {
        "id": "40066",
        "name": "无妄的断头台[1]",
        "icon": "item_40066",
        "rank": 4,
        "job": [
          "12",
          "13",
          "14",
          "15",
          "72",
          "73",
          "74",
          "75",
          "203",
          "204",
          "205"
        ],
        "position": 1,
        "effect": "物理攻击+625",
        "buff": "命中+50、力量+10\n忽视物理防御+5%\n每精炼+1，忽视物理防御+1%\n对MVP、Mini魔物伤害+20%\n精炼+5时，对MVP、Mini魔物的伤害+10%；精炼+10时，对MVP、Mini魔物的伤害+10%；精炼+15时，对MVP、Mini魔物的伤害+30%",
        "isCompose": 0,
        "isUpgrade": 0,
        "isHigh": 1,
        "canSlot": 0,
        "canUpgrade": 0
      },
      {
        "id": "40059",
        "name": "圣佑长枪[1]",
        "icon": "item_40059",
        "rank": 4,
        "job": [
          "12",
          "13",
          "14",
          "15",
          "72",
          "73",
          "74",
          "75",
          "203",
          "204",
          "205"
        ],
        "position": 1,
        "effect": "物理攻击+625",
        "buff": "体质+12\n生命上限+1000\n精炼每+1则物理防御+1.5%，魔法防御+1%\n对MVP、Mini魔物伤害+5%；精炼+5时，对MVP、Mini魔物伤害+5%，物伤减免+2%、魔伤减免+2%；精炼+10时，对MVP、Mini魔物伤害+10%，物伤减免+3%、魔伤减免+3%；精炼+15时，对MVP、Mini魔物伤害+10%，物伤减免+5%、魔伤减免+5%\n【青铁柱枪Ⅳ】（【圣佑长枪】）+【重靴Ⅷ】+【石制圆盾Ⅳ】（陨坚圆盾）：忽视物理防御+5%、物理攻击+5%",
        "isCompose": 0,
        "isUpgrade": 0,
        "isHigh": 1,
        "canSlot": 0,
        "canUpgrade": 0
      },
      {
        "id": "40058",
        "name": "深海恐惧[1]",
        "icon": "item_40058",
        "rank": 4,
        "job": [
          "12",
          "13",
          "14",
          "15",
          "72",
          "73",
          "74",
          "75",
          "203",
          "204",
          "205"
        ],
        "position": 1,
        "effect": "魔法攻击+360\n物理攻击+625",
        "buff": "力量+12\n敏捷+8\n使【圣十字攻击】技能倍率+150%\n精炼每+1，装备攻速+1%，【圣十字攻击】技能倍率+30%\n【枪阵-血十字】伤害+30%；精炼+10，物理攻击+5%；精炼+15，物理伤害+5%\n【旗鱼枪IV】（【深海恐惧】）+【娜迦鳞盾Ⅷ】（龙焰盾）：【枪阵-血十字】伤害+10%，【枪阵-血十字】SP消耗-10%",
        "isCompose": 0,
        "isUpgrade": 0,
        "isHigh": 1,
        "canSlot": 0,
        "canUpgrade": 0
      },
      {
        "id": "40057",
        "name": "巨龙咆哮[1]",
        "icon": "item_40057",
        "rank": 4,
        "job": [
          "14",
          "15",
          "204",
          "205"
        ],
        "position": 1,
        "effect": "魔法攻击+420\n物理攻击+625",
        "buff": "智力+6、力量+6\n魔法上限+300\n火属性攻击+5%\n每精炼+1，使【龙之吐息】【龙之吐息·水】技能的伤害+1%\n精炼+10时，使用【龙之吐息】【龙之吐息·水】技能后，物伤减免与魔伤减免+10%，持续10秒\n精炼+15时，额外增加【龙之吐息】【龙之吐息·水】技能倍率+200%",
        "isCompose": 0,
        "isUpgrade": 0,
        "isHigh": 1,
        "canSlot": 0,
        "canUpgrade": 0
      },
      {
        "id": "40055",
        "name": "戮魂长矛[1]",
        "icon": "item_40055",
        "rank": 4,
        "job": [
          "12",
          "13",
          "14",
          "15",
          "72",
          "73",
          "74",
          "75",
          "203",
          "204",
          "205"
        ],
        "position": 1,
        "effect": "物理攻击+625",
        "buff": "力量+15\n命中+25\n【连刺攻击】的SP消耗降低50%，【连刺攻击】对大型魔物伤害增加70%\n【螺旋击刺】伤害+15%\n物理技能攻击时有15%的概率获得【怒火】，【怒火】：物理攻击+5%，持续10秒\n精炼+10，物理攻击+5%；精炼+15，物理伤害+5%",
        "isCompose": 0,
        "isUpgrade": 0,
        "isHigh": 1,
        "canSlot": 0,
        "canUpgrade": 0
      },
      {
        "id": "40047",
        "name": "驯龙者长枪[1]",
        "icon": "item_40047",
        "rank": 4,
        "job": [
          "14",
          "15",
          "204",
          "205"
        ],
        "position": 1,
        "effect": "魔法攻击+420\n物理攻击+420",
        "buff": "魔法上限+200\n每精炼+1，使【龙之吐息】技能的伤害提高1%\n精炼+10时，使用【龙之吐息】技能后，物伤减免与魔伤减免+5%，持续10秒\n精炼+15时，额外增加【龙之吐息】技能倍率+100%",
        "isCompose": 0,
        "isUpgrade": 0,
        "isHigh": 0,
        "canSlot": 1,
        "canUpgrade": 1
      },
      {
        "id": "40015",
        "name": "皇家之矛[1]",
        "icon": "item_40015",
        "rank": 4,
        "job": [
          "74",
          "75"
        ],
        "position": 1,
        "effect": "魔法攻击+420\n物理攻击+420",
        "buff": "力量+5、智力+5\n生命上限+2000",
        "isCompose": 1,
        "isUpgrade": 0,
        "isHigh": 0,
        "canSlot": 1,
        "canUpgrade": 0
      },
      {
        "id": "40044",
        "name": "永恒之枪·神铸",
        "icon": "item_40044",
        "rank": 4,
        "job": [
          "12",
          "13",
          "14",
          "15",
          "72",
          "73",
          "74",
          "75",
          "203",
          "204",
          "205"
        ],
        "position": 14,
        "effect": "物理攻击+1100",
        "buff": "力量+18\n敏捷+12\n全能力+20\n装备攻速+10%\n物理伤害+18%\n忽视物理防御+35%\n人形种族伤害+50%\n生命上限+33000\n物伤减免+10%，魔伤减免+10%\n从永恒之枪中迸发出【女武神的意志】照耀6米范围内所有的敌方目标。【女武神的意志】：受到女武神的意志影响无法施放技能。该效果不能被万能药解除（沉默），持续6秒，CD：90秒",
        "isCompose": 1,
        "isUpgrade": 0,
        "isHigh": 0,
        "canSlot": 0,
        "canUpgrade": 0
      },
      {
        "id": "40043",
        "name": "永恒之枪·精锻",
        "icon": "item_40043",
        "rank": 4,
        "job": [
          "12",
          "13",
          "14",
          "15",
          "72",
          "73",
          "74",
          "75",
          "203",
          "204",
          "205"
        ],
        "position": 14,
        "effect": "物理攻击+775",
        "buff": "力量+18\n敏捷+12\n全能力+14\n装备攻速+10%\n物理伤害+15%\n忽视物理防御+25%\n人形种族伤害+40%\n生命上限+25000\n物伤减免+5%，魔伤减免+5%\n从永恒之枪中迸发出【女武神的意志】照耀6米范围内所有的敌方目标。【女武神的意志】：受到女武神的意志影响无法施放技能。该效果不能被万能药解除（沉默），持续4秒，CD：120秒",
        "isCompose": 1,
        "isUpgrade": 0,
        "isHigh": 0,
        "canSlot": 0,
        "canUpgrade": 0
      },
      {
        "id": "40042",
        "name": "永恒之枪",
        "icon": "item_40042",
        "rank": 4,
        "job": [
          "12",
          "13",
          "14",
          "15",
          "72",
          "73",
          "74",
          "75",
          "203",
          "204",
          "205"
        ],
        "position": 14,
        "effect": "物理攻击+450",
        "buff": "力量+18\n敏捷+12\n全能力+8\n装备攻速+10%\n物理伤害+12%\n忽视物理防御+15%\n人形种族伤害+30%\n生命上限+17000",
        "isCompose": 1,
        "isUpgrade": 0,
        "isHigh": 0,
        "canSlot": 0,
        "canUpgrade": 0
      }
    ],
    "partner": {
      "id": 30301,
      "pos": 6,
      "title": "交易所订阅",
      "tip": "",
      "pic": "\/\/rosc3.zhaiwuyu.com\/partner\/self\/find-exchange-202103.jpg",
      "link": "http:\/\/romel.wiki\/article\/exchange-remind"
    }
  }
}