{
  "code": 0,
  "status": "success",
  "timeStamp": 1644809312,
  "staticDomain": "http:\/\/rosc1.zhaiwuyu.com",
  "ip": "124.74.160.162",
  "language": "cn",
  "dbArea": 0,
  "data": {
    "page": 2,
    "pageSize": 10,
    "pageCount": 3,
    "total": 22,
    "list": [
      {
        "id": "40041",
        "name": "风暴之枪[1]",
        "icon": "item_40041",
        "rank": 4,
        "job": [
          "11",
          "12",
          "13",
          "14",
          "15",
          "72",
          "73",
          "74",
          "75",
          "203",
          "204",
          "205"
        ],
        "position": 1,
        "effect": "物理攻击+345",
        "buff": "力量+6\n体质+6\n【螺旋击刺】伤害+10%\n精炼+10时，物理攻击+5%、对水属性魔物伤害+10%；精炼+15时，物理攻击+5%、对水属性魔物伤害+10%\n对水属性魔物伤害+10%\n使用技能时概率触发【风暴之力】效果，【风暴之力】：物理攻击+10%，对水属性魔物伤害+10%，持续10秒",
        "isCompose": 0,
        "isUpgrade": 0,
        "isHigh": 0,
        "canSlot": 1,
        "canUpgrade": 1
      },
      {
        "id": "40038",
        "name": "青铁柱枪[1]",
        "icon": "item_40038",
        "rank": 3,
        "job": [
          "12",
          "13",
          "14",
          "15",
          "72",
          "73",
          "74",
          "75",
          "203",
          "204",
          "205"
        ],
        "position": 1,
        "effect": "物理攻击+353",
        "buff": "体质+9\n精炼每+1则物理防御+1.5%，魔法防御+1%\n【青铁柱枪Ⅳ】（【圣佑长枪】）+【重靴Ⅷ】+【石制圆盾Ⅳ】（陨坚圆盾）：忽视物理防御+5%、物理攻击+5%",
        "isCompose": 0,
        "isUpgrade": 1,
        "isHigh": 0,
        "canSlot": 1,
        "canUpgrade": 1
      },
      {
        "id": "40034",
        "name": "锥骑枪[1]",
        "icon": "item_40034",
        "rank": 3,
        "job": [
          "11",
          "12",
          "13",
          "14",
          "15",
          "72",
          "73",
          "74",
          "75",
          "203",
          "204",
          "205"
        ],
        "position": 1,
        "effect": "魔法攻击+180\n物理攻击+180",
        "buff": "力量+2\n装备攻速+10%\n圣属性攻击+10%",
        "isCompose": 1,
        "isUpgrade": 0,
        "isHigh": 0,
        "canSlot": 1,
        "canUpgrade": 1
      },
      {
        "id": "40031",
        "name": "重炮长矛[1]",
        "icon": "item_40031",
        "rank": 3,
        "job": [
          "11",
          "12",
          "13",
          "14",
          "15",
          "72",
          "73",
          "74",
          "75",
          "203",
          "204",
          "205"
        ],
        "position": 1,
        "effect": "魔法攻击+270\n物理攻击+270",
        "buff": "力量+8\n装备攻速+15%\n圣属性攻击+20%",
        "isCompose": 0,
        "isUpgrade": 1,
        "isHigh": 0,
        "canSlot": 1,
        "canUpgrade": 1
      },
      {
        "id": "40020",
        "name": "死神之镰[1]",
        "icon": "item_40020",
        "rank": 4,
        "job": [
          "12",
          "13",
          "14",
          "15",
          "72",
          "73",
          "74",
          "75",
          "203",
          "204",
          "205"
        ],
        "position": 1,
        "effect": "物理攻击+300",
        "buff": "命中+30\n力量+8\n获得技能【巴风特之怒】：立即对当前目标造成（1点至（持有者BaseLv * 调整值）点伤害\n持有者造成的任何伤害都会以一定比例为【巴风特之怒】累积调整值，精炼每+2，调整值提升5%",
        "isCompose": 0,
        "isUpgrade": 0,
        "isHigh": 0,
        "canSlot": 1,
        "canUpgrade": 1
      },
      {
        "id": "40017",
        "name": "旗鱼枪[1]",
        "icon": "item_40033",
        "rank": 4,
        "job": [
          "12",
          "13",
          "14",
          "15",
          "72",
          "73",
          "74",
          "75",
          "203",
          "204",
          "205"
        ],
        "position": 1,
        "effect": "魔法攻击+247\n物理攻击+247",
        "buff": "力量+4\n敏捷+4\n使【圣十字攻击】技能倍率+100%\n精炼每+1装备攻速+1%，【圣十字攻击】技能倍率+30%\n【旗鱼枪IV】（【深海恐惧】）+【娜迦鳞盾Ⅷ】（龙焰盾）：【枪阵-血十字】伤害+10%，【枪阵-血十字】SP消耗-10%",
        "isCompose": 0,
        "isUpgrade": 0,
        "isHigh": 0,
        "canSlot": 1,
        "canUpgrade": 1
      },
      {
        "id": "40003",
        "name": "斧锤长矛[1]",
        "icon": "item_40003",
        "rank": 3,
        "job": [
          "12",
          "13",
          "14",
          "15",
          "72",
          "73",
          "74",
          "75",
          "203",
          "204",
          "205"
        ],
        "position": 1,
        "effect": "物理攻击+227",
        "buff": "力量+6\n命中+25\n【连刺攻击】的SP消耗降低50%",
        "isCompose": 0,
        "isUpgrade": 1,
        "isHigh": 0,
        "canSlot": 1,
        "canUpgrade": 1
      },
      {
        "id": "40021",
        "name": "长角之矛[1]",
        "icon": "item_40021",
        "rank": 4,
        "job": [
          "12",
          "13",
          "14",
          "15",
          "72",
          "73",
          "74",
          "75",
          "203",
          "204",
          "205"
        ],
        "position": 1,
        "effect": "物理攻击+180",
        "buff": "圣属性\n装备攻速+10%\n普攻时有概率使目标出血持续10秒\n可使用【解毒】技能",
        "isCompose": 0,
        "isUpgrade": 0,
        "isHigh": 0,
        "canSlot": 1,
        "canUpgrade": 0
      },
      {
        "id": "40016",
        "name": "柱枪[1]",
        "icon": "item_40016",
        "rank": 3,
        "job": [
          "11",
          "12",
          "13",
          "14",
          "15",
          "72",
          "73",
          "74",
          "75",
          "203",
          "204",
          "205"
        ],
        "position": 1,
        "effect": "物理攻击+202",
        "buff": "体质+3\n精炼每+1物理防御+1%，魔法防御+0.5%",
        "isCompose": 1,
        "isUpgrade": 0,
        "isHigh": 0,
        "canSlot": 1,
        "canUpgrade": 1
      },
      {
        "id": "40011",
        "name": "修尔特长矛[1]",
        "icon": "item_40011",
        "rank": 3,
        "job": [
          "12",
          "13",
          "14",
          "15",
          "72",
          "73",
          "74",
          "75",
          "203",
          "204",
          "205"
        ],
        "position": 1,
        "effect": "物理攻击+185",
        "buff": "命中+25\n对MVP、Mini魔物伤害+10%",
        "isCompose": 0,
        "isUpgrade": 0,
        "isHigh": 0,
        "canSlot": 1,
        "canUpgrade": 1
      }
    ]
  }
}