{
  "code": 0,
  "status": "success",
  "timeStamp": 1644809418,
  "staticDomain": "http:\/\/rosc1.zhaiwuyu.com",
  "ip": "124.74.160.162",
  "language": "cn",
  "dbArea": 0,
  "data": {
    "page": 1,
    "pageSize": 10,
    "pageCount": 3,
    "total": 29,
    "list": [
      {
        "id": "40784",
        "name": "易燃短剑[1]",
        "icon": "item_40784",
        "rank": 4,
        "job": [
          "0"
        ],
        "position": 1,
        "effect": "物理攻击+448",
        "buff": "力量+4、灵巧+4\n火属性\n每精炼+1，物理穿刺+1%；精炼+15时，物理穿刺+5%",
        "isCompose": 0,
        "isUpgrade": 0,
        "isHigh": 0,
        "canSlot": 1,
        "canUpgrade": 0
      },
      {
        "id": "40781",
        "name": "魔短剑·暗噬[1]",
        "icon": "item_40781",
        "rank": 4,
        "job": [
          "32",
          "33",
          "34",
          "35",
          "92",
          "93",
          "94",
          "95",
          "152",
          "153",
          "154",
          "155"
        ],
        "position": 1,
        "effect": "物理攻击+448",
        "buff": "力量+6\n装备者的物理防御和魔法防御下降50%\n攻击目标时，10%概率最终伤害翻倍\n精炼+5时，最终伤害翻倍概率提升至15%；精炼+10时，最终伤害翻倍概率提升至20%；精炼+15时，最终伤害翻倍概率提升至30%",
        "isCompose": 0,
        "isUpgrade": 0,
        "isHigh": 0,
        "canSlot": 1,
        "canUpgrade": 0
      },
      {
        "id": "40320",
        "name": "妖剑弑光[1]",
        "icon": "item_40320",
        "rank": 4,
        "job": [
          "11",
          "12",
          "13",
          "14",
          "15",
          "31",
          "32",
          "33",
          "34",
          "35",
          "61",
          "62",
          "63",
          "64",
          "65",
          "72",
          "73",
          "74",
          "75",
          "92",
          "93",
          "94",
          "95",
          "132",
          "133",
          "134",
          "135",
          "203",
          "204",
          "205",
          "213",
          "214",
          "215"
        ],
        "position": 1,
        "effect": "物理攻击+500",
        "buff": "暗属性\n灵巧+6、力量+6\n对念属性魔物伤害+15%\n当力量达到150时，物理攻击+5%\n每精炼+1，对念属性魔物伤害+2%",
        "isCompose": 0,
        "isUpgrade": 0,
        "isHigh": 0,
        "canSlot": 1,
        "canUpgrade": 0
      },
      {
        "id": "40773",
        "name": "除灵短剑[1]",
        "icon": "item_40773",
        "rank": 4,
        "job": [
          "31",
          "32",
          "33",
          "34",
          "35",
          "92",
          "93",
          "94",
          "95"
        ],
        "position": 1,
        "effect": "物理攻击+440",
        "buff": "力量+6、敏捷+6\n对恶魔种族魔物伤害+30%\n对人形种族魔物伤害+15%\n受到恶魔种族魔物伤害-15%",
        "isCompose": 0,
        "isUpgrade": 0,
        "isHigh": 0,
        "canSlot": 1,
        "canUpgrade": 0
      },
      {
        "id": "40767",
        "name": "潜行者短剑[1]",
        "icon": "item_40767",
        "rank": 4,
        "job": [
          "11",
          "12",
          "13",
          "14",
          "15",
          "21",
          "22",
          "23",
          "24",
          "25",
          "31",
          "32",
          "33",
          "34",
          "35",
          "61",
          "62",
          "63",
          "64",
          "65",
          "72",
          "73",
          "74",
          "75",
          "82",
          "83",
          "84",
          "85",
          "92",
          "93",
          "94",
          "95",
          "132",
          "133",
          "134",
          "135",
          "151",
          "152",
          "153",
          "154",
          "155",
          "203",
          "204",
          "205",
          "213",
          "214",
          "215",
          "223",
          "224",
          "225"
        ],
        "position": 1,
        "effect": "物理攻击+600",
        "buff": "力量+20\n对中型魔物伤害+10%\n普通攻击时较高概率使物理攻击+30持续15秒，该效果最多可叠加三层；精炼+10时，普通攻击触发物理攻击增加效果从三层变为五层\n力量达到95时物理攻击力+10%\n力量达到120时物理攻击力+5%\n力量达到150时物理攻击力+5%\n力量达到240时物理攻击力+5%\n精炼+5时，物理攻击+5%；精炼+10时，物理攻击+5%；精炼+15时，物理伤害+5%\n【潜行者短剑】+【侠盗之衣Ⅷ】：对小型目标伤害+15%，对中型目标伤害+5%，对大型目标伤害+10%",
        "isCompose": 0,
        "isUpgrade": 0,
        "isHigh": 1,
        "canSlot": 0,
        "canUpgrade": 0
      },
      {
        "id": "40766",
        "name": "荒漠风暴[1]",
        "icon": "item_40766",
        "rank": 4,
        "job": [
          "32",
          "33",
          "34",
          "35",
          "92",
          "93",
          "94",
          "95"
        ],
        "position": 1,
        "effect": "物理攻击+600",
        "buff": "命中+50\n增加30%对大型魔物的伤害\n增加10%对中型魔物的伤害\n普攻时概率使目标降低攻击速度持续一定时间\n每精炼+1，忽视物理防御+1%\n精炼+5时，物理攻击+5%；精炼+10时，增加5%对中型魔物的伤害；精炼+12时，增加10%对大型魔物的伤害；精炼+15时，【音速投掷】技能倍率+100%，增加5%对中型魔物的伤害",
        "isCompose": 0,
        "isUpgrade": 0,
        "isHigh": 1,
        "canSlot": 0,
        "canUpgrade": 0
      },
      {
        "id": "40754",
        "name": "银槲之剑·神铸",
        "icon": "item_40754",
        "rank": 4,
        "job": [
          "12",
          "13",
          "14",
          "15",
          "32",
          "33",
          "34",
          "35",
          "72",
          "73",
          "74",
          "75",
          "92",
          "93",
          "94",
          "95",
          "152",
          "153",
          "154",
          "155",
          "203",
          "204",
          "205"
        ],
        "position": 14,
        "effect": "物理攻击+1030",
        "buff": "力量+18\n体质+12\n全能力+20\n命中+50\n物理攻击+48%\n人形种族伤害+50%\n生命上限+32000\n物伤减免+10%，魔伤减免+10%\n银槲之剑施放虚无力量可能让使用者在【虚无空间】内进行短距离瞬移。【虚无空间】：玩家可以瞬间移动至6米范围内任何位置，银槲之剑的力量将可以使玩家在第一次使用后的6秒内使用第二次虚无空间（使用后1秒内不能连续使用）。不过虚无空间的力量过于强大，每次使用后都会在原位置残存虚无空间的能量。残存的能量能被所有人察觉。每次使用【虚无空间】后都会将玩家进入【虚空隐匿】状态，【虚空隐匿】会让使用者进入隐匿，持续5秒。【虚空隐匿】状态下首次攻击提升60%伤害，CD：60秒。",
        "isCompose": 1,
        "isUpgrade": 0,
        "isHigh": 0,
        "canSlot": 0,
        "canUpgrade": 0
      },
      {
        "id": "40753",
        "name": "银槲之剑·精锻",
        "icon": "item_40753",
        "rank": 4,
        "job": [
          "12",
          "13",
          "14",
          "15",
          "32",
          "33",
          "34",
          "35",
          "72",
          "73",
          "74",
          "75",
          "92",
          "93",
          "94",
          "95",
          "152",
          "153",
          "154",
          "155",
          "203",
          "204",
          "205"
        ],
        "position": 14,
        "effect": "物理攻击+755",
        "buff": "力量+18\n体质+12\n全能力+14\n命中+50\n物理攻击+36%\n人形种族伤害+40%\n生命上限+23500\n物伤减免+5%，魔伤减免+5%\n银槲之剑施放虚无力量可能让使用者在【虚无空间】内进行短距离瞬移。【虚无空间】：玩家可以瞬间移动至6米范围内任何位置，银槲之剑的力量将可以使玩家在第一次使用后的6秒内使用第二次虚无空间（使用后1秒内不能连续使用）。不过虚无空间的力量过于强大，每次使用后都会在原位置残存虚无空间的能量。残存的能量能被所有人察觉。每次使用【虚无空间】后都会将玩家进入【虚空隐匿】状态，【虚空隐匿】会让使用者进入隐匿，持续5秒。【虚空隐匿】状态下首次攻击提升30%伤害，CD：90秒。",
        "isCompose": 1,
        "isUpgrade": 0,
        "isHigh": 0,
        "canSlot": 0,
        "canUpgrade": 0
      },
      {
        "id": "40752",
        "name": "银槲之剑",
        "icon": "item_40752",
        "rank": 4,
        "job": [
          "12",
          "13",
          "14",
          "15",
          "32",
          "33",
          "34",
          "35",
          "72",
          "73",
          "74",
          "75",
          "92",
          "93",
          "94",
          "95",
          "152",
          "153",
          "154",
          "155",
          "203",
          "204",
          "205"
        ],
        "position": 14,
        "effect": "物理攻击+480",
        "buff": "力量+18\n体质+12\n全能力+8\n命中+50\n物理攻击+24%\n人形种族伤害+30%\n生命上限+15000",
        "isCompose": 1,
        "isUpgrade": 0,
        "isHigh": 0,
        "canSlot": 0,
        "canUpgrade": 0
      },
      {
        "id": "40747",
        "name": "黑翼[1]",
        "icon": "item_40747",
        "rank": 3,
        "job": [
          "92",
          "93",
          "94",
          "95"
        ],
        "position": 1,
        "effect": "物理攻击+144",
        "buff": "敏捷+4\n装备攻速+4%\n每精炼+1，普通攻击力提高30点\n【黑翼V】+【放浪者外套IV】：力量+5，忽视物理防御+10%\n【黑翼V】+【狂徒外套】：力量+5，忽视物理防御+10%",
        "isCompose": 1,
        "isUpgrade": 0,
        "isHigh": 0,
        "canSlot": 1,
        "canUpgrade": 1
      }
    ],
    "partner": {
      "id": 30301,
      "pos": 6,
      "title": "交易所订阅",
      "tip": "",
      "pic": "\/\/rosc3.zhaiwuyu.com\/partner\/self\/find-exchange-202103.jpg",
      "link": "http:\/\/romel.wiki\/article\/exchange-remind"
    }
  }
}