{
  "code": 0,
  "status": "success",
  "timeStamp": 1644809428,
  "staticDomain": "http:\/\/rosc1.zhaiwuyu.com",
  "ip": "124.74.160.162",
  "language": "cn",
  "dbArea": 0,
  "data": {
    "page": 3,
    "pageSize": 10,
    "pageCount": 3,
    "total": 29,
    "list": [
      {
        "id": "40734",
        "name": "火灵短剑[1]",
        "icon": "item_40734",
        "rank": 3,
        "job": [
          "0"
        ],
        "position": 1,
        "effect": "物理攻击+120",
        "buff": "火属性\n力量+5\n精炼每+1物理伤害+1%",
        "isCompose": 1,
        "isUpgrade": 0,
        "isHigh": 0,
        "canSlot": 1,
        "canUpgrade": 0
      },
      {
        "id": "40733",
        "name": "风灵短剑[1]",
        "icon": "item_40733",
        "rank": 3,
        "job": [
          "0"
        ],
        "position": 1,
        "effect": "物理攻击+120",
        "buff": "风属性\n力量+5\n精炼每+1物理伤害+1%",
        "isCompose": 1,
        "isUpgrade": 0,
        "isHigh": 0,
        "canSlot": 1,
        "canUpgrade": 0
      },
      {
        "id": "40730",
        "name": "真·逗猫棒[1]",
        "icon": "toy_506",
        "rank": 3,
        "job": [
          "1",
          "11",
          "12",
          "13",
          "14",
          "15",
          "21",
          "22",
          "23",
          "24",
          "25",
          "31",
          "32",
          "33",
          "34",
          "35",
          "51",
          "52",
          "53",
          "54",
          "55",
          "61",
          "62",
          "63",
          "64",
          "65",
          "72",
          "73",
          "74",
          "75",
          "82",
          "83",
          "84",
          "85",
          "92",
          "93",
          "94",
          "95",
          "132",
          "133",
          "134",
          "135",
          "150",
          "151",
          "152",
          "153",
          "154",
          "155",
          "203",
          "204",
          "205",
          "213",
          "214",
          "215",
          "223",
          "224",
          "225"
        ],
        "position": 1,
        "effect": "物理攻击+96",
        "buff": "普攻时一定概率使目标陷入眩晕状态持续一定时间",
        "isCompose": 0,
        "isUpgrade": 0,
        "isHigh": 0,
        "canSlot": 1,
        "canUpgrade": 1
      },
      {
        "id": "40723",
        "name": "沙漠之风[1]",
        "icon": "item_40723",
        "rank": 3,
        "job": [
          "32",
          "33",
          "34",
          "35",
          "92",
          "93",
          "94",
          "95"
        ],
        "position": 1,
        "effect": "物理攻击+210",
        "buff": "命中+40\n增加30%对大型魔物的伤害\n增加10%对中型魔物的伤害\n普攻时概率使目标降低攻击速度持续一定时间",
        "isCompose": 0,
        "isUpgrade": 1,
        "isHigh": 0,
        "canSlot": 1,
        "canUpgrade": 1
      },
      {
        "id": "40716",
        "name": "神圣大驹短剑[1]",
        "icon": "item_40716",
        "rank": 3,
        "job": [
          "11",
          "12",
          "13",
          "14",
          "15",
          "21",
          "22",
          "23",
          "24",
          "25",
          "31",
          "32",
          "33",
          "34",
          "35",
          "61",
          "62",
          "63",
          "64",
          "65",
          "72",
          "73",
          "74",
          "75",
          "82",
          "83",
          "84",
          "85",
          "92",
          "93",
          "94",
          "95",
          "132",
          "133",
          "134",
          "135",
          "151",
          "152",
          "153",
          "154",
          "155",
          "203",
          "204",
          "205",
          "213",
          "214",
          "215",
          "223",
          "224",
          "225"
        ],
        "position": 1,
        "effect": "物理攻击+240",
        "buff": "力量+5\n普通攻击时较高概率使物理攻击+30持续15秒，该效果最多可叠加三层\n力量达到95时物理攻击力+10%\n力量达到120时物理攻击力+5%\n力量达到150时物理攻击力+5%\n【侠盗之衣Ⅷ】+【神圣大驹短剑Ⅷ】：对小型目标伤害+15%，对中型目标伤害+5%，对大型目标伤害+10%\n【神圣大驹短剑Ⅷ】+【屏息者之甲】：对小型目标伤害+15%，对中型目标伤害+5%，对大型目标伤害+10%",
        "isCompose": 0,
        "isUpgrade": 1,
        "isHigh": 0,
        "canSlot": 1,
        "canUpgrade": 1
      },
      {
        "id": "40711",
        "name": "华丽短剑[1]",
        "icon": "item_40711",
        "rank": 3,
        "job": [
          "32",
          "33",
          "34",
          "35",
          "92",
          "93",
          "94",
          "95"
        ],
        "position": 1,
        "effect": "物理攻击+360",
        "buff": "普攻时有10%概率标记自己为强袭状态：使盗贼系的下一次技能伤害+50%\n强袭状态下普通攻击伤害+10%",
        "isCompose": 1,
        "isUpgrade": 0,
        "isHigh": 0,
        "canSlot": 1,
        "canUpgrade": 1
      },
      {
        "id": "40724",
        "name": "沙漠之暮[1]",
        "icon": "item_40724",
        "rank": 2,
        "job": [
          "31",
          "32",
          "33",
          "34",
          "35",
          "92",
          "93",
          "94",
          "95"
        ],
        "position": 1,
        "effect": "物理攻击+144",
        "buff": "命中+30\n增加25%对大型魔物的伤害",
        "isCompose": 1,
        "isUpgrade": 0,
        "isHigh": 0,
        "canSlot": 1,
        "canUpgrade": 1
      },
      {
        "id": "40719",
        "name": "巨毒短剑[1]",
        "icon": "item_40719",
        "rank": 2,
        "job": [
          "31",
          "32",
          "33",
          "34",
          "35",
          "92",
          "93",
          "94",
          "95"
        ],
        "position": 1,
        "effect": "物理攻击+126",
        "buff": "有较高几率在普攻时使目标陷入中毒状态\n精炼每+1，忽视物理防御+2%",
        "isCompose": 1,
        "isUpgrade": 0,
        "isHigh": 0,
        "canSlot": 1,
        "canUpgrade": 1
      },
      {
        "id": "40715",
        "name": "幸运短剑[1]",
        "icon": "item_40715",
        "rank": 3,
        "job": [
          "32",
          "33",
          "34",
          "35"
        ],
        "position": 1,
        "effect": "物理攻击+210",
        "buff": "智力+10\n生命上限+600\n心灵震波伤害+20%\n精炼+15时使心灵震波受到远程物理伤害加成",
        "isCompose": 0,
        "isUpgrade": 0,
        "isHigh": 0,
        "canSlot": 1,
        "canUpgrade": 1
      }
    ]
  }
}