{
  "code": 0,
  "status": "success",
  "timeStamp": 1642842430,
  "staticDomain": "http:\/\/rosc1.zhaiwuyu.com",
  "ip": "101.87.200.160",
  "language": "cn",
  "dbArea": 0,
  "data": {
    "page": 2,
    "pageSize": 30,
    "pageCount": 68,
    "total": 2037,
    "list": [
      {
        "id": "48775",
        "name": "蝶翼假面",
        "icon": "item_48775",
        "rank": 3,
        "position": 8,
        "effect": "",
        "buff": "生命上限+50\n魔法防御+10",
        "adventureBuff": "",
        "storageBuff": "魔法防御+1",
        "storageRefineBuff": null,
        "isCompose": 0
      },
      {
        "id": "48772",
        "name": "夜魔之羽",
        "icon": "item_48772",
        "rank": 3,
        "position": 9,
        "effect": "",
        "buff": "物理穿刺+2%\n忽视物理防御+4%",
        "adventureBuff": "魔法攻击+3，生命上限+30",
        "storageBuff": "物理防御+2，生命上限+30",
        "storageRefineBuff": null,
        "isCompose": 1
      },
      {
        "id": "48771",
        "name": "王权永恒",
        "icon": "item_48771",
        "rank": 3,
        "position": 9,
        "effect": "",
        "buff": "全能力+1\n对MVP、Mini魔物造成的伤害+8%",
        "adventureBuff": "",
        "storageBuff": "魔法攻击+3，生命上限+30",
        "storageRefineBuff": null,
        "isCompose": 0
      },
      {
        "id": "48770",
        "name": "贵族传统",
        "icon": "item_48770",
        "rank": 2,
        "position": 8,
        "effect": "",
        "buff": "全能力+2\n魔法攻击+2%",
        "adventureBuff": "",
        "storageBuff": "魔法防御+2",
        "storageRefineBuff": null,
        "isCompose": 0
      },
      {
        "id": "48130",
        "name": "塔妮的香蕉船",
        "icon": "item_48130",
        "rank": 4,
        "position": 11,
        "effect": "",
        "buff": "全能力+1\n每精炼+1，技能伤害+0.5%",
        "adventureBuff": "物理攻击+8",
        "storageBuff": "物理防御+3，生命上限+45",
        "storageRefineBuff": null,
        "isCompose": 1
      },
      {
        "id": "48129",
        "name": "小黑鸽",
        "icon": "item_48129",
        "rank": 1,
        "position": 11,
        "effect": "",
        "buff": "生命上限+50\n魔法攻击+20",
        "adventureBuff": "",
        "storageBuff": "魔法防御+1",
        "storageRefineBuff": null,
        "isCompose": 0
      },
      {
        "id": "48128",
        "name": "小白鸽",
        "icon": "item_48128",
        "rank": 1,
        "position": 11,
        "effect": "",
        "buff": "生命上限+50\n物理攻击+20",
        "adventureBuff": "",
        "storageBuff": "物理防御+1",
        "storageRefineBuff": null,
        "isCompose": 0
      },
      {
        "id": "48127",
        "name": "力哈尔特的诅咒",
        "icon": "item_48127",
        "rank": 2,
        "position": 11,
        "effect": "",
        "buff": "生命上限+200\n人形种族加伤+2%",
        "adventureBuff": "生命上限+30",
        "storageBuff": "魔法防御+2",
        "storageRefineBuff": null,
        "isCompose": 1
      },
      {
        "id": "48126",
        "name": "雪鸮先生",
        "icon": "item_48126",
        "rank": 3,
        "position": 11,
        "effect": "",
        "buff": "全能力+1\n技能伤害+2%",
        "adventureBuff": "",
        "storageBuff": "魔法攻击+3，生命上限+30",
        "storageRefineBuff": null,
        "isCompose": 0
      },
      {
        "id": "48124",
        "name": "迷梦猫尾",
        "icon": "item_48124",
        "rank": 4,
        "position": 11,
        "effect": "",
        "buff": "每精炼+1，普攻伤害+0.5%",
        "adventureBuff": "物理攻击+8",
        "storageBuff": "物理防御+3，生命上限+45",
        "storageRefineBuff": null,
        "isCompose": 1
      },
      {
        "id": "48123",
        "name": "伞蜥气球",
        "icon": "item_48123",
        "rank": 2,
        "position": 11,
        "effect": "",
        "buff": "暴击+2\n暴击伤害+3%",
        "adventureBuff": "物理攻击+3",
        "storageBuff": "生命上限+30",
        "storageRefineBuff": null,
        "isCompose": 1
      },
      {
        "id": "48122",
        "name": "恶魔锹型虫",
        "icon": "item_48122",
        "rank": 2,
        "position": 11,
        "effect": "",
        "buff": "体质+2\n物伤减免+2%",
        "adventureBuff": "魔法防御+2",
        "storageBuff": "生命上限+30",
        "storageRefineBuff": null,
        "isCompose": 1
      },
      {
        "id": "48121",
        "name": "小白鹫",
        "icon": "item_48121",
        "rank": 3,
        "position": 11,
        "effect": "",
        "buff": "移动速度+5%、装备攻速+5%\n精炼+10时，移动速度+5%、装备攻速+5%",
        "adventureBuff": "生命上限+60",
        "storageBuff": "魔法攻击+6",
        "storageRefineBuff": null,
        "isCompose": 1
      },
      {
        "id": "48119",
        "name": "王室威仪",
        "icon": "item_48119",
        "rank": 3,
        "position": 11,
        "effect": "",
        "buff": "技能伤害+2%\n使用技能Sp消耗量-10%",
        "adventureBuff": "",
        "storageBuff": "物理攻击+3，生命上限+30",
        "storageRefineBuff": null,
        "isCompose": 0
      },
      {
        "id": "47276",
        "name": "永恒的乐章",
        "icon": "item_47276",
        "rank": 4,
        "position": 10,
        "effect": "",
        "buff": "全能力+5\n物理穿刺+5%\n魔法穿刺+5%",
        "adventureBuff": "",
        "storageBuff": "生命上限+90",
        "storageRefineBuff": null,
        "isCompose": 0
      },
      {
        "id": "47272",
        "name": "大航海之证",
        "icon": "item_47272",
        "rank": 2,
        "position": 10,
        "effect": "",
        "buff": "全能力+1\n生命上限+800",
        "adventureBuff": "",
        "storageBuff": "生命上限+30",
        "storageRefineBuff": null,
        "isCompose": 0
      },
      {
        "id": "47271",
        "name": "王室之耀",
        "icon": "item_47271",
        "rank": 2,
        "position": 10,
        "effect": "",
        "buff": "全能力+1\n物理攻击+3%\n魔法攻击+3%",
        "adventureBuff": "",
        "storageBuff": "生命上限+30",
        "storageRefineBuff": null,
        "isCompose": 0
      },
      {
        "id": "47270",
        "name": "法医背包",
        "icon": "item_47270",
        "rank": 1,
        "position": 10,
        "effect": "",
        "buff": "生命上限+100\n魔法上限+25",
        "adventureBuff": "",
        "storageBuff": "生命上限+15",
        "storageRefineBuff": null,
        "isCompose": 0
      },
      {
        "id": "47269",
        "name": "长夜晦明",
        "icon": "item_47269",
        "rank": 3,
        "position": 10,
        "effect": "",
        "buff": "全能力+1\n普攻伤害+4%",
        "adventureBuff": "",
        "storageBuff": "物理攻击+3，生命上限+30",
        "storageRefineBuff": null,
        "isCompose": 0
      },
      {
        "id": "47267",
        "name": "幼鹿背包",
        "icon": "item_47267",
        "rank": 3,
        "position": 10,
        "effect": "",
        "buff": "物伤减免+4%\n魔伤减免+4%\n人形种族减伤+6%",
        "adventureBuff": "生命上限+60",
        "storageBuff": "魔法攻击+3，生命上限+30",
        "storageRefineBuff": null,
        "isCompose": 1
      },
      {
        "id": "47265",
        "name": "公主茶会",
        "icon": "item_47265",
        "rank": 2,
        "position": 10,
        "effect": "",
        "buff": "全能力+2\n物理攻击+2%",
        "adventureBuff": "",
        "storageBuff": "物理防御+2",
        "storageRefineBuff": null,
        "isCompose": 0
      },
      {
        "id": "25185",
        "name": "绯红王者",
        "icon": "item_25185",
        "rank": 2,
        "position": 12,
        "effect": "",
        "buff": "移动速度+25%",
        "adventureBuff": "生命上限+20",
        "storageBuff": "",
        "storageRefineBuff": null,
        "isCompose": 0
      },
      {
        "id": "3005296",
        "name": "圣诞之翼",
        "icon": "item_3005296",
        "rank": 5,
        "position": 10,
        "effect": "",
        "buff": "全能力+2\n物理穿刺+4%\n魔法穿刺+4%",
        "adventureBuff": "",
        "storageBuff": "生命上限+90",
        "storageRefineBuff": null,
        "isCompose": 0
      },
      {
        "id": "3005295",
        "name": "棉花糖胡须",
        "icon": "item_3005295",
        "rank": 3,
        "position": 9,
        "effect": "",
        "buff": "全能力+3\n物理伤害+3%",
        "adventureBuff": "",
        "storageBuff": "物理攻击+3，生命上限+30",
        "storageRefineBuff": null,
        "isCompose": 0
      },
      {
        "id": "3005294",
        "name": "甜甜圈眼镜",
        "icon": "item_3005294",
        "rank": 3,
        "position": 8,
        "effect": "",
        "buff": "物理攻击+80\n暴击伤害+6%",
        "adventureBuff": "",
        "storageBuff": "魔法攻击+3，生命上限+30",
        "storageRefineBuff": null,
        "isCompose": 0
      },
      {
        "id": "3005293",
        "name": "圣诞波利叠叠乐",
        "icon": "item_3005293",
        "rank": 3,
        "position": 11,
        "effect": "",
        "buff": "对天使种族魔物伤害+8%\n受到天使种族魔物伤害-8%",
        "adventureBuff": "",
        "storageBuff": "魔法攻击+6",
        "storageRefineBuff": null,
        "isCompose": 0
      },
      {
        "id": "3005292",
        "name": "《圣诞百科全书》",
        "icon": "item_3005292",
        "rank": 3,
        "position": 10,
        "effect": "",
        "buff": "物伤减免+4%\n魔伤减免+4%\n眩晕抵抗+10%",
        "adventureBuff": "",
        "storageBuff": "物理攻击+6",
        "storageRefineBuff": null,
        "isCompose": 0
      },
      {
        "id": "3005291",
        "name": "彩球毛线帽",
        "icon": "item_3005291",
        "rank": 3,
        "position": 7,
        "effect": "",
        "buff": "智力+10\n魔法上限+6%",
        "adventureBuff": "",
        "storageBuff": "生命上限+60",
        "storageRefineBuff": null,
        "isCompose": 0
      },
      {
        "id": "3005289",
        "name": "初雪羽帽头饰系列",
        "icon": "item_3005289",
        "rank": 3,
        "position": 7,
        "effect": "",
        "buff": "生命上限+3%\n魔伤减免+3%",
        "adventureBuff": "",
        "storageBuff": "物理防御+2，生命上限+30",
        "storageRefineBuff": null,
        "isCompose": 0
      },
      {
        "id": "3005284",
        "name": "冬幕礼帽头饰系列",
        "icon": "item_3005284",
        "rank": 3,
        "position": 7,
        "effect": "",
        "buff": "生命上限+3%\n物伤减免+3%",
        "adventureBuff": "",
        "storageBuff": "魔法防御+2，生命上限+30",
        "storageRefineBuff": null,
        "isCompose": 0
      }
    ]
  }
}