{
  "code": 0,
  "status": "success",
  "timeStamp": 1643702303,
  "staticDomain": "http:\/\/rosc1.zhaiwuyu.com",
  "ip": "101.87.201.112",
  "language": "cn",
  "dbArea": 0,
  "data": {
    "page": 8,
    "pageSize": 30,
    "pageCount": 70,
    "total": 2073,
    "list": [
      {
        "id": "3004002",
        "name": "热带天堂",
        "icon": "item_3004002",
        "rank": 3,
        "position": 7,
        "effect": "",
        "buff": "全能力+2\n物理伤害+3%",
        "adventureBuff": "",
        "storageBuff": "物理防御+2，生命上限+30",
        "storageRefineBuff": null,
        "isCompose": 0
      },
      {
        "id": "3003906",
        "name": "雨林之心系列",
        "icon": "item_3003906",
        "rank": 2,
        "position": 7,
        "effect": "",
        "buff": "生命上限+100\n体质+5",
        "adventureBuff": "",
        "storageBuff": "生命上限+30",
        "storageRefineBuff": null,
        "isCompose": 0
      },
      {
        "id": "3003790",
        "name": "七分鸡",
        "icon": "item_3003790",
        "rank": 1,
        "position": 12,
        "effect": "",
        "buff": "移动速度+25%",
        "adventureBuff": "生命上限+20",
        "storageBuff": "",
        "storageRefineBuff": null,
        "isCompose": 0
      },
      {
        "id": "3003522",
        "name": "高飞趴趴",
        "icon": "item_3003522",
        "rank": 3,
        "position": 7,
        "effect": "",
        "buff": "全能力+2\n对魔物（包含MVP、Mini魔物）增伤+6%",
        "adventureBuff": "",
        "storageBuff": "生命上限+60",
        "storageRefineBuff": null,
        "isCompose": 0
      },
      {
        "id": "3003505",
        "name": "公主背包系列背饰",
        "icon": "item_3003505",
        "rank": 3,
        "position": 10,
        "effect": "",
        "buff": "物伤减免+4%\n魔伤减免+4%\n受到暗属性伤害-8%",
        "adventureBuff": "",
        "storageBuff": "魔法防御+2，生命上限+30",
        "storageRefineBuff": null,
        "isCompose": 0
      },
      {
        "id": "3003502",
        "name": "爱丽儿·幻梦",
        "icon": "item_3003502",
        "rank": 3,
        "position": 11,
        "effect": "",
        "buff": "移动速度+5%\n魔法伤害+2%",
        "adventureBuff": "",
        "storageBuff": "物理攻击+3，生命上限+30",
        "storageRefineBuff": null,
        "isCompose": 0
      },
      {
        "id": "3003501",
        "name": "花木兰·出征",
        "icon": "item_3003501",
        "rank": 3,
        "position": 11,
        "effect": "",
        "buff": "全能力+2\n物理穿刺+2%",
        "adventureBuff": "",
        "storageBuff": "魔法攻击+6",
        "storageRefineBuff": null,
        "isCompose": 0
      },
      {
        "id": "3003493",
        "name": "公主妆面系列头饰",
        "icon": "item_3003493",
        "rank": 3,
        "position": 7,
        "effect": "",
        "buff": "物伤减免+3%\n人形种族减伤+5%",
        "adventureBuff": "",
        "storageBuff": "生命上限+60",
        "storageRefineBuff": null,
        "isCompose": 0
      },
      {
        "id": "3003483",
        "name": "公主衣柜系列时装",
        "icon": "item_3003483",
        "rank": 1,
        "position": 13,
        "effect": "",
        "buff": "",
        "adventureBuff": "",
        "storageBuff": "生命上限+60",
        "storageRefineBuff": null,
        "isCompose": 0
      },
      {
        "id": "3003474",
        "name": "南瓜花车",
        "icon": "item_3003474",
        "rank": 5,
        "position": 12,
        "effect": "",
        "buff": "移动速度+25%",
        "adventureBuff": "物理攻击+6，魔法攻击+6",
        "storageBuff": "",
        "storageRefineBuff": null,
        "isCompose": 0
      },
      {
        "id": "3003472",
        "name": "米奇波利包包",
        "icon": "item_3003472",
        "rank": 3,
        "position": 10,
        "effect": "",
        "buff": "物理攻击+5%\n魔法攻击+5%\n同一地图队伍内其他成员（不包括自身）移动速度+2%，最多可以叠加5层",
        "adventureBuff": "",
        "storageBuff": "生命上限+60",
        "storageRefineBuff": null,
        "isCompose": 0
      },
      {
        "id": "3003471",
        "name": "米奇贴纸",
        "icon": "item_3003471",
        "rank": 3,
        "position": 8,
        "effect": "",
        "buff": "生命上限+1000\n普攻伤害减免+6%\n技能伤害减免+6%",
        "adventureBuff": "",
        "storageBuff": "魔法攻击+6",
        "storageRefineBuff": null,
        "isCompose": 0
      },
      {
        "id": "3003470",
        "name": "经典鸭嘴",
        "icon": "item_3003470",
        "rank": 3,
        "position": 9,
        "effect": "",
        "buff": "物理穿刺+3%\n忽视物理防御+3%",
        "adventureBuff": "",
        "storageBuff": "物理攻击+6",
        "storageRefineBuff": null,
        "isCompose": 0
      },
      {
        "id": "3003466",
        "name": "鸭鸭系列头饰",
        "icon": "item_3003466",
        "rank": 3,
        "position": 7,
        "effect": "",
        "buff": "魔伤减免+3%\n人形种族减伤+5%",
        "adventureBuff": "",
        "storageBuff": "物理防御+2，生命上限+30",
        "storageRefineBuff": null,
        "isCompose": 0
      },
      {
        "id": "3003465",
        "name": "米奇系列头饰",
        "icon": "item_3003465",
        "rank": 3,
        "position": 7,
        "effect": "",
        "buff": "对暗属性魔物伤害+8%\n受到暗属性伤害-8%",
        "adventureBuff": "",
        "storageBuff": "魔法防御+2，生命上限+30",
        "storageRefineBuff": null,
        "isCompose": 0
      },
      {
        "id": "3003464",
        "name": "高飞帽",
        "icon": "item_3003464",
        "rank": 3,
        "position": 7,
        "effect": "",
        "buff": "体质+5\n生命上限+5%",
        "adventureBuff": "",
        "storageBuff": "魔法攻击+3，生命上限+30",
        "storageRefineBuff": null,
        "isCompose": 0
      },
      {
        "id": "3003450",
        "name": "米奇泡泡机",
        "icon": "item_3003450",
        "rank": 3,
        "position": 10,
        "effect": "",
        "buff": "移动速度+5%\n装备攻速+8%",
        "adventureBuff": "",
        "storageBuff": "物理攻击+3，生命上限+30",
        "storageRefineBuff": null,
        "isCompose": 0
      },
      {
        "id": "3003445",
        "name": "米奇和朋友们系列时装",
        "icon": "item_3003445",
        "rank": 1,
        "position": 13,
        "effect": "",
        "buff": "",
        "adventureBuff": "物理攻击+1%\n魔法攻击+1%",
        "storageBuff": "物理攻击+12\n魔法攻击+12",
        "storageRefineBuff": null,
        "isCompose": 0
      },
      {
        "id": "3003436",
        "name": "公主衣柜·花木兰",
        "icon": "item_3003430",
        "rank": 1,
        "position": 13,
        "effect": "",
        "buff": "",
        "adventureBuff": "物理攻击+1%\n魔法攻击+1%",
        "storageBuff": "物理防御+1%，魔法防御+1%",
        "storageRefineBuff": null,
        "isCompose": 0
      },
      {
        "id": "3003434",
        "name": "忠勇真之剑",
        "icon": "item_3003434",
        "rank": 3,
        "position": 10,
        "effect": "",
        "buff": "物理攻击+3%\n对攻击目标时，有100%的概率降低目标3%物理防御，持续5秒，最多可叠加3层",
        "adventureBuff": "",
        "storageBuff": "生命上限+60",
        "storageRefineBuff": null,
        "isCompose": 0
      },
      {
        "id": "3003433",
        "name": "不死鸟",
        "icon": "item_3003433",
        "rank": 5,
        "position": 12,
        "effect": "",
        "buff": "移动速度+25%",
        "adventureBuff": "物理攻击+6，魔法攻击+6",
        "storageBuff": "",
        "storageRefineBuff": null,
        "isCompose": 0
      },
      {
        "id": "3003432",
        "name": "不死鸟之翼",
        "icon": "item_3003432",
        "rank": 5,
        "position": 10,
        "effect": "",
        "buff": "全能力+2\n普攻伤害+5%\n技能伤害+5%",
        "adventureBuff": "",
        "storageBuff": "物理攻击+6\n魔法攻击+6",
        "storageRefineBuff": null,
        "isCompose": 0
      },
      {
        "id": "3003431",
        "name": "公主妆面·花木兰",
        "icon": "item_3003431",
        "rank": 3,
        "position": 7,
        "effect": "",
        "buff": "智力+5\n魔法伤害+5%",
        "adventureBuff": "",
        "storageBuff": "物理攻击+6",
        "storageRefineBuff": null,
        "isCompose": 0
      },
      {
        "id": "3003426",
        "name": "纯金大耳环",
        "icon": "item_3003426",
        "rank": 3,
        "position": 8,
        "effect": "",
        "buff": "人形种族加伤+10%",
        "adventureBuff": "",
        "storageBuff": "物理攻击+3，生命上限+30",
        "storageRefineBuff": null,
        "isCompose": 0
      },
      {
        "id": "3003425",
        "name": "比目鱼童话",
        "icon": "item_3003425",
        "rank": 3,
        "position": 9,
        "effect": "",
        "buff": "魔法穿刺+3%\n忽视魔法防御+3%",
        "adventureBuff": "",
        "storageBuff": "魔法攻击+3，生命上限+30",
        "storageRefineBuff": null,
        "isCompose": 0
      },
      {
        "id": "3003424",
        "name": "执着之翼",
        "icon": "item_3003424",
        "rank": 5,
        "position": 10,
        "effect": "",
        "buff": "全能力+2\n物理穿刺+4%\n魔法穿刺+4%",
        "adventureBuff": "",
        "storageBuff": "生命上限+90",
        "storageRefineBuff": null,
        "isCompose": 0
      },
      {
        "id": "3003423",
        "name": "野兽头套",
        "icon": "item_3003423",
        "rank": 3,
        "position": 7,
        "effect": "",
        "buff": "力量+5\n近战物理伤害+5%",
        "adventureBuff": "",
        "storageBuff": "魔法攻击+6",
        "storageRefineBuff": null,
        "isCompose": 0
      },
      {
        "id": "3003422",
        "name": "真实魔镜",
        "icon": "item_3003422",
        "rank": 3,
        "position": 10,
        "effect": "",
        "buff": "智力+5\n魔法范围型技能伤害+5%",
        "adventureBuff": "",
        "storageBuff": "物理攻击+6",
        "storageRefineBuff": null,
        "isCompose": 0
      },
      {
        "id": "3003420",
        "name": "皇后的皇冠",
        "icon": "item_3003420",
        "rank": 3,
        "position": 7,
        "effect": "",
        "buff": "全能力+5\n生命上限+1500",
        "adventureBuff": "",
        "storageBuff": "物理防御+2，生命上限+30",
        "storageRefineBuff": null,
        "isCompose": 0
      },
      {
        "id": "3003415",
        "name": "迪士尼公主系列头饰",
        "icon": "item_3003415",
        "rank": 3,
        "position": 7,
        "effect": "",
        "buff": "对恶魔种族伤害+8%\n受到恶魔种族魔物伤害-8%",
        "adventureBuff": "",
        "storageBuff": "魔法防御+2，生命上限+30",
        "storageRefineBuff": null,
        "isCompose": 0
      }
    ]
  }
}