{
  "code": 0,
  "status": "success",
  "timeStamp": 1643702404,
  "staticDomain": "http:\/\/rosc1.zhaiwuyu.com",
  "ip": "101.87.201.112",
  "language": "cn",
  "dbArea": 0,
  "data": {
    "page": 18,
    "pageSize": 30,
    "pageCount": 70,
    "total": 2073,
    "list": [
      {
        "id": "3002484",
        "name": "潮流乐手头饰系列",
        "icon": "item_3002484",
        "rank": 3,
        "position": 7,
        "effect": "",
        "buff": "物理攻击+3%\n忽视物理防御+3%",
        "adventureBuff": "",
        "storageBuff": "魔法防御+2，生命上限+30",
        "storageRefineBuff": null,
        "isCompose": 0
      },
      {
        "id": "3002464",
        "name": "极限节奏系列时装",
        "icon": "item_3002464",
        "rank": 1,
        "position": 13,
        "effect": "",
        "buff": "",
        "adventureBuff": "物理攻击+1%\n魔法攻击+1%",
        "storageBuff": "物理攻击+12\n魔法攻击+12",
        "storageRefineBuff": null,
        "isCompose": 0
      },
      {
        "id": "47250",
        "name": "女武神的嘉奖·无畏",
        "icon": "item_47250",
        "rank": 3,
        "position": 10,
        "effect": "",
        "buff": "全能力+1\n物理伤害+4%\n魔法伤害+4%",
        "adventureBuff": "",
        "storageBuff": "生命上限+60",
        "storageRefineBuff": null,
        "isCompose": 0
      },
      {
        "id": "47249",
        "name": "女武神的嘉奖·荣耀",
        "icon": "item_47249",
        "rank": 3,
        "position": 10,
        "effect": "",
        "buff": "全能力+1\n普攻伤害+4%\n技能伤害+4%",
        "adventureBuff": "",
        "storageBuff": "生命上限+60",
        "storageRefineBuff": null,
        "isCompose": 0
      },
      {
        "id": "47248",
        "name": "女武神的嘉奖·传奇",
        "icon": "item_47248",
        "rank": 4,
        "position": 10,
        "effect": "",
        "buff": "全能力+2\n物理穿刺+5%\n魔法穿刺+5%",
        "adventureBuff": "",
        "storageBuff": "生命上限+90",
        "storageRefineBuff": null,
        "isCompose": 0
      },
      {
        "id": "3033307",
        "name": "黯月浮光",
        "icon": "item_3033307",
        "rank": 3,
        "position": 10,
        "effect": "",
        "buff": "生命上限+200\n对MVP、Mini魔物造成的伤害+8%",
        "adventureBuff": "物理攻击+3，生命上限+30",
        "storageBuff": "生命上限+60",
        "storageRefineBuff": null,
        "isCompose": 1
      },
      {
        "id": "3033304",
        "name": "聚焦虹冠",
        "icon": "item_3033304",
        "rank": 3,
        "position": 7,
        "effect": "",
        "buff": "全能力+1\n物理伤害+4%\n魔法伤害+4%",
        "adventureBuff": "物理攻击+4，魔法攻击+4",
        "storageBuff": "生命上限+60",
        "storageRefineBuff": null,
        "isCompose": 1
      },
      {
        "id": "3033303",
        "name": "小花仙",
        "icon": "item_3033303",
        "rank": 3,
        "position": 7,
        "effect": "",
        "buff": "对地属性魔物伤害+10%",
        "adventureBuff": "魔法攻击+3，生命上限+30",
        "storageBuff": "生命上限+60",
        "storageRefineBuff": null,
        "isCompose": 1
      },
      {
        "id": "3002792",
        "name": "堕天的意志",
        "icon": "item_3002792",
        "rank": 2,
        "position": 7,
        "effect": "",
        "buff": "生命上限+200\n物伤减免+2%\n魔伤减免+2%",
        "adventureBuff": "生命上限+30",
        "storageBuff": "物理防御+2",
        "storageRefineBuff": null,
        "isCompose": 1
      },
      {
        "id": "3002776",
        "name": "大洋的王冠",
        "icon": "item_3002776",
        "rank": 2,
        "position": 8,
        "effect": "",
        "buff": "生命上限+200\n物理攻击+10",
        "adventureBuff": "",
        "storageBuff": "生命上限+30",
        "storageRefineBuff": null,
        "isCompose": 0
      },
      {
        "id": "3002775",
        "name": "入梦",
        "icon": "item_3002775",
        "rank": 2,
        "position": 8,
        "effect": "",
        "buff": "生命上限+300\n物理防御+3%",
        "adventureBuff": "",
        "storageBuff": "生命上限+60\n物理防御+4",
        "storageRefineBuff": null,
        "isCompose": 0
      },
      {
        "id": "3002774",
        "name": "爱的狩猎",
        "icon": "item_3002774",
        "rank": 2,
        "position": 9,
        "effect": "",
        "buff": "生命上限+200\n人形种族减伤+3%",
        "adventureBuff": "",
        "storageBuff": "物理攻击+4\n魔法攻击+4",
        "storageRefineBuff": null,
        "isCompose": 0
      },
      {
        "id": "3002773",
        "name": "战争降临",
        "icon": "item_3002773",
        "rank": 2,
        "position": 10,
        "effect": "",
        "buff": "力量+5\n物理攻击+50",
        "adventureBuff": "",
        "storageBuff": "生命上限+60\n魔法防御+4",
        "storageRefineBuff": null,
        "isCompose": 0
      },
      {
        "id": "3002772",
        "name": "大力神头盔[1]",
        "icon": "item_3002772",
        "rank": 3,
        "position": 7,
        "effect": "",
        "buff": "全能力+2\n普攻伤害+6%\n精炼+6时，闪避+10%",
        "adventureBuff": "",
        "storageBuff": "物理攻击+6\n魔法攻击+6",
        "storageRefineBuff": null,
        "isCompose": 0
      },
      {
        "id": "3002771",
        "name": "雷霆之子",
        "icon": "item_3002771",
        "rank": 3,
        "position": 11,
        "effect": "",
        "buff": "对MVP、Mini魔物造成的伤害+8%\n精炼+6时，受到MVP、Mini魔物造成的伤害-5%",
        "adventureBuff": "",
        "storageBuff": "生命上限+120",
        "storageRefineBuff": null,
        "isCompose": 0
      },
      {
        "id": "3002770",
        "name": "黑山羊的怒火[1]",
        "icon": "item_3002770",
        "rank": 4,
        "position": 7,
        "effect": "",
        "buff": "生命上限+10%\n被生命上限低于自身生命上限的目标攻击时，受到的最终伤害减免5%",
        "adventureBuff": "",
        "storageBuff": "物理攻击+1%\n魔法攻击+1%",
        "storageRefineBuff": null,
        "isCompose": 0
      },
      {
        "id": "3002766",
        "name": "梦幻波利雪顶·极光",
        "icon": "item_3002766",
        "rank": 4,
        "position": 7,
        "effect": "",
        "buff": "全能力+5\n物理伤害+5%\n魔法伤害+5%",
        "adventureBuff": "",
        "storageBuff": "物理攻击+6\n魔法攻击+6",
        "storageRefineBuff": null,
        "isCompose": 0
      },
      {
        "id": "3002765",
        "name": "波利冰淇淋系列头饰",
        "icon": "item_3002765",
        "rank": 3,
        "position": 7,
        "effect": "",
        "buff": "力量+5\n智力+5\n灵巧+5\n魔法伤害+3%\n物理伤害+3%",
        "adventureBuff": "",
        "storageBuff": "物理攻击+3，魔法攻击+3",
        "storageRefineBuff": null,
        "isCompose": 0
      },
      {
        "id": "3002730",
        "name": "咸鱼的一生",
        "icon": "item_3002791",
        "rank": 3,
        "position": 10,
        "effect": "",
        "buff": "生命上限+1000\n暴击防护+10\n暴伤减免+10%",
        "adventureBuff": "",
        "storageBuff": "物理攻击+3，生命上限+30",
        "storageRefineBuff": null,
        "isCompose": 0
      },
      {
        "id": "3002712",
        "name": "雷神的小脾气",
        "icon": "item_500560",
        "rank": 3,
        "position": 7,
        "effect": "",
        "buff": "生命上限+200\n对普通魔物（不包含MVP、Mini魔物）增伤+8%",
        "adventureBuff": "",
        "storageBuff": "物理攻击+2，生命上限+20",
        "storageRefineBuff": null,
        "isCompose": 0
      },
      {
        "id": "3002704",
        "name": "虹光幻舞",
        "icon": "item_47232",
        "rank": 4,
        "position": 10,
        "effect": "",
        "buff": "全能力+2\n物理穿刺+4%\n魔法穿刺+4%",
        "adventureBuff": "",
        "storageBuff": "生命上限+90",
        "storageRefineBuff": null,
        "isCompose": 0
      },
      {
        "id": "3002697",
        "name": "逐日者之翼",
        "icon": "item_3002697",
        "rank": 5,
        "position": 10,
        "effect": "",
        "buff": "全能力+2\n物理穿刺+4%\n魔法穿刺+4%",
        "adventureBuff": "",
        "storageBuff": "生命上限+90",
        "storageRefineBuff": null,
        "isCompose": 0
      },
      {
        "id": "3002696",
        "name": "领航者 天空骑士",
        "icon": "item_3002696",
        "rank": 3,
        "position": 11,
        "effect": "",
        "buff": "全能力+2\n火属性攻击+5%",
        "adventureBuff": "",
        "storageBuff": "物理攻击+6",
        "storageRefineBuff": null,
        "isCompose": 0
      },
      {
        "id": "3002695",
        "name": "夜枭视界",
        "icon": "item_3002695",
        "rank": 3,
        "position": 8,
        "effect": "",
        "buff": "全能力+3\n技能伤害+3%",
        "adventureBuff": "",
        "storageBuff": "生命上限+60",
        "storageRefineBuff": null,
        "isCompose": 0
      },
      {
        "id": "3002694",
        "name": "穿云之羽",
        "icon": "item_3002694",
        "rank": 3,
        "position": 11,
        "effect": "",
        "buff": "力量+5\n近战物理伤害+3%",
        "adventureBuff": "",
        "storageBuff": "魔法攻击+6",
        "storageRefineBuff": null,
        "isCompose": 0
      },
      {
        "id": "3002693",
        "name": "狂风之拥",
        "icon": "item_3002693",
        "rank": 3,
        "position": 10,
        "effect": "",
        "buff": "物伤减免+5%\n生命上限+2000",
        "adventureBuff": "",
        "storageBuff": "生命上限+60",
        "storageRefineBuff": null,
        "isCompose": 0
      },
      {
        "id": "3002692",
        "name": "羽落圣冕",
        "icon": "item_3002692",
        "rank": 3,
        "position": 7,
        "effect": "",
        "buff": "闪避+40\n普攻伤害+4%",
        "adventureBuff": "",
        "storageBuff": "物理攻击+3，生命上限+30",
        "storageRefineBuff": null,
        "isCompose": 0
      },
      {
        "id": "3002691",
        "name": "鹰扬圣冠",
        "icon": "item_3002691",
        "rank": 3,
        "position": 7,
        "effect": "",
        "buff": "命中+40\n技能伤害+4%",
        "adventureBuff": "",
        "storageBuff": "魔法攻击+3，生命上限+30",
        "storageRefineBuff": null,
        "isCompose": 0
      },
      {
        "id": "3002689",
        "name": "云海踏歌头饰系列",
        "icon": "item_3002689",
        "rank": 3,
        "position": 7,
        "effect": "",
        "buff": "全能力+2\n对MVP、Mini魔物造成的伤害+6%",
        "adventureBuff": "",
        "storageBuff": "物理防御+2，生命上限+30",
        "storageRefineBuff": null,
        "isCompose": 0
      },
      {
        "id": "3002684",
        "name": "天穹统御头饰系列",
        "icon": "item_3002684",
        "rank": 3,
        "position": 7,
        "effect": "",
        "buff": "全能力+2\n对普通魔物（不包含MVP、Mini魔物）增伤+6%",
        "adventureBuff": "",
        "storageBuff": "魔法防御+2，生命上限+30",
        "storageRefineBuff": null,
        "isCompose": 0
      }
    ]
  }
}