{
  "code": 0,
  "status": "success",
  "timeStamp": 1642842973,
  "staticDomain": "http:\/\/rosc1.zhaiwuyu.com",
  "ip": "101.87.200.160",
  "language": "cn",
  "dbArea": 0,
  "data": {
    "page": 56,
    "pageSize": 30,
    "pageCount": 68,
    "total": 2037,
    "list": [
      {
        "id": "145433",
        "name": "莎蔓芭亚帽[1]",
        "icon": "item_45433",
        "rank": 3,
        "position": 7,
        "effect": "",
        "buff": "物理攻击+10\n魔法攻击+10\n装备攻速+2%\n受治疗加成+2%",
        "adventureBuff": "物理攻击+8",
        "storageBuff": "生命上限+60",
        "storageRefineBuff": null,
        "isCompose": 1
      },
      {
        "id": "145432",
        "name": "神隐拉面[1]",
        "icon": "item_45432",
        "rank": 3,
        "position": 7,
        "effect": "",
        "buff": "受到水属性伤害-20%\n冰冻抵抗+10%",
        "adventureBuff": "",
        "storageBuff": "生命上限+72",
        "storageRefineBuff": null,
        "isCompose": 1
      },
      {
        "id": "145424",
        "name": "跳跳波利[1]",
        "icon": "item_45424",
        "rank": 2,
        "position": 7,
        "effect": "",
        "buff": "灵巧+5\n命中+20",
        "adventureBuff": "",
        "storageBuff": "物理攻击+4\n魔法攻击+4",
        "storageRefineBuff": null,
        "isCompose": 0
      },
      {
        "id": "145410",
        "name": "玩具钉子[1]",
        "icon": "item_45410",
        "rank": 3,
        "position": 7,
        "effect": "",
        "buff": "力量+5\n生命上限+400",
        "adventureBuff": "物理攻击+8",
        "storageBuff": "物理防御+2",
        "storageRefineBuff": null,
        "isCompose": 1
      },
      {
        "id": "145409",
        "name": "玩具士兵高帽[1]",
        "icon": "item_45409",
        "rank": 3,
        "position": 7,
        "effect": "",
        "buff": "物理攻击+30",
        "adventureBuff": "物理攻击+8",
        "storageBuff": "物理防御+2",
        "storageRefineBuff": null,
        "isCompose": 1
      },
      {
        "id": "145406",
        "name": "鲁道夫的鹿角[1]",
        "icon": "item_45406",
        "rank": 4,
        "position": 7,
        "effect": "",
        "buff": "近战物理伤害+5%\n力量达到200点时，忽视物理防御+5%",
        "adventureBuff": "物理攻击+10",
        "storageBuff": "生命上限+90",
        "storageRefineBuff": null,
        "isCompose": 1
      },
      {
        "id": "145402",
        "name": "圣诞蝴蝶结[1]",
        "icon": "item_45402",
        "rank": 3,
        "position": 7,
        "effect": "",
        "buff": "幸运+5\n魔法上限+100",
        "adventureBuff": "魔法攻击+6",
        "storageBuff": "生命上限+60",
        "storageRefineBuff": null,
        "isCompose": 1
      },
      {
        "id": "145401",
        "name": "冰皇冠[1]",
        "icon": "item_45401",
        "rank": 3,
        "position": 7,
        "effect": "",
        "buff": "全能力+2",
        "adventureBuff": "生命上限+60",
        "storageBuff": "魔法攻击+6",
        "storageRefineBuff": null,
        "isCompose": 1
      },
      {
        "id": "145400",
        "name": "冰苹果[1]",
        "icon": "item_45400",
        "rank": 3,
        "position": 7,
        "effect": "",
        "buff": "灵巧+3\n远程物理伤害+3%",
        "adventureBuff": "生命上限+60",
        "storageBuff": "魔法攻击+6",
        "storageRefineBuff": null,
        "isCompose": 1
      },
      {
        "id": "145142",
        "name": "狐耳铃铛发带[1]",
        "icon": "item_45142",
        "rank": 4,
        "position": 7,
        "effect": "",
        "buff": "智力+3\n生命上限+5%",
        "adventureBuff": "生命上限+90",
        "storageBuff": "魔法攻击+8",
        "storageRefineBuff": null,
        "isCompose": 1
      },
      {
        "id": "145139",
        "name": "铃铛发带[1]",
        "icon": "item_45139",
        "rank": 3,
        "position": 7,
        "effect": "",
        "buff": "敏捷+3\n幸运+3",
        "adventureBuff": "魔法攻击+6",
        "storageBuff": "生命上限+60",
        "storageRefineBuff": null,
        "isCompose": 1
      },
      {
        "id": "145096",
        "name": "鹿角头饰[1]",
        "icon": "item_45096",
        "rank": 4,
        "position": 7,
        "effect": "",
        "buff": "受到动物种族伤害-15%\n对植物种族伤害+10%",
        "adventureBuff": "物理攻击+10",
        "storageBuff": "物理防御+4",
        "storageRefineBuff": null,
        "isCompose": 1
      },
      {
        "id": "145093",
        "name": "魔菇帽[1]",
        "icon": "item_45093",
        "rank": 3,
        "position": 7,
        "effect": "",
        "buff": "物理防御+20\n受到毒属性伤害-25%",
        "adventureBuff": "生命上限+60",
        "storageBuff": "生命上限+60",
        "storageRefineBuff": null,
        "isCompose": 1
      },
      {
        "id": "48598",
        "name": "英灵·雷霆纹",
        "icon": "item_48598",
        "rank": 3,
        "position": 8,
        "effect": "",
        "buff": "智力+1\n灵巧+1\n风属性攻击+10%\n每精炼+1，风属性攻击+1%",
        "adventureBuff": "生命上限+60",
        "storageBuff": "生命上限+72",
        "storageRefineBuff": null,
        "isCompose": 1
      },
      {
        "id": "48595",
        "name": "波利波棒糖",
        "icon": "item_48595",
        "rank": 1,
        "position": 9,
        "effect": "",
        "buff": "生命上限+500\nHp恢复+5\nSp恢复+5",
        "adventureBuff": "",
        "storageBuff": "生命上限+70",
        "storageRefineBuff": null,
        "isCompose": 0
      },
      {
        "id": "48594",
        "name": "波利太阳镜",
        "icon": "item_48594",
        "rank": 1,
        "position": 8,
        "effect": "",
        "buff": "生命上限+500\n受到火属性伤害-10%",
        "adventureBuff": "",
        "storageBuff": "物理攻击+7.5\n魔法攻击+7.5",
        "storageRefineBuff": null,
        "isCompose": 0
      },
      {
        "id": "48593",
        "name": "魔灵火柴",
        "icon": "item_48593",
        "rank": 3,
        "position": 9,
        "effect": "",
        "buff": "普攻或使用技能有10%使目标陷入灼烧状态",
        "adventureBuff": "生命上限+60",
        "storageBuff": "魔法攻击+6",
        "storageRefineBuff": [
          {
            "lv": 6,
            "buff": "魔法攻击+2，物理防御+2"
          },
          {
            "lv": 8,
            "buff": "灼烧抵抗+1%"
          }
        ],
        "isCompose": 1
      },
      {
        "id": "48592",
        "name": "小丑面具",
        "icon": "item_48592",
        "rank": 2,
        "position": 8,
        "effect": "",
        "buff": "物理防御+10\n人形种族减伤+5%",
        "adventureBuff": "生命上限+30",
        "storageBuff": "生命上限+30",
        "storageRefineBuff": null,
        "isCompose": 1
      },
      {
        "id": "48591",
        "name": "说谎者的鼻子",
        "icon": "item_48591",
        "rank": 2,
        "position": 8,
        "effect": "",
        "buff": "人形种族加伤+5%",
        "adventureBuff": "生命上限+30",
        "storageBuff": "物理攻击+3",
        "storageRefineBuff": [
          {
            "lv": 6,
            "buff": "生命上限+30"
          },
          {
            "lv": 8,
            "buff": "生命上限+60"
          }
        ],
        "isCompose": 1
      },
      {
        "id": "48590",
        "name": "冰雪烙印",
        "icon": "item_48590",
        "rank": 4,
        "position": 8,
        "effect": "",
        "buff": "水属性攻击+10%\n每隔15秒使周围2米的敌人陷入冰冻状态",
        "adventureBuff": "魔法攻击+8",
        "storageBuff": "魔法防御+3",
        "storageRefineBuff": null,
        "isCompose": 1
      },
      {
        "id": "47048",
        "name": "琉璃雪人号角",
        "icon": "item_47048",
        "rank": 4,
        "position": 10,
        "effect": "",
        "buff": "敏捷+5\n生命上限+400",
        "adventureBuff": "生命上限+90",
        "storageBuff": "魔法攻击+8",
        "storageRefineBuff": null,
        "isCompose": 1
      },
      {
        "id": "47047",
        "name": "樱草雪人号角",
        "icon": "item_47047",
        "rank": 4,
        "position": 10,
        "effect": "",
        "buff": "幸运+5\n生命上限+400",
        "adventureBuff": "物理攻击+10",
        "storageBuff": "生命上限+90",
        "storageRefineBuff": null,
        "isCompose": 1
      },
      {
        "id": "47046",
        "name": "玫瑰雪人号角",
        "icon": "item_47046",
        "rank": 4,
        "position": 10,
        "effect": "",
        "buff": "智力+5\n生命上限+400",
        "adventureBuff": "生命上限+90",
        "storageBuff": "物理防御+4",
        "storageRefineBuff": null,
        "isCompose": 1
      },
      {
        "id": "47045",
        "name": "夕雾雪人号角",
        "icon": "item_47045",
        "rank": 4,
        "position": 10,
        "effect": "",
        "buff": "体质+5\n生命上限+400",
        "adventureBuff": "魔法防御+3",
        "storageBuff": "生命上限+90",
        "storageRefineBuff": null,
        "isCompose": 1
      },
      {
        "id": "47041",
        "name": "白猫·尤里乌斯",
        "icon": "item_47041",
        "rank": 3,
        "position": 10,
        "effect": "",
        "buff": "魔法防御+10",
        "adventureBuff": "生命上限+21",
        "storageBuff": "生命上限+19",
        "storageRefineBuff": null,
        "isCompose": 0
      },
      {
        "id": "47040",
        "name": "黄金小恶魔翅膀",
        "icon": "item_47040",
        "rank": 4,
        "position": 10,
        "effect": "",
        "buff": "全能力+1\n物理伤害+5%\n魔法伤害+5%",
        "adventureBuff": "生命上限+21",
        "storageBuff": "物理攻击+1%\n魔法攻击+1%",
        "storageRefineBuff": null,
        "isCompose": 0
      },
      {
        "id": "47039",
        "name": "金色圣诞铃铛",
        "icon": "item_47039",
        "rank": 4,
        "position": 10,
        "effect": "",
        "buff": "圣属性攻击+8%\n受到暗属性、念属性、不死属性、毒属性伤害-10%",
        "adventureBuff": "魔法攻击+8",
        "storageBuff": "物理攻击+10",
        "storageRefineBuff": null,
        "isCompose": 1
      },
      {
        "id": "46614",
        "name": "眼部疤痕",
        "icon": "item_46614",
        "rank": 1,
        "position": 8,
        "effect": "",
        "buff": "忽视物理防御+2%",
        "adventureBuff": "物理攻击+3",
        "storageBuff": "生命上限+18",
        "storageRefineBuff": null,
        "isCompose": 1
      },
      {
        "id": "45427",
        "name": "生命药瓶",
        "icon": "item_45427",
        "rank": 3,
        "position": 7,
        "effect": "",
        "buff": "生命上限+100\nHp恢复+5",
        "adventureBuff": "生命上限+60",
        "storageBuff": "生命上限+60",
        "storageRefineBuff": null,
        "isCompose": 1
      },
      {
        "id": "45425",
        "name": "恶魔趴趴猫",
        "icon": "item_45425",
        "rank": 1,
        "position": 7,
        "effect": "",
        "buff": "生命上限+50\n幸运+1",
        "adventureBuff": "生命上限+18",
        "storageBuff": "生命上限+18",
        "storageRefineBuff": null,
        "isCompose": 1
      }
    ]
  }
}