{
  "code": 0,
  "status": "success",
  "timeStamp": 1642842842,
  "staticDomain": "http:\/\/rosc1.zhaiwuyu.com",
  "ip": "101.87.200.160",
  "language": "cn",
  "dbArea": 0,
  "data": {
    "page": 43,
    "pageSize": 30,
    "pageCount": 68,
    "total": 2037,
    "list": [
      {
        "id": "48693",
        "name": "铃幸",
        "icon": "item_48693",
        "rank": 3,
        "position": 9,
        "effect": "",
        "buff": "物理伤害+4%\n使用物理伤害技能攻击时，100%概率使自身陷入沉默状态，持续5秒",
        "adventureBuff": "",
        "storageBuff": "物理攻击+6\n魔法攻击+6",
        "storageRefineBuff": null,
        "isCompose": 0
      },
      {
        "id": "48691",
        "name": "霹雳小鞭炮",
        "icon": "item_48691",
        "rank": 3,
        "position": 9,
        "effect": "",
        "buff": "暴击+2\n暴击伤害+4%",
        "adventureBuff": "",
        "storageBuff": "魔法攻击+6",
        "storageRefineBuff": null,
        "isCompose": 0
      },
      {
        "id": "48680",
        "name": "第四使徒面具",
        "icon": "item_48680",
        "rank": 3,
        "position": 7,
        "effect": "",
        "buff": "物理攻击+20\n攻击目标时，释放破坏光线，100%概率降低目标5%物伤减免，持续5秒",
        "adventureBuff": "",
        "storageBuff": "生命上限+60",
        "storageRefineBuff": null,
        "isCompose": 0
      },
      {
        "id": "48066",
        "name": "锦宝",
        "icon": "item_48066",
        "rank": 3,
        "position": 11,
        "effect": "",
        "buff": "锦宝送福：每12点幸运额外增加1点暴击、1%暴击伤害",
        "adventureBuff": "",
        "storageBuff": "生命上限+120",
        "storageRefineBuff": null,
        "isCompose": 0
      },
      {
        "id": "48065",
        "name": "福禄小猪",
        "icon": "item_48065",
        "rank": 3,
        "position": 11,
        "effect": "",
        "buff": "获得福神的祝福：生命上限+3%、魔法上限+3%",
        "adventureBuff": "",
        "storageBuff": "物理攻击+6",
        "storageRefineBuff": null,
        "isCompose": 0
      },
      {
        "id": "48059",
        "name": "第六使徒",
        "icon": "item_48059",
        "rank": 3,
        "position": 11,
        "effect": "",
        "buff": "受到物理伤害时10%概率触发强力绝对领域：3秒内免疫一次物理伤害（受到物理伤害为1）",
        "adventureBuff": "",
        "storageBuff": "生命上限+60",
        "storageRefineBuff": null,
        "isCompose": 0
      },
      {
        "id": "48049",
        "name": "恶兽之尾",
        "icon": "item_48049",
        "rank": 3,
        "position": 11,
        "effect": "",
        "buff": "全能力+1\n忽视物理防御+2%\n忽视魔法防御+2%",
        "adventureBuff": "魔法攻击+3，生命上限+30",
        "storageBuff": "物理攻击+3，生命上限+30",
        "storageRefineBuff": null,
        "isCompose": 1
      },
      {
        "id": "47166",
        "name": "叶池·鲤庭",
        "icon": "item_47166",
        "rank": 2,
        "position": 10,
        "effect": "",
        "buff": "全能力+1\n水属性攻击+3%",
        "adventureBuff": "",
        "storageBuff": "生命上限+60",
        "storageRefineBuff": null,
        "isCompose": 0
      },
      {
        "id": "47164",
        "name": "辟邪腰鼓",
        "icon": "item_47164",
        "rank": 3,
        "position": 10,
        "effect": "",
        "buff": "对恶魔种族伤害+8%\n恶魔种族伤害-8%",
        "adventureBuff": "",
        "storageBuff": "物理攻击+3，生命上限+30",
        "storageRefineBuff": null,
        "isCompose": 0
      },
      {
        "id": "47151",
        "name": "五号机头盔",
        "icon": "item_47151",
        "rank": 2,
        "position": 7,
        "effect": "",
        "buff": "全能力+2\n物理攻击+20",
        "adventureBuff": "生命上限+30",
        "storageBuff": "生命上限+30",
        "storageRefineBuff": null,
        "isCompose": 1
      },
      {
        "id": "47149",
        "name": "插入栓背包",
        "icon": "item_47149",
        "rank": 3,
        "position": 10,
        "effect": "",
        "buff": "全能力+2\n物理攻击时有10%概率进入暴走状态：物理攻击+3%，物理、魔法防御-3%，持续10秒，最多可叠加5层",
        "adventureBuff": "",
        "storageBuff": "物理攻击+3，生命上限+30",
        "storageRefineBuff": null,
        "isCompose": 0
      },
      {
        "id": "45997",
        "name": "明日香帽子",
        "icon": "item_45997",
        "rank": 3,
        "position": 7,
        "effect": "",
        "buff": "物理攻击+40\n对中型魔物伤害+5%",
        "adventureBuff": "",
        "storageBuff": "魔法攻击+6",
        "storageRefineBuff": null,
        "isCompose": 0
      },
      {
        "id": "45996",
        "name": "AT力场玩具背饰",
        "icon": "item_45996",
        "rank": 3,
        "position": 10,
        "effect": "",
        "buff": "展开绝对领域：物理防御+10%，受到火属性伤害-10%",
        "adventureBuff": "",
        "storageBuff": "魔法攻击+3，生命上限+30",
        "storageRefineBuff": null,
        "isCompose": 0
      },
      {
        "id": "45995",
        "name": "明日香头盔",
        "icon": "item_45995",
        "rank": 3,
        "position": 7,
        "effect": "",
        "buff": "生命上限+200\n魔伤减免+5%",
        "adventureBuff": "",
        "storageBuff": "物理攻击+6",
        "storageRefineBuff": null,
        "isCompose": 0
      },
      {
        "id": "45944",
        "name": "亥头巾",
        "icon": "item_45944",
        "rank": 2,
        "position": 7,
        "effect": "",
        "buff": "生命上限+200\n幸运+2",
        "adventureBuff": "生命上限+30",
        "storageBuff": "生命上限+30",
        "storageRefineBuff": null,
        "isCompose": 1
      },
      {
        "id": "149015",
        "name": "冰晶·冬语结[1]",
        "icon": "item_49015",
        "rank": 3,
        "position": 7,
        "effect": "",
        "buff": "物理攻击+4%\n魔法攻击+4%\n使用技能时SP消耗量-5%",
        "adventureBuff": "",
        "storageBuff": "生命上限+120",
        "storageRefineBuff": null,
        "isCompose": 0
      },
      {
        "id": "149013",
        "name": "角斗头冠[1]",
        "icon": "item_49013",
        "rank": 3,
        "position": 7,
        "effect": "",
        "buff": "生命上限+1000\n竞技场模式（6V6）中，恐惧、沉默类型攻击的效果（概率和时间）+25%",
        "adventureBuff": "",
        "storageBuff": "生命上限+60",
        "storageRefineBuff": null,
        "isCompose": 0
      },
      {
        "id": "149007",
        "name": "巴风特的凝视[1]",
        "icon": "item_49007",
        "rank": 3,
        "position": 7,
        "effect": "",
        "buff": "暴击+5\n敏捷+2\n物理攻击+20",
        "adventureBuff": "",
        "storageBuff": "魔法攻击+3，生命上限+30",
        "storageRefineBuff": null,
        "isCompose": 0
      },
      {
        "id": "148683",
        "name": "罪恶皇冠[1]",
        "icon": "item_48683",
        "rank": 3,
        "position": 7,
        "effect": "",
        "buff": "生命上限+500\n魔伤减免+3%",
        "adventureBuff": "",
        "storageBuff": "物理攻击+3，生命上限+30",
        "storageRefineBuff": null,
        "isCompose": 0
      },
      {
        "id": "145957",
        "name": "纯洁的棒球帽[1]",
        "icon": "item_45957",
        "rank": 1,
        "position": 7,
        "effect": "",
        "buff": "剑士系，刺客系，弓手系，牧师系，商人系，超初系，忍者系，枪手系装备时物理攻击+10\n法师系，多兰族，悟灵士系装备时魔法攻击+10",
        "adventureBuff": "",
        "storageBuff": "生命上限+10",
        "storageRefineBuff": null,
        "isCompose": 0
      },
      {
        "id": "51472",
        "name": "梦罗克之灵系列时装",
        "icon": "item_51472",
        "rank": 1,
        "position": 13,
        "effect": "",
        "buff": "",
        "adventureBuff": "",
        "storageBuff": "生命上限+120",
        "storageRefineBuff": null,
        "isCompose": 0
      },
      {
        "id": "51444",
        "name": "光辉赞美诗系列时装",
        "icon": "item_51444",
        "rank": 1,
        "position": 13,
        "effect": "",
        "buff": "",
        "adventureBuff": "物理攻击+1%\n魔法攻击+1%",
        "storageBuff": "物理防御+6\n魔法防御+6",
        "storageRefineBuff": null,
        "isCompose": 0
      },
      {
        "id": "51421",
        "name": "月樱系列时装",
        "icon": "item_51421",
        "rank": 1,
        "position": 13,
        "effect": "",
        "buff": "",
        "adventureBuff": "",
        "storageBuff": "生命上限+60",
        "storageRefineBuff": null,
        "isCompose": 0
      },
      {
        "id": "51364",
        "name": "绒雪颂歌系列时装",
        "icon": "item_51364",
        "rank": 1,
        "position": 13,
        "effect": "",
        "buff": "",
        "adventureBuff": "物理攻击+1%\n魔法攻击+1%",
        "storageBuff": "物理攻击+12\n魔法攻击+12",
        "storageRefineBuff": null,
        "isCompose": 0
      },
      {
        "id": "51215",
        "name": "枫之忆",
        "icon": "item_51215",
        "rank": 1,
        "position": 13,
        "effect": "",
        "buff": "",
        "adventureBuff": "",
        "storageBuff": "生命上限+60",
        "storageRefineBuff": null,
        "isCompose": 0
      },
      {
        "id": "49043",
        "name": "魅舞公主",
        "icon": "item_49043",
        "rank": 3,
        "position": 7,
        "effect": "",
        "buff": "魔法攻击+3%\n击杀魔物Base经验+5%",
        "adventureBuff": "",
        "storageBuff": "魔法防御+2，生命上限+30",
        "storageRefineBuff": null,
        "isCompose": 0
      },
      {
        "id": "49042",
        "name": "砾沙王子",
        "icon": "item_49042",
        "rank": 3,
        "position": 7,
        "effect": "",
        "buff": "物理攻击+3%\n击杀魔物Base经验+5%",
        "adventureBuff": "",
        "storageBuff": "物理防御+2，生命上限+30",
        "storageRefineBuff": null,
        "isCompose": 0
      },
      {
        "id": "49027",
        "name": "星耀之冠",
        "icon": "item_49027",
        "rank": 3,
        "position": 7,
        "effect": "",
        "buff": "生命上限+5%\n沉默抵抗+15%",
        "adventureBuff": "",
        "storageBuff": "魔法攻击+3，生命上限+30",
        "storageRefineBuff": null,
        "isCompose": 0
      },
      {
        "id": "49026",
        "name": "十字圣裁",
        "icon": "item_49026",
        "rank": 3,
        "position": 7,
        "effect": "",
        "buff": "全能力+2\n对恶魔种族魔物伤害+6%",
        "adventureBuff": "",
        "storageBuff": "物理攻击+3，生命上限+30",
        "storageRefineBuff": null,
        "isCompose": 0
      },
      {
        "id": "49025",
        "name": "辰耀系列头饰",
        "icon": "item_49025",
        "rank": 3,
        "position": 7,
        "effect": "",
        "buff": "魔法攻击+3%\n对人形种族加伤+3%",
        "adventureBuff": "",
        "storageBuff": "物理防御+2，生命上限+30",
        "storageRefineBuff": null,
        "isCompose": 0
      }
    ]
  }
}