{
  "code": 0,
  "status": "success",
  "timeStamp": 1643702889,
  "staticDomain": "http:\/\/rosc1.zhaiwuyu.com",
  "ip": "101.87.201.112",
  "language": "cn",
  "dbArea": 0,
  "data": {
    "page": 66,
    "pageSize": 30,
    "pageCount": 70,
    "total": 2073,
    "list": [
      {
        "id": "47012",
        "name": "天使波利的翅膀",
        "icon": "item_47012",
        "rank": 3,
        "position": 10,
        "effect": "",
        "buff": "生命上限+400\n恶魔种族加伤+8%",
        "adventureBuff": "生命上限+28",
        "storageBuff": "恶魔种族加伤+2%",
        "storageRefineBuff": null,
        "isCompose": 1
      },
      {
        "id": "47011",
        "name": "恶魔的翅膀",
        "icon": "item_47011",
        "rank": 4,
        "position": 10,
        "effect": "",
        "buff": "全能力+1\n物理伤害+5%\n魔法伤害+5%",
        "adventureBuff": "生命上限+14",
        "storageBuff": "生命上限+70",
        "storageRefineBuff": null,
        "isCompose": 1
      },
      {
        "id": "47008",
        "name": "小恶魔气球",
        "icon": "item_47008",
        "rank": 3,
        "position": 10,
        "effect": "",
        "buff": "魔法上限+10%",
        "adventureBuff": "魔法攻击+4.5",
        "storageBuff": "精炼魔攻+8",
        "storageRefineBuff": null,
        "isCompose": 1
      },
      {
        "id": "47002",
        "name": "冒险者背包",
        "icon": "item_47002",
        "rank": 3,
        "position": 10,
        "effect": "",
        "buff": "物理防御+15\n精炼值+10及力量90以上时物理攻击+20\n精炼值+10及敏捷90以上时装备攻速+5%\n精炼值+10及体质90以上时受到无属性伤害-10%\n精炼值+10及智力90以上时魔法攻击+20\n精炼值+10及灵巧90以上时远程物理伤害+5%\n精炼值+10及幸运90以上时暴击伤害+5%",
        "adventureBuff": "包包格子+5",
        "storageBuff": "包包格子+5",
        "storageRefineBuff": null,
        "isCompose": 1
      },
      {
        "id": "48539",
        "name": "狐狸假面",
        "icon": "item_48539",
        "rank": 3,
        "position": 7,
        "effect": "",
        "buff": "物理防御+10\n敏捷+1\n幸运+1",
        "adventureBuff": "魔法攻击+14",
        "storageBuff": "生命上限+19",
        "storageRefineBuff": null,
        "isCompose": 1
      },
      {
        "id": "48504",
        "name": "方头巾",
        "icon": "item_48504",
        "rank": 2,
        "position": 7,
        "effect": "",
        "buff": "物理防御+10",
        "adventureBuff": "不死种族减伤+4%",
        "storageBuff": "生命上限+10",
        "storageRefineBuff": null,
        "isCompose": 1
      },
      {
        "id": "48503",
        "name": "白幽灵面具",
        "icon": "item_48503",
        "rank": 2,
        "position": 7,
        "effect": "",
        "buff": "敏捷+3\n受到念属性伤害-10%",
        "adventureBuff": "物理攻击+4.5",
        "storageBuff": "生命上限+10",
        "storageRefineBuff": [
          {
            "lv": 6,
            "buff": "念属性攻击+1%"
          },
          {
            "lv": 8,
            "buff": "对念属性伤害减免+1%"
          }
        ],
        "isCompose": 1
      },
      {
        "id": "45209",
        "name": "邪骨兜帽",
        "icon": "item_45209",
        "rank": 2,
        "position": 7,
        "effect": "",
        "buff": "魔法防御+10",
        "adventureBuff": "魔法防御+1",
        "storageBuff": "生命上限+10",
        "storageRefineBuff": null,
        "isCompose": 1
      },
      {
        "id": "45208",
        "name": "邪骨黑帽",
        "icon": "item_45208",
        "rank": 2,
        "position": 7,
        "effect": "",
        "buff": "生命上限+100",
        "adventureBuff": "生命上限+4",
        "storageBuff": "生命上限+10",
        "storageRefineBuff": null,
        "isCompose": 1
      },
      {
        "id": "45206",
        "name": "胜利之翼",
        "icon": "item_45206",
        "rank": 3,
        "position": 7,
        "effect": "",
        "buff": "生命上限+300\n人形种族加伤+3%\n精炼每+1人形种族加伤+0.1%",
        "adventureBuff": "",
        "storageBuff": "人形种族加伤+1%",
        "storageRefineBuff": null,
        "isCompose": 0
      },
      {
        "id": "45205",
        "name": "彩色蛋壳帽",
        "icon": "item_45205",
        "rank": 2,
        "position": 7,
        "effect": "",
        "buff": "魔法防御+10",
        "adventureBuff": "魔法防御+5",
        "storageBuff": "魔法防御+5",
        "storageRefineBuff": null,
        "isCompose": 1
      },
      {
        "id": "45204",
        "name": "小树椿帽",
        "icon": "item_45204",
        "rank": 2,
        "position": 7,
        "effect": "",
        "buff": "智力+6",
        "adventureBuff": "智力+1",
        "storageBuff": "生命上限+10",
        "storageRefineBuff": null,
        "isCompose": 1
      },
      {
        "id": "45515",
        "name": "西瓜猫",
        "icon": "item_45515",
        "rank": 2,
        "position": 7,
        "effect": "",
        "buff": "力量+1\n体质+1\n智力+1\n灵巧+1\n敏捷+1\n幸运+1",
        "adventureBuff": "",
        "storageBuff": "生命上限+18",
        "storageRefineBuff": null,
        "isCompose": 1
      },
      {
        "id": "45513",
        "name": "波子汽水",
        "icon": "item_45513",
        "rank": 3,
        "position": 10,
        "effect": "",
        "buff": "力量+4\n智力+4\n生命上限+200\n魔法上限+50",
        "adventureBuff": "生命上限+21",
        "storageBuff": "生命上限+70",
        "storageRefineBuff": null,
        "isCompose": 0
      },
      {
        "id": "45509",
        "name": "极冻海豹",
        "icon": "item_45509",
        "rank": 2,
        "position": 7,
        "effect": "",
        "buff": "生命上限+50",
        "adventureBuff": "",
        "storageBuff": "物理攻击+1.5，魔法攻击+1.5",
        "storageRefineBuff": null,
        "isCompose": 0
      },
      {
        "id": "45508",
        "name": "冰镇企鹅",
        "icon": "item_45508",
        "rank": 3,
        "position": 7,
        "effect": "",
        "buff": "魔法上限+50",
        "adventureBuff": "",
        "storageBuff": "魔法上限+10",
        "storageRefineBuff": null,
        "isCompose": 0
      },
      {
        "id": "45507",
        "name": "夏日企鹅",
        "icon": "item_45507",
        "rank": 3,
        "position": 7,
        "effect": "",
        "buff": "生命上限+100",
        "adventureBuff": "",
        "storageBuff": "物理攻击+10，魔法攻击+10",
        "storageRefineBuff": null,
        "isCompose": 0
      },
      {
        "id": "45506",
        "name": "伪巴风美发圈",
        "icon": "item_45506",
        "rank": 2,
        "position": 7,
        "effect": "",
        "buff": "生命上限+100",
        "adventureBuff": "",
        "storageBuff": "生命上限+60",
        "storageRefineBuff": null,
        "isCompose": 0
      },
      {
        "id": "45505",
        "name": "派对帽子",
        "icon": "item_45505",
        "rank": 2,
        "position": 7,
        "effect": "",
        "buff": "生命上限+100",
        "adventureBuff": "",
        "storageBuff": "物理攻击+7.5，魔法攻击+7.5",
        "storageRefineBuff": null,
        "isCompose": 0
      },
      {
        "id": "45504",
        "name": "华丽的头饰·男",
        "icon": "item_45504",
        "rank": 2,
        "position": 7,
        "effect": "",
        "buff": "生命上限+100",
        "adventureBuff": "",
        "storageBuff": "生命上限+60",
        "storageRefineBuff": null,
        "isCompose": 0
      },
      {
        "id": "45503",
        "name": "华丽的头饰·女",
        "icon": "item_45503",
        "rank": 2,
        "position": 7,
        "effect": "",
        "buff": "生命上限+100",
        "adventureBuff": "",
        "storageBuff": "物理攻击+7.5，魔法攻击+7.5",
        "storageRefineBuff": null,
        "isCompose": 0
      },
      {
        "id": "45502",
        "name": "兔子头套",
        "icon": "item_45502",
        "rank": 2,
        "position": 7,
        "effect": "",
        "buff": "生命上限+100",
        "adventureBuff": "",
        "storageBuff": "生命上限+60",
        "storageRefineBuff": null,
        "isCompose": 0
      },
      {
        "id": "45501",
        "name": "暖心帽子",
        "icon": "item_45501",
        "rank": 2,
        "position": 7,
        "effect": "",
        "buff": "生命上限+100",
        "adventureBuff": "",
        "storageBuff": "生命上限+60",
        "storageRefineBuff": null,
        "isCompose": 0
      },
      {
        "id": "45500",
        "name": "翠雀编织发饰",
        "icon": "item_45500",
        "rank": 2,
        "position": 7,
        "effect": "",
        "buff": "生命上限+100",
        "adventureBuff": "",
        "storageBuff": "物理攻击+7.5，魔法攻击+7.5",
        "storageRefineBuff": null,
        "isCompose": 0
      },
      {
        "id": "45239",
        "name": "野浆果遮阳帽",
        "icon": "item_45239",
        "rank": 3,
        "position": 7,
        "effect": "",
        "buff": "生命上限+500",
        "adventureBuff": "",
        "storageBuff": "生命上限+30",
        "storageRefineBuff": null,
        "isCompose": 0
      },
      {
        "id": "45238",
        "name": "紫阳花发髻",
        "icon": "item_45238",
        "rank": 3,
        "position": 7,
        "effect": "",
        "buff": "生命上限+500",
        "adventureBuff": "",
        "storageBuff": "生命上限+30",
        "storageRefineBuff": null,
        "isCompose": 0
      },
      {
        "id": "45236",
        "name": "趴趴初心者·男",
        "icon": "item_45236",
        "rank": 2,
        "position": 7,
        "effect": "",
        "buff": "生命上限+100\n物理防御+10\n魔法防御+10",
        "adventureBuff": "",
        "storageBuff": "生命上限+10",
        "storageRefineBuff": null,
        "isCompose": 1
      },
      {
        "id": "45235",
        "name": "趴趴初心者·女",
        "icon": "item_45235",
        "rank": 2,
        "position": 7,
        "effect": "",
        "buff": "生命上限+100\n物理防御+10\n魔法防御+10",
        "adventureBuff": "",
        "storageBuff": "生命上限+10",
        "storageRefineBuff": null,
        "isCompose": 1
      },
      {
        "id": "45233",
        "name": "美人蕉沙滩帽",
        "icon": "item_45233",
        "rank": 3,
        "position": 7,
        "effect": "",
        "buff": "生命上限+500",
        "adventureBuff": "",
        "storageBuff": "生命上限+30",
        "storageRefineBuff": null,
        "isCompose": 0
      },
      {
        "id": "45232",
        "name": "海军风贝雷帽",
        "icon": "item_45232",
        "rank": 3,
        "position": 7,
        "effect": "",
        "buff": "生命上限+500",
        "adventureBuff": "",
        "storageBuff": "生命上限+30",
        "storageRefineBuff": null,
        "isCompose": 0
      }
    ]
  }
}