{
  "code": 0,
  "status": "success",
  "timeStamp": 1642842922,
  "staticDomain": "http:\/\/rosc1.zhaiwuyu.com",
  "ip": "101.87.200.160",
  "language": "cn",
  "dbArea": 0,
  "data": {
    "page": 51,
    "pageSize": 30,
    "pageCount": 68,
    "total": 2037,
    "list": [
      {
        "id": "48625",
        "name": "曙光之眼",
        "icon": "item_48625",
        "rank": 3,
        "position": 8,
        "effect": "",
        "buff": "力量+2\n灵巧+2\n物理攻击+40",
        "adventureBuff": "魔法攻击+3，生命上限+30",
        "storageBuff": "物理防御+2，生命上限+30",
        "storageRefineBuff": null,
        "isCompose": 1
      },
      {
        "id": "45893",
        "name": "和风系列头饰",
        "icon": "item_45893",
        "rank": 1,
        "position": 7,
        "effect": "",
        "buff": "生命上限+100",
        "adventureBuff": "生命上限+15",
        "storageBuff": "生命上限+15",
        "storageRefineBuff": null,
        "isCompose": 0
      },
      {
        "id": "45639",
        "name": "风车头饰",
        "icon": "item_45639",
        "rank": 3,
        "position": 7,
        "effect": "",
        "buff": "魔伤减免+3%\n魔法防御+5%\n生命上限+2%",
        "adventureBuff": "物理防御+2，生命上限+30",
        "storageBuff": "魔法攻击+3，生命上限+30",
        "storageRefineBuff": null,
        "isCompose": 1
      },
      {
        "id": "145627",
        "name": "风栖之冠[1]",
        "icon": "item_45627",
        "rank": 2,
        "position": 7,
        "effect": "",
        "buff": "全能力+1\n生命上限+2%",
        "adventureBuff": "",
        "storageBuff": "生命上限+60",
        "storageRefineBuff": null,
        "isCompose": 0
      },
      {
        "id": "145626",
        "name": "苍穹之角[1]",
        "icon": "item_45626",
        "rank": 3,
        "position": 7,
        "effect": "",
        "buff": "全能力+2\n暴击+5\n暴伤+8%",
        "adventureBuff": "",
        "storageBuff": "物理攻击+6\n魔法攻击+6",
        "storageRefineBuff": null,
        "isCompose": 0
      },
      {
        "id": "48646",
        "name": "奇奇花火",
        "icon": "item_48646",
        "rank": 2,
        "position": 9,
        "effect": "",
        "buff": "生命上限+100\n物理攻击+10\n魔法攻击+10",
        "adventureBuff": "",
        "storageBuff": "生命上限+30",
        "storageRefineBuff": null,
        "isCompose": 0
      },
      {
        "id": "48627",
        "name": "薄暮之纱",
        "icon": "item_48627",
        "rank": 2,
        "position": 9,
        "effect": "",
        "buff": "物理攻击+10\n魔法攻击+10\n击杀魔物Job经验+3%",
        "adventureBuff": "",
        "storageBuff": "生命上限+60",
        "storageRefineBuff": null,
        "isCompose": 0
      },
      {
        "id": "48626",
        "name": "浮空精灵耳",
        "icon": "item_48626",
        "rank": 2,
        "position": 8,
        "effect": "",
        "buff": "生命上限+200\n对风属性魔物伤害+3%",
        "adventureBuff": "",
        "storageBuff": "物理攻击+4\n魔法攻击+4",
        "storageRefineBuff": null,
        "isCompose": 0
      },
      {
        "id": "48038",
        "name": "情谊千纸鹤",
        "icon": "item_48038",
        "rank": 2,
        "position": 11,
        "effect": "",
        "buff": "全能力+1\n生命上限+100",
        "adventureBuff": "生命上限+30",
        "storageBuff": "生命上限+30",
        "storageRefineBuff": null,
        "isCompose": 1
      },
      {
        "id": "48033",
        "name": "风栖幼龙",
        "icon": "item_48033",
        "rank": 4,
        "position": 11,
        "effect": "",
        "buff": "对于血量大于50%的目标最终伤害增加5%",
        "adventureBuff": "",
        "storageBuff": "物理攻击+1%\n魔法攻击+1%",
        "storageRefineBuff": null,
        "isCompose": 0
      },
      {
        "id": "47095",
        "name": "蝴蝶结·琉璃",
        "icon": "item_47095",
        "rank": 3,
        "position": 10,
        "effect": "",
        "buff": "魔伤减免+8%\n每百分之一魔伤减免额外增加自身75点生命上限",
        "adventureBuff": "生命上限+21",
        "storageBuff": "生命上限+120",
        "storageRefineBuff": null,
        "isCompose": 0
      },
      {
        "id": "51147",
        "name": "执事系列时装",
        "icon": "item_51147",
        "rank": 1,
        "position": 13,
        "effect": "",
        "buff": "",
        "adventureBuff": "",
        "storageBuff": "物理攻击+6\n魔法攻击+6",
        "storageRefineBuff": null,
        "isCompose": 0
      },
      {
        "id": "48032",
        "name": "尼酱",
        "icon": "item_48032",
        "rank": 3,
        "position": 11,
        "effect": "",
        "buff": "魔法攻击+2%\n灵巧+3",
        "adventureBuff": "魔法防御+2，生命上限+30",
        "storageBuff": "魔法攻击+3，生命上限+30",
        "storageRefineBuff": null,
        "isCompose": 0
      },
      {
        "id": "47090",
        "name": "执事公事包",
        "icon": "item_47090",
        "rank": 3,
        "position": 10,
        "effect": "",
        "buff": "物理攻击+3%\n忽视物理防御+3%",
        "adventureBuff": "物理防御+2，生命上限+30",
        "storageBuff": "物理攻击+3，生命上限+30",
        "storageRefineBuff": null,
        "isCompose": 0
      },
      {
        "id": "45847",
        "name": "喀秋莎缎带",
        "icon": "item_45847",
        "rank": 2,
        "position": 7,
        "effect": "",
        "buff": "全能力+1\n魔法防御+2%",
        "adventureBuff": "魔法防御+2",
        "storageBuff": "生命上限+30",
        "storageRefineBuff": null,
        "isCompose": 0
      },
      {
        "id": "45686",
        "name": "卡普拉夏日甜筒",
        "icon": "item_45686",
        "rank": 2,
        "position": 7,
        "effect": "",
        "buff": "受到火属性伤害-3%\n对火属性魔物伤害+3%",
        "adventureBuff": "物理防御+2",
        "storageBuff": "生命上限+30",
        "storageRefineBuff": null,
        "isCompose": 1
      },
      {
        "id": "45625",
        "name": "执事礼帽",
        "icon": "item_45625",
        "rank": 2,
        "position": 7,
        "effect": "",
        "buff": "全能力+1\n物理防御+2%",
        "adventureBuff": "物理防御+2",
        "storageBuff": "生命上限+30",
        "storageRefineBuff": null,
        "isCompose": 0
      },
      {
        "id": "145655",
        "name": "暖心熊妹妹[1]",
        "icon": "item_45655",
        "rank": 4,
        "position": 7,
        "effect": "",
        "buff": "全能力+1\n物理伤害+4%\n魔法伤害+4%\n自带景点！穿戴【暖心熊妹妹】后自己即为景点，冒险者使用照相机功能对其拍照即可解锁活动景点“下一站幸福”！\n活动景点在冒险手册解锁后将自动隐藏。",
        "adventureBuff": "",
        "storageBuff": "物理攻击+6\n魔法攻击+6",
        "storageRefineBuff": null,
        "isCompose": 0
      },
      {
        "id": "51154",
        "name": "迪迦奥特曼系列时装",
        "icon": "item_51125",
        "rank": 1,
        "position": 13,
        "effect": "",
        "buff": "",
        "adventureBuff": "物理攻击+1%\n魔法攻击+1%",
        "storageBuff": "生命上限+200",
        "storageRefineBuff": null,
        "isCompose": 0
      },
      {
        "id": "51152",
        "name": "哥莫拉睡衣系列时装",
        "icon": "item_51152",
        "rank": 1,
        "position": 13,
        "effect": "",
        "buff": "自带景点！穿戴【迪迦奥特曼】后自己即为景点，冒险者使用照相机功能对其拍照即可解锁活动景点“光之巨人”！\n活动景点在冒险手册解锁后将自动隐藏。",
        "adventureBuff": "魔法攻击+6，物理攻击+6",
        "storageBuff": "生命上限+60",
        "storageRefineBuff": null,
        "isCompose": 0
      },
      {
        "id": "51144",
        "name": "奥特曼系列时装",
        "icon": "item_51144",
        "rank": 1,
        "position": 13,
        "effect": "",
        "buff": "自带景点！穿戴【迪迦奥特曼】后自己即为景点，冒险者使用照相机功能对其拍照即可解锁活动景点“光之巨人”！\n活动景点在冒险手册解锁后将自动隐藏。",
        "adventureBuff": "魔法攻击+12，物理攻击+12",
        "storageBuff": "生命上限+200",
        "storageRefineBuff": null,
        "isCompose": 0
      },
      {
        "id": "51132",
        "name": "队员服系列时装",
        "icon": "item_51132",
        "rank": 1,
        "position": 13,
        "effect": "",
        "buff": "自带景点！穿戴【迪迦奥特曼】后自己即为景点，冒险者使用照相机功能对其拍照即可解锁活动景点“光之巨人”！\n活动景点在冒险手册解锁后将自动隐藏。",
        "adventureBuff": "物理攻击+1%\n魔法攻击+1%",
        "storageBuff": "生命上限+120",
        "storageRefineBuff": null,
        "isCompose": 0
      },
      {
        "id": "48636",
        "name": "眼冒爱心",
        "icon": "item_48636",
        "rank": 2,
        "position": 8,
        "effect": "",
        "buff": "魔法上限+50\n物理攻击+10",
        "adventureBuff": "",
        "storageBuff": "生命上限+30",
        "storageRefineBuff": null,
        "isCompose": 0
      },
      {
        "id": "47108",
        "name": "小巴风特的夏天",
        "icon": "item_47104",
        "rank": 4,
        "position": 10,
        "effect": "",
        "buff": "敏捷+5\n暴击+5\n有5%概率闪避魔法伤害，每50点闪避额外提高1%闪避概率（额外最多15%）",
        "adventureBuff": "生命上限+21",
        "storageBuff": "物理攻击+1%\n魔法攻击+1%",
        "storageRefineBuff": null,
        "isCompose": 0
      },
      {
        "id": "47086",
        "name": "怪兽贝姆斯塔背饰",
        "icon": "item_47086",
        "rank": 3,
        "position": 10,
        "effect": "",
        "buff": "魔法攻击+30\n智力+2\n魔法攻击+2%",
        "adventureBuff": "生命上限+21",
        "storageBuff": "物理攻击+6",
        "storageRefineBuff": null,
        "isCompose": 0
      },
      {
        "id": "47085",
        "name": "怪兽金古桥背饰",
        "icon": "item_47085",
        "rank": 3,
        "position": 10,
        "effect": "",
        "buff": "物理攻击+45\n力量+2\n物理攻击+2%",
        "adventureBuff": "生命上限+21",
        "storageBuff": "魔法攻击+6",
        "storageRefineBuff": null,
        "isCompose": 0
      },
      {
        "id": "47084",
        "name": "怪兽哥莫拉背饰",
        "icon": "item_47084",
        "rank": 3,
        "position": 10,
        "effect": "",
        "buff": "对火属性魔物伤害+10%\n受到火属性伤害-10%",
        "adventureBuff": "生命上限+21",
        "storageBuff": "生命上限+60",
        "storageRefineBuff": null,
        "isCompose": 0
      },
      {
        "id": "45617",
        "name": "队员服头盔",
        "icon": "item_45617",
        "rank": 3,
        "position": 7,
        "effect": "",
        "buff": "物理攻击+20\n无属性攻击+6%",
        "adventureBuff": "",
        "storageBuff": "物理防御+2，生命上限+30",
        "storageRefineBuff": null,
        "isCompose": 0
      },
      {
        "id": "45601",
        "name": "趴趴赛罗",
        "icon": "item_45601",
        "rank": 3,
        "position": 7,
        "effect": "",
        "buff": "物理攻击+20\n对中型魔物伤害+6%",
        "adventureBuff": "",
        "storageBuff": "魔法防御+2，生命上限+30",
        "storageRefineBuff": null,
        "isCompose": 0
      },
      {
        "id": "45600",
        "name": "趴趴迪迦",
        "icon": "item_45600",
        "rank": 3,
        "position": 7,
        "effect": "",
        "buff": "魔法攻击+20\n可变吟唱时间-5%",
        "adventureBuff": "",
        "storageBuff": "生命上限+60",
        "storageRefineBuff": null,
        "isCompose": 0
      }
    ]
  }
}