{
  "code": 0,
  "status": "success",
  "timeStamp": 1643702283,
  "staticDomain": "http:\/\/rosc1.zhaiwuyu.com",
  "ip": "101.87.201.112",
  "language": "cn",
  "dbArea": 0,
  "data": {
    "page": 6,
    "pageSize": 30,
    "pageCount": 70,
    "total": 2073,
    "list": [
      {
        "id": "3004754",
        "name": "神圣礼帽头饰系列",
        "icon": "item_3004754",
        "rank": 3,
        "position": 7,
        "effect": "",
        "buff": "普攻伤害减免+4%\n生命上限+2000",
        "adventureBuff": "",
        "storageBuff": "魔法防御+2，生命上限+30",
        "storageRefineBuff": null,
        "isCompose": 0
      },
      {
        "id": "3004734",
        "name": "梦幻唱诗班系列时装",
        "icon": "item_3004734",
        "rank": 1,
        "position": 13,
        "effect": "",
        "buff": "",
        "adventureBuff": "物理攻击+1%\n魔法攻击+1%",
        "storageBuff": "物理防御+1%，魔法防御+1%",
        "storageRefineBuff": null,
        "isCompose": 0
      },
      {
        "id": "3004626",
        "name": "萨克斯弹弹乐",
        "icon": "item_3004626",
        "rank": 2,
        "position": 10,
        "effect": "",
        "buff": "魔法攻击+20\n物理防御+10",
        "adventureBuff": "",
        "storageBuff": "生命上限+30",
        "storageRefineBuff": null,
        "isCompose": 0
      },
      {
        "id": "3004625",
        "name": "被偷窥的诗谱",
        "icon": "item_3004625",
        "rank": 2,
        "position": 8,
        "effect": "",
        "buff": "体质+3\n物理防御+3%",
        "adventureBuff": "",
        "storageBuff": "生命上限+60\n物理防御+4",
        "storageRefineBuff": null,
        "isCompose": 0
      },
      {
        "id": "3004624",
        "name": "圣歌悠扬",
        "icon": "item_3004624",
        "rank": 2,
        "position": 9,
        "effect": "",
        "buff": "风属性攻击+2%\n对水属性魔物伤害+2%",
        "adventureBuff": "",
        "storageBuff": "物理攻击+4\n魔法攻击+4",
        "storageRefineBuff": null,
        "isCompose": 0
      },
      {
        "id": "3004623",
        "name": "唱诗礼帽的秘密[1]",
        "icon": "item_3004623",
        "rank": 2,
        "position": 7,
        "effect": "",
        "buff": "智力+5\n魔法攻击+2%",
        "adventureBuff": "",
        "storageBuff": "生命上限+60\n魔法防御+4",
        "storageRefineBuff": null,
        "isCompose": 0
      },
      {
        "id": "3004622",
        "name": "颂者的乐章",
        "icon": "item_3004622",
        "rank": 3,
        "position": 10,
        "effect": "",
        "buff": "魔法技能攻击时，有10%概率暴击，造成150%的法术暴击伤害；精炼+6时，暴击概率提升至20%\n每6点幸运额外增加1%法术暴击伤害（幸运增加法术暴击伤害效果不叠加）",
        "adventureBuff": "",
        "storageBuff": "物理攻击+6\n魔法攻击+6",
        "storageRefineBuff": null,
        "isCompose": 0
      },
      {
        "id": "3004621",
        "name": "迷你指挥家[1]",
        "icon": "item_3004621",
        "rank": 3,
        "position": 7,
        "effect": "",
        "buff": "生命上限+5%\n治疗加成+5%\n同一地图队伍内其他成员（不包括自身）受治疗加成+5%、异常状态抵抗+5%",
        "adventureBuff": "",
        "storageBuff": "生命上限+120",
        "storageRefineBuff": null,
        "isCompose": 0
      },
      {
        "id": "3004620",
        "name": "美妙合奏",
        "icon": "item_3004620",
        "rank": 4,
        "position": 11,
        "effect": "",
        "buff": "全能力+5\n技能伤害+2%，任意一条六维属性（力量、敏捷、体质、智力、灵巧、幸运）达到119时，技能伤害+1%（额外最多6%）",
        "adventureBuff": "",
        "storageBuff": "物理攻击+1%\n魔法攻击+1%",
        "storageRefineBuff": null,
        "isCompose": 0
      },
      {
        "id": "3004602",
        "name": "咬咬博士",
        "icon": "item_3004602",
        "rank": 3,
        "position": 10,
        "effect": "",
        "buff": "全能力+1\n魔法伤害+4%",
        "adventureBuff": "",
        "storageBuff": "物理攻击+3，生命上限+30",
        "storageRefineBuff": null,
        "isCompose": 0
      },
      {
        "id": "3004601",
        "name": "陌生人假面",
        "icon": "item_3004601",
        "rank": 2,
        "position": 8,
        "effect": "",
        "buff": "移动速度+2%\n闪避+20",
        "adventureBuff": "",
        "storageBuff": "物理防御+2",
        "storageRefineBuff": null,
        "isCompose": 0
      },
      {
        "id": "3004600",
        "name": "昏睡魔菇",
        "icon": "item_3004600",
        "rank": 2,
        "position": 7,
        "effect": "",
        "buff": "魔伤减免+2%\n魔法防御+4%",
        "adventureBuff": "",
        "storageBuff": "魔法防御+2",
        "storageRefineBuff": null,
        "isCompose": 0
      },
      {
        "id": "3003860",
        "name": "荒古勇士",
        "icon": "item_3003860",
        "rank": 2,
        "position": 7,
        "effect": "",
        "buff": "力量+4\n体质+8",
        "adventureBuff": "",
        "storageBuff": "物理防御+2",
        "storageRefineBuff": null,
        "isCompose": 0
      },
      {
        "id": "48118",
        "name": "谜局之王",
        "icon": "item_48118",
        "rank": 3,
        "position": 11,
        "effect": "",
        "buff": "物理伤害+2%、魔法伤害+2%\n受到大型魔物伤害-10%",
        "adventureBuff": "",
        "storageBuff": "物理攻击+3，生命上限+30",
        "storageRefineBuff": null,
        "isCompose": 0
      },
      {
        "id": "47263",
        "name": "灾厄之翼",
        "icon": "item_47263",
        "rank": 3,
        "position": 10,
        "effect": "",
        "buff": "对龙族魔物伤害+10%\n受到龙族魔物伤害-15%",
        "adventureBuff": "",
        "storageBuff": "魔法攻击+3，生命上限+30",
        "storageRefineBuff": null,
        "isCompose": 0
      },
      {
        "id": "25176",
        "name": "飓风",
        "icon": "item_25176",
        "rank": 5,
        "position": 12,
        "effect": "",
        "buff": "移动速度+25%",
        "adventureBuff": "物理攻击+4，魔法攻击+4",
        "storageBuff": "",
        "storageRefineBuff": null,
        "isCompose": 0
      },
      {
        "id": "3004676",
        "name": "闪耀馈赠",
        "icon": "item_3004676",
        "rank": 5,
        "position": 10,
        "effect": "",
        "buff": "全能力+2\n物理穿刺+4%\n魔法穿刺+4%",
        "adventureBuff": "",
        "storageBuff": "生命上限+90",
        "storageRefineBuff": null,
        "isCompose": 0
      },
      {
        "id": "3004675",
        "name": "漫舞翩跹",
        "icon": "item_3004675",
        "rank": 3,
        "position": 9,
        "effect": "",
        "buff": "全能力+3\n物理攻击+6%",
        "adventureBuff": "",
        "storageBuff": "物理攻击+3，生命上限+30",
        "storageRefineBuff": null,
        "isCompose": 0
      },
      {
        "id": "3004674",
        "name": "霸气巡航者",
        "icon": "item_3004674",
        "rank": 3,
        "position": 8,
        "effect": "",
        "buff": "魔法攻击+80\n魔法攻击+5%",
        "adventureBuff": "",
        "storageBuff": "魔法攻击+3，生命上限+30",
        "storageRefineBuff": null,
        "isCompose": 0
      },
      {
        "id": "3004673",
        "name": "心跳碰碰鲨",
        "icon": "item_3004673",
        "rank": 3,
        "position": 11,
        "effect": "",
        "buff": "暴击伤害+2%\n每3点幸运额外增加0.1%暴击伤害",
        "adventureBuff": "",
        "storageBuff": "魔法攻击+6",
        "storageRefineBuff": null,
        "isCompose": 0
      },
      {
        "id": "3004672",
        "name": "悠悠随心桶",
        "icon": "item_3004672",
        "rank": 3,
        "position": 10,
        "effect": "",
        "buff": "物伤减免+4%\n魔伤减免+4%\n受到毒属性伤害-8%",
        "adventureBuff": "",
        "storageBuff": "物理攻击+6",
        "storageRefineBuff": null,
        "isCompose": 0
      },
      {
        "id": "3004671",
        "name": "热情沙堡",
        "icon": "item_3004671",
        "rank": 3,
        "position": 7,
        "effect": "",
        "buff": "生命上限+5%\n受治疗加成+5%",
        "adventureBuff": "",
        "storageBuff": "生命上限+60",
        "storageRefineBuff": null,
        "isCompose": 0
      },
      {
        "id": "3004669",
        "name": "艳阳侦察兵头饰系列",
        "icon": "item_3004669",
        "rank": 3,
        "position": 7,
        "effect": "",
        "buff": "魔法穿刺+3%\n魔法攻击+3%",
        "adventureBuff": "",
        "storageBuff": "物理防御+2，生命上限+30",
        "storageRefineBuff": null,
        "isCompose": 0
      },
      {
        "id": "3004664",
        "name": "消暑鸭舌帽头饰系列",
        "icon": "item_3004664",
        "rank": 3,
        "position": 7,
        "effect": "",
        "buff": "物理穿刺+3%\n物理攻击+3%",
        "adventureBuff": "",
        "storageBuff": "魔法防御+2，生命上限+30",
        "storageRefineBuff": null,
        "isCompose": 0
      },
      {
        "id": "3004644",
        "name": "浅滩风情系列时装",
        "icon": "item_3004644",
        "rank": 1,
        "position": 13,
        "effect": "",
        "buff": "",
        "adventureBuff": "物理攻击+1%\n魔法攻击+1%",
        "storageBuff": "物理攻击+12\n魔法攻击+12",
        "storageRefineBuff": null,
        "isCompose": 0
      },
      {
        "id": "3004476",
        "name": "动感一夏",
        "icon": "item_3004476",
        "rank": 2,
        "position": 8,
        "effect": "",
        "buff": "魔法攻击+20\n物理防御+10",
        "adventureBuff": "",
        "storageBuff": "生命上限+30",
        "storageRefineBuff": null,
        "isCompose": 0
      },
      {
        "id": "3004475",
        "name": "激浪狂鲨",
        "icon": "item_3004475",
        "rank": 2,
        "position": 10,
        "effect": "",
        "buff": "对鱼贝种族伤害+3%\n受到鱼贝种族魔物伤害-3%",
        "adventureBuff": "",
        "storageBuff": "生命上限+60\n物理防御+4",
        "storageRefineBuff": null,
        "isCompose": 0
      },
      {
        "id": "3004474",
        "name": "冰爽柠香",
        "icon": "item_3004474",
        "rank": 2,
        "position": 8,
        "effect": "",
        "buff": "生命上限+200\nHp恢复+10%",
        "adventureBuff": "",
        "storageBuff": "物理攻击+4\n魔法攻击+4",
        "storageRefineBuff": null,
        "isCompose": 0
      },
      {
        "id": "3004473",
        "name": "清凉椰之梦",
        "icon": "item_3004473",
        "rank": 2,
        "position": 11,
        "effect": "",
        "buff": "全能力+1\n受到水属性伤害-3%",
        "adventureBuff": "",
        "storageBuff": "生命上限+60\n魔法防御+4",
        "storageRefineBuff": null,
        "isCompose": 0
      },
      {
        "id": "3004472",
        "name": "盛夏嬉游",
        "icon": "item_3004472",
        "rank": 3,
        "position": 10,
        "effect": "",
        "buff": "背部每强化+1，忽视物理防御+0.1%",
        "adventureBuff": "",
        "storageBuff": "物理攻击+6\n魔法攻击+6",
        "storageRefineBuff": null,
        "isCompose": 0
      }
    ]
  }
}