{
  "code": 0,
  "status": "success",
  "timeStamp": 1643702647,
  "staticDomain": "http:\/\/rosc1.zhaiwuyu.com",
  "ip": "101.87.201.112",
  "language": "cn",
  "dbArea": 0,
  "data": {
    "page": 42,
    "pageSize": 30,
    "pageCount": 70,
    "total": 2073,
    "list": [
      {
        "id": "3000052",
        "name": "邪神魔盔[1]",
        "icon": "item_3000052",
        "rank": 2,
        "position": 7,
        "effect": "",
        "buff": "全能力+1\n火属性攻击+3%",
        "adventureBuff": "",
        "storageBuff": "生命上限+60\n物理防御+4",
        "storageRefineBuff": null,
        "isCompose": 0
      },
      {
        "id": "3000051",
        "name": "密米尔神钥",
        "icon": "item_3000051",
        "rank": 2,
        "position": 9,
        "effect": "",
        "buff": "生命上限+200\n治疗加成+2%",
        "adventureBuff": "",
        "storageBuff": "物理攻击+4\n魔法攻击+4",
        "storageRefineBuff": null,
        "isCompose": 0
      },
      {
        "id": "3000050",
        "name": "幼龙斯库尔",
        "icon": "item_3000050",
        "rank": 2,
        "position": 11,
        "effect": "",
        "buff": "生命上限+100\n人形种族减伤+2%",
        "adventureBuff": "",
        "storageBuff": "生命上限+60\n魔法防御+4",
        "storageRefineBuff": null,
        "isCompose": 0
      },
      {
        "id": "3000049",
        "name": "永渡黄昏之音",
        "icon": "item_3000049",
        "rank": 3,
        "position": 10,
        "effect": "",
        "buff": "佩戴者受到伤害时，自身5米范围内的队友（包括自身，最多六人）全能力+5，移动速度+15%，持续10秒（队伍成员15秒内只能受到一次效果）",
        "adventureBuff": "",
        "storageBuff": "物理攻击+6\n魔法攻击+6",
        "storageRefineBuff": null,
        "isCompose": 0
      },
      {
        "id": "3000048",
        "name": "瓦尔哈拉之盾",
        "icon": "item_3000048",
        "rank": 3,
        "position": 8,
        "effect": "",
        "buff": "生命上限+8%\n眩晕抵抗+10%",
        "adventureBuff": "",
        "storageBuff": "生命上限+120",
        "storageRefineBuff": null,
        "isCompose": 0
      },
      {
        "id": "3000047",
        "name": "尼德霍格的毒牙[1]",
        "icon": "item_3000047",
        "rank": 4,
        "position": 7,
        "effect": "",
        "buff": "击杀魔物Job经验+5%，对普通魔物（不包含MVP、Mini魔物）增伤+10%",
        "adventureBuff": "",
        "storageBuff": "物理攻击+1%\n魔法攻击+1%",
        "storageRefineBuff": null,
        "isCompose": 0
      },
      {
        "id": "3000046",
        "name": "趴趴小乌贼",
        "icon": "item_3000046",
        "rank": 2,
        "position": 7,
        "effect": "",
        "buff": "生命上限+200\n物理防御+15",
        "adventureBuff": "",
        "storageBuff": "生命上限+30",
        "storageRefineBuff": null,
        "isCompose": 0
      },
      {
        "id": "3000045",
        "name": "星光水母[1]",
        "icon": "item_3000045",
        "rank": 2,
        "position": 7,
        "effect": "",
        "buff": "击杀目标时，立刻恢复20点的生命值",
        "adventureBuff": "",
        "storageBuff": "生命上限+60\n物理防御+4",
        "storageRefineBuff": null,
        "isCompose": 0
      },
      {
        "id": "3000044",
        "name": "泡沫感应",
        "icon": "item_3000044",
        "rank": 2,
        "position": 8,
        "effect": "",
        "buff": "生命上限+200\n受到水属性伤害-3%",
        "adventureBuff": "",
        "storageBuff": "物理攻击+4\n魔法攻击+4",
        "storageRefineBuff": null,
        "isCompose": 0
      },
      {
        "id": "3000043",
        "name": "深海眷恋",
        "icon": "item_3000043",
        "rank": 2,
        "position": 9,
        "effect": "",
        "buff": "物理攻击+20\n魔法攻击+20",
        "adventureBuff": "",
        "storageBuff": "生命上限+60\n魔法防御+4",
        "storageRefineBuff": null,
        "isCompose": 0
      },
      {
        "id": "3000042",
        "name": "回旋情诗[1]",
        "icon": "item_3000042",
        "rank": 3,
        "position": 7,
        "effect": "",
        "buff": "生命上限+200\n人形种族加伤+5%\n精炼+6时，人形种族加伤额外+5%",
        "adventureBuff": "",
        "storageBuff": "物理攻击+6\n魔法攻击+6",
        "storageRefineBuff": null,
        "isCompose": 0
      },
      {
        "id": "3000041",
        "name": "潘罗的秘藏",
        "icon": "item_3000041",
        "rank": 3,
        "position": 10,
        "effect": "",
        "buff": "普通攻击时触发触手攻击，普通攻击的伤害增加BaseLv×10，精炼+1至+6，每精炼+1，普通攻击的伤害增加BaseLv×5（最多额外增加BaseLv×30）\n击杀目标时有5%概率额外获得5Zeny",
        "adventureBuff": "",
        "storageBuff": "生命上限+120",
        "storageRefineBuff": null,
        "isCompose": 0
      },
      {
        "id": "3000040",
        "name": "彩虹许愿鲸",
        "icon": "item_3000040",
        "rank": 4,
        "position": 11,
        "effect": "",
        "buff": "物理伤害+3%\n攻击血量低于自身的目标时，最终伤害增加5%",
        "adventureBuff": "",
        "storageBuff": "物理攻击+1%\n魔法攻击+1%",
        "storageRefineBuff": null,
        "isCompose": 0
      },
      {
        "id": "3000039",
        "name": "星屑蔷薇",
        "icon": "item_3000039",
        "rank": 2,
        "position": 9,
        "effect": "",
        "buff": "生命上限+100\n物理攻击+10",
        "adventureBuff": "",
        "storageBuff": "生命上限+30",
        "storageRefineBuff": null,
        "isCompose": 0
      },
      {
        "id": "3000038",
        "name": "月萤流羽[1]",
        "icon": "item_3000038",
        "rank": 2,
        "position": 7,
        "effect": "",
        "buff": "体质+2\n生命上限+500",
        "adventureBuff": "",
        "storageBuff": "生命上限+60\n物理防御+4",
        "storageRefineBuff": null,
        "isCompose": 0
      },
      {
        "id": "3000037",
        "name": "风汐回响",
        "icon": "item_3000037",
        "rank": 2,
        "position": 10,
        "effect": "",
        "buff": "全能力+1\n风属性攻击+2%",
        "adventureBuff": "",
        "storageBuff": "物理攻击+4\n魔法攻击+4",
        "storageRefineBuff": null,
        "isCompose": 0
      },
      {
        "id": "3000036",
        "name": "月之露比",
        "icon": "item_3000036",
        "rank": 2,
        "position": 11,
        "effect": "",
        "buff": "冰冻抵抗+10%",
        "adventureBuff": "",
        "storageBuff": "生命上限+60\n魔法防御+4",
        "storageRefineBuff": null,
        "isCompose": 0
      },
      {
        "id": "3000035",
        "name": "苍穹泪滴",
        "icon": "item_3000035",
        "rank": 3,
        "position": 8,
        "effect": "",
        "buff": "智力+2、忽视魔法防御+6%\n精炼+6时，智力+2、忽视魔法防御+6%",
        "adventureBuff": "",
        "storageBuff": "物理攻击+6\n魔法攻击+6",
        "storageRefineBuff": null,
        "isCompose": 0
      },
      {
        "id": "3000034",
        "name": "浮光之冠[1]",
        "icon": "item_3000034",
        "rank": 3,
        "position": 7,
        "effect": "",
        "buff": "魔法穿刺+3%\n攻击目标时，有100%概率降低目标5%魔伤减免、10%移动速度，持续5秒",
        "adventureBuff": "",
        "storageBuff": "生命上限+120",
        "storageRefineBuff": null,
        "isCompose": 0
      },
      {
        "id": "3000033",
        "name": "敛梦星纱",
        "icon": "item_3000033",
        "rank": 4,
        "position": 9,
        "effect": "",
        "buff": "物理穿刺+4%\n攻击目标时，有100%概率释放“星尘领域”，使目标进入冰冻状态，持续3秒（目标10秒内只能被冰冻一次）",
        "adventureBuff": "",
        "storageBuff": "物理攻击+1%\n魔法攻击+1%",
        "storageRefineBuff": null,
        "isCompose": 0
      },
      {
        "id": "149047",
        "name": "骨枷[1]",
        "icon": "item_49047",
        "rank": 3,
        "position": 7,
        "effect": "",
        "buff": "生命上限+1000\n竞技场模式（6V6）中，中毒、冰冻类型攻击的效果（概率和时间）+25%",
        "adventureBuff": "",
        "storageBuff": "物理攻击+3，生命上限+30",
        "storageRefineBuff": null,
        "isCompose": 0
      },
      {
        "id": "49100",
        "name": "ohsiesie",
        "icon": "item_49100",
        "rank": 3,
        "position": 7,
        "effect": "",
        "buff": "生命上限+300\n物理攻击+30、魔法攻击+30",
        "adventureBuff": "",
        "storageBuff": "生命上限+60",
        "storageRefineBuff": null,
        "isCompose": 0
      },
      {
        "id": "49084",
        "name": "往昔之书",
        "icon": "item_49084",
        "rank": 2,
        "position": 7,
        "effect": "",
        "buff": "全能力+1\n魔法上限+50",
        "adventureBuff": "",
        "storageBuff": "生命上限+30",
        "storageRefineBuff": null,
        "isCompose": 0
      },
      {
        "id": "49083",
        "name": "初见之印",
        "icon": "item_49083",
        "rank": 2,
        "position": 7,
        "effect": "",
        "buff": "力量+2\n灵巧+2\n智力+2\n生命上限+100",
        "adventureBuff": "",
        "storageBuff": "生命上限+30",
        "storageRefineBuff": null,
        "isCompose": 0
      },
      {
        "id": "48703",
        "name": "七彩防护镜",
        "icon": "item_48703",
        "rank": 2,
        "position": 8,
        "effect": "",
        "buff": "对水属性魔物伤害+3%\n受到水属性伤害-3%",
        "adventureBuff": "生命上限+30",
        "storageBuff": "生命上限+30",
        "storageRefineBuff": null,
        "isCompose": 1
      },
      {
        "id": "48690",
        "name": "炽吼",
        "icon": "item_48690",
        "rank": 3,
        "position": 9,
        "effect": "",
        "buff": "人形种族减伤+5%\n竞技场模式（6V6）中，人形种族加伤+10%",
        "adventureBuff": "",
        "storageBuff": "生命上限+60",
        "storageRefineBuff": null,
        "isCompose": 0
      },
      {
        "id": "48069",
        "name": "冲刺哥布灵",
        "icon": "item_48069",
        "rank": 2,
        "position": 11,
        "effect": "",
        "buff": "生命上限+100\n人形种族加伤+2%",
        "adventureBuff": "物理防御+3",
        "storageBuff": "生命上限+30",
        "storageRefineBuff": null,
        "isCompose": 1
      },
      {
        "id": "47170",
        "name": "驭海之戟",
        "icon": "item_47170",
        "rank": 2,
        "position": 10,
        "effect": "",
        "buff": "物理、魔法攻击+2%\n攻击目标时，有10%概率使目标进入冰冻状态，持续3秒",
        "adventureBuff": "",
        "storageBuff": "魔法攻击+3",
        "storageRefineBuff": null,
        "isCompose": 0
      },
      {
        "id": "47169",
        "name": "兔兔彩蛋背包",
        "icon": "item_47169",
        "rank": 2,
        "position": 10,
        "effect": "",
        "buff": "智力+2\n圣属性攻击+3%",
        "adventureBuff": "魔法防御+3",
        "storageBuff": "生命上限+30",
        "storageRefineBuff": null,
        "isCompose": 1
      },
      {
        "id": "47163",
        "name": "狂脊",
        "icon": "item_47163",
        "rank": 3,
        "position": 11,
        "effect": "",
        "buff": "物伤减免+4%\n竞技场模式（6V6）中，物伤减免+20%、魔伤减免-10%",
        "adventureBuff": "",
        "storageBuff": "魔法攻击+3，生命上限+30",
        "storageRefineBuff": null,
        "isCompose": 0
      }
    ]
  }
}