{
  "code": 0,
  "status": "success",
  "timeStamp": 1643702768,
  "staticDomain": "http:\/\/rosc1.zhaiwuyu.com",
  "ip": "101.87.201.112",
  "language": "cn",
  "dbArea": 0,
  "data": {
    "page": 54,
    "pageSize": 30,
    "pageCount": 70,
    "total": 2073,
    "list": [
      {
        "id": "45602",
        "name": "趴趴欧布",
        "icon": "item_45602",
        "rank": 2,
        "position": 7,
        "effect": "",
        "buff": "击杀魔物Base经验+4%\n击杀魔物Job经验+4%",
        "adventureBuff": "物理防御+2",
        "storageBuff": "魔法防御+2",
        "storageRefineBuff": null,
        "isCompose": 1
      },
      {
        "id": "45593",
        "name": "热带椰子",
        "icon": "item_45593",
        "rank": 2,
        "position": 7,
        "effect": "",
        "buff": "魔法上限+50\n物理攻击+10",
        "adventureBuff": "",
        "storageBuff": "生命上限+30",
        "storageRefineBuff": null,
        "isCompose": 0
      },
      {
        "id": "51142",
        "name": "暗夜系列时装",
        "icon": "item_51142",
        "rank": 1,
        "position": 13,
        "effect": "",
        "buff": "",
        "adventureBuff": "物理攻击+1%\n魔法攻击+1%",
        "storageBuff": "物理防御+6\n魔法防御+6",
        "storageRefineBuff": null,
        "isCompose": 0
      },
      {
        "id": "48620",
        "name": "魔王眼罩",
        "icon": "item_48620",
        "rank": 2,
        "position": 8,
        "effect": "",
        "buff": "可变吟唱时间-5%\n魔法攻击+3%",
        "adventureBuff": "",
        "storageBuff": "物理防御+3\n魔法防御+3",
        "storageRefineBuff": null,
        "isCompose": 0
      },
      {
        "id": "48028",
        "name": "小恶魔朱莉安",
        "icon": "item_48028",
        "rank": 2,
        "position": 11,
        "effect": "",
        "buff": "物理攻击+2%\n物理攻击+25",
        "adventureBuff": "",
        "storageBuff": "物理防御+3\n魔法防御+3",
        "storageRefineBuff": null,
        "isCompose": 0
      },
      {
        "id": "47082",
        "name": "夜羽",
        "icon": "item_47082",
        "rank": 5,
        "position": 10,
        "effect": "",
        "buff": "全能力+2\n物理穿刺+4%\n魔法穿刺+4%",
        "adventureBuff": "生命上限+21",
        "storageBuff": "生命上限+90",
        "storageRefineBuff": null,
        "isCompose": 0
      },
      {
        "id": "45621",
        "name": "曙光队长帽",
        "icon": "item_45621",
        "rank": 2,
        "position": 7,
        "effect": "",
        "buff": "魔法上限+100\n物理攻击+10\n魔法攻击+10",
        "adventureBuff": "物理防御+2",
        "storageBuff": "魔法防御+2",
        "storageRefineBuff": null,
        "isCompose": 1
      },
      {
        "id": "45618",
        "name": "月夜系列头饰",
        "icon": "item_45618",
        "rank": 3,
        "position": 7,
        "effect": "",
        "buff": "魔法攻击+20\n魔法穿刺+3%",
        "adventureBuff": "",
        "storageBuff": "物理攻击+6",
        "storageRefineBuff": null,
        "isCompose": 0
      },
      {
        "id": "45616",
        "name": "暗夜系列头饰",
        "icon": "item_45616",
        "rank": 3,
        "position": 7,
        "effect": "",
        "buff": "物理攻击+30\n物理穿刺+3%",
        "adventureBuff": "",
        "storageBuff": "魔法攻击+6",
        "storageRefineBuff": null,
        "isCompose": 0
      },
      {
        "id": "45607",
        "name": "花猫·雷亚",
        "icon": "item_45607",
        "rank": 3,
        "position": 11,
        "effect": "",
        "buff": "生命上限+500\n物理攻击+15\n魔法攻击+10",
        "adventureBuff": "",
        "storageBuff": "生命上限+60",
        "storageRefineBuff": null,
        "isCompose": 0
      },
      {
        "id": "45592",
        "name": "愤怒的撒旦",
        "icon": "item_45592",
        "rank": 2,
        "position": 7,
        "effect": "",
        "buff": "幸运+4\n生命上限+500\n魔法上限+50",
        "adventureBuff": "",
        "storageBuff": "生命上限+60",
        "storageRefineBuff": null,
        "isCompose": 0
      },
      {
        "id": "145590",
        "name": "东京铁塔之恋[1]",
        "icon": "item_45590",
        "rank": 2,
        "position": 7,
        "effect": "",
        "buff": "全能力+1\n魔法上限+50",
        "adventureBuff": "",
        "storageBuff": "生命上限+60",
        "storageRefineBuff": null,
        "isCompose": 0
      },
      {
        "id": "145589",
        "name": "金字塔的谜题[1]",
        "icon": "item_45589",
        "rank": 3,
        "position": 7,
        "effect": "",
        "buff": "智力+3\n忽视魔法防御+5%\n智力达到200点时，忽视魔法防御+5%",
        "adventureBuff": "",
        "storageBuff": "物理攻击+6\n魔法攻击+6",
        "storageRefineBuff": null,
        "isCompose": 0
      },
      {
        "id": "145588",
        "name": "熊猫和波利的竹子[1]",
        "icon": "item_45588",
        "rank": 3,
        "position": 7,
        "effect": "",
        "buff": "物理攻击+3%\n人形种族伤害+5%",
        "adventureBuff": "",
        "storageBuff": "生命上限+120",
        "storageRefineBuff": null,
        "isCompose": 0
      },
      {
        "id": "48619",
        "name": "北国的方块传说",
        "icon": "item_48619",
        "rank": 2,
        "position": 9,
        "effect": "",
        "buff": "力量+2\n忽视物理防御+2%",
        "adventureBuff": "",
        "storageBuff": "物理攻击+4\n魔法攻击+4",
        "storageRefineBuff": null,
        "isCompose": 0
      },
      {
        "id": "48027",
        "name": "飞行椅子的幻想",
        "icon": "item_48027",
        "rank": 4,
        "position": 11,
        "effect": "",
        "buff": "受到伤害时优先减少Sp，每点Sp可吸收5点伤害，PVP时每点Sp可吸收20点伤害",
        "adventureBuff": "",
        "storageBuff": "物理攻击+1%\n魔法攻击+1%",
        "storageRefineBuff": null,
        "isCompose": 0
      },
      {
        "id": "47081",
        "name": "自由的波利",
        "icon": "item_47081",
        "rank": 2,
        "position": 10,
        "effect": "",
        "buff": "物理攻击+30\n力量达到120点时，物理攻击+15",
        "adventureBuff": "生命上限+21",
        "storageBuff": "生命上限+60",
        "storageRefineBuff": null,
        "isCompose": 0
      },
      {
        "id": "47076",
        "name": "透明翅膀",
        "icon": "item_47076",
        "rank": 3,
        "position": 10,
        "effect": "",
        "buff": "生命上限+300\n物理攻击+60\n魔法攻击+40",
        "adventureBuff": "生命上限+60",
        "storageBuff": "生命上限+60",
        "storageRefineBuff": null,
        "isCompose": 1
      },
      {
        "id": "45597",
        "name": "国王波利系列头饰",
        "icon": "item_45597",
        "rank": 2,
        "position": 7,
        "effect": "",
        "buff": "全能力+1\n生命上限+120",
        "adventureBuff": "物理防御+2",
        "storageBuff": "魔法防御+2",
        "storageRefineBuff": null,
        "isCompose": 0
      },
      {
        "id": "45591",
        "name": "冒险火车头",
        "icon": "item_45591",
        "rank": 2,
        "position": 7,
        "effect": "",
        "buff": "幸运+2\n移动速度+3%",
        "adventureBuff": "",
        "storageBuff": "生命上限+30",
        "storageRefineBuff": null,
        "isCompose": 0
      },
      {
        "id": "145549",
        "name": "炸鸡勇者[1]",
        "icon": "item_45549",
        "rank": 4,
        "position": 7,
        "effect": "",
        "buff": "全能力+2\n物理伤害+8%\n魔法伤害+8%\n自带景点！穿戴【炸鸡勇者】后自己即为景点，冒险者使用照相机功能对其拍照即可解锁活动景点“KFC吃鸡王”！\n活动景点在冒险手册解锁后将自动隐藏。",
        "adventureBuff": "",
        "storageBuff": "物理攻击+1%\n魔法攻击+1%",
        "storageRefineBuff": null,
        "isCompose": 0
      },
      {
        "id": "145543",
        "name": "要迟到啦！[1]",
        "icon": "item_45543",
        "rank": 2,
        "position": 7,
        "effect": "",
        "buff": "闪避+5\n移动速度+3%",
        "adventureBuff": "",
        "storageBuff": "物理攻击+4\n魔法攻击+4",
        "storageRefineBuff": null,
        "isCompose": 0
      },
      {
        "id": "51118",
        "name": "月辉系列时装",
        "icon": "item_51118",
        "rank": 1,
        "position": 13,
        "effect": "",
        "buff": "",
        "adventureBuff": "物理攻击+1%\n魔法攻击+1%",
        "storageBuff": "物理攻击+12\n魔法攻击+12",
        "storageRefineBuff": null,
        "isCompose": 0
      },
      {
        "id": "48613",
        "name": "SAKURA·SAKURA",
        "icon": "item_48613",
        "rank": 2,
        "position": 9,
        "effect": "",
        "buff": "魔法上限+100",
        "adventureBuff": "",
        "storageBuff": "生命上限+30",
        "storageRefineBuff": null,
        "isCompose": 0
      },
      {
        "id": "48612",
        "name": "真的喜欢你哟",
        "icon": "item_48612",
        "rank": 3,
        "position": 9,
        "effect": "",
        "buff": "忽视物理防御+5%\n物理攻击+20",
        "adventureBuff": "",
        "storageBuff": "生命上限+120",
        "storageRefineBuff": null,
        "isCompose": 0
      },
      {
        "id": "48611",
        "name": "贤者之书",
        "icon": "item_48611",
        "rank": 4,
        "position": 10,
        "effect": "",
        "buff": "风、地、水、火属性攻击+5%\n可变吟唱时间-10%",
        "adventureBuff": "生命上限+21",
        "storageBuff": "物理攻击+1%\n魔法攻击+1%",
        "storageRefineBuff": null,
        "isCompose": 0
      },
      {
        "id": "48025",
        "name": "王冠系列头饰",
        "icon": "item_48025",
        "rank": 4,
        "position": 7,
        "effect": "",
        "buff": "全能力+2\n物理穿刺+4%\n魔法穿刺+4%",
        "adventureBuff": "",
        "storageBuff": "物理防御+4\n魔法防御+4",
        "storageRefineBuff": null,
        "isCompose": 0
      },
      {
        "id": "48021",
        "name": "校园生活",
        "icon": "item_48021",
        "rank": 3,
        "position": 11,
        "effect": "",
        "buff": "灵巧+5\n智力+5",
        "adventureBuff": "",
        "storageBuff": "物理攻击+6\n魔法攻击+6",
        "storageRefineBuff": null,
        "isCompose": 0
      },
      {
        "id": "47077",
        "name": "飞天小恶魔系列背饰",
        "icon": "item_47077",
        "rank": 3,
        "position": 10,
        "effect": "",
        "buff": "灵巧+5\n生命上限+500",
        "adventureBuff": "生命上限+21",
        "storageBuff": "物理攻击+6\n魔法攻击+6",
        "storageRefineBuff": null,
        "isCompose": 0
      },
      {
        "id": "47061",
        "name": "学之霸者",
        "icon": "item_47061",
        "rank": 2,
        "position": 10,
        "effect": "",
        "buff": "物理攻击+30\n暴击+3",
        "adventureBuff": "生命上限+21",
        "storageBuff": "生命上限+60",
        "storageRefineBuff": null,
        "isCompose": 0
      }
    ]
  }
}