{
  "code": 0,
  "status": "success",
  "timeStamp": 1643702474,
  "staticDomain": "http:\/\/rosc1.zhaiwuyu.com",
  "ip": "101.87.201.112",
  "language": "cn",
  "dbArea": 0,
  "data": {
    "page": 25,
    "pageSize": 30,
    "pageCount": 70,
    "total": 2073,
    "list": [
      {
        "id": "149171",
        "name": "月光咏叹[1]",
        "icon": "item_49171",
        "rank": 4,
        "position": 7,
        "effect": "",
        "buff": "灵巧+5\n体质+5\n物理伤害+4%",
        "adventureBuff": "",
        "storageBuff": "物理攻击+3，生命上限+30",
        "storageRefineBuff": null,
        "isCompose": 0
      },
      {
        "id": "149170",
        "name": "日轮冠冕[1]",
        "icon": "item_49170",
        "rank": 4,
        "position": 7,
        "effect": "",
        "buff": "灵巧+5\n体质+5\n物理伤害+4%",
        "adventureBuff": "",
        "storageBuff": "物理攻击+3，生命上限+30",
        "storageRefineBuff": null,
        "isCompose": 0
      },
      {
        "id": "49188",
        "name": "夕晖余梦",
        "icon": "item_49188",
        "rank": 2,
        "position": 7,
        "effect": "",
        "buff": "力量+2\n灵巧+2\n物理攻击+20",
        "adventureBuff": "",
        "storageBuff": "魔法防御+3",
        "storageRefineBuff": null,
        "isCompose": 0
      },
      {
        "id": "49187",
        "name": "旋金蛇舞",
        "icon": "item_49187",
        "rank": 2,
        "position": 7,
        "effect": "",
        "buff": "智力+2\n灵巧+2\n魔法攻击+20",
        "adventureBuff": "",
        "storageBuff": "物理防御+3",
        "storageRefineBuff": null,
        "isCompose": 0
      },
      {
        "id": "49186",
        "name": "幽灵低语",
        "icon": "item_49186",
        "rank": 2,
        "position": 7,
        "effect": "",
        "buff": "体质+3\n魔法上限+100",
        "adventureBuff": "",
        "storageBuff": "生命上限+30",
        "storageRefineBuff": null,
        "isCompose": 0
      },
      {
        "id": "48724",
        "name": "冰河游龙",
        "icon": "item_48724",
        "rank": 2,
        "position": 8,
        "effect": "",
        "buff": "生命上限+300\n技能伤害减免+2%",
        "adventureBuff": "",
        "storageBuff": "生命上限+30",
        "storageRefineBuff": null,
        "isCompose": 0
      },
      {
        "id": "47205",
        "name": "碧浪游龙",
        "icon": "item_47205",
        "rank": 3,
        "position": 10,
        "effect": "",
        "buff": "物伤减免+4%\n魔伤减免+4%\n受到水属性伤害-8%",
        "adventureBuff": "",
        "storageBuff": "生命上限+60",
        "storageRefineBuff": null,
        "isCompose": 0
      },
      {
        "id": "3001862",
        "name": "南瓜田的守望",
        "icon": "item_3001862",
        "rank": 3,
        "position": 7,
        "effect": "",
        "buff": "生命上限+500\n物理伤害+3%\n魔法伤害+3%",
        "adventureBuff": "魔法防御+2，生命上限+30",
        "storageBuff": "物理攻击+3，生命上限+30",
        "storageRefineBuff": null,
        "isCompose": 1
      },
      {
        "id": "3001861",
        "name": "回梦之泉",
        "icon": "item_3001861",
        "rank": 3,
        "position": 7,
        "effect": "",
        "buff": "体质+5\n生命上限+1000\n受到无属性伤害-5%",
        "adventureBuff": "生命上限+60",
        "storageBuff": "生命上限+60",
        "storageRefineBuff": null,
        "isCompose": 1
      },
      {
        "id": "3001860",
        "name": "星耀之门",
        "icon": "item_3001860",
        "rank": 2,
        "position": 10,
        "effect": "",
        "buff": "智力+2\n魔法上限+100",
        "adventureBuff": "",
        "storageBuff": "生命上限+30",
        "storageRefineBuff": null,
        "isCompose": 0
      },
      {
        "id": "3001727",
        "name": "银翼飞行器",
        "icon": "item_3001727",
        "rank": 5,
        "position": 10,
        "effect": "",
        "buff": "全能力+2\n物理穿刺+4%\n魔法穿刺+4%",
        "adventureBuff": "",
        "storageBuff": "生命上限+90",
        "storageRefineBuff": null,
        "isCompose": 0
      },
      {
        "id": "3001726",
        "name": "时空胶囊",
        "icon": "item_3001726",
        "rank": 3,
        "position": 10,
        "effect": "",
        "buff": "物理攻击+40\n魔法攻击+40\n对全种族伤害+4%",
        "adventureBuff": "",
        "storageBuff": "生命上限+60",
        "storageRefineBuff": null,
        "isCompose": 0
      },
      {
        "id": "3001725",
        "name": "回到未来",
        "icon": "item_3001725",
        "rank": 3,
        "position": 11,
        "effect": "",
        "buff": "移动速度+5%\n物理穿刺+2%",
        "adventureBuff": "",
        "storageBuff": "物理攻击+6",
        "storageRefineBuff": null,
        "isCompose": 0
      },
      {
        "id": "3001724",
        "name": "黑暗扫描仪",
        "icon": "item_3001724",
        "rank": 3,
        "position": 8,
        "effect": "",
        "buff": "对圣属性魔物伤害+10%\n受到圣属性伤害-10%",
        "adventureBuff": "",
        "storageBuff": "魔法攻击+6",
        "storageRefineBuff": null,
        "isCompose": 0
      },
      {
        "id": "3001723",
        "name": "超体感呼吸仪",
        "icon": "item_3001723",
        "rank": 3,
        "position": 9,
        "effect": "",
        "buff": "生命上限+1000\n物伤减免+5%",
        "adventureBuff": "",
        "storageBuff": "生命上限+60",
        "storageRefineBuff": null,
        "isCompose": 0
      },
      {
        "id": "3001722",
        "name": "少数派测谎装置",
        "icon": "item_3001722",
        "rank": 3,
        "position": 7,
        "effect": "",
        "buff": "灵巧+5\n体质+5\n远程物理伤害+4%",
        "adventureBuff": "",
        "storageBuff": "物理攻击+3，生命上限+30",
        "storageRefineBuff": null,
        "isCompose": 0
      },
      {
        "id": "3001721",
        "name": "一体式护目镜",
        "icon": "item_3001721",
        "rank": 3,
        "position": 7,
        "effect": "",
        "buff": "力量+5\n体质+5\n近战物理伤害+4%",
        "adventureBuff": "",
        "storageBuff": "魔法攻击+3，生命上限+30",
        "storageRefineBuff": null,
        "isCompose": 0
      },
      {
        "id": "3001719",
        "name": "猫耳发射器系列头饰",
        "icon": "item_3001719",
        "rank": 3,
        "position": 7,
        "effect": "",
        "buff": "魔法穿刺+3%\n使用技能时SP消耗量-5%",
        "adventureBuff": "",
        "storageBuff": "物理防御+2，生命上限+30",
        "storageRefineBuff": null,
        "isCompose": 0
      },
      {
        "id": "3001714",
        "name": "时空贝雷帽系列头饰",
        "icon": "item_3001714",
        "rank": 3,
        "position": 7,
        "effect": "",
        "buff": "物理穿刺+3%\n使用技能时SP消耗量-5%",
        "adventureBuff": "",
        "storageBuff": "魔法防御+2，生命上限+30",
        "storageRefineBuff": null,
        "isCompose": 0
      },
      {
        "id": "3001694",
        "name": "时空迁跃者系列时装",
        "icon": "item_3001694",
        "rank": 1,
        "position": 13,
        "effect": "",
        "buff": "",
        "adventureBuff": "物理攻击+1%\n魔法攻击+1%",
        "storageBuff": "物理防御+1%，魔法防御+1%",
        "storageRefineBuff": null,
        "isCompose": 0
      },
      {
        "id": "3001656",
        "name": "牧歌风琴",
        "icon": "item_3001656",
        "rank": 2,
        "position": 10,
        "effect": "",
        "buff": "生命上限+100\n物理攻击+10",
        "adventureBuff": "",
        "storageBuff": "生命上限+30",
        "storageRefineBuff": null,
        "isCompose": 0
      },
      {
        "id": "3001655",
        "name": "悠音轻梦[1]",
        "icon": "item_3001655",
        "rank": 2,
        "position": 7,
        "effect": "",
        "buff": "灵巧+3\n物理攻击+30",
        "adventureBuff": "",
        "storageBuff": "生命上限+60\n物理防御+4",
        "storageRefineBuff": null,
        "isCompose": 0
      },
      {
        "id": "3001654",
        "name": "晨昏回望",
        "icon": "item_3001654",
        "rank": 2,
        "position": 8,
        "effect": "",
        "buff": "全能力+1\n对植物种族伤害+3%",
        "adventureBuff": "",
        "storageBuff": "物理攻击+4\n魔法攻击+4",
        "storageRefineBuff": null,
        "isCompose": 0
      },
      {
        "id": "3001653",
        "name": "幻羽之笛",
        "icon": "item_3001653",
        "rank": 2,
        "position": 9,
        "effect": "",
        "buff": "智力+3\n风属性攻击+2%",
        "adventureBuff": "",
        "storageBuff": "生命上限+60\n魔法防御+4",
        "storageRefineBuff": null,
        "isCompose": 0
      },
      {
        "id": "3001652",
        "name": "星夜诗语",
        "icon": "item_3001652",
        "rank": 3,
        "position": 10,
        "effect": "",
        "buff": "智力+5\n体质+5\n圣属性攻击+10%",
        "adventureBuff": "",
        "storageBuff": "物理攻击+6\n魔法攻击+6",
        "storageRefineBuff": null,
        "isCompose": 0
      },
      {
        "id": "3001651",
        "name": "琴语乐目",
        "icon": "item_3001651",
        "rank": 3,
        "position": 8,
        "effect": "",
        "buff": "击杀魔物Job经验+10%，击杀魔物Base经验-20%",
        "adventureBuff": "",
        "storageBuff": "生命上限+120",
        "storageRefineBuff": null,
        "isCompose": 0
      },
      {
        "id": "3001650",
        "name": "暮羽笙歌[1]",
        "icon": "item_3001650",
        "rank": 4,
        "position": 7,
        "effect": "",
        "buff": "全能力+2\n物理穿刺+2%\n精炼+1至+6，每精炼+1，物理穿刺+1%（最多可提升6%物理穿刺）",
        "adventureBuff": "",
        "storageBuff": "物理攻击+1%\n魔法攻击+1%",
        "storageRefineBuff": null,
        "isCompose": 0
      },
      {
        "id": "3001592",
        "name": "月落星沉系列坐骑",
        "icon": "item_3001590",
        "rank": 5,
        "position": 12,
        "effect": "",
        "buff": "",
        "adventureBuff": "物理攻击+6，魔法攻击+6",
        "storageBuff": "",
        "storageRefineBuff": null,
        "isCompose": 0
      },
      {
        "id": "3001586",
        "name": "星河之魅",
        "icon": "item_3001586",
        "rank": 3,
        "position": 7,
        "effect": "",
        "buff": "对地属性魔物伤害+8%\n受到地属性伤害-8%",
        "adventureBuff": "",
        "storageBuff": "物理攻击+3，生命上限+30",
        "storageRefineBuff": null,
        "isCompose": 0
      },
      {
        "id": "3001585",
        "name": "星河王冠",
        "icon": "item_3001585",
        "rank": 3,
        "position": 7,
        "effect": "",
        "buff": "对风属性魔物伤害+8%\n受到风属性伤害-8%",
        "adventureBuff": "",
        "storageBuff": "魔法攻击+3，生命上限+30",
        "storageRefineBuff": null,
        "isCompose": 0
      }
    ]
  }
}