{
  "code": 0,
  "status": "success",
  "timeStamp": 1643702829,
  "staticDomain": "http:\/\/rosc1.zhaiwuyu.com",
  "ip": "101.87.201.112",
  "language": "cn",
  "dbArea": 0,
  "data": {
    "page": 60,
    "pageSize": 30,
    "pageCount": 70,
    "total": 2073,
    "list": [
      {
        "id": "561110",
        "name": "食神王冠·鱼汤",
        "icon": "item_551010",
        "rank": 1,
        "position": 7,
        "effect": "",
        "buff": "物理攻击+10\n魔法攻击+10\n力量+1",
        "adventureBuff": "生命上限+6",
        "storageBuff": "生命上限+18",
        "storageRefineBuff": null,
        "isCompose": 0
      },
      {
        "id": "561109",
        "name": "食神王冠·鱼串",
        "icon": "item_551009",
        "rank": 1,
        "position": 7,
        "effect": "",
        "buff": "生命上限+50\n幸运+2",
        "adventureBuff": "生命上限+6",
        "storageBuff": "生命上限+18",
        "storageRefineBuff": null,
        "isCompose": 0
      },
      {
        "id": "561108",
        "name": "食神王冠·鱼排",
        "icon": "item_551008",
        "rank": 1,
        "position": 7,
        "effect": "",
        "buff": "生命上限+50\n灵巧+2",
        "adventureBuff": "生命上限+6",
        "storageBuff": "生命上限+18",
        "storageRefineBuff": null,
        "isCompose": 0
      },
      {
        "id": "561107",
        "name": "食神王冠·果汁",
        "icon": "item_551012",
        "rank": 1,
        "position": 7,
        "effect": "",
        "buff": "生命上限+50\n敏捷+2",
        "adventureBuff": "生命上限+6",
        "storageBuff": "生命上限+18",
        "storageRefineBuff": null,
        "isCompose": 0
      },
      {
        "id": "561106",
        "name": "食神王冠·肉汤",
        "icon": "item_551002",
        "rank": 1,
        "position": 7,
        "effect": "",
        "buff": "生命上限+50\n智力+2",
        "adventureBuff": "生命上限+6",
        "storageBuff": "生命上限+18",
        "storageRefineBuff": null,
        "isCompose": 0
      },
      {
        "id": "561105",
        "name": "食神王冠·肉串",
        "icon": "item_551001",
        "rank": 1,
        "position": 7,
        "effect": "",
        "buff": "生命上限+50\n体质+2",
        "adventureBuff": "生命上限+6",
        "storageBuff": "生命上限+18",
        "storageRefineBuff": null,
        "isCompose": 0
      },
      {
        "id": "561104",
        "name": "食神王冠·肉排",
        "icon": "item_551000",
        "rank": 1,
        "position": 7,
        "effect": "",
        "buff": "生命上限+50\n力量+2",
        "adventureBuff": "生命上限+6",
        "storageBuff": "生命上限+18",
        "storageRefineBuff": null,
        "isCompose": 0
      },
      {
        "id": "145264",
        "name": "风车头饰[1]",
        "icon": "item_45264",
        "rank": 3,
        "position": 7,
        "effect": "",
        "buff": "风属性攻击+2%",
        "adventureBuff": "生命上限+14",
        "storageBuff": "生命上限+35",
        "storageRefineBuff": null,
        "isCompose": 1
      },
      {
        "id": "145262",
        "name": "山茶花发带[1]",
        "icon": "item_45262",
        "rank": 2,
        "position": 7,
        "effect": "",
        "buff": "魔法上限+50\n魔法攻击+5",
        "adventureBuff": "生命上限+6",
        "storageBuff": "生命上限+18",
        "storageRefineBuff": null,
        "isCompose": 1
      },
      {
        "id": "145257",
        "name": "会动的蝴蝶[1]",
        "icon": "item_45257",
        "rank": 4,
        "position": 7,
        "effect": "",
        "buff": "对无形种族伤害+5%",
        "adventureBuff": "生命上限+14",
        "storageBuff": "生命上限+70",
        "storageRefineBuff": null,
        "isCompose": 1
      },
      {
        "id": "145251",
        "name": "黄金时钟守备官[1]",
        "icon": "item_45251",
        "rank": 3,
        "position": 7,
        "effect": "",
        "buff": "魔法上限+50\n生命恢复+1",
        "adventureBuff": "生命上限+7",
        "storageBuff": "生命上限+21",
        "storageRefineBuff": null,
        "isCompose": 1
      },
      {
        "id": "145250",
        "name": "穆拉辛小姐的微笑[1]",
        "icon": "item_45250",
        "rank": 4,
        "position": 7,
        "effect": "",
        "buff": "地属性攻击+5%\n灵巧+1",
        "adventureBuff": "物理攻击+10",
        "storageBuff": "魔法攻击+8",
        "storageRefineBuff": null,
        "isCompose": 1
      },
      {
        "id": "48581",
        "name": "毒药伯爵面具",
        "icon": "item_48581",
        "rank": 2,
        "position": 8,
        "effect": "",
        "buff": "全能力+1",
        "adventureBuff": "",
        "storageBuff": "物理攻击+7.5，魔法攻击+7.5",
        "storageRefineBuff": null,
        "isCompose": 0
      },
      {
        "id": "48576",
        "name": "斯佩夏尔的呢喃",
        "icon": "item_48576",
        "rank": 4,
        "position": 8,
        "effect": "",
        "buff": "对不死种族加伤+10%\n精炼每+1，不死种族加伤+1%",
        "adventureBuff": "对不死种族加伤+1%",
        "storageBuff": "对不死种族加伤+4%",
        "storageRefineBuff": [
          {
            "lv": 6,
            "buff": "生命上限+90"
          },
          {
            "lv": 8,
            "buff": "生命上限+180"
          }
        ],
        "isCompose": 1
      },
      {
        "id": "48574",
        "name": "邪眼",
        "icon": "item_48574",
        "rank": 4,
        "position": 8,
        "effect": "",
        "buff": "生命上限+800\n忽视魔法防御+10%",
        "adventureBuff": "魔法攻击+4",
        "storageBuff": "魔法攻击+10",
        "storageRefineBuff": [
          {
            "lv": 6,
            "buff": "物理防御+6"
          },
          {
            "lv": 8,
            "buff": "物理攻击+6，魔法防御+3"
          }
        ],
        "isCompose": 1
      },
      {
        "id": "48571",
        "name": "吹箭",
        "icon": "item_48571",
        "rank": 3,
        "position": 9,
        "effect": "",
        "buff": "灵巧+4\n精炼+5，+10，+15时灵巧分别+1，+2，+3",
        "adventureBuff": "生命上限+14",
        "storageBuff": "生命上限+35",
        "storageRefineBuff": [
          {
            "lv": 6,
            "buff": "生命上限+60"
          },
          {
            "lv": 8,
            "buff": "魔法攻击+6"
          }
        ],
        "isCompose": 1
      },
      {
        "id": "48569",
        "name": "时光洞察",
        "icon": "item_48569",
        "rank": 3,
        "position": 8,
        "effect": "",
        "buff": "魔法上限+50\n精炼魔攻+5",
        "adventureBuff": "生命上限+7",
        "storageBuff": "生命上限+21",
        "storageRefineBuff": null,
        "isCompose": 1
      },
      {
        "id": "48011",
        "name": "爱丽丝的魔术兔",
        "icon": "item_48011",
        "rank": 4,
        "position": 11,
        "effect": "",
        "buff": "全能力+2\n生命上限+1000",
        "adventureBuff": "",
        "storageBuff": "物理攻击+1%，魔法攻击+1%",
        "storageRefineBuff": null,
        "isCompose": 0
      },
      {
        "id": "47033",
        "name": "大小姐的洋伞",
        "icon": "item_47033",
        "rank": 3,
        "position": 10,
        "effect": "",
        "buff": "生命上限+400\n人形种族加伤+5%",
        "adventureBuff": "生命上限+21",
        "storageBuff": "对人形种族加伤+3%",
        "storageRefineBuff": null,
        "isCompose": 0
      },
      {
        "id": "47026",
        "name": "时光倒流",
        "icon": "item_47026",
        "rank": 4,
        "position": 10,
        "effect": "",
        "buff": "魔法上限+50\n魔法恢复+1",
        "adventureBuff": "魔法上限+5",
        "storageBuff": "魔法上限+10",
        "storageRefineBuff": null,
        "isCompose": 1
      },
      {
        "id": "45278",
        "name": "疯帽子",
        "icon": "item_45278",
        "rank": 2,
        "position": 7,
        "effect": "",
        "buff": "物理攻击+20\n生命上限+150",
        "adventureBuff": "",
        "storageBuff": "生命上限+60",
        "storageRefineBuff": null,
        "isCompose": 0
      },
      {
        "id": "45277",
        "name": "笼子里的伊丽莎白",
        "icon": "item_45277",
        "rank": 2,
        "position": 7,
        "effect": "",
        "buff": "魔法攻击+20\n生命上限+150",
        "adventureBuff": "",
        "storageBuff": "生命上限+60",
        "storageRefineBuff": null,
        "isCompose": 0
      },
      {
        "id": "45276",
        "name": "神·手",
        "icon": "item_45276",
        "rank": 3,
        "position": 7,
        "effect": "",
        "buff": "生命上限+400\n人形种族加伤+5%",
        "adventureBuff": "",
        "storageBuff": "对人形种族加伤+3%",
        "storageRefineBuff": null,
        "isCompose": 0
      },
      {
        "id": "45265",
        "name": "雨伞帽",
        "icon": "item_45265",
        "rank": 3,
        "position": 7,
        "effect": "",
        "buff": "水属性攻击+2%\n灵巧+1",
        "adventureBuff": "生命上限+14",
        "storageBuff": "生命上限+35",
        "storageRefineBuff": null,
        "isCompose": 1
      },
      {
        "id": "45263",
        "name": "魔法茶壶",
        "icon": "item_45263",
        "rank": 2,
        "position": 7,
        "effect": "",
        "buff": "魔法上限+50\n精炼物攻+5",
        "adventureBuff": "生命上限+6",
        "storageBuff": "生命上限+18",
        "storageRefineBuff": null,
        "isCompose": 1
      },
      {
        "id": "45261",
        "name": "海蓝发带",
        "icon": "item_45261",
        "rank": 2,
        "position": 7,
        "effect": "",
        "buff": "魔法上限+50\n物理攻击+5",
        "adventureBuff": "生命上限+6",
        "storageBuff": "生命上限+18",
        "storageRefineBuff": null,
        "isCompose": 1
      },
      {
        "id": "45255",
        "name": "永动发条",
        "icon": "item_45255",
        "rank": 3,
        "position": 10,
        "effect": "",
        "buff": "生命上限+500\n智力+5",
        "adventureBuff": "生命上限+14",
        "storageBuff": "生命上限+35",
        "storageRefineBuff": [
          {
            "lv": 6,
            "buff": "物理防御+2，魔法防御+2"
          },
          {
            "lv": 8,
            "buff": "物理攻击+4，魔法防御+2"
          }
        ],
        "isCompose": 1
      },
      {
        "id": "45249",
        "name": "时之吟游诗人",
        "icon": "item_45249",
        "rank": 4,
        "position": 10,
        "effect": "",
        "buff": "力量+5\n人形种族加伤+5%\n装备拳刃时物理攻击+4%\n精炼每+1，【音速投掷】伤害+1%",
        "adventureBuff": "生命上限+21",
        "storageBuff": "对人形种族加伤+1%",
        "storageRefineBuff": null,
        "isCompose": 1
      },
      {
        "id": "45248",
        "name": "布谷布谷",
        "icon": "item_45248",
        "rank": 3,
        "position": 7,
        "effect": "",
        "buff": "生命上限+400\n忽视物理防御+2%",
        "adventureBuff": "物理攻击+4",
        "storageBuff": "物理攻击+10",
        "storageRefineBuff": null,
        "isCompose": 1
      },
      {
        "id": "45246",
        "name": "金色信仰",
        "icon": "item_145246",
        "rank": 2,
        "position": 7,
        "effect": "",
        "buff": "体质+1\n力量+1\n生命上限+50",
        "adventureBuff": "生命上限+6",
        "storageBuff": "生命上限+18",
        "storageRefineBuff": null,
        "isCompose": 1
      }
    ]
  }
}