{
  "code": 0,
  "status": "success",
  "timeStamp": 1643702434,
  "staticDomain": "http:\/\/rosc1.zhaiwuyu.com",
  "ip": "101.87.201.112",
  "language": "cn",
  "dbArea": 0,
  "data": {
    "page": 21,
    "pageSize": 30,
    "pageCount": 70,
    "total": 2073,
    "list": [
      {
        "id": "3002283",
        "name": "繁星之爱",
        "icon": "item_3002283",
        "rank": 2,
        "position": 9,
        "effect": "",
        "buff": "全能力+2\n火属性攻击+2%",
        "adventureBuff": "",
        "storageBuff": "生命上限+60\n魔法防御+4",
        "storageRefineBuff": null,
        "isCompose": 0
      },
      {
        "id": "3002282",
        "name": "绒绒",
        "icon": "item_3002282",
        "rank": 3,
        "position": 11,
        "effect": "",
        "buff": "普攻伤害+3%\n每6点敏捷额外增加0.1%普攻伤害",
        "adventureBuff": "",
        "storageBuff": "物理攻击+6\n魔法攻击+6",
        "storageRefineBuff": null,
        "isCompose": 0
      },
      {
        "id": "3002281",
        "name": "星芒单片镜",
        "icon": "item_3002281",
        "rank": 3,
        "position": 8,
        "effect": "",
        "buff": "生命上限+2000\n魔法上限+10%",
        "adventureBuff": "",
        "storageBuff": "生命上限+120",
        "storageRefineBuff": null,
        "isCompose": 0
      },
      {
        "id": "3002280",
        "name": "苍星飞羽",
        "icon": "item_3002280",
        "rank": 4,
        "position": 10,
        "effect": "",
        "buff": "魔法穿刺+5%\n魔法攻击+5%\n击杀目标时，立即恢复自身2%HP和2%SP，且自身移动速度提升30%，持续3秒",
        "adventureBuff": "",
        "storageBuff": "物理攻击+1%\n魔法攻击+1%",
        "storageRefineBuff": null,
        "isCompose": 0
      },
      {
        "id": "3002020",
        "name": "趴趴洞察眼",
        "icon": "item_3002020",
        "rank": 3,
        "position": 7,
        "effect": "",
        "buff": "物理攻击+20\n魔法攻击+20\n忽视物理防御+6%\n忽视魔法防御+6%",
        "adventureBuff": "",
        "storageBuff": "魔法防御+2，生命上限+30",
        "storageRefineBuff": null,
        "isCompose": 0
      },
      {
        "id": "3001641",
        "name": "懒洋洋的三花猫[1]",
        "icon": "item_3001641",
        "rank": 3,
        "position": 7,
        "effect": "",
        "buff": "幸运+3\n冰冻抵抗+50%\n睡眠抵抗+50%",
        "adventureBuff": "",
        "storageBuff": "生命上限+28",
        "storageRefineBuff": null,
        "isCompose": 0
      },
      {
        "id": "51582",
        "name": "龙之城洛阳系列时装",
        "icon": "item_51582",
        "rank": 1,
        "position": 13,
        "effect": "",
        "buff": "",
        "adventureBuff": "",
        "storageBuff": "生命上限+60",
        "storageRefineBuff": null,
        "isCompose": 0
      },
      {
        "id": "48092",
        "name": "衔着花的蛇",
        "icon": "item_48092",
        "rank": 4,
        "position": 11,
        "effect": "",
        "buff": "物理伤害+3%\n魔法伤害+3%",
        "adventureBuff": "",
        "storageBuff": "生命上限+90",
        "storageRefineBuff": null,
        "isCompose": 0
      },
      {
        "id": "25217",
        "name": "巫沙布提·白银",
        "icon": "item_25217",
        "rank": 1,
        "position": 12,
        "effect": "",
        "buff": "移动速度+25%",
        "adventureBuff": "物理攻击+2、魔法攻击+2",
        "storageBuff": "",
        "storageRefineBuff": null,
        "isCompose": 0
      },
      {
        "id": "25216",
        "name": "巫沙布提·青金",
        "icon": "item_25216",
        "rank": 1,
        "position": 12,
        "effect": "",
        "buff": "移动速度+25%",
        "adventureBuff": "物理攻击+4，魔法攻击+4",
        "storageBuff": "",
        "storageRefineBuff": null,
        "isCompose": 0
      },
      {
        "id": "3002206",
        "name": "瓶中的黑珍珠",
        "icon": "item_3002206",
        "rank": 3,
        "position": 11,
        "effect": "",
        "buff": "生命上限+1500\n技能伤害减免+5%",
        "adventureBuff": "",
        "storageBuff": "物理攻击+6",
        "storageRefineBuff": null,
        "isCompose": 0
      },
      {
        "id": "3002205",
        "name": "海岛眼镜",
        "icon": "item_3002205",
        "rank": 3,
        "position": 8,
        "effect": "",
        "buff": "暴击防护+10\n暴伤减免+15%",
        "adventureBuff": "",
        "storageBuff": "生命上限+60",
        "storageRefineBuff": null,
        "isCompose": 0
      },
      {
        "id": "3002204",
        "name": "大鱼的脑波",
        "icon": "item_3002204",
        "rank": 3,
        "position": 11,
        "effect": "",
        "buff": "生命上限+1500\n普攻伤害减免+5%",
        "adventureBuff": "",
        "storageBuff": "魔法攻击+6",
        "storageRefineBuff": null,
        "isCompose": 0
      },
      {
        "id": "3002203",
        "name": "鹈鹕船长",
        "icon": "item_3002203",
        "rank": 3,
        "position": 10,
        "effect": "",
        "buff": "生命上限+4%\n魔法上限+4%",
        "adventureBuff": "",
        "storageBuff": "生命上限+60",
        "storageRefineBuff": null,
        "isCompose": 0
      },
      {
        "id": "3002202",
        "name": "英勇的水手帽",
        "icon": "item_3002202",
        "rank": 3,
        "position": 7,
        "effect": "",
        "buff": "普攻伤害+3%\n暴击伤害+5%",
        "adventureBuff": "",
        "storageBuff": "物理攻击+3，生命上限+30",
        "storageRefineBuff": null,
        "isCompose": 0
      },
      {
        "id": "3002201",
        "name": "曙光巡航艇",
        "icon": "item_3002201",
        "rank": 3,
        "position": 7,
        "effect": "",
        "buff": "生命上限+3%\n受治疗加成+5%",
        "adventureBuff": "",
        "storageBuff": "魔法攻击+3，生命上限+30",
        "storageRefineBuff": null,
        "isCompose": 0
      },
      {
        "id": "3002199",
        "name": "白鸽贝雷帽系列",
        "icon": "item_3002199",
        "rank": 3,
        "position": 7,
        "effect": "",
        "buff": "魔法攻击+40\n人形种族加伤+6%",
        "adventureBuff": "",
        "storageBuff": "物理防御+2，生命上限+30",
        "storageRefineBuff": null,
        "isCompose": 0
      },
      {
        "id": "3002194",
        "name": "曙光海军帽系列",
        "icon": "item_3002194",
        "rank": 3,
        "position": 7,
        "effect": "",
        "buff": "物理攻击+40\n人形种族加伤+6%",
        "adventureBuff": "",
        "storageBuff": "魔法防御+2，生命上限+30",
        "storageRefineBuff": null,
        "isCompose": 0
      },
      {
        "id": "3002174",
        "name": "曙光舰队系列时装",
        "icon": "item_3002174",
        "rank": 1,
        "position": 13,
        "effect": "",
        "buff": "",
        "adventureBuff": "物理攻击+1%\n魔法攻击+1%",
        "storageBuff": "物理攻击+12\n魔法攻击+12",
        "storageRefineBuff": null,
        "isCompose": 0
      },
      {
        "id": "3002156",
        "name": "轻唇喵喵",
        "icon": "item_3002156",
        "rank": 2,
        "position": 9,
        "effect": "",
        "buff": "生命上限+200\n物理防御+10",
        "adventureBuff": "",
        "storageBuff": "生命上限+30",
        "storageRefineBuff": null,
        "isCompose": 0
      },
      {
        "id": "3002155",
        "name": "金色照耀",
        "icon": "item_3002155",
        "rank": 2,
        "position": 8,
        "effect": "",
        "buff": "魔法防御+20\n魔伤减免+2%",
        "adventureBuff": "",
        "storageBuff": "生命上限+60\n物理防御+4",
        "storageRefineBuff": null,
        "isCompose": 0
      },
      {
        "id": "3002154",
        "name": "瑰色女王",
        "icon": "item_3002154",
        "rank": 2,
        "position": 9,
        "effect": "",
        "buff": "生命上限+300\n眩晕抵抗+5%",
        "adventureBuff": "",
        "storageBuff": "物理攻击+4\n魔法攻击+4",
        "storageRefineBuff": null,
        "isCompose": 0
      },
      {
        "id": "3002153",
        "name": "魔幻储宝箱",
        "icon": "item_3002153",
        "rank": 2,
        "position": 10,
        "effect": "",
        "buff": "力量+6\n幸运+6",
        "adventureBuff": "",
        "storageBuff": "生命上限+60\n魔法防御+4",
        "storageRefineBuff": null,
        "isCompose": 0
      },
      {
        "id": "3002152",
        "name": "千里瞳[1]",
        "icon": "item_3002152",
        "rank": 3,
        "position": 7,
        "effect": "",
        "buff": "全能力+2\n物理伤害+6%\n精炼+6时，命中+100",
        "adventureBuff": "",
        "storageBuff": "物理攻击+6\n魔法攻击+6",
        "storageRefineBuff": null,
        "isCompose": 0
      },
      {
        "id": "3002151",
        "name": "扉之守护者",
        "icon": "item_3002151",
        "rank": 3,
        "position": 11,
        "effect": "",
        "buff": "技能伤害+2%\n技能延迟-10%",
        "adventureBuff": "",
        "storageBuff": "生命上限+120",
        "storageRefineBuff": null,
        "isCompose": 0
      },
      {
        "id": "3002150",
        "name": "瓶中之星[1]",
        "icon": "item_3002150",
        "rank": 4,
        "position": 7,
        "effect": "",
        "buff": "全能力+2\n魔法穿刺+5%\n生命值100%时，魔法穿刺+3%",
        "adventureBuff": "",
        "storageBuff": "物理攻击+1%\n魔法攻击+1%",
        "storageRefineBuff": null,
        "isCompose": 0
      },
      {
        "id": "3000178",
        "name": "风栖灵龙·流光",
        "icon": "item_3000178",
        "rank": 1,
        "position": 12,
        "effect": "",
        "buff": "移动速度+50%\n可以使用技能【心之幻音】",
        "adventureBuff": "物理攻击+8，魔法攻击+8",
        "storageBuff": "",
        "storageRefineBuff": null,
        "isCompose": 0
      },
      {
        "id": "3000177",
        "name": "风栖灵龙·辉夜",
        "icon": "item_3000177",
        "rank": 1,
        "position": 12,
        "effect": "",
        "buff": "移动速度+50%\n可以使用技能【梦之回响】",
        "adventureBuff": "物理攻击+8，魔法攻击+8",
        "storageBuff": "",
        "storageRefineBuff": null,
        "isCompose": 0
      },
      {
        "id": "149210",
        "name": "元灵鬼面[1]",
        "icon": "item_49210",
        "rank": 4,
        "position": 7,
        "effect": "",
        "buff": "体质+5\n每精炼+1，普攻伤害减免+1%",
        "adventureBuff": "",
        "storageBuff": "魔法防御+3，生命上限+45",
        "storageRefineBuff": null,
        "isCompose": 0
      },
      {
        "id": "149197",
        "name": "粉墨悲歌[1]",
        "icon": "item_49197",
        "rank": 3,
        "position": 7,
        "effect": "",
        "buff": "暴击+5\n普攻伤害+3%\n普攻伤害减免+3%",
        "adventureBuff": "",
        "storageBuff": "生命上限+60",
        "storageRefineBuff": null,
        "isCompose": 0
      }
    ]
  }
}