{
  "code": 0,
  "status": "success",
  "timeStamp": 1642842561,
  "staticDomain": "http:\/\/rosc1.zhaiwuyu.com",
  "ip": "101.87.200.160",
  "language": "cn",
  "dbArea": 0,
  "data": {
    "page": 15,
    "pageSize": 30,
    "pageCount": 68,
    "total": 2037,
    "list": [
      {
        "id": "48754",
        "name": "蝶之息",
        "icon": "item_48754",
        "rank": 3,
        "position": 9,
        "effect": "",
        "buff": "全能力+1\n对MVP、Mini魔物造成的伤害+5%",
        "adventureBuff": "",
        "storageBuff": "物理攻击+3，生命上限+30",
        "storageRefineBuff": null,
        "isCompose": 0
      },
      {
        "id": "48753",
        "name": "唤风者",
        "icon": "item_48753",
        "rank": 3,
        "position": 8,
        "effect": "",
        "buff": "全能力+1\n对普通魔物（不包含MVP、Mini魔物）增伤+5%",
        "adventureBuff": "",
        "storageBuff": "魔法攻击+3，生命上限+30",
        "storageRefineBuff": null,
        "isCompose": 0
      },
      {
        "id": "48752",
        "name": "新生元灵",
        "icon": "item_48752",
        "rank": 2,
        "position": 9,
        "effect": "",
        "buff": "全能力+2\n闪避+20",
        "adventureBuff": "",
        "storageBuff": "生命上限+30",
        "storageRefineBuff": null,
        "isCompose": 0
      },
      {
        "id": "48751",
        "name": "蝶舞幔纱",
        "icon": "item_48751",
        "rank": 2,
        "position": 9,
        "effect": "",
        "buff": "全能力+2\n命中+20",
        "adventureBuff": "",
        "storageBuff": "生命上限+30",
        "storageRefineBuff": null,
        "isCompose": 0
      },
      {
        "id": "48750",
        "name": "无垢月光",
        "icon": "item_48750",
        "rank": 2,
        "position": 8,
        "effect": "",
        "buff": "生命上限+200\n人形种族减伤+5%",
        "adventureBuff": "",
        "storageBuff": "生命上限+30",
        "storageRefineBuff": null,
        "isCompose": 0
      },
      {
        "id": "48749",
        "name": "神契印记",
        "icon": "item_48749",
        "rank": 3,
        "position": 8,
        "effect": "",
        "buff": "生命上限+1000\n人形种族加伤+8%",
        "adventureBuff": "",
        "storageBuff": "生命上限+60",
        "storageRefineBuff": null,
        "isCompose": 0
      },
      {
        "id": "48108",
        "name": "校舍管理员",
        "icon": "item_48108",
        "rank": 3,
        "position": 11,
        "effect": "",
        "buff": "对MVP、Mini魔物造成的伤害+4%",
        "adventureBuff": "",
        "storageBuff": "生命上限+60",
        "storageRefineBuff": null,
        "isCompose": 0
      },
      {
        "id": "48107",
        "name": "偷星魔女",
        "icon": "item_48107",
        "rank": 3,
        "position": 11,
        "effect": "",
        "buff": "生命上限+1000\n普攻伤害减免+3%\n魔伤减免+3%",
        "adventureBuff": "",
        "storageBuff": "物理攻击+3，生命上限+30",
        "storageRefineBuff": null,
        "isCompose": 0
      },
      {
        "id": "48105",
        "name": "紫晶伴生灵",
        "icon": "item_48105",
        "rank": 3,
        "position": 11,
        "effect": "",
        "buff": "生命上限+2000\n每精炼+1，技能伤害减免+1%",
        "adventureBuff": "生命上限+60",
        "storageBuff": "物理攻击+6",
        "storageRefineBuff": null,
        "isCompose": 1
      },
      {
        "id": "48103",
        "name": "妖精灵探",
        "icon": "item_48103",
        "rank": 3,
        "position": 11,
        "effect": "",
        "buff": "生命上限+1000\n普攻伤害减免+4%",
        "adventureBuff": "",
        "storageBuff": "生命上限+60",
        "storageRefineBuff": null,
        "isCompose": 0
      },
      {
        "id": "48094",
        "name": "爱与勇气的纪念",
        "icon": "item_48094",
        "rank": 3,
        "position": 11,
        "effect": "",
        "buff": "移动速度+5%\n物理攻击+40\n魔法攻击+40",
        "adventureBuff": "",
        "storageBuff": "生命上限+60",
        "storageRefineBuff": null,
        "isCompose": 0
      },
      {
        "id": "47251",
        "name": "毕业歌",
        "icon": "item_47251",
        "rank": 3,
        "position": 10,
        "effect": "",
        "buff": "全能力+1\n魔法伤害+3%\n物理伤害+3%",
        "adventureBuff": "",
        "storageBuff": "生命上限+60",
        "storageRefineBuff": null,
        "isCompose": 0
      },
      {
        "id": "47247",
        "name": "星光祈愿杖",
        "icon": "item_47247",
        "rank": 3,
        "position": 10,
        "effect": "",
        "buff": "生命上限+1000\n技能伤害减免+3%\n物伤减免+3%",
        "adventureBuff": "",
        "storageBuff": "魔法攻击+3，生命上限+30",
        "storageRefineBuff": null,
        "isCompose": 0
      },
      {
        "id": "47246",
        "name": "暴风雪之翼",
        "icon": "item_47246",
        "rank": 4,
        "position": 10,
        "effect": "",
        "buff": "体质+5\n生命上限+5%\n被攻击时，100%概率反弹一个自身所中的异常状态（中毒、流血、灼烧、眩晕、冰冻）",
        "adventureBuff": "魔法攻击+8",
        "storageBuff": "魔法防御+3，生命上限+45",
        "storageRefineBuff": null,
        "isCompose": 1
      },
      {
        "id": "47235",
        "name": "苗娃秋千",
        "icon": "item_47235",
        "rank": 3,
        "position": 10,
        "effect": "",
        "buff": "智力+3\n魔法穿刺+3%\n智力达到240点时，忽视魔法防御+3%",
        "adventureBuff": "物理攻击+3，生命上限+30",
        "storageBuff": "生命上限+60",
        "storageRefineBuff": null,
        "isCompose": 1
      },
      {
        "id": "47234",
        "name": "魂音激奏",
        "icon": "item_47234",
        "rank": 4,
        "position": 10,
        "effect": "",
        "buff": "魔法攻击+5%、物理攻击+5%\n同一地图队伍内其他成员（不包括自身）魔法攻击+2%、物理攻击+2%，最多可以叠加5层",
        "adventureBuff": "魔法攻击+8",
        "storageBuff": "魔法防御+3，生命上限+45",
        "storageRefineBuff": null,
        "isCompose": 1
      },
      {
        "id": "47233",
        "name": "新叶羽翼",
        "icon": "item_47233",
        "rank": 4,
        "position": 10,
        "effect": "",
        "buff": "生命上限+5%\n每精炼+1，普攻伤害减免+1%",
        "adventureBuff": "物理攻击+8",
        "storageBuff": "物理防御+3，生命上限+45",
        "storageRefineBuff": null,
        "isCompose": 1
      },
      {
        "id": "47230",
        "name": "万灵颂唱",
        "icon": "item_47230",
        "rank": 3,
        "position": 10,
        "effect": "",
        "buff": "生命上限+1000\n技能伤害减免+4%",
        "adventureBuff": "",
        "storageBuff": "生命上限+60",
        "storageRefineBuff": null,
        "isCompose": 0
      },
      {
        "id": "47229",
        "name": "精灵守卫之翼",
        "icon": "item_47229",
        "rank": 3,
        "position": 10,
        "effect": "",
        "buff": "全能力+2\n魔法攻击+2%",
        "adventureBuff": "",
        "storageBuff": "物理攻击+3，生命上限+30",
        "storageRefineBuff": null,
        "isCompose": 0
      },
      {
        "id": "47228",
        "name": "浮空轻羽",
        "icon": "item_47228",
        "rank": 3,
        "position": 10,
        "effect": "",
        "buff": "全能力+2\n物理攻击+2%",
        "adventureBuff": "",
        "storageBuff": "魔法攻击+3，生命上限+30",
        "storageRefineBuff": null,
        "isCompose": 0
      },
      {
        "id": "47130",
        "name": "波利冒险背包",
        "icon": "item_47130",
        "rank": 3,
        "position": 10,
        "effect": "",
        "buff": "生命上限+1500\n物理攻击+100\n魔法攻击+100",
        "adventureBuff": "",
        "storageBuff": "生命上限+60",
        "storageRefineBuff": null,
        "isCompose": 0
      },
      {
        "id": "29019",
        "name": "神行蛙系列坐骑",
        "icon": "item_25564",
        "rank": 3,
        "position": 12,
        "effect": "",
        "buff": "移动速度+25%",
        "adventureBuff": "物理攻击+2，生命上限+20",
        "storageBuff": "",
        "storageRefineBuff": null,
        "isCompose": 0
      },
      {
        "id": "29018",
        "name": "归来蛙系列坐骑",
        "icon": "item_25563",
        "rank": 2,
        "position": 12,
        "effect": "",
        "buff": "移动速度+25%",
        "adventureBuff": "物理攻击+4，生命上限+40",
        "storageBuff": "",
        "storageRefineBuff": null,
        "isCompose": 0
      },
      {
        "id": "25218",
        "name": "叹息之羽",
        "icon": "item_25218",
        "rank": 1,
        "position": 12,
        "effect": "",
        "buff": "移动速度+25%",
        "adventureBuff": "",
        "storageBuff": "",
        "storageRefineBuff": null,
        "isCompose": 0
      },
      {
        "id": "25160",
        "name": "陆行鸟健将",
        "icon": "item_25160",
        "rank": 3,
        "position": 12,
        "effect": "",
        "buff": "移动速度+25%",
        "adventureBuff": "",
        "storageBuff": "",
        "storageRefineBuff": null,
        "isCompose": 0
      },
      {
        "id": "25157",
        "name": "彩虹石波利",
        "icon": "item_25157",
        "rank": 3,
        "position": 12,
        "effect": "",
        "buff": "移动速度+25%",
        "adventureBuff": "生命上限+30",
        "storageBuff": "",
        "storageRefineBuff": null,
        "isCompose": 0
      },
      {
        "id": "25133",
        "name": "银翼雪鹿",
        "icon": "item_25133",
        "rank": 1,
        "position": 12,
        "effect": "",
        "buff": "移动速度+25%",
        "adventureBuff": "物理攻击+6，魔法攻击+6",
        "storageBuff": "",
        "storageRefineBuff": null,
        "isCompose": 0
      },
      {
        "id": "3002931",
        "name": "槲寄生发冠",
        "icon": "item_3002931",
        "rank": 2,
        "position": 7,
        "effect": "",
        "buff": "全能力+2\n技能伤害+2%",
        "adventureBuff": "",
        "storageBuff": "生命上限+30",
        "storageRefineBuff": null,
        "isCompose": 0
      },
      {
        "id": "3002930",
        "name": "小小圣诞信使",
        "icon": "item_3002930",
        "rank": 3,
        "position": 11,
        "effect": "",
        "buff": "移动速度+5%\n灵巧+5\n力量+5\n幸运+10",
        "adventureBuff": "",
        "storageBuff": "魔法攻击+3，生命上限+30",
        "storageRefineBuff": null,
        "isCompose": 0
      },
      {
        "id": "3002906",
        "name": "冰霜精灵",
        "icon": "item_3002906",
        "rank": 2,
        "position": 8,
        "effect": "",
        "buff": "物理攻击+20\n物理防御+10",
        "adventureBuff": "",
        "storageBuff": "生命上限+30",
        "storageRefineBuff": null,
        "isCompose": 0
      }
    ]
  }
}