{
  "code": 0,
  "status": "success",
  "timeStamp": 1643702464,
  "staticDomain": "http:\/\/rosc1.zhaiwuyu.com",
  "ip": "101.87.201.112",
  "language": "cn",
  "dbArea": 0,
  "data": {
    "page": 24,
    "pageSize": 30,
    "pageCount": 70,
    "total": 2073,
    "list": [
      {
        "id": "3001906",
        "name": "礼赞·仪仗熊赞礼",
        "icon": "item_3001906",
        "rank": 2,
        "position": 10,
        "effect": "",
        "buff": "生命上限+100\n魔法攻击+10",
        "adventureBuff": "",
        "storageBuff": "生命上限+30",
        "storageRefineBuff": null,
        "isCompose": 0
      },
      {
        "id": "3001905",
        "name": "礼赞·甜晕了",
        "icon": "item_3001905",
        "rank": 2,
        "position": 8,
        "effect": "",
        "buff": "全能力+2\n眩晕攻击+5%",
        "adventureBuff": "",
        "storageBuff": "生命上限+60\n物理防御+4",
        "storageRefineBuff": null,
        "isCompose": 0
      },
      {
        "id": "3001904",
        "name": "礼赞·棕角马的守望[1]",
        "icon": "item_3001904",
        "rank": 2,
        "position": 7,
        "effect": "",
        "buff": "移动速度+2%\n灵巧+2\n敏捷+2",
        "adventureBuff": "",
        "storageBuff": "物理攻击+4\n魔法攻击+4",
        "storageRefineBuff": null,
        "isCompose": 0
      },
      {
        "id": "3001903",
        "name": "礼赞·缤纷弥漫",
        "icon": "item_3001903",
        "rank": 2,
        "position": 9,
        "effect": "",
        "buff": "生命上限+200\n人形种族加伤+2%",
        "adventureBuff": "",
        "storageBuff": "生命上限+60\n魔法防御+4",
        "storageRefineBuff": null,
        "isCompose": 0
      },
      {
        "id": "3001902",
        "name": "盛典·糖果乐园",
        "icon": "item_3001902",
        "rank": 3,
        "position": 10,
        "effect": "",
        "buff": "击杀魔物Job经验+10%，击杀魔物Base经验-20%",
        "adventureBuff": "",
        "storageBuff": "物理攻击+6\n魔法攻击+6",
        "storageRefineBuff": null,
        "isCompose": 0
      },
      {
        "id": "3001901",
        "name": "盛典·糖色太妃[1]",
        "icon": "item_3001901",
        "rank": 3,
        "position": 7,
        "effect": "",
        "buff": "体质+5\n全种族减伤+8%\n异常状态下，物理防御+25%、魔法防御+25%、Hp恢复+100%",
        "adventureBuff": "",
        "storageBuff": "生命上限+120",
        "storageRefineBuff": null,
        "isCompose": 0
      },
      {
        "id": "3001900",
        "name": "盛典·旋转甜梦",
        "icon": "item_3001900",
        "rank": 4,
        "position": 9,
        "effect": "",
        "buff": "魔法穿刺+4%\n精炼+6时，每100点物理攻击会额外增加1点魔法攻击",
        "adventureBuff": "",
        "storageBuff": "物理攻击+1%\n魔法攻击+1%",
        "storageRefineBuff": null,
        "isCompose": 0
      },
      {
        "id": "3001846",
        "name": "幽灵海盗船",
        "icon": "item_3001846",
        "rank": 3,
        "position": 11,
        "effect": "",
        "buff": "移动速度+5%\n魔法攻击+3%",
        "adventureBuff": "",
        "storageBuff": "生命上限+60",
        "storageRefineBuff": null,
        "isCompose": 0
      },
      {
        "id": "3001845",
        "name": "怪诞小丑鱼",
        "icon": "item_3001845",
        "rank": 3,
        "position": 11,
        "effect": "",
        "buff": "移动速度+5%\n物理攻击+3%",
        "adventureBuff": "",
        "storageBuff": "物理攻击+6",
        "storageRefineBuff": null,
        "isCompose": 0
      },
      {
        "id": "3001844",
        "name": "骷髅眼罩",
        "icon": "item_3001844",
        "rank": 3,
        "position": 8,
        "effect": "",
        "buff": "人形种族加伤+8%\n人形种族减伤+8%",
        "adventureBuff": "",
        "storageBuff": "魔法攻击+6",
        "storageRefineBuff": null,
        "isCompose": 0
      },
      {
        "id": "3001843",
        "name": "咕噜小鬼箱",
        "icon": "item_3001843",
        "rank": 3,
        "position": 10,
        "effect": "",
        "buff": "幸运+8\n击杀目标时有4%概率额外获得8Zeny",
        "adventureBuff": "",
        "storageBuff": "生命上限+60",
        "storageRefineBuff": null,
        "isCompose": 0
      },
      {
        "id": "3001842",
        "name": "大副的英姿",
        "icon": "item_3001842",
        "rank": 3,
        "position": 7,
        "effect": "",
        "buff": "全能力+5\n魔法上限+5%",
        "adventureBuff": "",
        "storageBuff": "物理攻击+3，生命上限+30",
        "storageRefineBuff": null,
        "isCompose": 0
      },
      {
        "id": "3001841",
        "name": "水族的庇佑",
        "icon": "item_3001841",
        "rank": 3,
        "position": 7,
        "effect": "",
        "buff": "对鱼贝种族伤害+8%\n对植物种族伤害+8%",
        "adventureBuff": "",
        "storageBuff": "魔法攻击+3，生命上限+30",
        "storageRefineBuff": null,
        "isCompose": 0
      },
      {
        "id": "3001839",
        "name": "玫瑰女盗系列头饰",
        "icon": "item_3001839",
        "rank": 3,
        "position": 7,
        "effect": "",
        "buff": "生命上限+5%\n魔法攻击+100",
        "adventureBuff": "",
        "storageBuff": "物理防御+2，生命上限+30",
        "storageRefineBuff": null,
        "isCompose": 0
      },
      {
        "id": "3001834",
        "name": "骷髅船长系列头饰",
        "icon": "item_3001834",
        "rank": 3,
        "position": 7,
        "effect": "",
        "buff": "生命上限+5%\n物理攻击+100",
        "adventureBuff": "",
        "storageBuff": "魔法防御+2，生命上限+30",
        "storageRefineBuff": null,
        "isCompose": 0
      },
      {
        "id": "3001814",
        "name": "远洋新航线系列时装",
        "icon": "item_3001814",
        "rank": 1,
        "position": 13,
        "effect": "",
        "buff": "",
        "adventureBuff": "物理攻击+1%\n魔法攻击+1%",
        "storageBuff": "物理攻击+12\n魔法攻击+12",
        "storageRefineBuff": null,
        "isCompose": 0
      },
      {
        "id": "149250",
        "name": "追逐星辰",
        "icon": "item_49169",
        "rank": 4,
        "position": 7,
        "effect": "",
        "buff": "灵巧+5\n敏捷+5\n物理伤害+4%",
        "adventureBuff": "",
        "storageBuff": "物理攻击+3，生命上限+30",
        "storageRefineBuff": null,
        "isCompose": 0
      },
      {
        "id": "149246",
        "name": "遥望时空",
        "icon": "item_49166",
        "rank": 4,
        "position": 7,
        "effect": "",
        "buff": "智力+5\n敏捷+5\n魔法伤害+4%",
        "adventureBuff": "",
        "storageBuff": "魔法攻击+3，生命上限+30",
        "storageRefineBuff": null,
        "isCompose": 0
      },
      {
        "id": "149244",
        "name": "原初咏唱",
        "icon": "item_49165",
        "rank": 4,
        "position": 7,
        "effect": "",
        "buff": "智力+5\n灵巧+5\n魔法伤害+4%",
        "adventureBuff": "",
        "storageBuff": "魔法攻击+3，生命上限+30",
        "storageRefineBuff": null,
        "isCompose": 0
      },
      {
        "id": "149242",
        "name": "羽之桂冠",
        "icon": "item_49176",
        "rank": 4,
        "position": 7,
        "effect": "",
        "buff": "力量+5\n智力+5\n物理伤害+4%\n魔法伤害+4%",
        "adventureBuff": "",
        "storageBuff": "物理攻击+3，生命上限+30",
        "storageRefineBuff": null,
        "isCompose": 0
      },
      {
        "id": "149240",
        "name": "友谊之绊",
        "icon": "item_49177",
        "rank": 4,
        "position": 7,
        "effect": "",
        "buff": "灵巧+5\n智力+5\n物理伤害+4%\n魔法伤害+4%",
        "adventureBuff": "",
        "storageBuff": "物理攻击+3，生命上限+30",
        "storageRefineBuff": null,
        "isCompose": 0
      },
      {
        "id": "149238",
        "name": "幽邃之视",
        "icon": "item_49167",
        "rank": 4,
        "position": 7,
        "effect": "",
        "buff": "力量+5\n敏捷+5\n物理伤害+4%",
        "adventureBuff": "",
        "storageBuff": "物理攻击+3，生命上限+30",
        "storageRefineBuff": null,
        "isCompose": 0
      },
      {
        "id": "149236",
        "name": "传承之冠",
        "icon": "item_49173",
        "rank": 4,
        "position": 7,
        "effect": "",
        "buff": "力量+5\n智力+5\n物理伤害+4%",
        "adventureBuff": "",
        "storageBuff": "物理攻击+3，生命上限+30",
        "storageRefineBuff": null,
        "isCompose": 0
      },
      {
        "id": "149234",
        "name": "神赐恩典",
        "icon": "item_49172",
        "rank": 4,
        "position": 7,
        "effect": "",
        "buff": "智力+5\n体质+5\n魔法伤害+4%",
        "adventureBuff": "",
        "storageBuff": "魔法攻击+3，生命上限+30",
        "storageRefineBuff": null,
        "isCompose": 0
      },
      {
        "id": "149232",
        "name": "流影之歌",
        "icon": "item_49168",
        "rank": 4,
        "position": 7,
        "effect": "",
        "buff": "力量+5\n灵巧+5\n物理伤害+4%",
        "adventureBuff": "",
        "storageBuff": "物理攻击+3，生命上限+30",
        "storageRefineBuff": null,
        "isCompose": 0
      },
      {
        "id": "149230",
        "name": "探究者发带",
        "icon": "item_49175",
        "rank": 4,
        "position": 7,
        "effect": "",
        "buff": "力量+5\n智力+5\n物理伤害+4%",
        "adventureBuff": "",
        "storageBuff": "物理攻击+3，生命上限+30",
        "storageRefineBuff": null,
        "isCompose": 0
      },
      {
        "id": "149228",
        "name": "光子护目镜",
        "icon": "item_49174",
        "rank": 4,
        "position": 7,
        "effect": "",
        "buff": "力量+5\n体质+5\n物理伤害+4%",
        "adventureBuff": "",
        "storageBuff": "物理攻击+3，生命上限+30",
        "storageRefineBuff": null,
        "isCompose": 0
      },
      {
        "id": "149226",
        "name": "辉光守护",
        "icon": "item_49164",
        "rank": 4,
        "position": 7,
        "effect": "",
        "buff": "力量+5\n体质+5\n物理伤害+4%",
        "adventureBuff": "",
        "storageBuff": "物理攻击+3，生命上限+30",
        "storageRefineBuff": null,
        "isCompose": 0
      },
      {
        "id": "149224",
        "name": "深渊骨角",
        "icon": "item_49163",
        "rank": 4,
        "position": 7,
        "effect": "",
        "buff": "力量+5\n体质+5\n物理伤害+4%",
        "adventureBuff": "",
        "storageBuff": "物理攻击+3，生命上限+30",
        "storageRefineBuff": null,
        "isCompose": 0
      },
      {
        "id": "149199",
        "name": "寂静沉沦",
        "icon": "item_49199",
        "rank": 4,
        "position": 8,
        "effect": "",
        "buff": "体质+2\n技能伤害+4%\n精炼+10时，技能伤害+4%",
        "adventureBuff": "",
        "storageBuff": "物理防御+3，生命上限+45",
        "storageRefineBuff": null,
        "isCompose": 0
      }
    ]
  }
}