{
  "code": 0,
  "status": "success",
  "timeStamp": 1643702414,
  "staticDomain": "http:\/\/rosc1.zhaiwuyu.com",
  "ip": "101.87.201.112",
  "language": "cn",
  "dbArea": 0,
  "data": {
    "page": 19,
    "pageSize": 30,
    "pageCount": 70,
    "total": 2073,
    "list": [
      {
        "id": "3002664",
        "name": "天穹异闻系列时装",
        "icon": "item_3002664",
        "rank": 1,
        "position": 13,
        "effect": "",
        "buff": "",
        "adventureBuff": "物理攻击+1%\n魔法攻击+1%",
        "storageBuff": "物理防御+1%，魔法防御+1%",
        "storageRefineBuff": null,
        "isCompose": 0
      },
      {
        "id": "3002417",
        "name": "金龙",
        "icon": "item_3002417",
        "rank": 1,
        "position": 12,
        "effect": "",
        "buff": "移动速度+25%",
        "adventureBuff": "生命上限+120",
        "storageBuff": "",
        "storageRefineBuff": null,
        "isCompose": 0
      },
      {
        "id": "3002412",
        "name": "魔神英雄传系列时装",
        "icon": "item_3002406",
        "rank": 1,
        "position": 13,
        "effect": "",
        "buff": "",
        "adventureBuff": "物理攻击+1%\n魔法攻击+1%",
        "storageBuff": "生命上限+200",
        "storageRefineBuff": null,
        "isCompose": 0
      },
      {
        "id": "3002408",
        "name": "魔神英雄传系列头饰",
        "icon": "item_3002408",
        "rank": 3,
        "position": 7,
        "effect": "",
        "buff": "全能力+5\n物理攻击+5%\n魔法攻击+5%",
        "adventureBuff": "",
        "storageBuff": "生命上限+60",
        "storageRefineBuff": null,
        "isCompose": 0
      },
      {
        "id": "3002396",
        "name": "飘飘幻神丸",
        "icon": "item_3002396",
        "rank": 2,
        "position": 11,
        "effect": "",
        "buff": "生命上限+200\n受到无属性伤害-3%",
        "adventureBuff": "物理攻击+3",
        "storageBuff": "生命上限+30",
        "storageRefineBuff": null,
        "isCompose": 1
      },
      {
        "id": "3002386",
        "name": "寒冰之剑",
        "icon": "item_3002386",
        "rank": 3,
        "position": 10,
        "effect": "",
        "buff": "全能力+2\n水属性攻击+8%",
        "adventureBuff": "",
        "storageBuff": "生命上限+60",
        "storageRefineBuff": null,
        "isCompose": 0
      },
      {
        "id": "3002385",
        "name": "邪虎丸",
        "icon": "item_3002385",
        "rank": 5,
        "position": 12,
        "effect": "",
        "buff": "移动速度+25%",
        "adventureBuff": "物理攻击+6，魔法攻击+6",
        "storageBuff": "",
        "storageRefineBuff": null,
        "isCompose": 0
      },
      {
        "id": "3002384",
        "name": "炽热之剑",
        "icon": "item_3002384",
        "rank": 3,
        "position": 10,
        "effect": "",
        "buff": "全能力+2\n火属性攻击+8%",
        "adventureBuff": "",
        "storageBuff": "生命上限+60",
        "storageRefineBuff": null,
        "isCompose": 0
      },
      {
        "id": "3002383",
        "name": "希里冰花",
        "icon": "item_3002383",
        "rank": 3,
        "position": 9,
        "effect": "",
        "buff": "暴击+5\n暴击伤害+5%",
        "adventureBuff": "",
        "storageBuff": "魔法攻击+6",
        "storageRefineBuff": null,
        "isCompose": 0
      },
      {
        "id": "3002382",
        "name": "趴趴战部渡",
        "icon": "item_3002382",
        "rank": 3,
        "position": 7,
        "effect": "",
        "buff": "灵巧+10\n敏捷+5\n物理攻击+5%",
        "adventureBuff": "",
        "storageBuff": "魔法防御+2，生命上限+30",
        "storageRefineBuff": null,
        "isCompose": 0
      },
      {
        "id": "3002381",
        "name": "趴趴虎王",
        "icon": "item_3002381",
        "rank": 3,
        "position": 7,
        "effect": "",
        "buff": "力量+10\n体质+5\n物理攻击+5%",
        "adventureBuff": "",
        "storageBuff": "物理攻击+3，生命上限+30",
        "storageRefineBuff": null,
        "isCompose": 0
      },
      {
        "id": "3002380",
        "name": "趴趴火美子",
        "icon": "item_3002380",
        "rank": 3,
        "position": 7,
        "effect": "",
        "buff": "智力+10\n灵巧+5\n魔法攻击+5%",
        "adventureBuff": "",
        "storageBuff": "物理攻击+3，生命上限+30",
        "storageRefineBuff": null,
        "isCompose": 0
      },
      {
        "id": "3002379",
        "name": "飘飘空神丸",
        "icon": "item_3002379",
        "rank": 3,
        "position": 11,
        "effect": "",
        "buff": "灵巧+5\n远程物理伤害+3%",
        "adventureBuff": "",
        "storageBuff": "物理攻击+6",
        "storageRefineBuff": null,
        "isCompose": 0
      },
      {
        "id": "3002378",
        "name": "古拿马魔力头套",
        "icon": "item_3002378",
        "rank": 3,
        "position": 7,
        "effect": "",
        "buff": "智力+10\n敏捷+5\n魔法攻击+5%",
        "adventureBuff": "",
        "storageBuff": "魔法攻击+3，生命上限+30",
        "storageRefineBuff": null,
        "isCompose": 0
      },
      {
        "id": "900234",
        "name": "流沙王子魔物蛋",
        "icon": "item_900234",
        "rank": 1,
        "position": 12,
        "effect": "",
        "buff": "移动速度+25%",
        "adventureBuff": "",
        "storageBuff": "",
        "storageRefineBuff": null,
        "isCompose": 0
      },
      {
        "id": "900233",
        "name": "流沙旅人魔物蛋",
        "icon": "item_900233",
        "rank": 1,
        "position": 12,
        "effect": "",
        "buff": "移动速度+25%",
        "adventureBuff": "",
        "storageBuff": "",
        "storageRefineBuff": null,
        "isCompose": 0
      },
      {
        "id": "900232",
        "name": "流沙隐士魔物蛋",
        "icon": "item_900232",
        "rank": 1,
        "position": 12,
        "effect": "",
        "buff": "移动速度+25%",
        "adventureBuff": "",
        "storageBuff": "",
        "storageRefineBuff": null,
        "isCompose": 0
      },
      {
        "id": "149519",
        "name": "尖尖碰碰头[1]",
        "icon": "item_49519",
        "rank": 3,
        "position": 7,
        "effect": "",
        "buff": "生命上限+1000\n竞技场模式（6V6）中，精炼物攻+500",
        "adventureBuff": "",
        "storageBuff": "生命上限+60",
        "storageRefineBuff": null,
        "isCompose": 0
      },
      {
        "id": "149512",
        "name": "教宗冠冕[1]",
        "icon": "item_49512",
        "rank": 3,
        "position": 7,
        "effect": "",
        "buff": "全能力+1\n物理伤害+4%\n魔法伤害+4%",
        "adventureBuff": "",
        "storageBuff": "生命上限+60",
        "storageRefineBuff": null,
        "isCompose": 0
      },
      {
        "id": "51592",
        "name": "礼袍系列时装",
        "icon": "item_51592",
        "rank": 1,
        "position": 13,
        "effect": "",
        "buff": "",
        "adventureBuff": "",
        "storageBuff": "物理攻击+6\n魔法攻击+6",
        "storageRefineBuff": null,
        "isCompose": 0
      },
      {
        "id": "49261",
        "name": "星辉月冕",
        "icon": "item_49261",
        "rank": 3,
        "position": 7,
        "effect": "",
        "buff": "受毒、圣、暗、念、无属性伤害-10%",
        "adventureBuff": "",
        "storageBuff": "魔法攻击+3，生命上限+30",
        "storageRefineBuff": null,
        "isCompose": 0
      },
      {
        "id": "48748",
        "name": "月亮猎犬的尾巴",
        "icon": "item_48748",
        "rank": 2,
        "position": 9,
        "effect": "",
        "buff": "移动速度+4%\n全能力+4",
        "adventureBuff": "",
        "storageBuff": "生命上限+60",
        "storageRefineBuff": null,
        "isCompose": 0
      },
      {
        "id": "48747",
        "name": "缺月水晶",
        "icon": "item_48747",
        "rank": 2,
        "position": 8,
        "effect": "",
        "buff": "生命上限+500\n技能伤害减免+2%",
        "adventureBuff": "",
        "storageBuff": "物理防御+3",
        "storageRefineBuff": null,
        "isCompose": 0
      },
      {
        "id": "48102",
        "name": "绳文仔",
        "icon": "item_48102",
        "rank": 3,
        "position": 11,
        "effect": "",
        "buff": "魔伤减免+4%\n竞技场模式（6V6）中，普攻伤害减免+10%",
        "adventureBuff": "",
        "storageBuff": "魔法攻击+3，生命上限+30",
        "storageRefineBuff": null,
        "isCompose": 0
      },
      {
        "id": "48101",
        "name": "道德速记精灵",
        "icon": "item_48101",
        "rank": 3,
        "position": 11,
        "effect": "",
        "buff": "人形种族减伤+4%\n普攻伤害减免+4%",
        "adventureBuff": "",
        "storageBuff": "魔法攻击+3，生命上限+30",
        "storageRefineBuff": null,
        "isCompose": 0
      },
      {
        "id": "48098",
        "name": "迷藏兔",
        "icon": "item_48098",
        "rank": 3,
        "position": 11,
        "effect": "",
        "buff": "生命上限+500\n普攻伤害减免+2%",
        "adventureBuff": "",
        "storageBuff": "魔法防御+3",
        "storageRefineBuff": null,
        "isCompose": 0
      },
      {
        "id": "47227",
        "name": "夺宝奇包",
        "icon": "item_47227",
        "rank": 3,
        "position": 10,
        "effect": "",
        "buff": "物伤减免+4%\n竞技场模式（6V6）中，技能伤害减免+10%",
        "adventureBuff": "",
        "storageBuff": "物理攻击+3，生命上限+30",
        "storageRefineBuff": null,
        "isCompose": 0
      },
      {
        "id": "47221",
        "name": "圣者的行进",
        "icon": "item_47221",
        "rank": 3,
        "position": 10,
        "effect": "",
        "buff": "人形种族减伤+4%\n技能伤害减免+4%",
        "adventureBuff": "",
        "storageBuff": "物理攻击+3，生命上限+30",
        "storageRefineBuff": null,
        "isCompose": 0
      },
      {
        "id": "47217",
        "name": "星海幻城",
        "icon": "item_47217",
        "rank": 3,
        "position": 10,
        "effect": "",
        "buff": "受火、水、地、风属性伤害-10%",
        "adventureBuff": "",
        "storageBuff": "物理攻击+3，生命上限+30",
        "storageRefineBuff": null,
        "isCompose": 0
      },
      {
        "id": "3033290",
        "name": "愤怒的魔锅蛋",
        "icon": "item_3033290",
        "rank": 2,
        "position": 7,
        "effect": "",
        "buff": "力量+5\n物理攻击+50",
        "adventureBuff": "生命上限+30",
        "storageBuff": "物理防御+2",
        "storageRefineBuff": null,
        "isCompose": 1
      }
    ]
  }
}