{
  "code": 0,
  "status": "success",
  "timeStamp": 1643702697,
  "staticDomain": "http:\/\/rosc1.zhaiwuyu.com",
  "ip": "101.87.201.112",
  "language": "cn",
  "dbArea": 0,
  "data": {
    "page": 47,
    "pageSize": 30,
    "pageCount": 70,
    "total": 2073,
    "list": [
      {
        "id": "45853",
        "name": "星夜蝴蝶发带",
        "icon": "item_45853",
        "rank": 1,
        "position": 7,
        "effect": "",
        "buff": "生命上限+50\n物理防御+8",
        "adventureBuff": "生命上限+15",
        "storageBuff": "生命上限+15",
        "storageRefineBuff": null,
        "isCompose": 1
      },
      {
        "id": "45850",
        "name": "害羞咬咬鲨",
        "icon": "item_45850",
        "rank": 2,
        "position": 7,
        "effect": "",
        "buff": "全能力+1\n对鱼贝种族伤害+4%",
        "adventureBuff": "生命上限+30",
        "storageBuff": "物理防御+2",
        "storageRefineBuff": null,
        "isCompose": 1
      },
      {
        "id": "45849",
        "name": "超强力蚊香圈",
        "icon": "item_45849",
        "rank": 1,
        "position": 7,
        "effect": "",
        "buff": "对昆虫种族伤害+2%",
        "adventureBuff": "生命上限+15",
        "storageBuff": "生命上限+15",
        "storageRefineBuff": null,
        "isCompose": 1
      },
      {
        "id": "145998",
        "name": "烛光不倒翁[1]",
        "icon": "item_45998",
        "rank": 2,
        "position": 7,
        "effect": "",
        "buff": "全能力+1\n对人形种族加伤+2%",
        "adventureBuff": "",
        "storageBuff": "生命上限+60",
        "storageRefineBuff": null,
        "isCompose": 0
      },
      {
        "id": "145913",
        "name": "灵光一闪头饰[1]",
        "icon": "item_45913",
        "rank": 3,
        "position": 7,
        "effect": "",
        "buff": "魔法防御+10\n敏捷+3\n魔法上限+100\n装备攻速+3%",
        "adventureBuff": "生命上限+60",
        "storageBuff": "物理攻击+6",
        "storageRefineBuff": null,
        "isCompose": 1
      },
      {
        "id": "145912",
        "name": "学究的额镜[1]",
        "icon": "item_45912",
        "rank": 2,
        "position": 7,
        "effect": "",
        "buff": "物理防御+8\n敏捷+1",
        "adventureBuff": "生命上限+60",
        "storageBuff": "生命上限+15",
        "storageRefineBuff": null,
        "isCompose": 1
      },
      {
        "id": "145911",
        "name": "舞者羽饰[1]",
        "icon": "item_45911",
        "rank": 3,
        "position": 7,
        "effect": "",
        "buff": "魔法防御+5\n全能力+1\n暴击+3",
        "adventureBuff": "生命上限+60",
        "storageBuff": "魔法攻击+3，生命上限+30",
        "storageRefineBuff": null,
        "isCompose": 1
      },
      {
        "id": "145910",
        "name": "黄色舞者发带[1]",
        "icon": "item_45910",
        "rank": 2,
        "position": 7,
        "effect": "",
        "buff": "物理防御+8\n体质+1",
        "adventureBuff": "生命上限+60",
        "storageBuff": "生命上限+15",
        "storageRefineBuff": null,
        "isCompose": 1
      },
      {
        "id": "145909",
        "name": "演员帽子[1]",
        "icon": "item_45909",
        "rank": 3,
        "position": 7,
        "effect": "",
        "buff": "物理防御+5\n全能力+1\n暴击+3",
        "adventureBuff": "生命上限+60",
        "storageBuff": "魔法攻击+3，生命上限+30",
        "storageRefineBuff": null,
        "isCompose": 1
      },
      {
        "id": "145908",
        "name": "穿心箭[1]",
        "icon": "item_45908",
        "rank": 2,
        "position": 7,
        "effect": "",
        "buff": "物理防御+8\n体质+1",
        "adventureBuff": "生命上限+60",
        "storageBuff": "生命上限+15",
        "storageRefineBuff": null,
        "isCompose": 1
      },
      {
        "id": "145674",
        "name": "冻僵的红鼻头[1]",
        "icon": "item_45674",
        "rank": 3,
        "position": 7,
        "effect": "",
        "buff": "体质+3\n生命上限+3%\n治疗加成+3%",
        "adventureBuff": "",
        "storageBuff": "物理攻击+6\n魔法攻击+6",
        "storageRefineBuff": null,
        "isCompose": 0
      },
      {
        "id": "145673",
        "name": "姜饼捣蛋鬼[1]",
        "icon": "item_45673",
        "rank": 2,
        "position": 7,
        "effect": "",
        "buff": "风属性攻击+2%\n受到风属性伤害-2%",
        "adventureBuff": "",
        "storageBuff": "生命上限+60",
        "storageRefineBuff": null,
        "isCompose": 0
      },
      {
        "id": "51344",
        "name": "散华妖夜行系列时装",
        "icon": "item_51344",
        "rank": 1,
        "position": 13,
        "effect": "",
        "buff": "",
        "adventureBuff": "物理攻击+1%\n魔法攻击+1%",
        "storageBuff": "生命上限+200",
        "storageRefineBuff": null,
        "isCompose": 0
      },
      {
        "id": "51252",
        "name": "海拉使者系列衣装",
        "icon": "item_51252",
        "rank": 1,
        "position": 13,
        "effect": "",
        "buff": "",
        "adventureBuff": "",
        "storageBuff": "物理攻击+3\n魔法攻击+3",
        "storageRefineBuff": null,
        "isCompose": 0
      },
      {
        "id": "48669",
        "name": "鲷鱼烧",
        "icon": "item_48669",
        "rank": 3,
        "position": 9,
        "effect": "",
        "buff": "治疗加成+4%\n生命上限+400",
        "adventureBuff": "",
        "storageBuff": "物理攻击+6",
        "storageRefineBuff": null,
        "isCompose": 0
      },
      {
        "id": "48668",
        "name": "面纹·红蝶",
        "icon": "item_48668",
        "rank": 3,
        "position": 8,
        "effect": "",
        "buff": "装备攻速+5%\n每5点敏捷额外增加1点物理攻击",
        "adventureBuff": "",
        "storageBuff": "魔法攻击+6",
        "storageRefineBuff": null,
        "isCompose": 0
      },
      {
        "id": "48051",
        "name": "扫晴娘",
        "icon": "item_48051",
        "rank": 3,
        "position": 11,
        "effect": "",
        "buff": "对无属性魔物伤害+8%\n受到无属性伤害-4%",
        "adventureBuff": "",
        "storageBuff": "生命上限+60",
        "storageRefineBuff": null,
        "isCompose": 0
      },
      {
        "id": "47140",
        "name": "和太鼓",
        "icon": "item_47140",
        "rank": 3,
        "position": 10,
        "effect": "",
        "buff": "生命上限+200\n魔法防御+10%",
        "adventureBuff": "",
        "storageBuff": "物理攻击+3，生命上限+30",
        "storageRefineBuff": null,
        "isCompose": 0
      },
      {
        "id": "47139",
        "name": "和伞·紫苑",
        "icon": "item_47139",
        "rank": 3,
        "position": 10,
        "effect": "",
        "buff": "生命上限+200\n物理防御+10%",
        "adventureBuff": "",
        "storageBuff": "魔法攻击+3，生命上限+30",
        "storageRefineBuff": null,
        "isCompose": 0
      },
      {
        "id": "47107",
        "name": "好心情礼盒",
        "icon": "item_47107",
        "rank": 4,
        "position": 10,
        "effect": "",
        "buff": "佩戴时获得节日的祝福：击杀魔物Job经验+5%，对魔物（包含MVP、Mini魔物）增伤+10%\n精炼+6时，对MVP、Mini魔物增伤+5%",
        "adventureBuff": "",
        "storageBuff": "物理攻击+1%\n魔法攻击+1%",
        "storageRefineBuff": null,
        "isCompose": 0
      },
      {
        "id": "47106",
        "name": "糖果大使",
        "icon": "item_47106",
        "rank": 2,
        "position": 10,
        "effect": "",
        "buff": "物理攻击+20\n对动物种族伤害+2%",
        "adventureBuff": "",
        "storageBuff": "物理攻击+4\n魔法攻击+4",
        "storageRefineBuff": null,
        "isCompose": 0
      },
      {
        "id": "47105",
        "name": "鲁道夫的圣诞祝福",
        "icon": "item_47105",
        "rank": 3,
        "position": 10,
        "effect": "",
        "buff": "生命上限+2000\n生命上限+2%\nHp恢复+20%\nHp恢复+20",
        "adventureBuff": "",
        "storageBuff": "生命上限+120",
        "storageRefineBuff": null,
        "isCompose": 0
      },
      {
        "id": "45960",
        "name": "天狗假面",
        "icon": "item_45960",
        "rank": 3,
        "position": 7,
        "effect": "",
        "buff": "魔法攻击+60\n物理防御+10\n魔法防御+10",
        "adventureBuff": "",
        "storageBuff": "物理防御+2，生命上限+30",
        "storageRefineBuff": null,
        "isCompose": 0
      },
      {
        "id": "45959",
        "name": "玉藻前之耳",
        "icon": "item_45959",
        "rank": 3,
        "position": 7,
        "effect": "",
        "buff": "物理攻击+80\n物理防御+10\n魔法防御+10",
        "adventureBuff": "",
        "storageBuff": "魔法防御+2，生命上限+30",
        "storageRefineBuff": null,
        "isCompose": 0
      },
      {
        "id": "45940",
        "name": "火鸡咕噜噜",
        "icon": "item_45940",
        "rank": 2,
        "position": 7,
        "effect": "",
        "buff": "全能力+1\n对植物种族加伤+3%",
        "adventureBuff": "生命上限+30",
        "storageBuff": "生命上限+30",
        "storageRefineBuff": null,
        "isCompose": 1
      },
      {
        "id": "45929",
        "name": "亡灵巫师头巾",
        "icon": "item_45929",
        "rank": 2,
        "position": 7,
        "effect": "",
        "buff": "体质+2\n生命上限+200",
        "adventureBuff": "生命上限+30",
        "storageBuff": "物理攻击+3",
        "storageRefineBuff": null,
        "isCompose": 1
      },
      {
        "id": "45927",
        "name": "电音发箍",
        "icon": "item_45927",
        "rank": 1,
        "position": 7,
        "effect": "",
        "buff": "物理攻击+5\n魔法攻击+5",
        "adventureBuff": "生命上限+15",
        "storageBuff": "生命上限+15",
        "storageRefineBuff": null,
        "isCompose": 1
      },
      {
        "id": "45866",
        "name": "濒死的天鹅",
        "icon": "item_45866",
        "rank": 3,
        "position": 7,
        "effect": "",
        "buff": "灵巧+2\n体质+2\n生命上限+300\n魔法上限+50",
        "adventureBuff": "物理防御+2，生命上限+30",
        "storageBuff": "魔法防御+2，生命上限+30",
        "storageRefineBuff": null,
        "isCompose": 1
      },
      {
        "id": "45865",
        "name": "宫廷乐师帽",
        "icon": "item_45865",
        "rank": 3,
        "position": 7,
        "effect": "",
        "buff": "灵巧+2\n体质+2\n生命上限+300\n魔法上限+50",
        "adventureBuff": "物理防御+2，生命上限+30",
        "storageBuff": "魔法防御+2，生命上限+30",
        "storageRefineBuff": null,
        "isCompose": 1
      },
      {
        "id": "45864",
        "name": "通灵者头饰",
        "icon": "item_45864",
        "rank": 3,
        "position": 7,
        "effect": "",
        "buff": "智力+2\n敏捷+2\n生命上限+300\n魔法上限+50",
        "adventureBuff": "物理防御+2，生命上限+30",
        "storageBuff": "魔法防御+2，生命上限+30",
        "storageRefineBuff": null,
        "isCompose": 1
      }
    ]
  }
}