{
  "code": 0,
  "status": "success",
  "timeStamp": 1643702839,
  "staticDomain": "http:\/\/rosc1.zhaiwuyu.com",
  "ip": "101.87.201.112",
  "language": "cn",
  "dbArea": 0,
  "data": {
    "page": 61,
    "pageSize": 30,
    "pageCount": 70,
    "total": 2073,
    "list": [
      {
        "id": "45245",
        "name": "巧克力甜甜圈",
        "icon": "item_145245",
        "rank": 2,
        "position": 9,
        "effect": "",
        "buff": "智力+1\n力量+1\n物理攻击+5",
        "adventureBuff": "生命上限+6",
        "storageBuff": "生命上限+18",
        "storageRefineBuff": null,
        "isCompose": 1
      },
      {
        "id": "145242",
        "name": "卢恩绳结发圈[1]",
        "icon": "item_45242",
        "rank": 3,
        "position": 7,
        "effect": "",
        "buff": "受到无属性伤害-3%\n命中+5\n物理攻击+10\n魔法攻击+10",
        "adventureBuff": "",
        "storageBuff": "生命上限+18",
        "storageRefineBuff": null,
        "isCompose": 0
      },
      {
        "id": "145231",
        "name": "人马宫宝冠[1]",
        "icon": "item_45231",
        "rank": 3,
        "position": 7,
        "effect": "",
        "buff": "幸运+2\n智力+1",
        "adventureBuff": "",
        "storageBuff": "生命上限+70",
        "storageRefineBuff": null,
        "isCompose": 1
      },
      {
        "id": "145230",
        "name": "摩羯宫宝冠[1]",
        "icon": "item_45230",
        "rank": 3,
        "position": 7,
        "effect": "",
        "buff": "灵巧+2\n敏捷+1",
        "adventureBuff": "",
        "storageBuff": "生命上限+70",
        "storageRefineBuff": null,
        "isCompose": 1
      },
      {
        "id": "145229",
        "name": "天蝎宫宝冠[1]",
        "icon": "item_45229",
        "rank": 3,
        "position": 7,
        "effect": "",
        "buff": "智力+2\n体质+1",
        "adventureBuff": "",
        "storageBuff": "生命上限+70",
        "storageRefineBuff": null,
        "isCompose": 1
      },
      {
        "id": "145228",
        "name": "天秤宫宝冠[1]",
        "icon": "item_45228",
        "rank": 3,
        "position": 7,
        "effect": "",
        "buff": "敏捷+2\n幸运+1",
        "adventureBuff": "",
        "storageBuff": "生命上限+70",
        "storageRefineBuff": null,
        "isCompose": 1
      },
      {
        "id": "145227",
        "name": "处女宫宝冠[1]",
        "icon": "item_45227",
        "rank": 3,
        "position": 7,
        "effect": "",
        "buff": "体质+2\n力量+1",
        "adventureBuff": "",
        "storageBuff": "生命上限+70",
        "storageRefineBuff": null,
        "isCompose": 1
      },
      {
        "id": "145226",
        "name": "狮子宫宝冠[1]",
        "icon": "item_45226",
        "rank": 3,
        "position": 7,
        "effect": "",
        "buff": "灵巧+3",
        "adventureBuff": "",
        "storageBuff": "灵巧+1",
        "storageRefineBuff": null,
        "isCompose": 1
      },
      {
        "id": "145225",
        "name": "巨蟹宫宝冠[1]",
        "icon": "item_45225",
        "rank": 3,
        "position": 7,
        "effect": "",
        "buff": "力量+2\n灵巧+1",
        "adventureBuff": "",
        "storageBuff": "生命上限+70",
        "storageRefineBuff": null,
        "isCompose": 1
      },
      {
        "id": "145224",
        "name": "双子宫宝冠[1]",
        "icon": "item_45224",
        "rank": 3,
        "position": 7,
        "effect": "",
        "buff": "敏捷+3",
        "adventureBuff": "",
        "storageBuff": "敏捷+1",
        "storageRefineBuff": null,
        "isCompose": 1
      },
      {
        "id": "145223",
        "name": "金牛宫宝冠[1]",
        "icon": "item_45223",
        "rank": 3,
        "position": 7,
        "effect": "",
        "buff": "体质+3",
        "adventureBuff": "",
        "storageBuff": "体质+1",
        "storageRefineBuff": null,
        "isCompose": 1
      },
      {
        "id": "145222",
        "name": "白羊宫宝冠[1]",
        "icon": "item_45222",
        "rank": 3,
        "position": 7,
        "effect": "",
        "buff": "幸运+3",
        "adventureBuff": "",
        "storageBuff": "幸运+1",
        "storageRefineBuff": null,
        "isCompose": 1
      },
      {
        "id": "145221",
        "name": "双鱼宫宝冠[1]",
        "icon": "item_45221",
        "rank": 3,
        "position": 7,
        "effect": "",
        "buff": "智力+3",
        "adventureBuff": "",
        "storageBuff": "智力+1",
        "storageRefineBuff": null,
        "isCompose": 1
      },
      {
        "id": "145220",
        "name": "宝瓶宫宝冠[1]",
        "icon": "item_45220",
        "rank": 3,
        "position": 7,
        "effect": "",
        "buff": "力量+3",
        "adventureBuff": "",
        "storageBuff": "力量+1",
        "storageRefineBuff": null,
        "isCompose": 1
      },
      {
        "id": "145207",
        "name": "骷髅黑帽[1]",
        "icon": "item_45207",
        "rank": 2,
        "position": 7,
        "effect": "",
        "buff": "生命上限+100",
        "adventureBuff": "生命上限+4",
        "storageBuff": "生命上限+10",
        "storageRefineBuff": null,
        "isCompose": 1
      },
      {
        "id": "145203",
        "name": "修女的帽子[1]",
        "icon": "item_45203",
        "rank": 4,
        "position": 7,
        "effect": "",
        "buff": "魔法上限+100\n魔法伤害+5%",
        "adventureBuff": "魔法攻击+4",
        "storageBuff": "精炼魔攻+10",
        "storageRefineBuff": [
          {
            "lv": 6,
            "buff": "物理攻击+4.5"
          },
          {
            "lv": 8,
            "buff": "魔法攻击+6，生命上限+60"
          }
        ],
        "isCompose": 1
      },
      {
        "id": "145202",
        "name": "歉意头饰[1]",
        "icon": "item_45202",
        "rank": 1,
        "position": 7,
        "effect": "",
        "buff": "物理防御+5",
        "adventureBuff": "生命上限+24",
        "storageBuff": "生命上限+10",
        "storageRefineBuff": null,
        "isCompose": 1
      },
      {
        "id": "145201",
        "name": "恶兽头冠[1]",
        "icon": "item_45201",
        "rank": 3,
        "position": 7,
        "effect": "",
        "buff": "幸运+6",
        "adventureBuff": "生命上限+64",
        "storageBuff": "生命上限+19",
        "storageRefineBuff": null,
        "isCompose": 1
      },
      {
        "id": "145196",
        "name": "冷酷的棒球帽子[1]",
        "icon": "item_45196",
        "rank": 1,
        "position": 7,
        "effect": "",
        "buff": "剑士系，刺客系，弓手系，牧师系，商人系，超初系，忍者系，枪手系装备时物理攻击+10\n法师系，多兰族，悟灵士系装备时魔法攻击+10",
        "adventureBuff": "",
        "storageBuff": "生命上限+10",
        "storageRefineBuff": null,
        "isCompose": 0
      },
      {
        "id": "145195",
        "name": "乐园团圆帽[1]",
        "icon": "item_45195",
        "rank": 1,
        "position": 7,
        "effect": "",
        "buff": "物理防御+5",
        "adventureBuff": "生命上限+64",
        "storageBuff": "生命上限+10",
        "storageRefineBuff": null,
        "isCompose": 1
      },
      {
        "id": "145194",
        "name": "融化中的雪糕[1]",
        "icon": "item_45194",
        "rank": 1,
        "position": 7,
        "effect": "",
        "buff": "物理防御+5",
        "adventureBuff": "",
        "storageBuff": "生命上限+10",
        "storageRefineBuff": null,
        "isCompose": 0
      },
      {
        "id": "145193",
        "name": "迪斯凯特的头盔[1]",
        "icon": "item_45193",
        "rank": 3,
        "position": 7,
        "effect": "",
        "buff": "魔法防御+10\n死亡时经验惩罚降低20%",
        "adventureBuff": "生命上限+64",
        "storageBuff": "生命上限+19",
        "storageRefineBuff": null,
        "isCompose": 1
      },
      {
        "id": "145186",
        "name": "女仆发圈[1]",
        "icon": "item_45186",
        "rank": 2,
        "position": 7,
        "effect": "",
        "buff": "恶魔种族加伤+4%\n力量+2",
        "adventureBuff": "物理攻击+3",
        "storageBuff": "魔法攻击+6",
        "storageRefineBuff": null,
        "isCompose": 1
      },
      {
        "id": "145185",
        "name": "死神头巾[1]",
        "icon": "item_45185",
        "rank": 3,
        "position": 7,
        "effect": "",
        "buff": "不会受到不死种族魔物的主动攻击\n受到不死属性伤害-20%",
        "adventureBuff": "生命上限+32",
        "storageBuff": "生命上限+19",
        "storageRefineBuff": null,
        "isCompose": 1
      },
      {
        "id": "145184",
        "name": "土人魔角[1]",
        "icon": "item_45184",
        "rank": 2,
        "position": 7,
        "effect": "",
        "buff": "物理防御+10",
        "adventureBuff": "生命上限+64",
        "storageBuff": "生命上限+10",
        "storageRefineBuff": null,
        "isCompose": 1
      },
      {
        "id": "145182",
        "name": "石心[1]",
        "icon": "item_45182",
        "rank": 2,
        "position": 7,
        "effect": "",
        "buff": "物理防御+10",
        "adventureBuff": "生命上限+64",
        "storageBuff": "生命上限+10",
        "storageRefineBuff": null,
        "isCompose": 1
      },
      {
        "id": "145179",
        "name": "无边帽[1]",
        "icon": "item_45179",
        "rank": 2,
        "position": 7,
        "effect": "",
        "buff": "物理防御+10",
        "adventureBuff": "生命上限+64",
        "storageBuff": "生命上限+10",
        "storageRefineBuff": null,
        "isCompose": 1
      },
      {
        "id": "145178",
        "name": "拉面头饰[1]",
        "icon": "item_45178",
        "rank": 4,
        "position": 7,
        "effect": "",
        "buff": "灵巧+1\n当装备短剑时普攻有10%概率触发二刀连击效果\n精炼+10时，灵巧+4、命中+10",
        "adventureBuff": "生命上限+64",
        "storageBuff": "生命上限+28",
        "storageRefineBuff": null,
        "isCompose": 1
      },
      {
        "id": "145173",
        "name": "盲目的斗篷[1]",
        "icon": "item_45173",
        "rank": 3,
        "position": 7,
        "effect": "",
        "buff": "不会陷入黑暗效果\n普通攻击时概率使目标命中降低40点",
        "adventureBuff": "闪避+2",
        "storageBuff": "生命上限+19",
        "storageRefineBuff": [
          {
            "lv": 6,
            "buff": "物理防御+4"
          },
          {
            "lv": 8,
            "buff": "对暗属性伤害减免+1%"
          }
        ],
        "isCompose": 1
      },
      {
        "id": "145172",
        "name": "魔法师帽[1]",
        "icon": "item_45172",
        "rank": 3,
        "position": 7,
        "effect": "",
        "buff": "物理防御+5\n智力+2\n魔法上限+150",
        "adventureBuff": "生命上限+64",
        "storageBuff": "精炼魔攻+8",
        "storageRefineBuff": null,
        "isCompose": 1
      }
    ]
  }
}