{
  "code": 0,
  "status": "success",
  "timeStamp": 1643702687,
  "staticDomain": "http:\/\/rosc1.zhaiwuyu.com",
  "ip": "101.87.201.112",
  "language": "cn",
  "dbArea": 0,
  "data": {
    "page": 46,
    "pageSize": 30,
    "pageCount": 70,
    "total": 2073,
    "list": [
      {
        "id": "48056",
        "name": "蜂尾",
        "icon": "item_48056",
        "rank": 1,
        "position": 11,
        "effect": "",
        "buff": "生命上限+50\n魔法上限+50\n魔法恢复+2\n对野外地图的邪骸士兵、木乃伊、蛇女伊丝造成的伤害增加20%",
        "adventureBuff": "",
        "storageBuff": "生命上限+15",
        "storageRefineBuff": null,
        "isCompose": 0
      },
      {
        "id": "48052",
        "name": "白熊礼盒",
        "icon": "item_48052",
        "rank": 3,
        "position": 11,
        "effect": "",
        "buff": "人形种族加伤+3%\n人形种族减伤+3%",
        "adventureBuff": "",
        "storageBuff": "物理攻击+3，生命上限+30",
        "storageRefineBuff": null,
        "isCompose": 0
      },
      {
        "id": "47160",
        "name": "圣羽",
        "icon": "item_47160",
        "rank": 5,
        "position": 10,
        "effect": "",
        "buff": "全能力+1\n物理穿刺+4%\n魔法穿刺+4%\n牧师系装备时，【治愈术】、【治愈之光】有15%概率治疗效果翻倍，其他系装备时受治疗加成+5%",
        "adventureBuff": "",
        "storageBuff": "生命上限+90",
        "storageRefineBuff": null,
        "isCompose": 0
      },
      {
        "id": "47159",
        "name": "霜槲寄生",
        "icon": "item_47159",
        "rank": 3,
        "position": 10,
        "effect": "",
        "buff": "全能力+5\n生命上限+5%",
        "adventureBuff": "",
        "storageBuff": "物理攻击+6\n魔法攻击+6",
        "storageRefineBuff": null,
        "isCompose": 0
      },
      {
        "id": "47158",
        "name": "无冕之王",
        "icon": "item_47158",
        "rank": 3,
        "position": 10,
        "effect": "",
        "buff": "物伤减免+4%\n竞技场模式（6V6）中，移动速度+20%，生命上限-20%",
        "adventureBuff": "",
        "storageBuff": "魔法防御+2，生命上限+30",
        "storageRefineBuff": null,
        "isCompose": 0
      },
      {
        "id": "47152",
        "name": "协奏发条",
        "icon": "item_47152",
        "rank": 3,
        "position": 10,
        "effect": "",
        "buff": "全能力+1\n物理攻击+60\n魔法攻击+40",
        "adventureBuff": "",
        "storageBuff": "生命上限+60",
        "storageRefineBuff": null,
        "isCompose": 0
      },
      {
        "id": "47148",
        "name": "监视者背包",
        "icon": "item_47148",
        "rank": 3,
        "position": 10,
        "effect": "",
        "buff": "物理防御+15\n魔法防御+10\n力量达到99时，物理攻击+30\n敏捷达到99时，装备攻速+3%\n体质达到99时，生命上限+600\n智力达到99时，魔法攻击+30\n灵巧达到99时，物理攻击+30\n幸运达到99时，暴击伤害+3%",
        "adventureBuff": "",
        "storageBuff": "生命上限+60",
        "storageRefineBuff": null,
        "isCompose": 0
      },
      {
        "id": "47147",
        "name": "我看见你了",
        "icon": "item_47147",
        "rank": 3,
        "position": 10,
        "effect": "",
        "buff": "全能力+2\n物理伤害+3%\n魔法伤害+3%",
        "adventureBuff": "",
        "storageBuff": "魔法防御+2，生命上限+30",
        "storageRefineBuff": null,
        "isCompose": 0
      },
      {
        "id": "47146",
        "name": "飞弹推进器",
        "icon": "item_47146",
        "rank": 1,
        "position": 10,
        "effect": "",
        "buff": "生命上限+200\n生命恢复+5\n对野外地图的巨石怪、摩卡、魔锅蛋造成的伤害增加20%",
        "adventureBuff": "",
        "storageBuff": "生命上限+15",
        "storageRefineBuff": null,
        "isCompose": 0
      },
      {
        "id": "47141",
        "name": "礼炮香槟",
        "icon": "item_47141",
        "rank": 3,
        "position": 10,
        "effect": "",
        "buff": "幸运+5\n普通攻击时获得幸运祝福：幸运+2，暴击伤害+2%，持续10秒，最多可叠加5层",
        "adventureBuff": "",
        "storageBuff": "魔法攻击+3，生命上限+30",
        "storageRefineBuff": null,
        "isCompose": 0
      },
      {
        "id": "47138",
        "name": "枫忆背包",
        "icon": "item_47138",
        "rank": 2,
        "position": 10,
        "effect": "",
        "buff": "生命上限+200\n物理防御+5\n魔法防御+5",
        "adventureBuff": "",
        "storageBuff": "生命上限+30",
        "storageRefineBuff": null,
        "isCompose": 0
      },
      {
        "id": "45988",
        "name": "趴趴梦罗克",
        "icon": "item_45988",
        "rank": 3,
        "position": 7,
        "effect": "",
        "buff": "全能力+2\n恐惧抵抗+15%\n眩晕抵抗+15%",
        "adventureBuff": "",
        "storageBuff": "生命上限+60",
        "storageRefineBuff": null,
        "isCompose": 0
      },
      {
        "id": "45987",
        "name": "遗失之妄",
        "icon": "item_45987",
        "rank": 3,
        "position": 7,
        "effect": "",
        "buff": "物理防御+2%\n魔法防御+2%\n人形种族减伤+4%",
        "adventureBuff": "",
        "storageBuff": "物理防御+2，生命上限+30",
        "storageRefineBuff": null,
        "isCompose": 0
      },
      {
        "id": "45986",
        "name": "游行羽饰",
        "icon": "item_45986",
        "rank": 1,
        "position": 7,
        "effect": "",
        "buff": "物理攻击+10\n魔法攻击+10\n物理防御+10\n对野外地图的榔头哥布灵、弓箭哥布灵造成的伤害增加30%",
        "adventureBuff": "",
        "storageBuff": "生命上限+15",
        "storageRefineBuff": null,
        "isCompose": 0
      },
      {
        "id": "45985",
        "name": "特勤队帽子",
        "icon": "item_45985",
        "rank": 1,
        "position": 7,
        "effect": "",
        "buff": "物理攻击+10\n魔法攻击+10\n魔法防御+10\n对野外地图的水母、人鱼、剑鱼、马克造成的伤害增加50%",
        "adventureBuff": "",
        "storageBuff": "生命上限+15",
        "storageRefineBuff": null,
        "isCompose": 0
      },
      {
        "id": "45967",
        "name": "圣诞王冠系列头饰",
        "icon": "item_45967",
        "rank": 3,
        "position": 7,
        "effect": "",
        "buff": "物理攻击+3%\n魔法攻击+3%",
        "adventureBuff": "",
        "storageBuff": "生命上限+60",
        "storageRefineBuff": null,
        "isCompose": 0
      },
      {
        "id": "45966",
        "name": "欢乐鹿角",
        "icon": "item_45966",
        "rank": 3,
        "position": 7,
        "effect": "",
        "buff": "移动速度+2%\n全能力+1\n技能攻击时，有15%的概率使目标进入冰冻状态，持续3秒",
        "adventureBuff": "",
        "storageBuff": "魔法防御+2，生命上限+30",
        "storageRefineBuff": null,
        "isCompose": 0
      },
      {
        "id": "45965",
        "name": "圣诞鹿角",
        "icon": "item_45965",
        "rank": 3,
        "position": 7,
        "effect": "",
        "buff": "移动速度+2%\n全能力+1\n眩晕类型攻击的眩晕概率+10%，眩晕时间+10%\n眩晕抵抗+10%",
        "adventureBuff": "",
        "storageBuff": "物理防御+2，生命上限+30",
        "storageRefineBuff": null,
        "isCompose": 0
      },
      {
        "id": "45956",
        "name": "萌萌驯鹿角",
        "icon": "item_45956",
        "rank": 2,
        "position": 7,
        "effect": "",
        "buff": "人形种族减伤+3%\n物理攻击+10\n魔法攻击+10",
        "adventureBuff": "生命上限+30",
        "storageBuff": "生命上限+30",
        "storageRefineBuff": null,
        "isCompose": 1
      },
      {
        "id": "45955",
        "name": "圣诞之歌",
        "icon": "item_45955",
        "rank": 4,
        "position": 7,
        "effect": "",
        "buff": "移动速度+2%\n物理攻击+30\n普通攻击时30%概率演奏圣诞之歌：物理攻击+3%，装备攻速+3%，持续10秒",
        "adventureBuff": "物理攻击+4.5，生命上限+45",
        "storageBuff": "魔法防御+3，生命上限+45",
        "storageRefineBuff": null,
        "isCompose": 1
      },
      {
        "id": "45925",
        "name": "枫忆之带",
        "icon": "item_45925",
        "rank": 2,
        "position": 7,
        "effect": "",
        "buff": "生命上限+100\n魔法攻击+10",
        "adventureBuff": "",
        "storageBuff": "物理防御+2",
        "storageRefineBuff": null,
        "isCompose": 0
      },
      {
        "id": "45924",
        "name": "枫忆之镜",
        "icon": "item_45924",
        "rank": 2,
        "position": 7,
        "effect": "",
        "buff": "生命上限+100\n物理攻击+15",
        "adventureBuff": "",
        "storageBuff": "魔法防御+2",
        "storageRefineBuff": null,
        "isCompose": 0
      },
      {
        "id": "145930",
        "name": "恶魔波利帽[1]",
        "icon": "item_45930",
        "rank": 3,
        "position": 7,
        "effect": "",
        "buff": "物理攻击+2%\n物理攻击+30\n对圣属性魔物伤害+5%",
        "adventureBuff": "魔法攻击+3，生命上限+30",
        "storageBuff": "生命上限+60",
        "storageRefineBuff": null,
        "isCompose": 1
      },
      {
        "id": "145926",
        "name": "骷髅发夹[1]",
        "icon": "item_45926",
        "rank": 2,
        "position": 7,
        "effect": "",
        "buff": "人形种族加伤+2%\n物理攻击+10\n魔法攻击+10",
        "adventureBuff": "魔法防御+2",
        "storageBuff": "物理防御+2",
        "storageRefineBuff": null,
        "isCompose": 1
      },
      {
        "id": "145863",
        "name": "丧气南瓜灯[1]",
        "icon": "item_45863",
        "rank": 3,
        "position": 7,
        "effect": "",
        "buff": "魔伤减免+4%\n生命上限+2%",
        "adventureBuff": "物理攻击+3，生命上限+30",
        "storageBuff": "魔法防御+2，生命上限+30",
        "storageRefineBuff": null,
        "isCompose": 1
      },
      {
        "id": "145862",
        "name": "蝙蝠小礼帽[1]",
        "icon": "item_45862",
        "rank": 3,
        "position": 7,
        "effect": "",
        "buff": "每击杀一个目标，立刻恢复BaseLv×1的生命值",
        "adventureBuff": "魔法攻击+3，生命上限+30",
        "storageBuff": "物理防御+2，生命上限+30",
        "storageRefineBuff": null,
        "isCompose": 1
      },
      {
        "id": "49009",
        "name": "大吉大利桶★",
        "icon": "item_49009",
        "rank": 4,
        "position": 7,
        "effect": "",
        "buff": "生命上限+1500\nHp恢复+10%\nSP恢复+10%\nHp恢复+10\nSP恢复+10",
        "adventureBuff": "物理攻击+4.5，生命上限+45",
        "storageBuff": "魔法攻击+4.5，生命上限+45",
        "storageRefineBuff": null,
        "isCompose": 1
      },
      {
        "id": "49008",
        "name": "双人豪华餐盒",
        "icon": "item_49008",
        "rank": 2,
        "position": 7,
        "effect": "",
        "buff": "全能力+1\n物理攻击+10\n魔法攻击+10",
        "adventureBuff": "生命上限+30",
        "storageBuff": "生命上限+30",
        "storageRefineBuff": null,
        "isCompose": 1
      },
      {
        "id": "45928",
        "name": "苹果圣典",
        "icon": "item_45928",
        "rank": 1,
        "position": 7,
        "effect": "",
        "buff": "生命上限+100\n体质+1",
        "adventureBuff": "生命上限+15",
        "storageBuff": "生命上限+15",
        "storageRefineBuff": null,
        "isCompose": 1
      },
      {
        "id": "45858",
        "name": "啵扭糖果袋",
        "icon": "item_45858",
        "rank": 2,
        "position": 10,
        "effect": "",
        "buff": "物理攻击+15\n魔法攻击+10\n生命上限+200",
        "adventureBuff": "生命上限+30",
        "storageBuff": "魔法防御+2",
        "storageRefineBuff": null,
        "isCompose": 1
      }
    ]
  }
}