{
  "code": 0,
  "status": "success",
  "timeStamp": 1642843033,
  "staticDomain": "http:\/\/rosc1.zhaiwuyu.com",
  "ip": "101.87.200.160",
  "language": "cn",
  "dbArea": 0,
  "data": {
    "page": 62,
    "pageSize": 30,
    "pageCount": 68,
    "total": 2037,
    "list": [
      {
        "id": "145044",
        "name": "妖道帽[1]",
        "icon": "item_45044",
        "rank": 2,
        "position": 7,
        "effect": "",
        "buff": "物理防御+10",
        "adventureBuff": "生命上限+64",
        "storageBuff": "魔法攻击+6",
        "storageRefineBuff": null,
        "isCompose": 1
      },
      {
        "id": "145043",
        "name": "僵尸帽[1]",
        "icon": "item_45043",
        "rank": 2,
        "position": 7,
        "effect": "",
        "buff": "不死种族减伤+10%",
        "adventureBuff": "生命上限+64",
        "storageBuff": "生命上限+10",
        "storageRefineBuff": [
          {
            "lv": 6,
            "buff": "物理攻击+1.5"
          },
          {
            "lv": 8,
            "buff": "魔法攻击+3"
          }
        ],
        "isCompose": 1
      },
      {
        "id": "145041",
        "name": "羽毛贝雷帽[1]",
        "icon": "item_45041",
        "rank": 3,
        "position": 7,
        "effect": "",
        "buff": "物理防御+10\n魔法防御+5\n人形种族减伤+10%",
        "adventureBuff": "生命上限+64",
        "storageBuff": "生命上限+19",
        "storageRefineBuff": [
          {
            "lv": 6,
            "buff": "生命上限+60"
          },
          {
            "lv": 8,
            "buff": "魔法攻击+4，魔法防御+2"
          }
        ],
        "isCompose": 1
      },
      {
        "id": "145039",
        "name": "毛无边帽[1]",
        "icon": "item_45039",
        "rank": 4,
        "position": 7,
        "effect": "",
        "buff": "灵巧+3\n敏捷+3",
        "adventureBuff": "生命上限+64",
        "storageBuff": "生命上限+28",
        "storageRefineBuff": [
          {
            "lv": 6,
            "buff": "物理防御+6"
          },
          {
            "lv": 8,
            "buff": "物理攻击+9"
          }
        ],
        "isCompose": 1
      },
      {
        "id": "145031",
        "name": "魔锅蛋帽[1]",
        "icon": "item_45031",
        "rank": 2,
        "position": 7,
        "effect": "",
        "buff": "物理防御+5\n眩晕抵抗+5%",
        "adventureBuff": "生命上限+64",
        "storageBuff": "生命上限+10",
        "storageRefineBuff": [
          {
            "lv": 6,
            "buff": "生命上限+30"
          },
          {
            "lv": 8,
            "buff": "魔法攻击+3"
          }
        ],
        "isCompose": 1
      },
      {
        "id": "145029",
        "name": "羽毛帽[1]",
        "icon": "item_45029",
        "rank": 2,
        "position": 7,
        "effect": "",
        "buff": "物理防御+8\n敏捷+1",
        "adventureBuff": "生命上限+64",
        "storageBuff": "物理攻击+6",
        "storageRefineBuff": null,
        "isCompose": 1
      },
      {
        "id": "145028",
        "name": "后冠[1]",
        "icon": "item_45028",
        "rank": 4,
        "position": 7,
        "effect": "",
        "buff": "智力+3\n对地属性魔物伤害+5%\n精炼每+1对地属性魔物伤害+1%，最多可提升至+15%",
        "adventureBuff": "生命上限+64",
        "storageBuff": "精炼魔攻+10",
        "storageRefineBuff": [
          {
            "lv": 6,
            "buff": "对地属性魔物伤害+1%"
          },
          {
            "lv": 8,
            "buff": "物理攻击+6，魔法防御+3"
          }
        ],
        "isCompose": 1
      },
      {
        "id": "145019",
        "name": "红蝶发带[1]",
        "icon": "item_45019",
        "rank": 2,
        "position": 7,
        "effect": "",
        "buff": "物理防御+10",
        "adventureBuff": "生命上限+64",
        "storageBuff": "魔法攻击+6",
        "storageRefineBuff": null,
        "isCompose": 1
      },
      {
        "id": "145018",
        "name": "水母头[1]",
        "icon": "item_45018",
        "rank": 2,
        "position": 7,
        "effect": "",
        "buff": "魔法防御+10",
        "adventureBuff": "生命上限+64",
        "storageBuff": "魔法攻击+6，对水属性魔物伤害+3%",
        "storageRefineBuff": [
          {
            "lv": 6,
            "buff": "生命上限+30"
          },
          {
            "lv": 8,
            "buff": "生命上限+60"
          }
        ],
        "isCompose": 1
      },
      {
        "id": "145016",
        "name": "海盗船长帽[1]",
        "icon": "item_45016",
        "rank": 4,
        "position": 7,
        "effect": "",
        "buff": "体质+3\n精炼+10时，生命上限+10%",
        "adventureBuff": "生命上限+64",
        "storageBuff": "生命上限+28",
        "storageRefineBuff": [
          {
            "lv": 6,
            "buff": "物理攻击+4.5"
          },
          {
            "lv": 8,
            "buff": "生命上限+180"
          }
        ],
        "isCompose": 1
      },
      {
        "id": "145014",
        "name": "海盗头巾[1]",
        "icon": "item_45014",
        "rank": 2,
        "position": 7,
        "effect": "",
        "buff": "物理防御+5\n力量+2",
        "adventureBuff": "生命上限+64",
        "storageBuff": "生命上限+10",
        "storageRefineBuff": null,
        "isCompose": 1
      },
      {
        "id": "145006",
        "name": "紫蝶发带[1]",
        "icon": "item_45006",
        "rank": 2,
        "position": 7,
        "effect": "",
        "buff": "物理防御+5\n魔法防御+5",
        "adventureBuff": "生命上限+64",
        "storageBuff": "魔法攻击+6",
        "storageRefineBuff": null,
        "isCompose": 1
      },
      {
        "id": "145005",
        "name": "渔夫帽[1]",
        "icon": "item_45005",
        "rank": 2,
        "position": 7,
        "effect": "",
        "buff": "物理防御+10",
        "adventureBuff": "生命上限+64",
        "storageBuff": "生命上限+10",
        "storageRefineBuff": null,
        "isCompose": 1
      },
      {
        "id": "48582",
        "name": "爱心红晕",
        "icon": "item_48582",
        "rank": 1,
        "position": 8,
        "effect": "",
        "buff": "生命上限+50",
        "adventureBuff": "",
        "storageBuff": "物理攻击+1.5，魔法攻击+1.5",
        "storageRefineBuff": null,
        "isCompose": 0
      },
      {
        "id": "48566",
        "name": "马加锡亚之矢",
        "icon": "item_48566",
        "rank": 3,
        "position": 9,
        "effect": "",
        "buff": "精炼魔攻+10\n精炼每+1精炼魔攻+2",
        "adventureBuff": "",
        "storageBuff": "精炼魔攻+4",
        "storageRefineBuff": null,
        "isCompose": 0
      },
      {
        "id": "48565",
        "name": "马加锡亚的凝视",
        "icon": "item_48565",
        "rank": 3,
        "position": 7,
        "effect": "",
        "buff": "生命上限+300\n人形种族加伤+3%\n精炼每+1人形种族加伤+0.1%",
        "adventureBuff": "",
        "storageBuff": "人形种族加伤+1%",
        "storageRefineBuff": null,
        "isCompose": 0
      },
      {
        "id": "48564",
        "name": "吸血鬼之牙",
        "icon": "item_48564",
        "rank": 4,
        "position": 9,
        "effect": "",
        "buff": "普攻时概率将造成伤害的百分比恢复为自身的生命值",
        "adventureBuff": "物理攻击+8",
        "storageBuff": "精炼物攻+10",
        "storageRefineBuff": null,
        "isCompose": 1
      },
      {
        "id": "48563",
        "name": "暗黑舞会假面",
        "icon": "item_48563",
        "rank": 3,
        "position": 8,
        "effect": "",
        "buff": "生命上限+200\n命中+15",
        "adventureBuff": "命中+2",
        "storageBuff": "生命上限+19",
        "storageRefineBuff": null,
        "isCompose": 1
      },
      {
        "id": "48560",
        "name": "龙鳞纹",
        "icon": "item_48560",
        "rank": 4,
        "position": 8,
        "effect": "",
        "buff": "灵巧+10\n智力+5",
        "adventureBuff": "生命上限+24",
        "storageBuff": "生命上限+28",
        "storageRefineBuff": [
          {
            "lv": 6,
            "buff": "物理攻击+4.5"
          },
          {
            "lv": 8,
            "buff": "生命上限+180"
          }
        ],
        "isCompose": 1
      },
      {
        "id": "48559",
        "name": "眼镜",
        "icon": "item_48559",
        "rank": 2,
        "position": 8,
        "effect": "",
        "buff": "物理防御+10",
        "adventureBuff": "生命上限+24",
        "storageBuff": "生命上限+10",
        "storageRefineBuff": null,
        "isCompose": 1
      },
      {
        "id": "48558",
        "name": "潜水镜",
        "icon": "item_48558",
        "rank": 2,
        "position": 8,
        "effect": "",
        "buff": "魔法防御+15",
        "adventureBuff": "生命上限+24",
        "storageBuff": "魔法攻击+6",
        "storageRefineBuff": null,
        "isCompose": 1
      },
      {
        "id": "48557",
        "name": "花叶",
        "icon": "item_48557",
        "rank": 1,
        "position": 9,
        "effect": "",
        "buff": "植物种族减伤+5%",
        "adventureBuff": "生命上限+24",
        "storageBuff": "生命上限+10",
        "storageRefineBuff": null,
        "isCompose": 1
      },
      {
        "id": "48556",
        "name": "邪恶的假面",
        "icon": "item_48556",
        "rank": 2,
        "position": 8,
        "effect": "",
        "buff": "人形种族减伤+10%",
        "adventureBuff": "生命上限+24",
        "storageBuff": "生命上限+10",
        "storageRefineBuff": null,
        "isCompose": 1
      },
      {
        "id": "48555",
        "name": "笑脸的假面",
        "icon": "item_48555",
        "rank": 2,
        "position": 8,
        "effect": "",
        "buff": "人形种族减伤+10%",
        "adventureBuff": "生命上限+24",
        "storageBuff": "生命上限+10",
        "storageRefineBuff": [
          {
            "lv": 6,
            "buff": "生命上限+30"
          },
          {
            "lv": 8,
            "buff": "魔法攻击+2，魔法防御+1"
          }
        ],
        "isCompose": 1
      },
      {
        "id": "48554",
        "name": "奸笑的假面",
        "icon": "item_48554",
        "rank": 2,
        "position": 8,
        "effect": "",
        "buff": "人形种族减伤+10%",
        "adventureBuff": "生命上限+24",
        "storageBuff": "生命上限+10",
        "storageRefineBuff": null,
        "isCompose": 1
      },
      {
        "id": "48553",
        "name": "天空黑焰",
        "icon": "item_48553",
        "rank": 3,
        "position": 8,
        "effect": "",
        "buff": "物理防御+15",
        "adventureBuff": "生命上限+24",
        "storageBuff": "生命上限+28",
        "storageRefineBuff": null,
        "isCompose": 1
      },
      {
        "id": "48552",
        "name": "曲棍球面罩",
        "icon": "item_48552",
        "rank": 2,
        "position": 8,
        "effect": "",
        "buff": "人形种族加伤+10%\n人形种族减伤-10%",
        "adventureBuff": "物理攻击+3",
        "storageBuff": "生命上限+10",
        "storageRefineBuff": [
          {
            "lv": 6,
            "buff": "物理防御+1，魔法防御+1"
          },
          {
            "lv": 8,
            "buff": "生命上限+60"
          }
        ],
        "isCompose": 1
      },
      {
        "id": "48551",
        "name": "穿脑螺丝",
        "icon": "item_48551",
        "rank": 2,
        "position": 8,
        "effect": "",
        "buff": "命中+5\n忽视物理防御+5%",
        "adventureBuff": "物理攻击+3",
        "storageBuff": "物理攻击+6",
        "storageRefineBuff": [
          {
            "lv": 6,
            "buff": "魔法攻击+1，生命上限+10"
          },
          {
            "lv": 8,
            "buff": "物理攻击+2，生命上限+20"
          }
        ],
        "isCompose": 1
      },
      {
        "id": "48550",
        "name": "叼在嘴里的骨头",
        "icon": "item_48550",
        "rank": 2,
        "position": 9,
        "effect": "",
        "buff": "物理防御+10",
        "adventureBuff": "生命上限+24",
        "storageBuff": "生命上限+10",
        "storageRefineBuff": null,
        "isCompose": 1
      },
      {
        "id": "48548",
        "name": "铁钉口罩",
        "icon": "item_48548",
        "rank": 3,
        "position": 9,
        "effect": "",
        "buff": "物理防御+5\n体质+2\n人形种族加伤+5%\n人形种族减伤+5%",
        "adventureBuff": "魔法攻击+14",
        "storageBuff": "生命上限+19",
        "storageRefineBuff": null,
        "isCompose": 1
      }
    ]
  }
}