{
  "code": 0,
  "status": "success",
  "timeStamp": 1643702293,
  "staticDomain": "http:\/\/rosc1.zhaiwuyu.com",
  "ip": "101.87.201.112",
  "language": "cn",
  "dbArea": 0,
  "data": {
    "page": 7,
    "pageSize": 30,
    "pageCount": 70,
    "total": 2073,
    "list": [
      {
        "id": "3004471",
        "name": "虹色倾情",
        "icon": "item_3004471",
        "rank": 3,
        "position": 9,
        "effect": "",
        "buff": "魔法范围型技能伤害+5%\n使用技能Sp消耗量-5%",
        "adventureBuff": "",
        "storageBuff": "生命上限+120",
        "storageRefineBuff": null,
        "isCompose": 0
      },
      {
        "id": "3004470",
        "name": "微醺夏日[1]",
        "icon": "item_3004470",
        "rank": 4,
        "position": 7,
        "effect": "",
        "buff": "命中-30%\n暴击-30%\n普攻伤害+15%",
        "adventureBuff": "",
        "storageBuff": "物理攻击+1%\n魔法攻击+1%",
        "storageRefineBuff": null,
        "isCompose": 0
      },
      {
        "id": "3004212",
        "name": "亲亲波利",
        "icon": "item_3004212",
        "rank": 3,
        "position": 11,
        "effect": "",
        "buff": "真爱的力量围绕着你\n暖心的爱意一直围绕着你\n对普通魔物（不包含MVP、Mini魔物）增伤+5%",
        "adventureBuff": "",
        "storageBuff": "物理攻击+4\n魔法攻击+4",
        "storageRefineBuff": null,
        "isCompose": 0
      },
      {
        "id": "3004211",
        "name": "暖暖奶茶杯",
        "icon": "item_3004211",
        "rank": 2,
        "position": 7,
        "effect": "",
        "buff": "生命上限+400\nHp恢复+10",
        "adventureBuff": "",
        "storageBuff": "物理防御+2",
        "storageRefineBuff": null,
        "isCompose": 0
      },
      {
        "id": "3004210",
        "name": "粉粉糖果帽",
        "icon": "item_3004210",
        "rank": 2,
        "position": 7,
        "effect": "",
        "buff": "人形种族加伤+2%\n人形种族减伤+2%",
        "adventureBuff": "生命上限+30",
        "storageBuff": "魔法防御+2",
        "storageRefineBuff": null,
        "isCompose": 1
      },
      {
        "id": "900261",
        "name": "永恒守卫魔物蛋",
        "icon": "item_900261",
        "rank": 1,
        "position": 12,
        "effect": "",
        "buff": "移动速度+25%",
        "adventureBuff": "",
        "storageBuff": "",
        "storageRefineBuff": null,
        "isCompose": 0
      },
      {
        "id": "900260",
        "name": "冥府守卫魔物蛋",
        "icon": "item_900260",
        "rank": 1,
        "position": 12,
        "effect": "",
        "buff": "移动速度+25%",
        "adventureBuff": "",
        "storageBuff": "",
        "storageRefineBuff": null,
        "isCompose": 0
      },
      {
        "id": "900259",
        "name": "黑曜守卫魔物蛋",
        "icon": "item_900259",
        "rank": 1,
        "position": 12,
        "effect": "",
        "buff": "移动速度+25%",
        "adventureBuff": "",
        "storageBuff": "",
        "storageRefineBuff": null,
        "isCompose": 0
      },
      {
        "id": "149560",
        "name": "好运魔菇[1]",
        "icon": "item_49560",
        "rank": 3,
        "position": 7,
        "effect": "",
        "buff": "生命上限+1000\n竞技场模式（6V6）中，受到近战物理伤害减免+15%",
        "adventureBuff": "",
        "storageBuff": "生命上限+60",
        "storageRefineBuff": null,
        "isCompose": 0
      },
      {
        "id": "49562",
        "name": "反叛之翼",
        "icon": "item_49562",
        "rank": 3,
        "position": 7,
        "effect": "",
        "buff": "灵巧+3\n敏捷+3\n生命上限+500",
        "adventureBuff": "",
        "storageBuff": "生命上限+60",
        "storageRefineBuff": null,
        "isCompose": 0
      },
      {
        "id": "48117",
        "name": "仙林之友",
        "icon": "item_48117",
        "rank": 3,
        "position": 11,
        "effect": "",
        "buff": "人形种族减伤+4%\n竞技场模式（6V6）中，攻击目标时，使目标移动速度-10%，持续5秒，最多可叠加3层（该减速无视减速免疫）",
        "adventureBuff": "",
        "storageBuff": "魔法攻击+3，生命上限+30",
        "storageRefineBuff": null,
        "isCompose": 0
      },
      {
        "id": "47262",
        "name": "绿野奇遇",
        "icon": "item_47262",
        "rank": 3,
        "position": 10,
        "effect": "",
        "buff": "物伤减免+4%\n竞技场模式（6V6）中，攻击目标时，有100%的概率降低目标4%人形种族减伤，持续5秒，最多可叠加3层",
        "adventureBuff": "",
        "storageBuff": "物理攻击+3，生命上限+30",
        "storageRefineBuff": null,
        "isCompose": 0
      },
      {
        "id": "3004263",
        "name": "光与暗",
        "icon": "item_3004263",
        "rank": 3,
        "position": 11,
        "effect": "",
        "buff": "全能力+2\n对圣、暗属性魔物伤害+6%",
        "adventureBuff": "物理攻击+3，生命上限+30",
        "storageBuff": "魔法防御+2，生命上限+30",
        "storageRefineBuff": null,
        "isCompose": 1
      },
      {
        "id": "3004255",
        "name": "真理之镜",
        "icon": "item_3004255",
        "rank": 3,
        "position": 8,
        "effect": "",
        "buff": "忽视物理防御+8%\n忽视魔法防御+8%",
        "adventureBuff": "生命上限+60",
        "storageBuff": "物理防御+2，生命上限+30",
        "storageRefineBuff": null,
        "isCompose": 1
      },
      {
        "id": "3004136",
        "name": "晴空之笺",
        "icon": "item_3004136",
        "rank": 5,
        "position": 10,
        "effect": "",
        "buff": "全能力+2\n物理穿刺+4%\n魔法穿刺+4%",
        "adventureBuff": "",
        "storageBuff": "生命上限+90",
        "storageRefineBuff": null,
        "isCompose": 0
      },
      {
        "id": "3004135",
        "name": "弹珠汽水",
        "icon": "item_3004135",
        "rank": 3,
        "position": 9,
        "effect": "",
        "buff": "全能力+3\n技能伤害+3%",
        "adventureBuff": "",
        "storageBuff": "物理攻击+3，生命上限+30",
        "storageRefineBuff": null,
        "isCompose": 0
      },
      {
        "id": "3004134",
        "name": "爱心创可贴",
        "icon": "item_3004134",
        "rank": 3,
        "position": 8,
        "effect": "",
        "buff": "物理攻击+20\n普攻伤害+5%",
        "adventureBuff": "",
        "storageBuff": "魔法攻击+3，生命上限+30",
        "storageRefineBuff": null,
        "isCompose": 0
      },
      {
        "id": "3004133",
        "name": "素振兔",
        "icon": "item_3004133",
        "rank": 3,
        "position": 11,
        "effect": "",
        "buff": "物理攻击+10\n每3点灵巧额外增加1点物理攻击",
        "adventureBuff": "",
        "storageBuff": "魔法攻击+6",
        "storageRefineBuff": null,
        "isCompose": 0
      },
      {
        "id": "3004132",
        "name": "爱心便当",
        "icon": "item_3004132",
        "rank": 3,
        "position": 10,
        "effect": "",
        "buff": "物伤减免+4%\n魔伤减免+4%\n受到念属性伤害-8%",
        "adventureBuff": "",
        "storageBuff": "物理攻击+6",
        "storageRefineBuff": null,
        "isCompose": 0
      },
      {
        "id": "3004131",
        "name": "波利冰沙",
        "icon": "item_3004131",
        "rank": 3,
        "position": 7,
        "effect": "",
        "buff": "生命上限+3%\n圣属性攻击+3%",
        "adventureBuff": "",
        "storageBuff": "生命上限+60",
        "storageRefineBuff": null,
        "isCompose": 0
      },
      {
        "id": "3004129",
        "name": "青春跃动头饰系列",
        "icon": "item_3004129",
        "rank": 3,
        "position": 7,
        "effect": "",
        "buff": "忽视魔法防御+4%\n魔法穿刺+2%",
        "adventureBuff": "",
        "storageBuff": "物理防御+2，生命上限+30",
        "storageRefineBuff": null,
        "isCompose": 0
      },
      {
        "id": "3004124",
        "name": "必胜之志头饰系列",
        "icon": "item_3004124",
        "rank": 3,
        "position": 7,
        "effect": "",
        "buff": "忽视物理防御+4%\n物理穿刺+2%",
        "adventureBuff": "",
        "storageBuff": "魔法防御+2，生命上限+30",
        "storageRefineBuff": null,
        "isCompose": 0
      },
      {
        "id": "3004104",
        "name": "决胜！剑道部系列时装",
        "icon": "item_3004104",
        "rank": 1,
        "position": 13,
        "effect": "",
        "buff": "",
        "adventureBuff": "物理攻击+1%\n魔法攻击+1%",
        "storageBuff": "生命上限+200",
        "storageRefineBuff": null,
        "isCompose": 0
      },
      {
        "id": "3004016",
        "name": "呼拉拉星云",
        "icon": "item_3004016",
        "rank": 2,
        "position": 11,
        "effect": "",
        "buff": "生命上限+200\n魔法攻击+10",
        "adventureBuff": "",
        "storageBuff": "生命上限+30",
        "storageRefineBuff": null,
        "isCompose": 0
      },
      {
        "id": "3004015",
        "name": "太空休止符",
        "icon": "item_3004015",
        "rank": 2,
        "position": 10,
        "effect": "",
        "buff": "移动速度+2%\n火属性攻击+2%",
        "adventureBuff": "",
        "storageBuff": "生命上限+60\n物理防御+4",
        "storageRefineBuff": null,
        "isCompose": 0
      },
      {
        "id": "3004014",
        "name": "巧克力星环",
        "icon": "item_3004014",
        "rank": 2,
        "position": 9,
        "effect": "",
        "buff": "生命上限+200\n眩晕抵抗+5%",
        "adventureBuff": "",
        "storageBuff": "物理攻击+4\n魔法攻击+4",
        "storageRefineBuff": null,
        "isCompose": 0
      },
      {
        "id": "3004013",
        "name": "无限共振[1]",
        "icon": "item_3004013",
        "rank": 2,
        "position": 7,
        "effect": "",
        "buff": "智力+3\n念属性攻击+3%",
        "adventureBuff": "",
        "storageBuff": "生命上限+60\n魔法防御+4",
        "storageRefineBuff": null,
        "isCompose": 0
      },
      {
        "id": "3004012",
        "name": "波利加速度",
        "icon": "item_3004012",
        "rank": 3,
        "position": 11,
        "effect": "",
        "buff": "物理攻击+100\n获得基于移动速度的额外物理攻击加成，移动速度每提升1%，物理攻击提升1点",
        "adventureBuff": "",
        "storageBuff": "物理攻击+6\n魔法攻击+6",
        "storageRefineBuff": null,
        "isCompose": 0
      },
      {
        "id": "3004011",
        "name": "天降波利[1]",
        "icon": "item_3004011",
        "rank": 3,
        "position": 7,
        "effect": "",
        "buff": "生命上限+8%\n每10秒获得一个自身生命上限10%的护盾，持续10秒",
        "adventureBuff": "",
        "storageBuff": "生命上限+120",
        "storageRefineBuff": null,
        "isCompose": 0
      },
      {
        "id": "3004010",
        "name": "喵啪电波",
        "icon": "item_3004010",
        "rank": 4,
        "position": 8,
        "effect": "",
        "buff": "物理穿刺+5%\n魔法穿刺+5%\n攻击目标时，有50%概率对目标施加“易伤”效果：使目标受到的伤害增加5%，持续5秒",
        "adventureBuff": "",
        "storageBuff": "物理攻击+1%\n魔法攻击+1%",
        "storageRefineBuff": null,
        "isCompose": 0
      }
    ]
  }
}