{
  "code": 0,
  "status": "success",
  "timeStamp": 1643702778,
  "staticDomain": "http:\/\/rosc1.zhaiwuyu.com",
  "ip": "101.87.201.112",
  "language": "cn",
  "dbArea": 0,
  "data": {
    "page": 55,
    "pageSize": 30,
    "pageCount": 70,
    "total": 2073,
    "list": [
      {
        "id": "47060",
        "name": "轻音社社长",
        "icon": "item_47060",
        "rank": 2,
        "position": 10,
        "effect": "",
        "buff": "魔法攻击+20\n生命上限+200",
        "adventureBuff": "生命上限+21",
        "storageBuff": "生命上限+60",
        "storageRefineBuff": null,
        "isCompose": 0
      },
      {
        "id": "45587",
        "name": "大吉大利桶",
        "icon": "item_45587",
        "rank": 2,
        "position": 7,
        "effect": "",
        "buff": "全能力+2\n动物种族加伤+8%",
        "adventureBuff": "魔法攻击+4.5",
        "storageBuff": "物理攻击+4.5",
        "storageRefineBuff": null,
        "isCompose": 1
      },
      {
        "id": "45573",
        "name": "月辉捣蛋兔耳帽",
        "icon": "item_45573",
        "rank": 3,
        "position": 7,
        "effect": "",
        "buff": "智力+4\n生命上限+500\n魔法上限+50",
        "adventureBuff": "",
        "storageBuff": "生命上限+60",
        "storageRefineBuff": null,
        "isCompose": 0
      },
      {
        "id": "45568",
        "name": "月辉绅士礼帽",
        "icon": "item_45568",
        "rank": 3,
        "position": 7,
        "effect": "",
        "buff": "力量+4\n生命上限+500\n魔法上限+50",
        "adventureBuff": "",
        "storageBuff": "生命上限+60",
        "storageRefineBuff": null,
        "isCompose": 0
      },
      {
        "id": "45550",
        "name": "哥布灵飞行员",
        "icon": "item_45550",
        "rank": 2,
        "position": 7,
        "effect": "",
        "buff": "灵巧+1\n幸运+1\n魔法上限+100",
        "adventureBuff": "物理防御+2",
        "storageBuff": "魔法防御+2",
        "storageRefineBuff": null,
        "isCompose": 1
      },
      {
        "id": "45548",
        "name": "今晚吃鸡餐盒",
        "icon": "item_45548",
        "rank": 2,
        "position": 7,
        "effect": "",
        "buff": "全能力+1\n物理攻击+8\n魔法攻击+8",
        "adventureBuff": "魔法攻击+3",
        "storageBuff": "物理攻击+3",
        "storageRefineBuff": null,
        "isCompose": 1
      },
      {
        "id": "51109",
        "name": "樱之系列时装",
        "icon": "item_51109",
        "rank": 1,
        "position": 13,
        "effect": "",
        "buff": "",
        "adventureBuff": "物理攻击+1%\n魔法攻击+1%",
        "storageBuff": "生命上限+200",
        "storageRefineBuff": null,
        "isCompose": 0
      },
      {
        "id": "51083",
        "name": "圣洁系列时装",
        "icon": "item_51083",
        "rank": 1,
        "position": 13,
        "effect": "",
        "buff": "",
        "adventureBuff": "魔法攻击+12，物理攻击+12",
        "storageBuff": "生命上限+120",
        "storageRefineBuff": null,
        "isCompose": 0
      },
      {
        "id": "48610",
        "name": "樱之花嫁",
        "icon": "item_48610",
        "rank": 3,
        "position": 7,
        "effect": "",
        "buff": "全能力+2\n对植物系伤害+3%",
        "adventureBuff": "生命上限+60",
        "storageBuff": "生命上限+60",
        "storageRefineBuff": null,
        "isCompose": 1
      },
      {
        "id": "45542",
        "name": "约定之冕",
        "icon": "item_45542",
        "rank": 2,
        "position": 7,
        "effect": "",
        "buff": "生命上限+100\n魔法上限+100\n物理防御+5\n魔法防御+5",
        "adventureBuff": "生命上限+30",
        "storageBuff": "生命上限+30",
        "storageRefineBuff": null,
        "isCompose": 1
      },
      {
        "id": "145535",
        "name": "名物·千紫万红[1]",
        "icon": "item_45535",
        "rank": 2,
        "position": 7,
        "effect": "",
        "buff": "魔法攻击+15\n灵巧+4",
        "adventureBuff": "",
        "storageBuff": "物理攻击+4\n魔法攻击+4",
        "storageRefineBuff": null,
        "isCompose": 0
      },
      {
        "id": "145534",
        "name": "幻月樱·星光船[1]",
        "icon": "item_45534",
        "rank": 4,
        "position": 7,
        "effect": "",
        "buff": "无属性攻击+8%\n对中型魔物伤害+5%\n生命上限+1000",
        "adventureBuff": "",
        "storageBuff": "物理攻击+1%\n魔法攻击+1%",
        "storageRefineBuff": null,
        "isCompose": 0
      },
      {
        "id": "48609",
        "name": "樱花纹",
        "icon": "item_48609",
        "rank": 2,
        "position": 8,
        "effect": "",
        "buff": "魔法上限+100\n物理攻击+15",
        "adventureBuff": "",
        "storageBuff": "生命上限+60",
        "storageRefineBuff": null,
        "isCompose": 0
      },
      {
        "id": "48608",
        "name": "月夜樱·真恋",
        "icon": "item_48608",
        "rank": 2,
        "position": 9,
        "effect": "",
        "buff": "智力+2\n忽视魔法防御+2%",
        "adventureBuff": "",
        "storageBuff": "生命上限+60",
        "storageRefineBuff": null,
        "isCompose": 0
      },
      {
        "id": "48020",
        "name": "名伞·和之美",
        "icon": "item_48020",
        "rank": 3,
        "position": 11,
        "effect": "",
        "buff": "对水属性魔物伤害+10%\n受到水属性伤害-10%",
        "adventureBuff": "",
        "storageBuff": "生命上限+120",
        "storageRefineBuff": null,
        "isCompose": 0
      },
      {
        "id": "47059",
        "name": "名刀·神宫雪&千夜樱",
        "icon": "item_47059",
        "rank": 3,
        "position": 10,
        "effect": "",
        "buff": "近战物理攻击+5%\n闪避+20",
        "adventureBuff": "生命上限+21",
        "storageBuff": "物理攻击+6\n魔法攻击+6",
        "storageRefineBuff": null,
        "isCompose": 0
      },
      {
        "id": "45536",
        "name": "草莓发夹",
        "icon": "item_45536",
        "rank": 2,
        "position": 7,
        "effect": "",
        "buff": "物理攻击+10\n魔法攻击+10",
        "adventureBuff": "",
        "storageBuff": "生命上限+30",
        "storageRefineBuff": null,
        "isCompose": 0
      },
      {
        "id": "145469",
        "name": "火鸡头饰[1]",
        "icon": "item_45469",
        "rank": 1,
        "position": 7,
        "effect": "",
        "buff": "物理防御+10",
        "adventureBuff": "",
        "storageBuff": "",
        "storageRefineBuff": null,
        "isCompose": 0
      },
      {
        "id": "145466",
        "name": "狐王的笑脸[1]",
        "icon": "item_45466",
        "rank": 2,
        "position": 7,
        "effect": "",
        "buff": "魔法攻击+10\n魔法上限+100",
        "adventureBuff": "物理攻击+4.5",
        "storageBuff": "生命上限+30",
        "storageRefineBuff": null,
        "isCompose": 1
      },
      {
        "id": "145465",
        "name": "公主的冠冕[1]",
        "icon": "item_145465",
        "rank": 2,
        "position": 7,
        "effect": "",
        "buff": "魔法攻击+20\n魔法上限+100",
        "adventureBuff": "",
        "storageBuff": "物理攻击+4\n魔法攻击+4",
        "storageRefineBuff": null,
        "isCompose": 0
      },
      {
        "id": "145464",
        "name": "王子的冠冕[1]",
        "icon": "item_145464",
        "rank": 2,
        "position": 7,
        "effect": "",
        "buff": "物理攻击+30\n生命上限+200",
        "adventureBuff": "",
        "storageBuff": "生命上限+60",
        "storageRefineBuff": null,
        "isCompose": 0
      },
      {
        "id": "51105",
        "name": "戌愿衣系列时装",
        "icon": "item_51105",
        "rank": 1,
        "position": 13,
        "effect": "",
        "buff": "",
        "adventureBuff": "物理攻击+1%\n魔法攻击+1%",
        "storageBuff": "物理防御+6\n魔法防御+6",
        "storageRefineBuff": null,
        "isCompose": 0
      },
      {
        "id": "48607",
        "name": "富裕之窗",
        "icon": "item_48607",
        "rank": 1,
        "position": 8,
        "effect": "",
        "buff": "生命上限+200\n物理穿刺+3%",
        "adventureBuff": "",
        "storageBuff": "魔法攻击+6",
        "storageRefineBuff": null,
        "isCompose": 0
      },
      {
        "id": "48606",
        "name": "般若之面",
        "icon": "item_48606",
        "rank": 2,
        "position": 8,
        "effect": "",
        "buff": "人形种族伤害+3%\n物理攻击+5",
        "adventureBuff": "生命上限+30",
        "storageBuff": "魔法攻击+4.5",
        "storageRefineBuff": null,
        "isCompose": 1
      },
      {
        "id": "47058",
        "name": "瑟瑟发抖·小恶魔",
        "icon": "item_47058",
        "rank": 1,
        "position": 10,
        "effect": "",
        "buff": "生命上限+100\n忽视物理防御+3%\n忽视魔法防御+3%",
        "adventureBuff": "生命上限+21",
        "storageBuff": "生命上限+60",
        "storageRefineBuff": null,
        "isCompose": 0
      },
      {
        "id": "47057",
        "name": "樱偶",
        "icon": "item_47057",
        "rank": 3,
        "position": 10,
        "effect": "",
        "buff": "普通攻击使自身陷入微弱流血状态\n流血状态下增加（BaseLv*3）的普攻攻击力",
        "adventureBuff": "生命上限+60",
        "storageBuff": "物理攻击+6\n魔法攻击+6",
        "storageRefineBuff": null,
        "isCompose": 1
      },
      {
        "id": "47055",
        "name": "【年】",
        "icon": "item_47055",
        "rank": 1,
        "position": 10,
        "effect": "",
        "buff": "全能力+1\n物理穿刺+3%\n魔法穿刺+3%",
        "adventureBuff": "生命上限+60",
        "storageBuff": "物理攻击+6\n魔法攻击+6",
        "storageRefineBuff": null,
        "isCompose": 1
      },
      {
        "id": "45541",
        "name": "懒洋洋的柯基系列头饰",
        "icon": "item_45541",
        "rank": 1,
        "position": 7,
        "effect": "",
        "buff": "全能力+1\n人形种族加伤+5%",
        "adventureBuff": "",
        "storageBuff": "物理防御+3\n魔法防御+3",
        "storageRefineBuff": null,
        "isCompose": 0
      },
      {
        "id": "45469",
        "name": "火鸡头饰",
        "icon": "item_45469",
        "rank": 1,
        "position": 7,
        "effect": "",
        "buff": "物理防御+10",
        "adventureBuff": "",
        "storageBuff": "",
        "storageRefineBuff": null,
        "isCompose": 0
      },
      {
        "id": "45468",
        "name": "好痛！犬妖趴趴",
        "icon": "item_45468",
        "rank": 1,
        "position": 7,
        "effect": "",
        "buff": "魔法防御+5%\n生命上限+200",
        "adventureBuff": "",
        "storageBuff": "生命上限+60",
        "storageRefineBuff": null,
        "isCompose": 0
      }
    ]
  }
}