{
  "code": 0,
  "status": "success",
  "timeStamp": 1643702454,
  "staticDomain": "http:\/\/rosc1.zhaiwuyu.com",
  "ip": "101.87.201.112",
  "language": "cn",
  "dbArea": 0,
  "data": {
    "page": 23,
    "pageSize": 30,
    "pageCount": 70,
    "total": 2073,
    "list": [
      {
        "id": "3002075",
        "name": "二条枪",
        "icon": "item_3002075",
        "rank": 3,
        "position": 10,
        "effect": "",
        "buff": "体质+5\n物理伤害+5%",
        "adventureBuff": "",
        "storageBuff": "魔法攻击+3，生命上限+30",
        "storageRefineBuff": null,
        "isCompose": 0
      },
      {
        "id": "3002074",
        "name": "幻·刚烈剑",
        "icon": "item_3002074",
        "rank": 3,
        "position": 10,
        "effect": "",
        "buff": "力量+10\n物理攻击+8%",
        "adventureBuff": "",
        "storageBuff": "物理防御+2，生命上限+30",
        "storageRefineBuff": null,
        "isCompose": 0
      },
      {
        "id": "3002073",
        "name": "鬼魔将头盔",
        "icon": "item_3002073",
        "rank": 2,
        "position": 7,
        "effect": "",
        "buff": "灵巧+2\n技能伤害+2%",
        "adventureBuff": "",
        "storageBuff": "物理攻击+3",
        "storageRefineBuff": null,
        "isCompose": 0
      },
      {
        "id": "3002072",
        "name": "毒魔将头盔",
        "icon": "item_3002072",
        "rank": 2,
        "position": 7,
        "effect": "",
        "buff": "力量+2\n技能伤害+2%",
        "adventureBuff": "",
        "storageBuff": "魔法攻击+3",
        "storageRefineBuff": null,
        "isCompose": 0
      },
      {
        "id": "3002071",
        "name": "暗魔将头盔",
        "icon": "item_3002071",
        "rank": 2,
        "position": 7,
        "effect": "",
        "buff": "智力+2\n技能伤害+2%",
        "adventureBuff": "",
        "storageBuff": "魔法防御+3",
        "storageRefineBuff": null,
        "isCompose": 0
      },
      {
        "id": "3002070",
        "name": "幻魔将头盔",
        "icon": "item_3002070",
        "rank": 2,
        "position": 7,
        "effect": "",
        "buff": "体质+2\n技能伤害+2%",
        "adventureBuff": "",
        "storageBuff": "物理防御+3",
        "storageRefineBuff": null,
        "isCompose": 0
      },
      {
        "id": "3001936",
        "name": "心跳余音[1]",
        "icon": "item_3001936",
        "rank": 2,
        "position": 7,
        "effect": "",
        "buff": "生命上限+200\n物理攻击+10",
        "adventureBuff": "",
        "storageBuff": "生命上限+30",
        "storageRefineBuff": null,
        "isCompose": 0
      },
      {
        "id": "3001935",
        "name": "叮咚留声",
        "icon": "item_3001935",
        "rank": 2,
        "position": 10,
        "effect": "",
        "buff": "生命上限+200\n魔伤减免+2%",
        "adventureBuff": "",
        "storageBuff": "生命上限+60\n物理防御+4",
        "storageRefineBuff": null,
        "isCompose": 0
      },
      {
        "id": "3001934",
        "name": "莉莉邦妮",
        "icon": "item_3001934",
        "rank": 2,
        "position": 11,
        "effect": "",
        "buff": "移动速度+3%\n智力+3\n体质+3",
        "adventureBuff": "",
        "storageBuff": "物理攻击+4\n魔法攻击+4",
        "storageRefineBuff": null,
        "isCompose": 0
      },
      {
        "id": "3001933",
        "name": "泡沫星云[1]",
        "icon": "item_3001933",
        "rank": 2,
        "position": 7,
        "effect": "",
        "buff": "全能力+1\n水属性攻击+3%",
        "adventureBuff": "",
        "storageBuff": "生命上限+60\n魔法防御+4",
        "storageRefineBuff": null,
        "isCompose": 0
      },
      {
        "id": "3001932",
        "name": "西瓜跳跳糖",
        "icon": "item_3001932",
        "rank": 3,
        "position": 9,
        "effect": "",
        "buff": "生命上限+3000\n人形种族减伤+5%\n受到火属性伤害-20%",
        "adventureBuff": "",
        "storageBuff": "物理攻击+6\n魔法攻击+6",
        "storageRefineBuff": null,
        "isCompose": 0
      },
      {
        "id": "3001931",
        "name": "波光霓虹",
        "icon": "item_3001931",
        "rank": 3,
        "position": 10,
        "effect": "",
        "buff": "背部每强化+1，忽视魔法防御+0.1%",
        "adventureBuff": "",
        "storageBuff": "生命上限+120",
        "storageRefineBuff": null,
        "isCompose": 0
      },
      {
        "id": "3001930",
        "name": "幻光之镜",
        "icon": "item_3001930",
        "rank": 4,
        "position": 8,
        "effect": "",
        "buff": "普攻伤害+10%\nSP值100%时，移动速度+15%",
        "adventureBuff": "",
        "storageBuff": "物理攻击+1%\n魔法攻击+1%",
        "storageRefineBuff": null,
        "isCompose": 0
      },
      {
        "id": "900225",
        "name": "启示骆驼魔物蛋",
        "icon": "item_900225",
        "rank": 1,
        "position": 12,
        "effect": "",
        "buff": "移动速度+25%",
        "adventureBuff": "",
        "storageBuff": "",
        "storageRefineBuff": null,
        "isCompose": 0
      },
      {
        "id": "900224",
        "name": "骑乘骆驼魔物蛋",
        "icon": "item_900224",
        "rank": 1,
        "position": 12,
        "effect": "",
        "buff": "移动速度+25%",
        "adventureBuff": "",
        "storageBuff": "",
        "storageRefineBuff": null,
        "isCompose": 0
      },
      {
        "id": "900223",
        "name": "运财骆驼魔物蛋",
        "icon": "item_900223",
        "rank": 1,
        "position": 12,
        "effect": "",
        "buff": "移动速度+25%",
        "adventureBuff": "",
        "storageBuff": "",
        "storageRefineBuff": null,
        "isCompose": 0
      },
      {
        "id": "149511",
        "name": "阿努比斯之角[1]",
        "icon": "item_49511",
        "rank": 3,
        "position": 7,
        "effect": "",
        "buff": "生命上限+1000\n竞技场模式（6V6）中，物理穿刺+5%，忽视物理防御+10%",
        "adventureBuff": "",
        "storageBuff": "生命上限+60",
        "storageRefineBuff": null,
        "isCompose": 0
      },
      {
        "id": "149203",
        "name": "冰河幻力[1]",
        "icon": "item_49203",
        "rank": 4,
        "position": 7,
        "effect": "",
        "buff": "生命上限+1000\n受到大型魔物伤害-8%\n精炼+10时，对大型魔物伤害+5%",
        "adventureBuff": "魔法防御+3，生命上限+45",
        "storageBuff": "魔法攻击+4.5，生命上限+45",
        "storageRefineBuff": null,
        "isCompose": 1
      },
      {
        "id": "149202",
        "name": "啾利的忏悔[1]",
        "icon": "item_49202",
        "rank": 3,
        "position": 7,
        "effect": "",
        "buff": "生命上限+1000\n受到小型魔物伤害-8%\n精炼+10时，对小型魔物伤害+5%",
        "adventureBuff": "生命上限+60",
        "storageBuff": "物理攻击+3，生命上限+30",
        "storageRefineBuff": null,
        "isCompose": 1
      },
      {
        "id": "48099",
        "name": "精灵灯",
        "icon": "item_48099",
        "rank": 3,
        "position": 11,
        "effect": "",
        "buff": "魔法减免+4%\n竞技场模式（6V6）中，魔伤减免+20%、物伤减免-10%",
        "adventureBuff": "",
        "storageBuff": "物理攻击+3，生命上限+30",
        "storageRefineBuff": null,
        "isCompose": 0
      },
      {
        "id": "47218",
        "name": "摩因盾",
        "icon": "item_47218",
        "rank": 3,
        "position": 10,
        "effect": "",
        "buff": "物伤减免+4%\n竞技场模式（6V6）中，物理防御+40%、魔法防御-20%",
        "adventureBuff": "",
        "storageBuff": "魔法攻击+3，生命上限+30",
        "storageRefineBuff": null,
        "isCompose": 0
      },
      {
        "id": "3033007",
        "name": "巨大的棒棒糖",
        "icon": "item_3002007",
        "rank": 3,
        "position": 10,
        "effect": "",
        "buff": "普攻伤害+4%\n装备攻速+4%",
        "adventureBuff": "物理防御+2，生命上限+30",
        "storageBuff": "物理攻击+3，生命上限+30",
        "storageRefineBuff": null,
        "isCompose": 1
      },
      {
        "id": "3033006",
        "name": "爱做梦的木马",
        "icon": "item_3002006",
        "rank": 2,
        "position": 11,
        "effect": "",
        "buff": "全能力+2\n魔法上限+50",
        "adventureBuff": "生命上限+30",
        "storageBuff": "生命上限+30",
        "storageRefineBuff": null,
        "isCompose": 1
      },
      {
        "id": "3002038",
        "name": "熊本熊的夏天系列时装",
        "icon": "item_3002030",
        "rank": 3,
        "position": 13,
        "effect": "",
        "buff": "",
        "adventureBuff": "物理攻击+1%\n魔法攻击+1%",
        "storageBuff": "生命上限+200",
        "storageRefineBuff": null,
        "isCompose": 0
      },
      {
        "id": "3002036",
        "name": "熊本熊的心声",
        "icon": "item_3002036",
        "rank": 3,
        "position": 11,
        "effect": "",
        "buff": "全能力+1\n风属性攻击+5%",
        "adventureBuff": "",
        "storageBuff": "物理攻击+6",
        "storageRefineBuff": null,
        "isCompose": 0
      },
      {
        "id": "3002035",
        "name": "熊本熊沉睡眼罩",
        "icon": "item_3002035",
        "rank": 3,
        "position": 8,
        "effect": "",
        "buff": "魔伤减免+5%\n受到火属性伤害-5%",
        "adventureBuff": "",
        "storageBuff": "魔法攻击+6",
        "storageRefineBuff": null,
        "isCompose": 0
      },
      {
        "id": "3002034",
        "name": "熊本熊公告牌",
        "icon": "item_3002034",
        "rank": 3,
        "position": 7,
        "effect": "",
        "buff": "全能力+2\n地属性攻击+6%",
        "adventureBuff": "",
        "storageBuff": "物理防御+2，生命上限+30",
        "storageRefineBuff": null,
        "isCompose": 0
      },
      {
        "id": "3002033",
        "name": "暖心熊本熊",
        "icon": "item_3002033",
        "rank": 3,
        "position": 7,
        "effect": "",
        "buff": "体质+5\n生命上限+500\n治疗加成+5%",
        "adventureBuff": "",
        "storageBuff": "魔法防御+2，生命上限+30",
        "storageRefineBuff": null,
        "isCompose": 0
      },
      {
        "id": "3002032",
        "name": "熊熊指挥官",
        "icon": "item_3002032",
        "rank": 3,
        "position": 12,
        "effect": "",
        "buff": "移动速度+25%",
        "adventureBuff": "物理攻击+6，魔法攻击+6",
        "storageBuff": "",
        "storageRefineBuff": null,
        "isCompose": 0
      },
      {
        "id": "3002008",
        "name": "粽叶蝴蝶结",
        "icon": "item_3002008",
        "rank": 3,
        "position": 7,
        "effect": "",
        "buff": "魔法攻击+20\n魔法穿刺+2%\n忽视魔法防御+2%",
        "adventureBuff": "",
        "storageBuff": "生命上限+60",
        "storageRefineBuff": null,
        "isCompose": 0
      }
    ]
  }
}