{
  "code": 0,
  "status": "success",
  "timeStamp": 1642842802,
  "staticDomain": "http:\/\/rosc1.zhaiwuyu.com",
  "ip": "101.87.200.160",
  "language": "cn",
  "dbArea": 0,
  "data": {
    "page": 39,
    "pageSize": 30,
    "pageCount": 68,
    "total": 2037,
    "list": [
      {
        "id": "45859",
        "name": "星之轮·曜夜",
        "icon": "item_45859",
        "rank": 3,
        "position": 10,
        "effect": "",
        "buff": "生命上限+5%\n达纳托斯之塔内：圣属性攻击+3%；每精炼+1时，圣属性攻击+0.5%",
        "adventureBuff": "",
        "storageBuff": "物理攻击+3，生命上限+30",
        "storageRefineBuff": null,
        "isCompose": 0
      },
      {
        "id": "29015",
        "name": "烈风狮鹫系列坐骑",
        "icon": "item_25119",
        "rank": 3,
        "position": 12,
        "effect": "",
        "buff": "移动速度+25%",
        "adventureBuff": "",
        "storageBuff": "",
        "storageRefineBuff": null,
        "isCompose": 0
      },
      {
        "id": "29014",
        "name": "深渊地龙系列坐骑",
        "icon": "item_25116",
        "rank": 3,
        "position": 12,
        "effect": "",
        "buff": "移动速度+25%",
        "adventureBuff": "",
        "storageBuff": "",
        "storageRefineBuff": null,
        "isCompose": 0
      },
      {
        "id": "29013",
        "name": "琰翎剑狮系列坐骑",
        "icon": "item_25543",
        "rank": 3,
        "position": 12,
        "effect": "",
        "buff": "移动速度+25%",
        "adventureBuff": "物理攻击+4，生命上限+40",
        "storageBuff": "",
        "storageRefineBuff": null,
        "isCompose": 0
      },
      {
        "id": "29012",
        "name": "疾星剑狮系列坐骑",
        "icon": "item_25013",
        "rank": 2,
        "position": 12,
        "effect": "",
        "buff": "移动速度+25%",
        "adventureBuff": "物理攻击+2，生命上限+20",
        "storageBuff": "",
        "storageRefineBuff": null,
        "isCompose": 0
      },
      {
        "id": "29011",
        "name": "泰坦豪猪系列坐骑",
        "icon": "item_25536",
        "rank": 3,
        "position": 12,
        "effect": "",
        "buff": "移动速度+25%",
        "adventureBuff": "物理攻击+4，生命上限+40",
        "storageBuff": "",
        "storageRefineBuff": null,
        "isCompose": 0
      },
      {
        "id": "29010",
        "name": "烈鬃豪猪系列坐骑",
        "icon": "item_25112",
        "rank": 2,
        "position": 12,
        "effect": "",
        "buff": "移动速度+25%",
        "adventureBuff": "物理攻击+2，生命上限+20",
        "storageBuff": "",
        "storageRefineBuff": null,
        "isCompose": 0
      },
      {
        "id": "29009",
        "name": "地狱斑鬣系列坐骑",
        "icon": "item_25529",
        "rank": 3,
        "position": 12,
        "effect": "",
        "buff": "移动速度+25%",
        "adventureBuff": "物理攻击+4，生命上限+40",
        "storageBuff": "",
        "storageRefineBuff": null,
        "isCompose": 0
      },
      {
        "id": "29008",
        "name": "巨齿斑鬣系列坐骑",
        "icon": "item_25106",
        "rank": 2,
        "position": 12,
        "effect": "",
        "buff": "移动速度+25%",
        "adventureBuff": "物理攻击+2，生命上限+20",
        "storageBuff": "",
        "storageRefineBuff": null,
        "isCompose": 0
      },
      {
        "id": "29007",
        "name": "暗夜鸵鸟系列坐骑",
        "icon": "item_25522",
        "rank": 3,
        "position": 12,
        "effect": "",
        "buff": "移动速度+25%",
        "adventureBuff": "魔法攻击+4，生命上限+40",
        "storageBuff": "",
        "storageRefineBuff": null,
        "isCompose": 0
      },
      {
        "id": "29006",
        "name": "彩羽鸵鸟系列坐骑",
        "icon": "item_25105",
        "rank": 2,
        "position": 12,
        "effect": "",
        "buff": "移动速度+25%",
        "adventureBuff": "魔法攻击+2，生命上限+20",
        "storageBuff": "",
        "storageRefineBuff": null,
        "isCompose": 0
      },
      {
        "id": "29005",
        "name": "宝藏羊驼系列坐骑",
        "icon": "item_25515",
        "rank": 3,
        "position": 12,
        "effect": "",
        "buff": "移动速度+25%",
        "adventureBuff": "魔法攻击+4，生命上限+40",
        "storageBuff": "",
        "storageRefineBuff": null,
        "isCompose": 0
      },
      {
        "id": "29004",
        "name": "铃铛羊驼系列坐骑",
        "icon": "item_25511",
        "rank": 2,
        "position": 12,
        "effect": "",
        "buff": "移动速度+25%",
        "adventureBuff": "魔法攻击+2，生命上限+20",
        "storageBuff": "",
        "storageRefineBuff": null,
        "isCompose": 0
      },
      {
        "id": "29003",
        "name": "流星九尾系列坐骑",
        "icon": "item_25507",
        "rank": 3,
        "position": 12,
        "effect": "",
        "buff": "移动速度+25%",
        "adventureBuff": "魔法攻击+4，生命上限+40",
        "storageBuff": "",
        "storageRefineBuff": null,
        "isCompose": 0
      },
      {
        "id": "29002",
        "name": "疾风九尾系列坐骑",
        "icon": "item_25503",
        "rank": 2,
        "position": 12,
        "effect": "",
        "buff": "移动速度+25%",
        "adventureBuff": "魔法攻击+2，生命上限+20",
        "storageBuff": "",
        "storageRefineBuff": null,
        "isCompose": 0
      },
      {
        "id": "29001",
        "name": "初心波利系列坐骑",
        "icon": "item_25500",
        "rank": 2,
        "position": 12,
        "effect": "",
        "buff": "移动速度+25%",
        "adventureBuff": "物理攻击+2，生命上限+20",
        "storageBuff": "",
        "storageRefineBuff": null,
        "isCompose": 0
      },
      {
        "id": "25202",
        "name": "七彩大嘴鸟",
        "icon": "item_25202",
        "rank": 3,
        "position": 12,
        "effect": "",
        "buff": "移动速度+25%",
        "adventureBuff": "",
        "storageBuff": "",
        "storageRefineBuff": null,
        "isCompose": 0
      },
      {
        "id": "25201",
        "name": "大嘴鸟",
        "icon": "item_25001",
        "rank": 3,
        "position": 12,
        "effect": "",
        "buff": "移动速度+25%",
        "adventureBuff": "",
        "storageBuff": "",
        "storageRefineBuff": null,
        "isCompose": 0
      },
      {
        "id": "25134",
        "name": "宝石公爵",
        "icon": "item_25134",
        "rank": 1,
        "position": 12,
        "effect": "",
        "buff": "移动速度+25%",
        "adventureBuff": "物理攻击+6，魔法攻击+6",
        "storageBuff": "",
        "storageRefineBuff": null,
        "isCompose": 0
      },
      {
        "id": "25130",
        "name": "霸王龙卷风",
        "icon": "item_25130",
        "rank": 1,
        "position": 12,
        "effect": "",
        "buff": "移动速度+50%\n自带景点！骑乘【霸王龙卷风】后自己即为景点，冒险者使用照相机功能对其拍照即可解锁活动景点“霸王龙卷风”！\n活动景点在冒险手册解锁后将自动隐藏。",
        "adventureBuff": "物理攻击+8，魔法攻击+8",
        "storageBuff": "",
        "storageRefineBuff": null,
        "isCompose": 0
      },
      {
        "id": "25125",
        "name": "夜焰狮鹫",
        "icon": "item_25125",
        "rank": 3,
        "position": 12,
        "effect": "",
        "buff": "移动速度+25%",
        "adventureBuff": "",
        "storageBuff": "",
        "storageRefineBuff": null,
        "isCompose": 0
      },
      {
        "id": "25124",
        "name": "圣堂狮鹫",
        "icon": "item_25124",
        "rank": 3,
        "position": 12,
        "effect": "",
        "buff": "移动速度+25%",
        "adventureBuff": "",
        "storageBuff": "",
        "storageRefineBuff": null,
        "isCompose": 0
      },
      {
        "id": "25122",
        "name": "瓦尔格地龙",
        "icon": "item_25122",
        "rank": 3,
        "position": 12,
        "effect": "",
        "buff": "移动速度+25%",
        "adventureBuff": "",
        "storageBuff": "",
        "storageRefineBuff": null,
        "isCompose": 0
      },
      {
        "id": "25115",
        "name": "皇家狮鹫",
        "icon": "item_25115",
        "rank": 3,
        "position": 12,
        "effect": "",
        "buff": "移动速度+25%",
        "adventureBuff": "",
        "storageBuff": "",
        "storageRefineBuff": null,
        "isCompose": 0
      },
      {
        "id": "25114",
        "name": "符文地龙",
        "icon": "item_25114",
        "rank": 3,
        "position": 12,
        "effect": "",
        "buff": "移动速度+25%",
        "adventureBuff": "",
        "storageBuff": "",
        "storageRefineBuff": null,
        "isCompose": 0
      },
      {
        "id": "25008",
        "name": "天国之匙",
        "icon": "item_25008",
        "rank": 5,
        "position": 12,
        "effect": "",
        "buff": "移动速度+50%",
        "adventureBuff": "物理攻击+8，魔法攻击+8",
        "storageBuff": "",
        "storageRefineBuff": null,
        "isCompose": 0
      },
      {
        "id": "3031260",
        "name": "清爽遮阳帽",
        "icon": "item_3031260",
        "rank": 2,
        "position": 7,
        "effect": "",
        "buff": "生命上限+300\n受到火属性伤害-3%",
        "adventureBuff": "物理防御+3",
        "storageBuff": "生命上限+30",
        "storageRefineBuff": null,
        "isCompose": 1
      },
      {
        "id": "3031187",
        "name": "粽子宝宝",
        "icon": "item_3031187",
        "rank": 3,
        "position": 10,
        "effect": "",
        "buff": "生命上限+5%\n魔法上限+150",
        "adventureBuff": "物理防御+2，生命上限+30",
        "storageBuff": "物理攻击+3，生命上限+30",
        "storageRefineBuff": null,
        "isCompose": 1
      },
      {
        "id": "3031186",
        "name": "趴趴小猪",
        "icon": "item_3031186",
        "rank": 2,
        "position": 7,
        "effect": "",
        "buff": "全能力+1\n对昆虫种族伤害+3%",
        "adventureBuff": "物理防御+3",
        "storageBuff": "魔法防御+3",
        "storageRefineBuff": null,
        "isCompose": 1
      },
      {
        "id": "3031168",
        "name": "茜色回忆",
        "icon": "item_3031168",
        "rank": 3,
        "position": 7,
        "effect": "",
        "buff": "幸运+5\n装备攻速+5%",
        "adventureBuff": "魔法攻击+3，生命上限+30",
        "storageBuff": "物理攻击+3，生命上限+30",
        "storageRefineBuff": null,
        "isCompose": 1
      }
    ]
  }
}