{
  "code": 0,
  "status": "success",
  "timeStamp": 1642842732,
  "staticDomain": "http:\/\/rosc1.zhaiwuyu.com",
  "ip": "101.87.200.160",
  "language": "cn",
  "dbArea": 0,
  "data": {
    "page": 32,
    "pageSize": 30,
    "pageCount": 68,
    "total": 2037,
    "list": [
      {
        "id": "149145",
        "name": "趴趴小海獭[1]",
        "icon": "item_49145",
        "rank": 1,
        "position": 7,
        "effect": "",
        "buff": "全能力+1",
        "adventureBuff": "物理防御+2",
        "storageBuff": "生命上限+18",
        "storageRefineBuff": null,
        "isCompose": 1
      },
      {
        "id": "149144",
        "name": "寂寞的龙蛋[1]",
        "icon": "item_49144",
        "rank": 3,
        "position": 7,
        "effect": "",
        "buff": "魔法攻击+20\n每3点智力额外增加1点魔法攻击",
        "adventureBuff": "物理攻击+6",
        "storageBuff": "生命上限+60",
        "storageRefineBuff": null,
        "isCompose": 1
      },
      {
        "id": "149143",
        "name": "七彩魔女帽[1]",
        "icon": "item_49143",
        "rank": 3,
        "position": 7,
        "effect": "",
        "buff": "物理攻击+20\n每3点灵巧额外增加1点物理攻击",
        "adventureBuff": "魔法攻击+6",
        "storageBuff": "生命上限+60",
        "storageRefineBuff": null,
        "isCompose": 1
      },
      {
        "id": "149142",
        "name": "飞龙的情歌[1]",
        "icon": "item_49142",
        "rank": 3,
        "position": 7,
        "effect": "",
        "buff": "物理攻击+20\n每3点力量额外增加1点物理攻击",
        "adventureBuff": "生命上限+60",
        "storageBuff": "生命上限+60",
        "storageRefineBuff": null,
        "isCompose": 1
      },
      {
        "id": "149139",
        "name": "飞跃彩虹[1]",
        "icon": "item_49139",
        "rank": 3,
        "position": 7,
        "effect": "",
        "buff": "全能力+2\n物理攻击+20\n魔法攻击+20",
        "adventureBuff": "",
        "storageBuff": "生命上限+60",
        "storageRefineBuff": null,
        "isCompose": 0
      },
      {
        "id": "149137",
        "name": "灵巧的羽毛帽[1]",
        "icon": "item_49137",
        "rank": 2,
        "position": 7,
        "effect": "",
        "buff": "物理防御+10\n生命上限+50",
        "adventureBuff": "生命上限+18",
        "storageBuff": "魔法防御+2",
        "storageRefineBuff": null,
        "isCompose": 1
      },
      {
        "id": "149135",
        "name": "蕾丝蛋糕[1]",
        "icon": "item_49135",
        "rank": 2,
        "position": 7,
        "effect": "",
        "buff": "物理防御+10\n体质+1",
        "adventureBuff": "生命上限+18",
        "storageBuff": "物理防御+2",
        "storageRefineBuff": null,
        "isCompose": 1
      },
      {
        "id": "49118",
        "name": "皎灵",
        "icon": "item_49118",
        "rank": 2,
        "position": 7,
        "effect": "",
        "buff": "全能力+1\n对无形种族伤害+3%",
        "adventureBuff": "",
        "storageBuff": "生命上限+30",
        "storageRefineBuff": null,
        "isCompose": 0
      },
      {
        "id": "48714",
        "name": "梦魇幽面",
        "icon": "item_48714",
        "rank": 4,
        "position": 8,
        "effect": "",
        "buff": "魔法防御+10%\n每精炼+1，魔法防御+1%",
        "adventureBuff": "物理攻击+8",
        "storageBuff": "生命上限+90",
        "storageRefineBuff": null,
        "isCompose": 1
      },
      {
        "id": "48713",
        "name": "冰霜龙首",
        "icon": "item_48713",
        "rank": 4,
        "position": 8,
        "effect": "",
        "buff": "对火属性魔物伤害+10%\n物理攻击+20",
        "adventureBuff": "物理防御+3，生命上限+45",
        "storageBuff": "物理攻击+4.5，生命上限+45",
        "storageRefineBuff": null,
        "isCompose": 1
      },
      {
        "id": "48712",
        "name": "红翼魔镜",
        "icon": "item_48712",
        "rank": 3,
        "position": 8,
        "effect": "",
        "buff": "魔伤减免+5%\n人形种族减伤+5%",
        "adventureBuff": "物理攻击+3，生命上限+30",
        "storageBuff": "魔法防御+2，生命上限+30",
        "storageRefineBuff": null,
        "isCompose": 1
      },
      {
        "id": "48711",
        "name": "群叶猫的凝视",
        "icon": "item_48711",
        "rank": 2,
        "position": 8,
        "effect": "",
        "buff": "魔法攻击+10\n生命上限+200",
        "adventureBuff": "魔法防御+2",
        "storageBuff": "生命上限+30",
        "storageRefineBuff": null,
        "isCompose": 1
      },
      {
        "id": "48710",
        "name": "衔叶松鼠",
        "icon": "item_48710",
        "rank": 3,
        "position": 9,
        "effect": "",
        "buff": "对植物种族伤害+8%",
        "adventureBuff": "魔法防御+2，生命上限+30",
        "storageBuff": "物理攻击+3，生命上限+30",
        "storageRefineBuff": null,
        "isCompose": 1
      },
      {
        "id": "48083",
        "name": "条纹喵尾",
        "icon": "item_48083",
        "rank": 3,
        "position": 11,
        "effect": "",
        "buff": "体质+2\n物理攻击+20\n魔法攻击+20",
        "adventureBuff": "生命上限+60",
        "storageBuff": "物理攻击+6",
        "storageRefineBuff": null,
        "isCompose": 1
      },
      {
        "id": "48082",
        "name": "冰雕骨脊",
        "icon": "item_48082",
        "rank": 3,
        "position": 11,
        "effect": "",
        "buff": "忽视物理防御+3%\n物理攻击+20\n攻击目标时，有100%概率降低目标3%物理防御，持续5秒",
        "adventureBuff": "生命上限+60",
        "storageBuff": "生命上限+60",
        "storageRefineBuff": null,
        "isCompose": 1
      },
      {
        "id": "48081",
        "name": "食人芽芽",
        "icon": "item_48081",
        "rank": 2,
        "position": 11,
        "effect": "",
        "buff": "生命上限+200\n物理防御+15",
        "adventureBuff": "物理防御+2",
        "storageBuff": "生命上限+30",
        "storageRefineBuff": null,
        "isCompose": 1
      },
      {
        "id": "48080",
        "name": "夏日香蕉船",
        "icon": "item_48080",
        "rank": 4,
        "position": 11,
        "effect": "",
        "buff": "生命上限+500\n对MVP、Mini魔物伤害+3%\n每精炼+1，对MVP、Mini魔物伤害+0.5%",
        "adventureBuff": "魔法攻击+8",
        "storageBuff": "生命上限+90",
        "storageRefineBuff": null,
        "isCompose": 1
      },
      {
        "id": "48079",
        "name": "慵懒假日",
        "icon": "item_48079",
        "rank": 3,
        "position": 11,
        "effect": "",
        "buff": "魔法攻击+20\n每精炼+1，魔法攻击+5",
        "adventureBuff": "物理防御+2，生命上限+30",
        "storageBuff": "魔法防御+2，生命上限+30",
        "storageRefineBuff": null,
        "isCompose": 1
      },
      {
        "id": "47196",
        "name": "喵星之王",
        "icon": "item_47196",
        "rank": 3,
        "position": 10,
        "effect": "",
        "buff": "智力+2\n灵巧+2\n生命上限+500\n魔法上限+100",
        "adventureBuff": "物理防御+2，生命上限+30",
        "storageBuff": "魔法防御+2，生命上限+30",
        "storageRefineBuff": null,
        "isCompose": 1
      },
      {
        "id": "47195",
        "name": "圣翼",
        "icon": "item_49130",
        "rank": 3,
        "position": 7,
        "effect": "",
        "buff": "全能力+2\n物理攻击+4%\n魔法攻击+4%",
        "adventureBuff": "",
        "storageBuff": "生命上限+60",
        "storageRefineBuff": null,
        "isCompose": 0
      },
      {
        "id": "47193",
        "name": "珈利行囊",
        "icon": "item_47193",
        "rank": 3,
        "position": 10,
        "effect": "",
        "buff": "移动速度+3%\n装备攻速+3%\n每精炼+1，装备攻速+1%",
        "adventureBuff": "物理攻击+6",
        "storageBuff": "魔法防御+2，生命上限+30",
        "storageRefineBuff": null,
        "isCompose": 1
      },
      {
        "id": "47192",
        "name": "雪球背包",
        "icon": "item_47192",
        "rank": 2,
        "position": 10,
        "effect": "",
        "buff": "水属性攻击+5%\n冰冻抵抗+5%",
        "adventureBuff": "物理攻击+3",
        "storageBuff": "魔法防御+2",
        "storageRefineBuff": null,
        "isCompose": 1
      },
      {
        "id": "47191",
        "name": "呆呆鼬仔",
        "icon": "item_47191",
        "rank": 3,
        "position": 10,
        "effect": "",
        "buff": "毒属性攻击+8%\n受到毒属性伤害-8%",
        "adventureBuff": "魔法攻击+3，生命上限+30",
        "storageBuff": "物理防御+2，生命上限+30",
        "storageRefineBuff": null,
        "isCompose": 1
      },
      {
        "id": "47190",
        "name": "蜂蜜糖罐",
        "icon": "item_47190",
        "rank": 3,
        "position": 10,
        "effect": "",
        "buff": "忽视物理防御+5%\n物理攻击+20",
        "adventureBuff": "物理防御+2，生命上限+30",
        "storageBuff": "魔法攻击+3，生命上限+30",
        "storageRefineBuff": null,
        "isCompose": 1
      },
      {
        "id": "47189",
        "name": "甜心呱太",
        "icon": "item_47189",
        "rank": 2,
        "position": 10,
        "effect": "",
        "buff": "生命上限+200\n物伤减免+2%",
        "adventureBuff": "魔法攻击+3",
        "storageBuff": "生命上限+30",
        "storageRefineBuff": null,
        "isCompose": 1
      },
      {
        "id": "47188",
        "name": "绯色烛光",
        "icon": "item_47188",
        "rank": 3,
        "position": 10,
        "effect": "",
        "buff": "对中型魔物伤害+5%\n受到中型魔物伤害-5%",
        "adventureBuff": "魔法攻击+3，生命上限+30",
        "storageBuff": "物理攻击+3，生命上限+30",
        "storageRefineBuff": null,
        "isCompose": 1
      },
      {
        "id": "47185",
        "name": "国王波利的荣耀",
        "icon": "item_47185",
        "rank": 3,
        "position": 10,
        "effect": "",
        "buff": "生命上限+300\nHP恢复+15%",
        "adventureBuff": "",
        "storageBuff": "生命上限+60",
        "storageRefineBuff": null,
        "isCompose": 0
      },
      {
        "id": "47180",
        "name": "拉斯格瑞丝·羽落",
        "icon": "item_47180",
        "rank": 5,
        "position": 10,
        "effect": "",
        "buff": "全能力+5\n物理穿刺+5%\n魔法穿刺+5%\n移动速度+5%\n技能攻击时，有10%概率自动施放【天使之怒】Lv.1技能",
        "adventureBuff": "",
        "storageBuff": "生命上限+120",
        "storageRefineBuff": null,
        "isCompose": 0
      },
      {
        "id": "29017",
        "name": "豚鼠绅士系列坐骑",
        "icon": "item_25551",
        "rank": 3,
        "position": 12,
        "effect": "",
        "buff": "移动速度+25%",
        "adventureBuff": "物理攻击+4，生命上限+40",
        "storageBuff": "",
        "storageRefineBuff": null,
        "isCompose": 0
      },
      {
        "id": "29016",
        "name": "豚鼠先生系列坐骑",
        "icon": "item_25547",
        "rank": 2,
        "position": 12,
        "effect": "",
        "buff": "移动速度+25%",
        "adventureBuff": "物理攻击+2，生命上限+20",
        "storageBuff": "",
        "storageRefineBuff": null,
        "isCompose": 0
      }
    ]
  }
}