{
  "code": 0,
  "status": "success",
  "timeStamp": 1643702363,
  "staticDomain": "http:\/\/rosc1.zhaiwuyu.com",
  "ip": "101.87.201.112",
  "language": "cn",
  "dbArea": 0,
  "data": {
    "page": 14,
    "pageSize": 30,
    "pageCount": 70,
    "total": 2073,
    "list": [
      {
        "id": "3003132",
        "name": "富丽堂皇系列头饰",
        "icon": "item_3003132",
        "rank": 3,
        "position": 7,
        "effect": "",
        "buff": "全能力+4\n生命上限+3000",
        "adventureBuff": "",
        "storageBuff": "物理攻击+3，生命上限+30",
        "storageRefineBuff": null,
        "isCompose": 0
      },
      {
        "id": "3003122",
        "name": "紫蔷薇王朝系列时装",
        "icon": "item_3003122",
        "rank": 1,
        "position": 13,
        "effect": "",
        "buff": "",
        "adventureBuff": "物理攻击+1%\n魔法攻击+1%",
        "storageBuff": "生命上限+200",
        "storageRefineBuff": null,
        "isCompose": 0
      },
      {
        "id": "3003071",
        "name": "纯真的小恶魔帽[1]",
        "icon": "item_3032500",
        "rank": 3,
        "position": 7,
        "effect": "",
        "buff": "对普通魔物（不包含MVP、Mini魔物）增伤+3%\n击杀魔物Base经验+5%\n击杀魔物Job经验+5%",
        "adventureBuff": "",
        "storageBuff": "生命上限+60",
        "storageRefineBuff": null,
        "isCompose": 0
      },
      {
        "id": "3003066",
        "name": "天降甘露",
        "icon": "item_3003066",
        "rank": 2,
        "position": 7,
        "effect": "",
        "buff": "生命上限+200\n魔法上限+50",
        "adventureBuff": "",
        "storageBuff": "生命上限+30",
        "storageRefineBuff": null,
        "isCompose": 0
      },
      {
        "id": "3003065",
        "name": "乳味学霸",
        "icon": "item_3003065",
        "rank": 2,
        "position": 8,
        "effect": "",
        "buff": "智力+5\n魔法攻击+50",
        "adventureBuff": "",
        "storageBuff": "生命上限+60\n物理防御+4",
        "storageRefineBuff": null,
        "isCompose": 0
      },
      {
        "id": "3003064",
        "name": "坚蛋堡垒[1]",
        "icon": "item_3003064",
        "rank": 2,
        "position": 7,
        "effect": "",
        "buff": "生命上限+300\n物伤防御+3%",
        "adventureBuff": "",
        "storageBuff": "物理攻击+4\n魔法攻击+4",
        "storageRefineBuff": null,
        "isCompose": 0
      },
      {
        "id": "3003063",
        "name": "牧语童梦",
        "icon": "item_3003063",
        "rank": 2,
        "position": 10,
        "effect": "",
        "buff": "灵巧+5\n对动物种族伤害+3%",
        "adventureBuff": "",
        "storageBuff": "生命上限+60\n魔法防御+4",
        "storageRefineBuff": null,
        "isCompose": 0
      },
      {
        "id": "3003062",
        "name": "哞哞博士[1]",
        "icon": "item_3003062",
        "rank": 3,
        "position": 7,
        "effect": "",
        "buff": "对中型魔物伤害+10%\n受到中型魔物伤害-10%",
        "adventureBuff": "",
        "storageBuff": "物理攻击+6\n魔法攻击+6",
        "storageRefineBuff": null,
        "isCompose": 0
      },
      {
        "id": "3003061",
        "name": "风歌牧犬",
        "icon": "item_3003061",
        "rank": 3,
        "position": 11,
        "effect": "",
        "buff": "移动速度+5%\n敏捷+5\n每1点敏捷额外增加0.1%暴击伤害",
        "adventureBuff": "",
        "storageBuff": "生命上限+120",
        "storageRefineBuff": null,
        "isCompose": 0
      },
      {
        "id": "3003060",
        "name": "轻食主义",
        "icon": "item_3003060",
        "rank": 4,
        "position": 9,
        "effect": "",
        "buff": "技能伤害+5%\n可变吟唱时间-10%\n使用技能时，有10%的概率恢复5%的SP",
        "adventureBuff": "",
        "storageBuff": "物理攻击+1%\n魔法攻击+1%",
        "storageRefineBuff": null,
        "isCompose": 0
      },
      {
        "id": "3003030",
        "name": "异世界·苹果头饰",
        "icon": "item_3003030",
        "rank": 3,
        "position": 7,
        "effect": "",
        "buff": "力量+3\n灵巧+3\n物理攻击+3%",
        "adventureBuff": "",
        "storageBuff": "魔法攻击+3，生命上限+30",
        "storageRefineBuff": null,
        "isCompose": 0
      },
      {
        "id": "3003016",
        "name": "十方风凝",
        "icon": "item_3003016",
        "rank": 5,
        "position": 10,
        "effect": "",
        "buff": "全能力+2\n物理穿刺+4%\n魔法穿刺+4%",
        "adventureBuff": "",
        "storageBuff": "生命上限+90",
        "storageRefineBuff": null,
        "isCompose": 0
      },
      {
        "id": "3003015",
        "name": "魔晶勘探者",
        "icon": "item_3003015",
        "rank": 3,
        "position": 8,
        "effect": "",
        "buff": "可变吟唱时间-10%\n使用技能时SP消耗量-5%",
        "adventureBuff": "",
        "storageBuff": "生命上限+60",
        "storageRefineBuff": null,
        "isCompose": 0
      },
      {
        "id": "3003014",
        "name": "魂晶小丑",
        "icon": "item_3003014",
        "rank": 3,
        "position": 11,
        "effect": "",
        "buff": "对不死种族伤害+8%\n受到不死种族魔物伤害-8%",
        "adventureBuff": "",
        "storageBuff": "物理攻击+6",
        "storageRefineBuff": null,
        "isCompose": 0
      },
      {
        "id": "3003013",
        "name": "冰川统御",
        "icon": "item_3003013",
        "rank": 3,
        "position": 10,
        "effect": "",
        "buff": "对风属性魔物伤害+10%\n受到风属性伤害-10%",
        "adventureBuff": "",
        "storageBuff": "魔法攻击+6",
        "storageRefineBuff": null,
        "isCompose": 0
      },
      {
        "id": "3003012",
        "name": "永恒之吻",
        "icon": "item_3003012",
        "rank": 3,
        "position": 9,
        "effect": "",
        "buff": "装备攻速+5%\n暴击伤害+5%",
        "adventureBuff": "",
        "storageBuff": "物理攻击+3，生命上限+30",
        "storageRefineBuff": null,
        "isCompose": 0
      },
      {
        "id": "3003011",
        "name": "水晶波利帽",
        "icon": "item_3003011",
        "rank": 3,
        "position": 7,
        "effect": "",
        "buff": "生命上限+1500\n全能力+5",
        "adventureBuff": "",
        "storageBuff": "魔法攻击+3，生命上限+30",
        "storageRefineBuff": null,
        "isCompose": 0
      },
      {
        "id": "3003009",
        "name": "冰晶女皇头饰系列",
        "icon": "item_3003009",
        "rank": 3,
        "position": 7,
        "effect": "",
        "buff": "魔法穿刺+3%\n击杀魔物Job经验+5%",
        "adventureBuff": "",
        "storageBuff": "物理防御+2，生命上限+30",
        "storageRefineBuff": null,
        "isCompose": 0
      },
      {
        "id": "3003004",
        "name": "冰脉主宰头饰系列",
        "icon": "item_3003004",
        "rank": 3,
        "position": 7,
        "effect": "",
        "buff": "物理穿刺+3%\n击杀魔物Job经验+5%",
        "adventureBuff": "",
        "storageBuff": "魔法防御+2，生命上限+30",
        "storageRefineBuff": null,
        "isCompose": 0
      },
      {
        "id": "3002984",
        "name": "璨晶永恒系列时装",
        "icon": "item_3002984",
        "rank": 1,
        "position": 13,
        "effect": "",
        "buff": "",
        "adventureBuff": "物理攻击+1%\n魔法攻击+1%",
        "storageBuff": "生命上限+200",
        "storageRefineBuff": null,
        "isCompose": 0
      },
      {
        "id": "3002827",
        "name": "瑟菲丽亚熔渣",
        "icon": "item_3002827",
        "rank": 5,
        "position": 12,
        "effect": "",
        "buff": "移动速度+25%",
        "adventureBuff": "物理攻击+6，魔法攻击+6",
        "storageBuff": "",
        "storageRefineBuff": null,
        "isCompose": 0
      },
      {
        "id": "3002826",
        "name": "永恒的笑靥",
        "icon": "item_3002826",
        "rank": 3,
        "position": 9,
        "effect": "",
        "buff": "生命上限+1500\n技能伤害减免+5%",
        "adventureBuff": "",
        "storageBuff": "魔法攻击+6",
        "storageRefineBuff": null,
        "isCompose": 0
      },
      {
        "id": "3002824",
        "name": "杰路刚帝士的剑",
        "icon": "item_3002824",
        "rank": 3,
        "position": 10,
        "effect": "",
        "buff": "全能力+2\n技能伤害+4%",
        "adventureBuff": "",
        "storageBuff": "生命上限+60",
        "storageRefineBuff": null,
        "isCompose": 0
      },
      {
        "id": "3002822",
        "name": "煌炎之冠",
        "icon": "item_3002822",
        "rank": 3,
        "position": 7,
        "effect": "",
        "buff": "全能力+3\n魔法穿刺+3%\n物理穿刺+3%",
        "adventureBuff": "",
        "storageBuff": "物理攻击+6",
        "storageRefineBuff": null,
        "isCompose": 0
      },
      {
        "id": "3002821",
        "name": "秀逗魔导士系列时装",
        "icon": "item_3002821",
        "rank": 1,
        "position": 13,
        "effect": "",
        "buff": "",
        "adventureBuff": "物理攻击+1%\n魔法攻击+1%",
        "storageBuff": "生命上限+200",
        "storageRefineBuff": null,
        "isCompose": 0
      },
      {
        "id": "3002820",
        "name": "秀逗魔导士趴趴系列头饰",
        "icon": "item_3002820",
        "rank": 3,
        "position": 7,
        "effect": "",
        "buff": "全能力+2\n物理伤害+4%",
        "adventureBuff": "",
        "storageBuff": "物理防御+2，生命上限+30",
        "storageRefineBuff": null,
        "isCompose": 0
      },
      {
        "id": "3002632",
        "name": "幸福露娜耳[1]",
        "icon": "item_3001911",
        "rank": 3,
        "position": 7,
        "effect": "",
        "buff": "全能力+3\n魔法伤害+3%\n物理伤害+3%",
        "adventureBuff": "",
        "storageBuff": "生命上限+60",
        "storageRefineBuff": null,
        "isCompose": 0
      },
      {
        "id": "3002631",
        "name": "初心花冠",
        "icon": "item_3002631",
        "rank": 2,
        "position": 7,
        "effect": "",
        "buff": "智力+2\n魔法上限+50",
        "adventureBuff": "",
        "storageBuff": "物理防御+2",
        "storageRefineBuff": null,
        "isCompose": 0
      },
      {
        "id": "3002630",
        "name": "初心豆芽",
        "icon": "item_3002630",
        "rank": 2,
        "position": 7,
        "effect": "",
        "buff": "体质+2\n生命上限+200",
        "adventureBuff": "",
        "storageBuff": "生命上限+30",
        "storageRefineBuff": null,
        "isCompose": 0
      },
      {
        "id": "3002585",
        "name": "火焰之心",
        "icon": "item_3002585",
        "rank": 5,
        "position": 10,
        "effect": "",
        "buff": "全能力+2\n物理穿刺+4%\n魔法穿刺+4%",
        "adventureBuff": "",
        "storageBuff": "生命上限+90",
        "storageRefineBuff": null,
        "isCompose": 0
      }
    ]
  }
}