{
  "code": 0,
  "status": "success",
  "timeStamp": 1643702494,
  "staticDomain": "http:\/\/rosc1.zhaiwuyu.com",
  "ip": "101.87.201.112",
  "language": "cn",
  "dbArea": 0,
  "data": {
    "page": 27,
    "pageSize": 30,
    "pageCount": 70,
    "total": 2073,
    "list": [
      {
        "id": "48723",
        "name": "夜魅金瞳",
        "icon": "item_48723",
        "rank": 2,
        "position": 8,
        "effect": "",
        "buff": "生命上限+300\n普攻伤害减免+2%",
        "adventureBuff": "",
        "storageBuff": "生命上限+30",
        "storageRefineBuff": null,
        "isCompose": 0
      },
      {
        "id": "48722",
        "name": "魔纹面罩",
        "icon": "item_48722",
        "rank": 3,
        "position": 8,
        "effect": "",
        "buff": "魔法攻击+20\n魔法穿刺+2%",
        "adventureBuff": "物理攻击+3，生命上限+30",
        "storageBuff": "魔法防御+2，生命上限+30",
        "storageRefineBuff": null,
        "isCompose": 1
      },
      {
        "id": "48720",
        "name": "魅惑之吻",
        "icon": "item_48720",
        "rank": 2,
        "position": 9,
        "effect": "",
        "buff": "物理攻击+20\n普通攻击时，有5%概率使目标陷入中毒状态，持续10秒",
        "adventureBuff": "魔法攻击+3",
        "storageBuff": "生命上限+30",
        "storageRefineBuff": null,
        "isCompose": 1
      },
      {
        "id": "48096",
        "name": "灾厄之焰",
        "icon": "item_48096",
        "rank": 3,
        "position": 11,
        "effect": "",
        "buff": "技能伤害+2%\n技能伤害减免+2%",
        "adventureBuff": "",
        "storageBuff": "物理攻击+3，生命上限+30",
        "storageRefineBuff": null,
        "isCompose": 0
      },
      {
        "id": "48089",
        "name": "欢跃青龙",
        "icon": "item_48089",
        "rank": 2,
        "position": 11,
        "effect": "",
        "buff": "生命上限+200\n魔法防御+3%",
        "adventureBuff": "",
        "storageBuff": "物理攻击+3",
        "storageRefineBuff": null,
        "isCompose": 0
      },
      {
        "id": "48088",
        "name": "流金龙吟",
        "icon": "item_48088",
        "rank": 2,
        "position": 11,
        "effect": "",
        "buff": "生命上限+200\n物理防御+3%",
        "adventureBuff": "",
        "storageBuff": "魔法攻击+3",
        "storageRefineBuff": null,
        "isCompose": 0
      },
      {
        "id": "48087",
        "name": "白蛇风铃",
        "icon": "item_48087",
        "rank": 4,
        "position": 11,
        "effect": "",
        "buff": "智力+2、忽视魔法防御+2%\n精炼+5时，智力+2、忽视魔法防御+2%；精炼+10时，魔法穿刺+3%",
        "adventureBuff": "物理攻击+8",
        "storageBuff": "生命上限+90",
        "storageRefineBuff": null,
        "isCompose": 1
      },
      {
        "id": "48086",
        "name": "海魂尾翼",
        "icon": "item_48086",
        "rank": 3,
        "position": 11,
        "effect": "",
        "buff": "全能力+2\n风、地、水、火属性攻击+4%",
        "adventureBuff": "魔法攻击+6",
        "storageBuff": "物理防御+2，生命上限+30",
        "storageRefineBuff": null,
        "isCompose": 1
      },
      {
        "id": "47212",
        "name": "灾厄莲华",
        "icon": "item_47212",
        "rank": 3,
        "position": 10,
        "effect": "",
        "buff": "智力+2\n魔法穿刺+4%",
        "adventureBuff": "",
        "storageBuff": "魔法攻击+3，生命上限+30",
        "storageRefineBuff": null,
        "isCompose": 0
      },
      {
        "id": "47210",
        "name": "绯红玄翼",
        "icon": "item_47210",
        "rank": 3,
        "position": 10,
        "effect": "",
        "buff": "生命上限+1000\n普攻伤害减免+5%",
        "adventureBuff": "",
        "storageBuff": "魔法攻击+3，生命上限+30",
        "storageRefineBuff": null,
        "isCompose": 0
      },
      {
        "id": "47207",
        "name": "暗夜魅舞",
        "icon": "item_47207",
        "rank": 2,
        "position": 10,
        "effect": "",
        "buff": "全能力+2\n魔法攻击+2%",
        "adventureBuff": "",
        "storageBuff": "魔法防御+3",
        "storageRefineBuff": null,
        "isCompose": 0
      },
      {
        "id": "47206",
        "name": "薄暮金辉",
        "icon": "item_47206",
        "rank": 2,
        "position": 10,
        "effect": "",
        "buff": "全能力+2\n物理攻击+2%",
        "adventureBuff": "",
        "storageBuff": "物理防御+3",
        "storageRefineBuff": null,
        "isCompose": 0
      },
      {
        "id": "47204",
        "name": "祖蛇妖剑",
        "icon": "item_47204",
        "rank": 4,
        "position": 10,
        "effect": "",
        "buff": "生命上限+5%\n每精炼+1，受到无属性伤害-1%",
        "adventureBuff": "魔法攻击+8",
        "storageBuff": "生命上限+90",
        "storageRefineBuff": null,
        "isCompose": 1
      },
      {
        "id": "47203",
        "name": "海之誓约",
        "icon": "item_47203",
        "rank": 3,
        "position": 10,
        "effect": "",
        "buff": "技能伤害+4%\n使用技能Sp消耗量-10%",
        "adventureBuff": "物理攻击+3，生命上限+30",
        "storageBuff": "生命上限+60",
        "storageRefineBuff": null,
        "isCompose": 1
      },
      {
        "id": "47202",
        "name": "猩红梦魇",
        "icon": "item_47202",
        "rank": 4,
        "position": 10,
        "effect": "",
        "buff": "对普通魔物（不包含MVP、Mini魔物）增伤+5%\n每精炼+1，对普通魔物（不包含MVP、Mini魔物）增伤+0.5%，受普通魔物（不包含MVP、Mini魔物）造成的伤害-1%",
        "adventureBuff": "魔法攻击+8",
        "storageBuff": "魔法防御+3，生命上限+45",
        "storageRefineBuff": null,
        "isCompose": 1
      },
      {
        "id": "47201",
        "name": "凌宇星披",
        "icon": "item_47201",
        "rank": 4,
        "position": 10,
        "effect": "",
        "buff": "生命上限+200\n技能伤害减免+2%\n每精炼+1，技能伤害减免+1%",
        "adventureBuff": "物理攻击+8",
        "storageBuff": "物理防御+3，生命上限+45",
        "storageRefineBuff": null,
        "isCompose": 1
      },
      {
        "id": "47132",
        "name": "星耀之翼",
        "icon": "item_47132",
        "rank": 4,
        "position": 10,
        "effect": "",
        "buff": "物伤减免+5%\n魔伤减免+5%\n受治疗加成+15%",
        "adventureBuff": "",
        "storageBuff": "物理攻击+6\n魔法攻击+6",
        "storageRefineBuff": null,
        "isCompose": 0
      },
      {
        "id": "47131",
        "name": "纪念秘典",
        "icon": "item_47131",
        "rank": 2,
        "position": 11,
        "effect": "",
        "buff": "魔法上限+100",
        "adventureBuff": "",
        "storageBuff": "生命上限+30",
        "storageRefineBuff": null,
        "isCompose": 0
      },
      {
        "id": "3001671",
        "name": "捣蛋特攻员",
        "icon": "item_3001671",
        "rank": 3,
        "position": 10,
        "effect": "",
        "buff": "水属性攻击+5%\n对火属性魔物伤害+5%",
        "adventureBuff": "物理攻击+3，生命上限+30",
        "storageBuff": "生命上限+60",
        "storageRefineBuff": null,
        "isCompose": 1
      },
      {
        "id": "3001670",
        "name": "咪可兔宝",
        "icon": "item_3001670",
        "rank": 3,
        "position": 7,
        "effect": "",
        "buff": "生命上限+1500\n普攻伤害减免+5%",
        "adventureBuff": "",
        "storageBuff": "物理防御+2，生命上限+30",
        "storageRefineBuff": null,
        "isCompose": 0
      },
      {
        "id": "3001466",
        "name": "多格的谢幕礼",
        "icon": "item_3001466",
        "rank": 2,
        "position": 9,
        "effect": "",
        "buff": "生命上限+100\n魔法上限+50",
        "adventureBuff": "",
        "storageBuff": "生命上限+30",
        "storageRefineBuff": null,
        "isCompose": 0
      },
      {
        "id": "3001465",
        "name": "月亮与骰子[1]",
        "icon": "item_3001465",
        "rank": 2,
        "position": 7,
        "effect": "",
        "buff": "幸运+6\n灵巧+6",
        "adventureBuff": "",
        "storageBuff": "生命上限+60\n物理防御+4",
        "storageRefineBuff": null,
        "isCompose": 0
      },
      {
        "id": "3001464",
        "name": "命运卡牌",
        "icon": "item_3001464",
        "rank": 2,
        "position": 9,
        "effect": "",
        "buff": "智力+3\n魔法攻击+30",
        "adventureBuff": "",
        "storageBuff": "物理攻击+4\n魔法攻击+4",
        "storageRefineBuff": null,
        "isCompose": 0
      },
      {
        "id": "3001463",
        "name": "逆转时钟",
        "icon": "item_3001463",
        "rank": 2,
        "position": 10,
        "effect": "",
        "buff": "魔法上限+200",
        "adventureBuff": "",
        "storageBuff": "生命上限+60\n魔法防御+4",
        "storageRefineBuff": null,
        "isCompose": 0
      },
      {
        "id": "3001462",
        "name": "约翰逊的帽子[1]",
        "icon": "item_3001462",
        "rank": 3,
        "position": 7,
        "effect": "",
        "buff": "击杀魔物Job经验+10%，击杀魔物Base经验-20%",
        "adventureBuff": "",
        "storageBuff": "物理攻击+6\n魔法攻击+6",
        "storageRefineBuff": null,
        "isCompose": 0
      },
      {
        "id": "3001461",
        "name": "杂耍天后",
        "icon": "item_3001461",
        "rank": 3,
        "position": 8,
        "effect": "",
        "buff": "对MVP、Mini魔物造成的伤害+10%\n受到MVP、Mini魔物造成的伤害-5%",
        "adventureBuff": "",
        "storageBuff": "生命上限+120",
        "storageRefineBuff": null,
        "isCompose": 0
      },
      {
        "id": "3001460",
        "name": "彼得温蒂",
        "icon": "item_3001460",
        "rank": 4,
        "position": 11,
        "effect": "",
        "buff": "魔法穿刺+3%\n使用技能100%概率获得效果：魔法穿刺+15%，持续5秒（20秒内只能受到一次效果）",
        "adventureBuff": "",
        "storageBuff": "物理攻击+1%\n魔法攻击+1%",
        "storageRefineBuff": null,
        "isCompose": 0
      },
      {
        "id": "900217",
        "name": "喵咪男爵魔物蛋",
        "icon": "item_900217",
        "rank": 1,
        "position": 12,
        "effect": "",
        "buff": "移动速度+25%",
        "adventureBuff": "",
        "storageBuff": "",
        "storageRefineBuff": null,
        "isCompose": 0
      },
      {
        "id": "900216",
        "name": "喵咪女爵魔物蛋",
        "icon": "item_900216",
        "rank": 1,
        "position": 12,
        "effect": "",
        "buff": "移动速度+25%",
        "adventureBuff": "",
        "storageBuff": "",
        "storageRefineBuff": null,
        "isCompose": 0
      },
      {
        "id": "900215",
        "name": "喵咪骑士魔物蛋",
        "icon": "item_900215",
        "rank": 1,
        "position": 12,
        "effect": "",
        "buff": "移动速度+25%",
        "adventureBuff": "",
        "storageBuff": "",
        "storageRefineBuff": null,
        "isCompose": 0
      }
    ]
  }
}