{
  "code": 0,
  "status": "success",
  "timeStamp": 1642842762,
  "staticDomain": "http:\/\/rosc1.zhaiwuyu.com",
  "ip": "101.87.200.160",
  "language": "cn",
  "dbArea": 0,
  "data": {
    "page": 35,
    "pageSize": 30,
    "pageCount": 68,
    "total": 2037,
    "list": [
      {
        "id": "3000513",
        "name": "虎虎生威",
        "icon": "item_3000513",
        "rank": 3,
        "position": 11,
        "effect": "",
        "buff": "对动物种族伤害+8%\n受到动物种族魔物伤害-8%",
        "adventureBuff": "",
        "storageBuff": "物理攻击+3，生命上限+30",
        "storageRefineBuff": null,
        "isCompose": 0
      },
      {
        "id": "3000512",
        "name": "爬娜娜",
        "icon": "item_3000512",
        "rank": 3,
        "position": 10,
        "effect": "",
        "buff": "移动速度+5%\n敏捷+5\n装备攻速+5%",
        "adventureBuff": "",
        "storageBuff": "魔法攻击+3，生命上限+30",
        "storageRefineBuff": null,
        "isCompose": 0
      },
      {
        "id": "3000511",
        "name": "枭鹰星翼",
        "icon": "item_3000511",
        "rank": 3,
        "position": 10,
        "effect": "",
        "buff": "物理穿刺+3%\n忽视物理防御+3%",
        "adventureBuff": "",
        "storageBuff": "生命上限+60",
        "storageRefineBuff": null,
        "isCompose": 0
      },
      {
        "id": "3000510",
        "name": "森之魂",
        "icon": "item_3000510",
        "rank": 3,
        "position": 7,
        "effect": "",
        "buff": "人形种族减伤+5%\n受治疗加成+5%",
        "adventureBuff": "",
        "storageBuff": "魔法攻击+6",
        "storageRefineBuff": null,
        "isCompose": 0
      },
      {
        "id": "3000509",
        "name": "鹿角吟吟系列头饰",
        "icon": "item_3000509",
        "rank": 3,
        "position": 7,
        "effect": "",
        "buff": "体质+5\n受到近战物理伤害减免+8%",
        "adventureBuff": "",
        "storageBuff": "物理防御+2，生命上限+30",
        "storageRefineBuff": null,
        "isCompose": 0
      },
      {
        "id": "3000504",
        "name": "枭鹰羽冠系列头饰",
        "icon": "item_3000504",
        "rank": 3,
        "position": 7,
        "effect": "",
        "buff": "体质+5\n受到远距离物理伤害减免+8%",
        "adventureBuff": "",
        "storageBuff": "魔法防御+2，生命上限+30",
        "storageRefineBuff": null,
        "isCompose": 0
      },
      {
        "id": "3000484",
        "name": "森空鹿谣系列时装",
        "icon": "item_3000484",
        "rank": 1,
        "position": 13,
        "effect": "",
        "buff": "",
        "adventureBuff": "物理攻击+1%\n魔法攻击+1%",
        "storageBuff": "物理防御+1%，魔法防御+1%",
        "storageRefineBuff": null,
        "isCompose": 0
      },
      {
        "id": "149141",
        "name": "诅咒戾痕[1]",
        "icon": "item_49141",
        "rank": 3,
        "position": 7,
        "effect": "",
        "buff": "对恶魔种族伤害+10%\n受到恶魔种族魔物伤害-10%",
        "adventureBuff": "",
        "storageBuff": "生命上限+60",
        "storageRefineBuff": null,
        "isCompose": 0
      },
      {
        "id": "145857",
        "name": "男友招募广告牌[1]",
        "icon": "item_45857",
        "rank": 3,
        "position": 7,
        "effect": "",
        "buff": "人形种族加伤+4%\n人形种族减伤+4%",
        "adventureBuff": "物理攻击+6",
        "storageBuff": "魔法防御+2，生命上限+30",
        "storageRefineBuff": null,
        "isCompose": 1
      },
      {
        "id": "145851",
        "name": "万国预言书[1]",
        "icon": "item_45851",
        "rank": 2,
        "position": 7,
        "effect": "",
        "buff": "智力+3\n魔法防御+20",
        "adventureBuff": "魔法防御+3",
        "storageBuff": "生命上限+30",
        "storageRefineBuff": null,
        "isCompose": 1
      },
      {
        "id": "49104",
        "name": "趴趴赛尼亚",
        "icon": "item_49104",
        "rank": 2,
        "position": 7,
        "effect": "",
        "buff": "生命上限+100\n魔法上限+100",
        "adventureBuff": "",
        "storageBuff": "生命上限+30",
        "storageRefineBuff": null,
        "isCompose": 0
      },
      {
        "id": "48706",
        "name": "炼金之喙",
        "icon": "item_48706",
        "rank": 4,
        "position": 8,
        "effect": "",
        "buff": "人形种族加伤+5%\n人形种族减伤+15%\n攻击目标时，有15%概率使目标陷入“负伤”状态，降低目标人形种族减伤5%，持续3秒，最多可叠加4层",
        "adventureBuff": "物理攻击+4.5，生命上限+45",
        "storageBuff": "魔法防御+3，生命上限+45",
        "storageRefineBuff": null,
        "isCompose": 1
      },
      {
        "id": "48078",
        "name": "堕落辉光",
        "icon": "item_48078",
        "rank": 4,
        "position": 11,
        "effect": "",
        "buff": "物理伤害+2%、魔法伤害+2%\n受到恶魔种族魔物伤害-15%",
        "adventureBuff": "",
        "storageBuff": "物理攻击+6\n魔法攻击+6",
        "storageRefineBuff": null,
        "isCompose": 0
      },
      {
        "id": "48054",
        "name": "飞翔的迪斯科",
        "icon": "item_48054",
        "rank": 3,
        "position": 11,
        "effect": "",
        "buff": "全能力+1\n暴击+2\n暴击伤害+5%",
        "adventureBuff": "",
        "storageBuff": "魔法攻击+3，生命上限+30",
        "storageRefineBuff": null,
        "isCompose": 0
      },
      {
        "id": "47174",
        "name": "龙熠",
        "icon": "item_47174",
        "rank": 4,
        "position": 10,
        "effect": "",
        "buff": "受到风、地、水、火、无属性伤害-8%\n生命值低于50%时：移动速度+15%",
        "adventureBuff": "魔法攻击+4.5，生命上限+45",
        "storageBuff": "物理防御+3，生命上限+45",
        "storageRefineBuff": [
          {
            "lv": 6,
            "buff": "生命上限+90"
          },
          {
            "lv": 8,
            "buff": "对无属性伤害减免+1%"
          }
        ],
        "isCompose": 1
      },
      {
        "id": "47143",
        "name": "曼陀罗竹蜻蜓",
        "icon": "item_47143",
        "rank": 2,
        "position": 11,
        "effect": "",
        "buff": "移动速度+2%\n装备攻速+2%",
        "adventureBuff": "",
        "storageBuff": "生命上限+30",
        "storageRefineBuff": null,
        "isCompose": 0
      },
      {
        "id": "45861",
        "name": "诅咒信件",
        "icon": "item_45861",
        "rank": 3,
        "position": 9,
        "effect": "",
        "buff": "力量+2\n灵巧+2\n体质+2\n物理攻击+40",
        "adventureBuff": "魔法攻击+3，生命上限+30",
        "storageBuff": "生命上限+60",
        "storageRefineBuff": null,
        "isCompose": 1
      },
      {
        "id": "45855",
        "name": "天线头饰",
        "icon": "item_45855",
        "rank": 2,
        "position": 7,
        "effect": "",
        "buff": "全能力+1\n风属性攻击+3%",
        "adventureBuff": "物理防御+3",
        "storageBuff": "生命上限+30",
        "storageRefineBuff": null,
        "isCompose": 1
      },
      {
        "id": "45854",
        "name": "梳子",
        "icon": "item_45854",
        "rank": 1,
        "position": 7,
        "effect": "",
        "buff": "魔法攻击+10",
        "adventureBuff": "生命上限+15",
        "storageBuff": "生命上限+15",
        "storageRefineBuff": null,
        "isCompose": 1
      },
      {
        "id": "45852",
        "name": "绿色头绳",
        "icon": "item_45852",
        "rank": 1,
        "position": 7,
        "effect": "",
        "buff": "生命上限+100",
        "adventureBuff": "生命上限+15",
        "storageBuff": "生命上限+15",
        "storageRefineBuff": null,
        "isCompose": 1
      },
      {
        "id": "3031521",
        "name": "飞行的智慧",
        "icon": "item_3031521",
        "rank": 2,
        "position": 10,
        "effect": "",
        "buff": "移动速度+4%\n魔法上限+100",
        "adventureBuff": "魔法防御+3",
        "storageBuff": "生命上限+30",
        "storageRefineBuff": null,
        "isCompose": 1
      },
      {
        "id": "3031520",
        "name": "逃学大王帽",
        "icon": "item_3031520",
        "rank": 2,
        "position": 7,
        "effect": "",
        "buff": "移动速度+4%\n闪避+20",
        "adventureBuff": "物理防御+3",
        "storageBuff": "生命上限+30",
        "storageRefineBuff": null,
        "isCompose": 1
      },
      {
        "id": "3000820",
        "name": "我不是咸鱼[1]",
        "icon": "item_3000820",
        "rank": 1,
        "position": 7,
        "effect": "",
        "buff": "全能力+1\n生命上限+10\n魔法上限+10\n物理攻击+10\n魔法攻击+10\n物理防御+10\n魔法防御+10",
        "adventureBuff": "",
        "storageBuff": "生命上限+15",
        "storageRefineBuff": null,
        "isCompose": 0
      },
      {
        "id": "3000466",
        "name": "黑曜星辰",
        "icon": "item_3000466",
        "rank": 2,
        "position": 8,
        "effect": "",
        "buff": "生命上限+200\n物理防御+10",
        "adventureBuff": "",
        "storageBuff": "生命上限+30",
        "storageRefineBuff": null,
        "isCompose": 0
      },
      {
        "id": "3000465",
        "name": "幻梦占星师",
        "icon": "item_3000465",
        "rank": 2,
        "position": 11,
        "effect": "",
        "buff": "生命上限+200\n受到圣属性伤害-3%",
        "adventureBuff": "",
        "storageBuff": "生命上限+60\n物理防御+4",
        "storageRefineBuff": null,
        "isCompose": 0
      },
      {
        "id": "3000464",
        "name": "灵魂塔罗",
        "icon": "item_3000464",
        "rank": 2,
        "position": 9,
        "effect": "",
        "buff": "幸运+3\n暴击伤害+2%",
        "adventureBuff": "",
        "storageBuff": "物理攻击+4\n魔法攻击+4",
        "storageRefineBuff": null,
        "isCompose": 0
      },
      {
        "id": "3000463",
        "name": "铭刻时光之印",
        "icon": "item_3000463",
        "rank": 2,
        "position": 8,
        "effect": "",
        "buff": "全能力+1\n人形种族减伤+3%",
        "adventureBuff": "",
        "storageBuff": "生命上限+60\n魔法防御+4",
        "storageRefineBuff": null,
        "isCompose": 0
      },
      {
        "id": "3000462",
        "name": "月光预言[1]",
        "icon": "item_3000462",
        "rank": 3,
        "position": 7,
        "effect": "",
        "buff": "普攻伤害+5%\n装备攻速+5%\n精炼+6时，暴击+10",
        "adventureBuff": "",
        "storageBuff": "物理攻击+6\n魔法攻击+6",
        "storageRefineBuff": null,
        "isCompose": 0
      },
      {
        "id": "3000461",
        "name": "时光欧珀[1]",
        "icon": "item_3000461",
        "rank": 3,
        "position": 7,
        "effect": "",
        "buff": "魔法上限+350\nSP恢复+20%",
        "adventureBuff": "",
        "storageBuff": "生命上限+120",
        "storageRefineBuff": null,
        "isCompose": 0
      },
      {
        "id": "3000460",
        "name": "迷离星途",
        "icon": "item_3000460",
        "rank": 4,
        "position": 10,
        "effect": "",
        "buff": "魔法穿刺+5%\n忽视魔法防御+5%\n精炼+6时，可变吟唱时间-10%",
        "adventureBuff": "",
        "storageBuff": "物理攻击+1%\n魔法攻击+1%",
        "storageRefineBuff": null,
        "isCompose": 0
      }
    ]
  }
}