{
  "code": 0,
  "status": "success",
  "timeStamp": 1643702273,
  "staticDomain": "http:\/\/rosc1.zhaiwuyu.com",
  "ip": "101.87.201.112",
  "language": "cn",
  "dbArea": 0,
  "data": {
    "page": 5,
    "pageSize": 30,
    "pageCount": 70,
    "total": 2073,
    "list": [
      {
        "id": "3004863",
        "name": "火辣的伪装",
        "icon": "item_3004863",
        "rank": 2,
        "position": 11,
        "effect": "",
        "buff": "全能力+1\n火属性攻击+3%",
        "adventureBuff": "",
        "storageBuff": "生命上限+60\n魔法防御+4",
        "storageRefineBuff": null,
        "isCompose": 0
      },
      {
        "id": "3004862",
        "name": "重金悬赏",
        "icon": "item_3004862",
        "rank": 3,
        "position": 9,
        "effect": "",
        "buff": "全能力+2\n对MVP、Mini魔物造成的伤害+10%",
        "adventureBuff": "",
        "storageBuff": "物理攻击+6\n魔法攻击+6",
        "storageRefineBuff": null,
        "isCompose": 0
      },
      {
        "id": "3004861",
        "name": "暗中观察",
        "icon": "item_3004861",
        "rank": 3,
        "position": 8,
        "effect": "",
        "buff": "脸部每强化+1，忽视物理防御+0.1%",
        "adventureBuff": "",
        "storageBuff": "生命上限+120",
        "storageRefineBuff": null,
        "isCompose": 0
      },
      {
        "id": "3004860",
        "name": "一个小秘密[1]",
        "icon": "item_3004860",
        "rank": 4,
        "position": 7,
        "effect": "",
        "buff": "物理伤害+5%\n魔法伤害+5%\n击杀目标掉落的Zeny数量提升1%(最低1Zeny)",
        "adventureBuff": "",
        "storageBuff": "物理攻击+1%\n魔法攻击+1%",
        "storageRefineBuff": null,
        "isCompose": 0
      },
      {
        "id": "3004703",
        "name": "大大大鸡腿",
        "icon": "item_3004703",
        "rank": 3,
        "position": 10,
        "effect": "",
        "buff": "普攻伤害减免+5%\n人形种族减伤+5%",
        "adventureBuff": "",
        "storageBuff": "物理攻击+3，生命上限+30",
        "storageRefineBuff": null,
        "isCompose": 0
      },
      {
        "id": "3004702",
        "name": "爆爆爆米花",
        "icon": "item_3004702",
        "rank": 2,
        "position": 7,
        "effect": "",
        "buff": "全能力+2\n火属性攻击+2%",
        "adventureBuff": "",
        "storageBuff": "生命上限+30",
        "storageRefineBuff": null,
        "isCompose": 0
      },
      {
        "id": "900266",
        "name": "红王魔物蛋",
        "icon": "item_900266",
        "rank": 1,
        "position": 12,
        "effect": "",
        "buff": "移动速度+25%",
        "adventureBuff": "",
        "storageBuff": "",
        "storageRefineBuff": null,
        "isCompose": 0
      },
      {
        "id": "900265",
        "name": "赤夜叉魔物蛋",
        "icon": "item_900265",
        "rank": 1,
        "position": 12,
        "effect": "",
        "buff": "移动速度+25%",
        "adventureBuff": "",
        "storageBuff": "",
        "storageRefineBuff": null,
        "isCompose": 0
      },
      {
        "id": "900264",
        "name": "赤焰兽魔物蛋",
        "icon": "item_900264",
        "rank": 1,
        "position": 12,
        "effect": "",
        "buff": "移动速度+25%",
        "adventureBuff": "",
        "storageBuff": "",
        "storageRefineBuff": null,
        "isCompose": 0
      },
      {
        "id": "149568",
        "name": "龙骑士之盔[1]",
        "icon": "item_49568",
        "rank": 3,
        "position": 7,
        "effect": "",
        "buff": "人形种族减伤+4%\n竞技场模式（6V6）中，中毒、冰冻抵抗+25%",
        "adventureBuff": "",
        "storageBuff": "生命上限+60",
        "storageRefineBuff": null,
        "isCompose": 0
      },
      {
        "id": "48120",
        "name": "呼喊草精",
        "icon": "item_48120",
        "rank": 3,
        "position": 11,
        "effect": "",
        "buff": "魔伤减免+4%\n竞技场模式（6V6）中，攻击目标时，100%的概率使目标的全能力-5、眩晕抵抗-30%，持续5秒",
        "adventureBuff": "",
        "storageBuff": "魔法攻击+3，生命上限+30",
        "storageRefineBuff": null,
        "isCompose": 0
      },
      {
        "id": "47266",
        "name": "森之萤火",
        "icon": "item_47266",
        "rank": 3,
        "position": 10,
        "effect": "",
        "buff": "物伤减免+4%\n竞技场模式（6V6）中，普攻伤害+10%",
        "adventureBuff": "",
        "storageBuff": "物理攻击+3，生命上限+30",
        "storageRefineBuff": null,
        "isCompose": 0
      },
      {
        "id": "3004856",
        "name": "幽灵与三角旗",
        "icon": "item_3004856",
        "rank": 2,
        "position": 9,
        "effect": "",
        "buff": "物理攻击+20\n物理防御+10",
        "adventureBuff": "",
        "storageBuff": "生命上限+30",
        "storageRefineBuff": null,
        "isCompose": 0
      },
      {
        "id": "3004855",
        "name": "恶作剧史莱姆",
        "icon": "item_3004855",
        "rank": 2,
        "position": 8,
        "effect": "",
        "buff": "全能力+1\n暗属性攻击+3%",
        "adventureBuff": "",
        "storageBuff": "生命上限+60\n物理防御+4",
        "storageRefineBuff": null,
        "isCompose": 0
      },
      {
        "id": "3004854",
        "name": "布偶兔与南瓜烤饼",
        "icon": "item_3004854",
        "rank": 2,
        "position": 11,
        "effect": "",
        "buff": "体质+5\nHP恢复+15%",
        "adventureBuff": "",
        "storageBuff": "物理攻击+4\n魔法攻击+4",
        "storageRefineBuff": null,
        "isCompose": 0
      },
      {
        "id": "3004853",
        "name": "委屈的小幽灵",
        "icon": "item_3004853",
        "rank": 2,
        "position": 9,
        "effect": "",
        "buff": "人形种族加伤+2%\n人形种族减伤+2%",
        "adventureBuff": "",
        "storageBuff": "生命上限+60\n魔法防御+4",
        "storageRefineBuff": null,
        "isCompose": 0
      },
      {
        "id": "3004852",
        "name": "猫咪南瓜帽[1]",
        "icon": "item_3004852",
        "rank": 3,
        "position": 7,
        "effect": "",
        "buff": "头部每强化+1，物理攻击+0.1%",
        "adventureBuff": "",
        "storageBuff": "物理攻击+6\n魔法攻击+6",
        "storageRefineBuff": null,
        "isCompose": 0
      },
      {
        "id": "3004851",
        "name": "捣蛋幽灵与南瓜派",
        "icon": "item_3004851",
        "rank": 3,
        "position": 8,
        "effect": "",
        "buff": "生命上限+8%\n装备者死亡时，恢复8米范围内的队友（最多六人）100%HP和100%SP",
        "adventureBuff": "",
        "storageBuff": "生命上限+120",
        "storageRefineBuff": null,
        "isCompose": 0
      },
      {
        "id": "3004850",
        "name": "小幽灵万圣烛台",
        "icon": "item_3004850",
        "rank": 4,
        "position": 10,
        "effect": "",
        "buff": "移动速度+5%、技能伤害+5%\n生命值100%时，移动速度+5%、技能伤害+5%",
        "adventureBuff": "",
        "storageBuff": "物理攻击+1%\n魔法攻击+1%",
        "storageRefineBuff": null,
        "isCompose": 0
      },
      {
        "id": "3004771",
        "name": "绒绒卡普拉",
        "icon": "item_3004771",
        "rank": 3,
        "position": 7,
        "effect": "",
        "buff": "技能伤害+3%\n忽视物理防御+3%\n忽视魔法防御+3%",
        "adventureBuff": "",
        "storageBuff": "魔法防御+2，生命上限+30",
        "storageRefineBuff": null,
        "isCompose": 0
      },
      {
        "id": "47264",
        "name": "疾风之翼",
        "icon": "item_47264",
        "rank": 4,
        "position": 10,
        "effect": "",
        "buff": "全能力+1\n物理穿刺+4%\n魔法穿刺+4%",
        "adventureBuff": "",
        "storageBuff": "生命上限+90",
        "storageRefineBuff": null,
        "isCompose": 0
      },
      {
        "id": "25175",
        "name": "深渊巡刑者",
        "icon": "item_25175",
        "rank": 5,
        "position": 12,
        "effect": "",
        "buff": "移动速度+25%",
        "adventureBuff": "物理攻击+3、魔法攻击+3",
        "storageBuff": "",
        "storageRefineBuff": null,
        "isCompose": 0
      },
      {
        "id": "3004782",
        "name": "毛绒绒软乎乎",
        "icon": "item_3004782",
        "rank": 3,
        "position": 7,
        "effect": "",
        "buff": "全能力+2\n物理伤害+4%\n魔法伤害+4%",
        "adventureBuff": "",
        "storageBuff": "物理攻击+3，魔法攻击+3",
        "storageRefineBuff": null,
        "isCompose": 0
      },
      {
        "id": "3004766",
        "name": "天使之音",
        "icon": "item_3004766",
        "rank": 5,
        "position": 10,
        "effect": "",
        "buff": "全能力+2\n物理穿刺+4%\n魔法穿刺+4%",
        "adventureBuff": "",
        "storageBuff": "生命上限+90",
        "storageRefineBuff": null,
        "isCompose": 0
      },
      {
        "id": "3004765",
        "name": "音乐之声",
        "icon": "item_3004765",
        "rank": 3,
        "position": 9,
        "effect": "",
        "buff": "全能力+3\n魔法攻击+6%",
        "adventureBuff": "",
        "storageBuff": "物理攻击+3，生命上限+30",
        "storageRefineBuff": null,
        "isCompose": 0
      },
      {
        "id": "3004764",
        "name": "奇幻之夜",
        "icon": "item_3004764",
        "rank": 3,
        "position": 8,
        "effect": "",
        "buff": "物理攻击+80\n物理攻击+5%",
        "adventureBuff": "",
        "storageBuff": "魔法攻击+3，生命上限+30",
        "storageRefineBuff": null,
        "isCompose": 0
      },
      {
        "id": "3004763",
        "name": "烛火歌唱家",
        "icon": "item_3004763",
        "rank": 3,
        "position": 11,
        "effect": "",
        "buff": "生命上限+1000\n每3点体质额外增加20点生命上限",
        "adventureBuff": "",
        "storageBuff": "魔法攻击+6",
        "storageRefineBuff": null,
        "isCompose": 0
      },
      {
        "id": "3004762",
        "name": "兔兔提琴手",
        "icon": "item_3004762",
        "rank": 3,
        "position": 10,
        "effect": "",
        "buff": "物伤减免+4%\n魔伤减免+4%\n受到圣属性伤害-8%",
        "adventureBuff": "",
        "storageBuff": "物理攻击+6",
        "storageRefineBuff": null,
        "isCompose": 0
      },
      {
        "id": "3004761",
        "name": "和平鸽使者",
        "icon": "item_3004761",
        "rank": 3,
        "position": 7,
        "effect": "",
        "buff": "全能力+5\n无属性攻击+5%",
        "adventureBuff": "",
        "storageBuff": "生命上限+60",
        "storageRefineBuff": null,
        "isCompose": 0
      },
      {
        "id": "3004759",
        "name": "圣洁礼帽头饰系列",
        "icon": "item_3004759",
        "rank": 3,
        "position": 7,
        "effect": "",
        "buff": "技能伤害减免+4%\n生命上限+2000",
        "adventureBuff": "",
        "storageBuff": "物理防御+2，生命上限+30",
        "storageRefineBuff": null,
        "isCompose": 0
      }
    ]
  }
}