{
  "code": 0,
  "status": "success",
  "timeStamp": 1642842440,
  "staticDomain": "http:\/\/rosc1.zhaiwuyu.com",
  "ip": "101.87.200.160",
  "language": "cn",
  "dbArea": 0,
  "data": {
    "page": 3,
    "pageSize": 30,
    "pageCount": 68,
    "total": 2037,
    "list": [
      {
        "id": "3005264",
        "name": "圣诞夜之星系列时装",
        "icon": "item_3005264",
        "rank": 1,
        "position": 13,
        "effect": "",
        "buff": "",
        "adventureBuff": "物理攻击+1%\n魔法攻击+1%",
        "storageBuff": "物理防御+1%，魔法防御+1%",
        "storageRefineBuff": null,
        "isCompose": 0
      },
      {
        "id": "3005172",
        "name": "索菲亚的梦",
        "icon": "item_3005172",
        "rank": 3,
        "position": 7,
        "effect": "",
        "buff": "灵巧+10\n敏捷+10\n移动速度+5%",
        "adventureBuff": "",
        "storageBuff": "魔法防御+2，生命上限+30",
        "storageRefineBuff": null,
        "isCompose": 0
      },
      {
        "id": "3005171",
        "name": "圣诞颂歌",
        "icon": "item_3005171",
        "rank": 2,
        "position": 10,
        "effect": "",
        "buff": "生命上限+300\n受到风属性伤害-3%",
        "adventureBuff": "",
        "storageBuff": "生命上限+30",
        "storageRefineBuff": null,
        "isCompose": 0
      },
      {
        "id": "3005170",
        "name": "波利的假期",
        "icon": "item_3005170",
        "rank": 3,
        "position": 11,
        "effect": "",
        "buff": "全能力+2\n对MVP、Mini魔物造成的伤害+3%",
        "adventureBuff": "",
        "storageBuff": "魔法攻击+3，生命上限+30",
        "storageRefineBuff": null,
        "isCompose": 0
      },
      {
        "id": "3004876",
        "name": "冬日使者",
        "icon": "item_3004876",
        "rank": 2,
        "position": 11,
        "effect": "",
        "buff": "生命上限+200\n物理防御+10",
        "adventureBuff": "",
        "storageBuff": "生命上限+30",
        "storageRefineBuff": null,
        "isCompose": 0
      },
      {
        "id": "3004875",
        "name": "小鹿的愿望",
        "icon": "item_3004875",
        "rank": 2,
        "position": 8,
        "effect": "",
        "buff": "生命上限+300\n魔法防御+3%",
        "adventureBuff": "",
        "storageBuff": "生命上限+60\n物理防御+4",
        "storageRefineBuff": null,
        "isCompose": 0
      },
      {
        "id": "3004874",
        "name": "雪夜精灵",
        "icon": "item_3004874",
        "rank": 2,
        "position": 11,
        "effect": "",
        "buff": "火属性攻击+2%\n对地属性魔物伤害+2%",
        "adventureBuff": "",
        "storageBuff": "物理攻击+4\n魔法攻击+4",
        "storageRefineBuff": null,
        "isCompose": 0
      },
      {
        "id": "3004873",
        "name": "槲寄生的誓言",
        "icon": "item_3004873",
        "rank": 2,
        "position": 10,
        "effect": "",
        "buff": "魔法穿刺+1%\n忽视魔法防御+2%",
        "adventureBuff": "",
        "storageBuff": "生命上限+60\n魔法防御+4",
        "storageRefineBuff": null,
        "isCompose": 0
      },
      {
        "id": "3004872",
        "name": "闹腾的拐杖",
        "icon": "item_3004872",
        "rank": 3,
        "position": 9,
        "effect": "",
        "buff": "魔法穿刺+4%\n攻击目标时，有100%概率使目标进入眩晕状态，持续2秒（目标10秒内只能被眩晕一次）",
        "adventureBuff": "",
        "storageBuff": "物理攻击+6\n魔法攻击+6",
        "storageRefineBuff": null,
        "isCompose": 0
      },
      {
        "id": "3004871",
        "name": "寂寞姜饼仔[1]",
        "icon": "item_3004871",
        "rank": 3,
        "position": 7,
        "effect": "",
        "buff": "生命上限+8%\n冰冻抵抗+25%\n冰冻状态下，物伤、魔伤减免+15%",
        "adventureBuff": "",
        "storageBuff": "生命上限+120",
        "storageRefineBuff": null,
        "isCompose": 0
      },
      {
        "id": "3004870",
        "name": "圣夜祝福[1]",
        "icon": "item_3004870",
        "rank": 4,
        "position": 7,
        "effect": "",
        "buff": "技能伤害+12%\n使用技能时Sp消耗量+12%\n可变吟唱时间+12%",
        "adventureBuff": "",
        "storageBuff": "物理攻击+1%\n魔法攻击+1%",
        "storageRefineBuff": null,
        "isCompose": 0
      },
      {
        "id": "25174",
        "name": "极冰之混沌",
        "icon": "item_25174",
        "rank": 5,
        "position": 12,
        "effect": "",
        "buff": "移动速度+25%",
        "adventureBuff": "物理攻击+8，魔法攻击+8",
        "storageBuff": "",
        "storageRefineBuff": null,
        "isCompose": 0
      },
      {
        "id": "3005156",
        "name": "南瓜安魂曲",
        "icon": "item_3005156",
        "rank": 5,
        "position": 10,
        "effect": "",
        "buff": "全能力+2\n物理穿刺+4%\n魔法穿刺+4%",
        "adventureBuff": "",
        "storageBuff": "生命上限+90",
        "storageRefineBuff": null,
        "isCompose": 0
      },
      {
        "id": "3005155",
        "name": "尖叫姜饼仔",
        "icon": "item_3005155",
        "rank": 3,
        "position": 9,
        "effect": "",
        "buff": "全能力+3\n魔法伤害+3%",
        "adventureBuff": "",
        "storageBuff": "物理攻击+3，生命上限+30",
        "storageRefineBuff": null,
        "isCompose": 0
      },
      {
        "id": "3005154",
        "name": "虚妄的凝视",
        "icon": "item_3005154",
        "rank": 3,
        "position": 8,
        "effect": "",
        "buff": "物理攻击+80\n忽视物理防御+5%",
        "adventureBuff": "",
        "storageBuff": "魔法攻击+3，生命上限+30",
        "storageRefineBuff": null,
        "isCompose": 0
      },
      {
        "id": "3005153",
        "name": "惊魂恰恰",
        "icon": "item_3005153",
        "rank": 3,
        "position": 11,
        "effect": "",
        "buff": "对龙族魔物伤害+8%\n受到龙族魔物伤害-8%",
        "adventureBuff": "",
        "storageBuff": "魔法攻击+6",
        "storageRefineBuff": null,
        "isCompose": 0
      },
      {
        "id": "3005152",
        "name": "杰克的微笑",
        "icon": "item_3005152",
        "rank": 3,
        "position": 10,
        "effect": "",
        "buff": "物伤减免+4%\n魔伤减免+4%\n受到无属性伤害-6%",
        "adventureBuff": "",
        "storageBuff": "物理攻击+6",
        "storageRefineBuff": null,
        "isCompose": 0
      },
      {
        "id": "3005151",
        "name": "捣蛋幽灵",
        "icon": "item_3005151",
        "rank": 3,
        "position": 7,
        "effect": "",
        "buff": "物理伤害+3%\n暴击伤害+3%",
        "adventureBuff": "",
        "storageBuff": "生命上限+60",
        "storageRefineBuff": null,
        "isCompose": 0
      },
      {
        "id": "3005149",
        "name": "飞天南瓜头饰系列",
        "icon": "item_3005149",
        "rank": 3,
        "position": 7,
        "effect": "",
        "buff": "魔法伤害+3%\n忽视魔法防御+3%",
        "adventureBuff": "",
        "storageBuff": "物理防御+2，生命上限+30",
        "storageRefineBuff": null,
        "isCompose": 0
      },
      {
        "id": "3005144",
        "name": "幻术之眼头饰系列",
        "icon": "item_3005144",
        "rank": 3,
        "position": 7,
        "effect": "",
        "buff": "物理伤害+3%\n忽视物理防御+3%",
        "adventureBuff": "",
        "storageBuff": "魔法防御+2，生命上限+30",
        "storageRefineBuff": null,
        "isCompose": 0
      },
      {
        "id": "3005124",
        "name": "绮想万圣夜系列时装",
        "icon": "item_3005124",
        "rank": 1,
        "position": 13,
        "effect": "",
        "buff": "",
        "adventureBuff": "物理攻击+1%\n魔法攻击+1%",
        "storageBuff": "物理攻击+12\n魔法攻击+12",
        "storageRefineBuff": null,
        "isCompose": 0
      },
      {
        "id": "3004866",
        "name": "破壳日",
        "icon": "item_3004866",
        "rank": 2,
        "position": 7,
        "effect": "",
        "buff": "生命上限+200\n物理防御+20",
        "adventureBuff": "",
        "storageBuff": "生命上限+30",
        "storageRefineBuff": null,
        "isCompose": 0
      },
      {
        "id": "3004865",
        "name": "烈焰观察者[1]",
        "icon": "item_3004865",
        "rank": 2,
        "position": 7,
        "effect": "",
        "buff": "生命上限+300\n受到风属性伤害-3%",
        "adventureBuff": "",
        "storageBuff": "生命上限+60\n物理防御+4",
        "storageRefineBuff": null,
        "isCompose": 0
      },
      {
        "id": "3004864",
        "name": "炙热的爱",
        "icon": "item_3004864",
        "rank": 2,
        "position": 10,
        "effect": "",
        "buff": "物理攻击+40\n魔法上限+50",
        "adventureBuff": "",
        "storageBuff": "物理攻击+4\n魔法攻击+4",
        "storageRefineBuff": null,
        "isCompose": 0
      },
      {
        "id": "3004863",
        "name": "火辣的伪装",
        "icon": "item_3004863",
        "rank": 2,
        "position": 11,
        "effect": "",
        "buff": "全能力+1\n火属性攻击+3%",
        "adventureBuff": "",
        "storageBuff": "生命上限+60\n魔法防御+4",
        "storageRefineBuff": null,
        "isCompose": 0
      },
      {
        "id": "3004862",
        "name": "重金悬赏",
        "icon": "item_3004862",
        "rank": 3,
        "position": 9,
        "effect": "",
        "buff": "全能力+2\n对MVP、Mini魔物造成的伤害+10%",
        "adventureBuff": "",
        "storageBuff": "物理攻击+6\n魔法攻击+6",
        "storageRefineBuff": null,
        "isCompose": 0
      },
      {
        "id": "3004861",
        "name": "暗中观察",
        "icon": "item_3004861",
        "rank": 3,
        "position": 8,
        "effect": "",
        "buff": "脸部每强化+1，忽视物理防御+0.1%",
        "adventureBuff": "",
        "storageBuff": "生命上限+120",
        "storageRefineBuff": null,
        "isCompose": 0
      },
      {
        "id": "3004860",
        "name": "一个小秘密[1]",
        "icon": "item_3004860",
        "rank": 4,
        "position": 7,
        "effect": "",
        "buff": "物理伤害+5%\n魔法伤害+5%\n击杀目标掉落的Zeny数量提升1%(最低1Zeny)",
        "adventureBuff": "",
        "storageBuff": "物理攻击+1%\n魔法攻击+1%",
        "storageRefineBuff": null,
        "isCompose": 0
      },
      {
        "id": "3004703",
        "name": "大大大鸡腿",
        "icon": "item_3004703",
        "rank": 3,
        "position": 10,
        "effect": "",
        "buff": "普攻伤害减免+5%\n人形种族减伤+5%",
        "adventureBuff": "",
        "storageBuff": "物理攻击+3，生命上限+30",
        "storageRefineBuff": null,
        "isCompose": 0
      },
      {
        "id": "3004702",
        "name": "爆爆爆米花",
        "icon": "item_3004702",
        "rank": 2,
        "position": 7,
        "effect": "",
        "buff": "全能力+2\n火属性攻击+2%",
        "adventureBuff": "",
        "storageBuff": "生命上限+30",
        "storageRefineBuff": null,
        "isCompose": 0
      }
    ]
  }
}