{
  "code": 0,
  "status": "success",
  "timeStamp": 1642842420,
  "staticDomain": "http:\/\/rosc1.zhaiwuyu.com",
  "ip": "101.87.200.160",
  "language": "cn",
  "dbArea": 0,
  "data": {
    "page": 1,
    "pageSize": 30,
    "pageCount": 68,
    "total": 2037,
    "list": [
      {
        "id": "3004986",
        "name": "金色十字系列头饰",
        "icon": "item_3004986",
        "rank": 3,
        "position": 7,
        "effect": "",
        "buff": "全能力+5\n生命上限+4000",
        "adventureBuff": "",
        "storageBuff": "生命上限+60",
        "storageRefineBuff": null,
        "isCompose": 0
      },
      {
        "id": "3004985",
        "name": "波利大奖杯",
        "icon": "item_3004985",
        "rank": 3,
        "position": 11,
        "effect": "",
        "buff": "全能力+1\n普攻伤害+3%",
        "adventureBuff": "",
        "storageBuff": "物理防御+2，生命上限+30",
        "storageRefineBuff": null,
        "isCompose": 0
      },
      {
        "id": "3004984",
        "name": "彩虹的祝福",
        "icon": "item_3004984",
        "rank": 3,
        "position": 10,
        "effect": "",
        "buff": "全能力+1\n技能伤害+5%",
        "adventureBuff": "",
        "storageBuff": "魔法防御+2，生命上限+30",
        "storageRefineBuff": null,
        "isCompose": 0
      },
      {
        "id": "3004983",
        "name": "庆典三角旗",
        "icon": "item_3004983",
        "rank": 3,
        "position": 9,
        "effect": "",
        "buff": "生命上限+1000\n普攻伤害减免+10%",
        "adventureBuff": "",
        "storageBuff": "物理攻击+3，生命上限+30",
        "storageRefineBuff": null,
        "isCompose": 0
      },
      {
        "id": "3004982",
        "name": "滑稽先生的胡子",
        "icon": "item_3004982",
        "rank": 3,
        "position": 8,
        "effect": "",
        "buff": "生命上限+1000\n技能伤害减免+10%",
        "adventureBuff": "",
        "storageBuff": "魔法攻击+3，生命上限+30",
        "storageRefineBuff": null,
        "isCompose": 0
      },
      {
        "id": "3004972",
        "name": "狂想华尔兹系列时装",
        "icon": "item_3004972",
        "rank": 1,
        "position": 13,
        "effect": "",
        "buff": "",
        "adventureBuff": "物理攻击+1%\n魔法攻击+1%",
        "storageBuff": "物理防御+1%，魔法防御+1%",
        "storageRefineBuff": null,
        "isCompose": 0
      },
      {
        "id": "149571",
        "name": "趴趴游魂[1]",
        "icon": "item_49571",
        "rank": 3,
        "position": 7,
        "effect": "",
        "buff": "对圣属性魔物伤害+10%\n受到圣属性伤害-10%",
        "adventureBuff": "物理攻击+3，生命上限+30",
        "storageBuff": "魔法防御+2，生命上限+30",
        "storageRefineBuff": null,
        "isCompose": 1
      },
      {
        "id": "149570",
        "name": "精灵狐耳[1]",
        "icon": "item_49570",
        "rank": 2,
        "position": 7,
        "effect": "",
        "buff": "生命上限+300\n治疗加成+3%",
        "adventureBuff": "物理防御+2",
        "storageBuff": "生命上限+30",
        "storageRefineBuff": null,
        "isCompose": 1
      },
      {
        "id": "149569",
        "name": "闪蝶发夹[1]",
        "icon": "item_49569",
        "rank": 3,
        "position": 7,
        "effect": "",
        "buff": "生命上限+1000\n人形种族减伤+5%\n攻击目标时，有100%的概率降低目标50点命中和闪避，持续5秒",
        "adventureBuff": "物理防御+2，生命上限+30",
        "storageBuff": "生命上限+60",
        "storageRefineBuff": null,
        "isCompose": 1
      },
      {
        "id": "51702",
        "name": "七王室风格奖励系列时装",
        "icon": "item_51702",
        "rank": 1,
        "position": 13,
        "effect": "",
        "buff": "",
        "adventureBuff": "",
        "storageBuff": "生命上限+30",
        "storageRefineBuff": null,
        "isCompose": 0
      },
      {
        "id": "51692",
        "name": "凯旋之舞系列时装",
        "icon": "item_51692",
        "rank": 1,
        "position": 13,
        "effect": "",
        "buff": "",
        "adventureBuff": "",
        "storageBuff": "物理攻击+6\n魔法攻击+6",
        "storageRefineBuff": null,
        "isCompose": 0
      },
      {
        "id": "49590",
        "name": "灵魂回响系列头饰",
        "icon": "item_49588",
        "rank": 4,
        "position": 7,
        "effect": "",
        "buff": "智力+5\n幸运+5\n物理伤害+4%\n魔法伤害+4%",
        "adventureBuff": "",
        "storageBuff": "魔法攻击+3，生命上限+30",
        "storageRefineBuff": null,
        "isCompose": 0
      },
      {
        "id": "49585",
        "name": "心灵猎者",
        "icon": "item_49585",
        "rank": 3,
        "position": 7,
        "effect": "",
        "buff": "智力+3\n幸运+3\n生命上限+500",
        "adventureBuff": "",
        "storageBuff": "生命上限+60",
        "storageRefineBuff": null,
        "isCompose": 0
      },
      {
        "id": "49584",
        "name": "忧伤的雨",
        "icon": "item_49584",
        "rank": 2,
        "position": 7,
        "effect": "",
        "buff": "全能力+1\n魔法上限+150",
        "adventureBuff": "",
        "storageBuff": "生命上限+30",
        "storageRefineBuff": null,
        "isCompose": 0
      },
      {
        "id": "49583",
        "name": "夹鼻老花镜",
        "icon": "item_49583",
        "rank": 1,
        "position": 8,
        "effect": "",
        "buff": "幸运+3\n体质+3",
        "adventureBuff": "",
        "storageBuff": "生命上限+15",
        "storageRefineBuff": null,
        "isCompose": 0
      },
      {
        "id": "49582",
        "name": "绸缎软帽",
        "icon": "item_49582",
        "rank": 1,
        "position": 7,
        "effect": "",
        "buff": "敏捷+3\n体质+3",
        "adventureBuff": "",
        "storageBuff": "生命上限+15",
        "storageRefineBuff": null,
        "isCompose": 0
      },
      {
        "id": "49581",
        "name": "金边护目镜",
        "icon": "item_49581",
        "rank": 1,
        "position": 7,
        "effect": "",
        "buff": "智力+2\n体质+3",
        "adventureBuff": "",
        "storageBuff": "生命上限+15",
        "storageRefineBuff": null,
        "isCompose": 0
      },
      {
        "id": "49580",
        "name": "御用扫帚",
        "icon": "item_49580",
        "rank": 1,
        "position": 10,
        "effect": "",
        "buff": "灵巧+2\n体质+3",
        "adventureBuff": "",
        "storageBuff": "生命上限+15",
        "storageRefineBuff": null,
        "isCompose": 0
      },
      {
        "id": "49579",
        "name": "水晶拨弦琴",
        "icon": "item_49579",
        "rank": 1,
        "position": 11,
        "effect": "",
        "buff": "力量+2\n体质+3",
        "adventureBuff": "",
        "storageBuff": "生命上限+15",
        "storageRefineBuff": null,
        "isCompose": 0
      },
      {
        "id": "49578",
        "name": "迷糊猫",
        "icon": "item_49578",
        "rank": 2,
        "position": 7,
        "effect": "",
        "buff": "生命上限+500\nHP恢复+5%",
        "adventureBuff": "",
        "storageBuff": "生命上限+30",
        "storageRefineBuff": null,
        "isCompose": 0
      },
      {
        "id": "49577",
        "name": "不朽之木",
        "icon": "item_49577",
        "rank": 2,
        "position": 7,
        "effect": "",
        "buff": "全能力+1\n忽视物理防御+3%",
        "adventureBuff": "生命上限+30",
        "storageBuff": "生命上限+30",
        "storageRefineBuff": null,
        "isCompose": 1
      },
      {
        "id": "49576",
        "name": "女王花冠",
        "icon": "item_49576",
        "rank": 3,
        "position": 7,
        "effect": "",
        "buff": "全能力+2\n人形种族加伤+5%\n人形种族减伤+5%",
        "adventureBuff": "",
        "storageBuff": "生命上限+60",
        "storageRefineBuff": null,
        "isCompose": 0
      },
      {
        "id": "49575",
        "name": "圣白淑女发夹",
        "icon": "item_49575",
        "rank": 2,
        "position": 7,
        "effect": "",
        "buff": "全能力+2\n魔法攻击+2%",
        "adventureBuff": "",
        "storageBuff": "物理防御+2",
        "storageRefineBuff": null,
        "isCompose": 0
      },
      {
        "id": "49574",
        "name": "星芒骑士发夹",
        "icon": "item_49574",
        "rank": 2,
        "position": 7,
        "effect": "",
        "buff": "全能力+2\n物理攻击+2%",
        "adventureBuff": "",
        "storageBuff": "魔法防御+2",
        "storageRefineBuff": null,
        "isCompose": 0
      },
      {
        "id": "49573",
        "name": "古典王冠",
        "icon": "item_49573",
        "rank": 1,
        "position": 7,
        "effect": "",
        "buff": "力量+2\n灵巧+2",
        "adventureBuff": "",
        "storageBuff": "生命上限+15",
        "storageRefineBuff": null,
        "isCompose": 0
      },
      {
        "id": "49566",
        "name": "王国菁英系列头饰",
        "icon": "item_49566",
        "rank": 3,
        "position": 7,
        "effect": "",
        "buff": "全能力+2\n物理伤害+4%\n魔法伤害+4%",
        "adventureBuff": "",
        "storageBuff": "物理攻击+4\n魔法攻击+4",
        "storageRefineBuff": null,
        "isCompose": 0
      },
      {
        "id": "49563",
        "name": "时间法则",
        "icon": "item_49563",
        "rank": 3,
        "position": 7,
        "effect": "",
        "buff": "生命上限+3%\n物伤减免+3%\n魔伤减免+3%",
        "adventureBuff": "",
        "storageBuff": "生命上限+60",
        "storageRefineBuff": null,
        "isCompose": 0
      },
      {
        "id": "49561",
        "name": "流光浮羽",
        "icon": "item_49561",
        "rank": 3,
        "position": 7,
        "effect": "",
        "buff": "生命上限+1000\n物理伤害+3%\n魔法伤害+3%",
        "adventureBuff": "",
        "storageBuff": "生命上限+60",
        "storageRefineBuff": null,
        "isCompose": 0
      },
      {
        "id": "48778",
        "name": "法医口罩",
        "icon": "item_48778",
        "rank": 1,
        "position": 9,
        "effect": "",
        "buff": "生命上限+50\n物理防御+10",
        "adventureBuff": "",
        "storageBuff": "物理防御+1",
        "storageRefineBuff": null,
        "isCompose": 0
      },
      {
        "id": "48776",
        "name": "竖琴的断弦",
        "icon": "item_48776",
        "rank": 2,
        "position": 9,
        "effect": "",
        "buff": "体质+2\n普攻伤害减免+3%",
        "adventureBuff": "生命上限+30",
        "storageBuff": "物理防御+2",
        "storageRefineBuff": null,
        "isCompose": 1
      }
    ],
    "partner": {
      "id": 30201,
      "pos": 6,
      "title": "交易所订阅",
      "tip": "",
      "pic": "\/\/rosc3.zhaiwuyu.com\/partner\/self\/find-exchange-202103.jpg",
      "link": "http:\/\/romel.wiki\/article\/exchange-remind"
    }
  }
}