{
  "code": 0,
  "status": "success",
  "timeStamp": 1642842792,
  "staticDomain": "http:\/\/rosc1.zhaiwuyu.com",
  "ip": "101.87.200.160",
  "language": "cn",
  "dbArea": 0,
  "data": {
    "page": 38,
    "pageSize": 30,
    "pageCount": 68,
    "total": 2037,
    "list": [
      {
        "id": "145916",
        "name": "消防帽[1]",
        "icon": "item_45916",
        "rank": 3,
        "position": 7,
        "effect": "",
        "buff": "生命上限+1500\nHp恢复+10%\n受到火属性伤害-5%",
        "adventureBuff": "物理攻击+3，生命上限+30",
        "storageBuff": "生命上限+60",
        "storageRefineBuff": null,
        "isCompose": 1
      },
      {
        "id": "145914",
        "name": "头顶落叶[1]",
        "icon": "item_45914",
        "rank": 2,
        "position": 7,
        "effect": "",
        "buff": "幸运+5\n闪避+5",
        "adventureBuff": "魔法攻击+3",
        "storageBuff": "生命上限+30",
        "storageRefineBuff": [
          {
            "lv": 6,
            "buff": "物理防御+2"
          },
          {
            "lv": 8,
            "buff": "物理攻击+3"
          }
        ],
        "isCompose": 1
      },
      {
        "id": "145856",
        "name": "风之旅人[1]",
        "icon": "item_45856",
        "rank": 3,
        "position": 7,
        "effect": "",
        "buff": "对全种族伤害+3%\n达纳托斯之塔内：魔法伤害+3%；每精炼+1时，魔法伤害+0.5%",
        "adventureBuff": "",
        "storageBuff": "物理防御+2，生命上限+30",
        "storageRefineBuff": null,
        "isCompose": 0
      },
      {
        "id": "145848",
        "name": "斯特里戈伊的预言[1]",
        "icon": "item_45848",
        "rank": 3,
        "position": 7,
        "effect": "",
        "buff": "受治疗加成+5%、Hp恢复+20%\n达纳托斯之塔内：生命上限+3%；每精炼+1时，生命上限+0.5%",
        "adventureBuff": "",
        "storageBuff": "魔法攻击+3，生命上限+30",
        "storageRefineBuff": null,
        "isCompose": 0
      },
      {
        "id": "49040",
        "name": "幻舞公主",
        "icon": "item_49040",
        "rank": 3,
        "position": 7,
        "effect": "",
        "buff": "魔法攻击+3%\n击杀魔物Job经验+5%",
        "adventureBuff": "",
        "storageBuff": "魔法攻击+3，生命上限+30",
        "storageRefineBuff": null,
        "isCompose": 0
      },
      {
        "id": "49039",
        "name": "流沙王子",
        "icon": "item_49039",
        "rank": 3,
        "position": 7,
        "effect": "",
        "buff": "物理攻击+3%\n击杀魔物Job经验+5%",
        "adventureBuff": "",
        "storageBuff": "物理攻击+3，生命上限+30",
        "storageRefineBuff": null,
        "isCompose": 0
      },
      {
        "id": "49038",
        "name": "隔绝者",
        "icon": "item_49038",
        "rank": 3,
        "position": 7,
        "effect": "",
        "buff": "生命上限+800\n受到近战物理伤害减免+5%",
        "adventureBuff": "",
        "storageBuff": "生命上限+60",
        "storageRefineBuff": null,
        "isCompose": 0
      },
      {
        "id": "49031",
        "name": "入夜钟声",
        "icon": "item_49031",
        "rank": 3,
        "position": 7,
        "effect": "",
        "buff": "全能力+2\n生命上限+1000",
        "adventureBuff": "",
        "storageBuff": "生命上限+60",
        "storageRefineBuff": null,
        "isCompose": 0
      },
      {
        "id": "48705",
        "name": "缄默之荣光",
        "icon": "item_48705",
        "rank": 2,
        "position": 9,
        "effect": "",
        "buff": "生命上限+200\n达纳托斯之塔内：对全种族伤害+3%",
        "adventureBuff": "",
        "storageBuff": "生命上限+30",
        "storageRefineBuff": null,
        "isCompose": 0
      },
      {
        "id": "48704",
        "name": "深渊之凝望",
        "icon": "item_48704",
        "rank": 3,
        "position": 8,
        "effect": "",
        "buff": "治疗加成+5%\n达纳托斯之塔内：圣属性攻击+2%；每精炼+1时，圣属性攻击+0.5%",
        "adventureBuff": "",
        "storageBuff": "物理攻击+3，生命上限+30",
        "storageRefineBuff": null,
        "isCompose": 0
      },
      {
        "id": "48697",
        "name": "盗贼面具",
        "icon": "item_48697",
        "rank": 3,
        "position": 8,
        "effect": "",
        "buff": "装备攻速+4%\n物理攻击+20",
        "adventureBuff": "生命上限+60",
        "storageBuff": "魔法防御+4",
        "storageRefineBuff": null,
        "isCompose": 1
      },
      {
        "id": "48696",
        "name": "剑士面罩",
        "icon": "item_48696",
        "rank": 3,
        "position": 8,
        "effect": "",
        "buff": "物理攻击+2%\n精炼+6时，全能力+2、物理攻击+20",
        "adventureBuff": "生命上限+60",
        "storageBuff": "物理防御+4",
        "storageRefineBuff": null,
        "isCompose": 1
      },
      {
        "id": "48692",
        "name": "试作型夜视仪",
        "icon": "item_48692",
        "rank": 4,
        "position": 8,
        "effect": "",
        "buff": "生命上限+1000\n魔法上限+150\n精炼+10时，魔法上限+10%",
        "adventureBuff": "物理攻击+4.5，生命上限+45",
        "storageBuff": "生命上限+90",
        "storageRefineBuff": null,
        "isCompose": 1
      },
      {
        "id": "48675",
        "name": "狗尾草",
        "icon": "item_48675",
        "rank": 1,
        "position": 9,
        "effect": "",
        "buff": "幸运+1\n暴击+1\n暴击伤害+1%",
        "adventureBuff": "",
        "storageBuff": "魔法防御+2",
        "storageRefineBuff": null,
        "isCompose": 0
      },
      {
        "id": "48661",
        "name": "金属面具",
        "icon": "item_48661",
        "rank": 2,
        "position": 8,
        "effect": "",
        "buff": "生命上限+200\n受到无属性伤害-3%",
        "adventureBuff": "物理攻击+3",
        "storageBuff": "生命上限+30",
        "storageRefineBuff": [
          {
            "lv": 6,
            "buff": "物理攻击+1，物理防御+1"
          },
          {
            "lv": 8,
            "buff": "物理攻击+2，魔法防御+1"
          }
        ],
        "isCompose": 1
      },
      {
        "id": "48660",
        "name": "镭射眼镜",
        "icon": "item_48660",
        "rank": 3,
        "position": 8,
        "effect": "",
        "buff": "敏捷+2\n暴击+2\n暴击伤害+5%",
        "adventureBuff": "魔法攻击+3，生命上限+30",
        "storageBuff": "物理防御+2，生命上限+30",
        "storageRefineBuff": null,
        "isCompose": 1
      },
      {
        "id": "48071",
        "name": "小甜嗡",
        "icon": "item_48071",
        "rank": 4,
        "position": 11,
        "effect": "",
        "buff": "物理攻击+20\n精炼+10时，物理穿刺+2%\n攻击目标时，有100%概率降低目标3%物伤减免，持续5秒",
        "adventureBuff": "生命上限+90",
        "storageBuff": "魔法攻击+4.5，生命上限+45",
        "storageRefineBuff": null,
        "isCompose": 1
      },
      {
        "id": "48070",
        "name": "英灵永寂",
        "icon": "item_48070",
        "rank": 4,
        "position": 11,
        "effect": "",
        "buff": "移动速度+5%\n达纳托斯之塔内：对全种族伤害+3%；每精炼+1时，对全种族伤害+0.5%",
        "adventureBuff": "",
        "storageBuff": "魔法攻击+4.5，生命上限+45",
        "storageRefineBuff": null,
        "isCompose": 0
      },
      {
        "id": "48055",
        "name": "囚犯的呢喃",
        "icon": "item_48055",
        "rank": 2,
        "position": 11,
        "effect": "",
        "buff": "生命上限+50\n人形种族减伤+2%",
        "adventureBuff": "",
        "storageBuff": "物理防御+3",
        "storageRefineBuff": null,
        "isCompose": 0
      },
      {
        "id": "48047",
        "name": "机械尾巴",
        "icon": "item_48047",
        "rank": 3,
        "position": 11,
        "effect": "",
        "buff": "物理攻击+2%\n精炼+5,+10,+15时，物理攻击分别+10,+20,+30",
        "adventureBuff": "物理防御+2，生命上限+30",
        "storageBuff": "生命上限+60",
        "storageRefineBuff": [
          {
            "lv": 6,
            "buff": "物理防御+4"
          },
          {
            "lv": 8,
            "buff": "生命上限+120"
          }
        ],
        "isCompose": 1
      },
      {
        "id": "47173",
        "name": "破碎圣裁",
        "icon": "item_47173",
        "rank": 4,
        "position": 10,
        "effect": "",
        "buff": "对全种族伤害+5%\n受到无形种族魔物伤害-10%",
        "adventureBuff": "",
        "storageBuff": "物理攻击+6\n魔法攻击+6",
        "storageRefineBuff": null,
        "isCompose": 0
      },
      {
        "id": "47172",
        "name": "铭刻时光之盾",
        "icon": "item_47172",
        "rank": 3,
        "position": 10,
        "effect": "",
        "buff": "移动速度+5%\n达纳托斯之塔内：物理穿刺+3%；每精炼+1时，物理穿刺+0.5%",
        "adventureBuff": "",
        "storageBuff": "生命上限+60",
        "storageRefineBuff": null,
        "isCompose": 0
      },
      {
        "id": "47171",
        "name": "湮灭者的诅咒",
        "icon": "item_47171",
        "rank": 3,
        "position": 10,
        "effect": "",
        "buff": "生命上限+5%\n达纳托斯之塔内：物伤减免+3%、魔伤减免+3%；每精炼+1时，物伤减免+0.5%、魔伤减免+0.5%",
        "adventureBuff": "",
        "storageBuff": "魔法攻击+3，生命上限+30",
        "storageRefineBuff": null,
        "isCompose": 0
      },
      {
        "id": "47153",
        "name": "女武神之翼",
        "icon": "item_47153",
        "rank": 4,
        "position": 10,
        "effect": "",
        "buff": "物理伤害+5%、魔法伤害+5%\n受到天使种族魔物伤害-10%",
        "adventureBuff": "",
        "storageBuff": "物理攻击+6\n魔法攻击+6",
        "storageRefineBuff": null,
        "isCompose": 0
      },
      {
        "id": "47144",
        "name": "破旧旅行包",
        "icon": "item_47144",
        "rank": 1,
        "position": 10,
        "effect": "",
        "buff": "生命上限+200",
        "adventureBuff": "",
        "storageBuff": "生命上限+15",
        "storageRefineBuff": null,
        "isCompose": 0
      },
      {
        "id": "47128",
        "name": "针筒背饰",
        "icon": "item_47128",
        "rank": 2,
        "position": 10,
        "effect": "",
        "buff": "全能力+1\n人形种族加伤+3%",
        "adventureBuff": "物理防御+2",
        "storageBuff": "生命上限+30",
        "storageRefineBuff": null,
        "isCompose": 1
      },
      {
        "id": "47127",
        "name": "烈焰克星",
        "icon": "item_47127",
        "rank": 3,
        "position": 10,
        "effect": "",
        "buff": "水属性攻击+5%\n受到火属性伤害-5%",
        "adventureBuff": "",
        "storageBuff": "魔法攻击+3，生命上限+30",
        "storageRefineBuff": null,
        "isCompose": 0
      },
      {
        "id": "45980",
        "name": "宝石独角兽",
        "icon": "item_45980",
        "rank": 1,
        "position": 7,
        "effect": "",
        "buff": "力量+1\n物理攻击+8",
        "adventureBuff": "",
        "storageBuff": "生命上限+15",
        "storageRefineBuff": null,
        "isCompose": 0
      },
      {
        "id": "45978",
        "name": "时髦绅士帽",
        "icon": "item_45978",
        "rank": 1,
        "position": 7,
        "effect": "",
        "buff": "智力+1\n魔法攻击+8",
        "adventureBuff": "",
        "storageBuff": "物理防御+2",
        "storageRefineBuff": null,
        "isCompose": 0
      },
      {
        "id": "45932",
        "name": "星之轮·光绯",
        "icon": "item_45932",
        "rank": 3,
        "position": 10,
        "effect": "",
        "buff": "移动速度+5%\n达纳托斯之塔内：魔法穿刺+3%；每精炼+1时，魔法穿刺+0.5%",
        "adventureBuff": "",
        "storageBuff": "生命上限+60",
        "storageRefineBuff": null,
        "isCompose": 0
      }
    ]
  }
}