{
  "code": 0,
  "status": "success",
  "timeStamp": 1643702313,
  "staticDomain": "http:\/\/rosc1.zhaiwuyu.com",
  "ip": "101.87.201.112",
  "language": "cn",
  "dbArea": 0,
  "data": {
    "page": 9,
    "pageSize": 30,
    "pageCount": 70,
    "total": 2073,
    "list": [
      {
        "id": "3003405",
        "name": "迪士尼公主系列时装",
        "icon": "item_3003405",
        "rank": 1,
        "position": 13,
        "effect": "",
        "buff": "",
        "adventureBuff": "物理攻击+1%\n魔法攻击+1%",
        "storageBuff": "生命上限+200",
        "storageRefineBuff": null,
        "isCompose": 0
      },
      {
        "id": "149556",
        "name": "雷火子弹[1]",
        "icon": "item_49556",
        "rank": 4,
        "position": 7,
        "effect": "",
        "buff": "灵巧+5\n敏捷+5\n幸运+5\n物理伤害+4%",
        "adventureBuff": "",
        "storageBuff": "物理攻击+3，生命上限+30",
        "storageRefineBuff": null,
        "isCompose": 0
      },
      {
        "id": "149555",
        "name": "回转马戏城[1]",
        "icon": "item_49555",
        "rank": 4,
        "position": 7,
        "effect": "",
        "buff": "全能力+2\n普攻伤害+4%\n技能伤害+4%",
        "adventureBuff": "",
        "storageBuff": "物理攻击+4\n魔法攻击+4",
        "storageRefineBuff": null,
        "isCompose": 0
      },
      {
        "id": "149548",
        "name": "转转石假面[1]",
        "icon": "item_49548",
        "rank": 4,
        "position": 7,
        "effect": "",
        "buff": "生命上限+10000\n受治疗加成+10%",
        "adventureBuff": "魔法攻击+8",
        "storageBuff": "魔法防御+3，生命上限+45",
        "storageRefineBuff": null,
        "isCompose": 1
      },
      {
        "id": "149547",
        "name": "鳄鱼头套[1]",
        "icon": "item_49547",
        "rank": 3,
        "position": 7,
        "effect": "",
        "buff": "对水属性魔物伤害+10%",
        "adventureBuff": "物理攻击+3，生命上限+30",
        "storageBuff": "生命上限+60",
        "storageRefineBuff": null,
        "isCompose": 1
      },
      {
        "id": "149546",
        "name": "时尚前沿[1]",
        "icon": "item_49546",
        "rank": 2,
        "position": 7,
        "effect": "",
        "buff": "力量+5\n每5点力量额外增加1点命中",
        "adventureBuff": "魔法防御+2",
        "storageBuff": "生命上限+30",
        "storageRefineBuff": null,
        "isCompose": 1
      },
      {
        "id": "149545",
        "name": "啤酒推销员[1]",
        "icon": "item_49545",
        "rank": 3,
        "position": 7,
        "effect": "",
        "buff": "全能力+2\n风属性攻击+8%",
        "adventureBuff": "魔法攻击+3，生命上限+30",
        "storageBuff": "物理防御+2，生命上限+30",
        "storageRefineBuff": null,
        "isCompose": 1
      },
      {
        "id": "49554",
        "name": "甜蜜彩虹波利茶",
        "icon": "item_49554",
        "rank": 2,
        "position": 7,
        "effect": "",
        "buff": "体质+2\n生命上限+500",
        "adventureBuff": "",
        "storageBuff": "生命上限+30",
        "storageRefineBuff": null,
        "isCompose": 0
      },
      {
        "id": "48768",
        "name": "小小阿波罗",
        "icon": "item_48768",
        "rank": 2,
        "position": 9,
        "effect": "",
        "buff": "全能力+2\n魔法攻击+30",
        "adventureBuff": "",
        "storageBuff": "物理防御+2",
        "storageRefineBuff": null,
        "isCompose": 0
      },
      {
        "id": "48767",
        "name": "彩虹之轨迹",
        "icon": "item_48767",
        "rank": 2,
        "position": 8,
        "effect": "",
        "buff": "全能力+2\n物理攻击+30",
        "adventureBuff": "",
        "storageBuff": "魔法防御+2",
        "storageRefineBuff": null,
        "isCompose": 0
      },
      {
        "id": "48766",
        "name": "先祖战纹",
        "icon": "item_48766",
        "rank": 4,
        "position": 8,
        "effect": "",
        "buff": "人形种族加伤+5%\n每精炼+1，人形种族加伤+1%",
        "adventureBuff": "魔法攻击+8",
        "storageBuff": "魔法防御+3，生命上限+45",
        "storageRefineBuff": null,
        "isCompose": 1
      },
      {
        "id": "48762",
        "name": "壳中视界",
        "icon": "item_48762",
        "rank": 3,
        "position": 8,
        "effect": "",
        "buff": "攻击目标时，100%概率降低目标10点命中和闪避，持续10秒，最多叠加10层",
        "adventureBuff": "物理攻击+3，生命上限+30",
        "storageBuff": "魔法防御+2，生命上限+30",
        "storageRefineBuff": null,
        "isCompose": 1
      },
      {
        "id": "48761",
        "name": "贪吃的代价",
        "icon": "item_48761",
        "rank": 2,
        "position": 9,
        "effect": "",
        "buff": "对鱼贝种族伤害+3%",
        "adventureBuff": "物理防御+2",
        "storageBuff": "生命上限+30",
        "storageRefineBuff": null,
        "isCompose": 1
      },
      {
        "id": "48116",
        "name": "马戏之王",
        "icon": "item_48116",
        "rank": 3,
        "position": 11,
        "effect": "",
        "buff": "普攻伤害+2%\n装备攻速+5%",
        "adventureBuff": "",
        "storageBuff": "物理攻击+3，生命上限+30",
        "storageRefineBuff": null,
        "isCompose": 0
      },
      {
        "id": "48115",
        "name": "冥界使者",
        "icon": "item_48115",
        "rank": 4,
        "position": 11,
        "effect": "",
        "buff": "对于血量低于30%的目标最终伤害增加10%\n精炼+10时，提升为对于血量低于60%的目标最终伤害增加10%",
        "adventureBuff": "物理攻击+8",
        "storageBuff": "物理防御+3，生命上限+45",
        "storageRefineBuff": null,
        "isCompose": 1
      },
      {
        "id": "48111",
        "name": "提灯矿精",
        "icon": "item_48111",
        "rank": 3,
        "position": 11,
        "effect": "",
        "buff": "生命上限+2000\n每精炼+1，普攻伤害减免+1%",
        "adventureBuff": "生命上限+60",
        "storageBuff": "物理攻击+6",
        "storageRefineBuff": null,
        "isCompose": 1
      },
      {
        "id": "48110",
        "name": "冰原来客",
        "icon": "item_48110",
        "rank": 3,
        "position": 11,
        "effect": "",
        "buff": "生命上限+200\n人形种族减伤+8%",
        "adventureBuff": "物理防御+2，生命上限+30",
        "storageBuff": "生命上限+60",
        "storageRefineBuff": null,
        "isCompose": 1
      },
      {
        "id": "47261",
        "name": "幻想波利摩天轮",
        "icon": "item_47261",
        "rank": 3,
        "position": 10,
        "effect": "",
        "buff": "魔伤减免+4%\n魔法防御+10%",
        "adventureBuff": "",
        "storageBuff": "魔法攻击+3，生命上限+30",
        "storageRefineBuff": null,
        "isCompose": 0
      },
      {
        "id": "47256",
        "name": "帝王大虾弓",
        "icon": "item_47256",
        "rank": 3,
        "position": 10,
        "effect": "",
        "buff": "对水属性魔物伤害+5%\n每精炼+1，对水属性魔物伤害+1%",
        "adventureBuff": "生命上限+60",
        "storageBuff": "魔法攻击+6",
        "storageRefineBuff": null,
        "isCompose": 1
      },
      {
        "id": "47255",
        "name": "海妖之触",
        "icon": "item_47255",
        "rank": 4,
        "position": 10,
        "effect": "",
        "buff": "对MVP、Mini魔物造成的伤害+5%\n每精炼+1，对MVP、Mini魔物造成的伤害+0.5%，受MVP、Mini魔物造成的伤害-1%",
        "adventureBuff": "物理攻击+8",
        "storageBuff": "物理防御+3，生命上限+45",
        "storageRefineBuff": null,
        "isCompose": 1
      },
      {
        "id": "47254",
        "name": "梦想·天空",
        "icon": "item_47254",
        "rank": 2,
        "position": 10,
        "effect": "",
        "buff": "风属性攻击+3%",
        "adventureBuff": "魔法攻击+3，生命上限+30",
        "storageBuff": "物理防御+2，生命上限+30",
        "storageRefineBuff": null,
        "isCompose": 1
      },
      {
        "id": "29021",
        "name": "天启骑士系列坐骑",
        "icon": "item_25574",
        "rank": 3,
        "position": 12,
        "effect": "",
        "buff": "移动速度+25%",
        "adventureBuff": "物理攻击+4，生命上限+40",
        "storageBuff": "",
        "storageRefineBuff": null,
        "isCompose": 0
      },
      {
        "id": "29020",
        "name": "钢铁骑士系列坐骑",
        "icon": "item_25573",
        "rank": 2,
        "position": 12,
        "effect": "",
        "buff": "移动速度+25%",
        "adventureBuff": "物理攻击+2，生命上限+20",
        "storageBuff": "",
        "storageRefineBuff": null,
        "isCompose": 0
      },
      {
        "id": "25165",
        "name": "鲨鱼海盗船",
        "icon": "item_25165",
        "rank": 3,
        "position": 12,
        "effect": "",
        "buff": "移动速度+25%",
        "adventureBuff": "生命上限+40",
        "storageBuff": "",
        "storageRefineBuff": null,
        "isCompose": 0
      },
      {
        "id": "3004171",
        "name": "仲夏赞礼",
        "icon": "item_3004171",
        "rank": 3,
        "position": 7,
        "effect": "",
        "buff": "全能力+3\n技能伤害+3%",
        "adventureBuff": "",
        "storageBuff": "物理攻击+3，生命上限+30",
        "storageRefineBuff": null,
        "isCompose": 0
      },
      {
        "id": "3004170",
        "name": "喵喵泳圈",
        "icon": "item_3004170",
        "rank": 3,
        "position": 10,
        "effect": "",
        "buff": "对水属性魔物伤害+8%\n受到水属性伤害-8%",
        "adventureBuff": "",
        "storageBuff": "生命上限+60",
        "storageRefineBuff": null,
        "isCompose": 0
      },
      {
        "id": "3004066",
        "name": "幻境呼唤者",
        "icon": "item_3004066",
        "rank": 5,
        "position": 10,
        "effect": "",
        "buff": "全能力+2\n物理穿刺+4%\n魔法穿刺+4%",
        "adventureBuff": "",
        "storageBuff": "生命上限+90",
        "storageRefineBuff": null,
        "isCompose": 0
      },
      {
        "id": "3004065",
        "name": "生命使徒",
        "icon": "item_3004065",
        "rank": 3,
        "position": 9,
        "effect": "",
        "buff": "全能力+3\n物理穿刺+3%",
        "adventureBuff": "",
        "storageBuff": "物理攻击+3，生命上限+30",
        "storageRefineBuff": null,
        "isCompose": 0
      },
      {
        "id": "3004064",
        "name": "白兔萨克斯",
        "icon": "item_3004064",
        "rank": 3,
        "position": 8,
        "effect": "",
        "buff": "魔法攻击+20\n魔法伤害+4%",
        "adventureBuff": "",
        "storageBuff": "魔法攻击+3，生命上限+30",
        "storageRefineBuff": null,
        "isCompose": 0
      },
      {
        "id": "3004063",
        "name": "崽狼快乐篮",
        "icon": "item_3004063",
        "rank": 3,
        "position": 11,
        "effect": "",
        "buff": "魔法攻击+10\n每3点智力额外增加1点魔法攻击",
        "adventureBuff": "",
        "storageBuff": "魔法攻击+6",
        "storageRefineBuff": null,
        "isCompose": 0
      }
    ]
  }
}