{
  "code": 0,
  "status": "success",
  "timeStamp": 1643702353,
  "staticDomain": "http:\/\/rosc1.zhaiwuyu.com",
  "ip": "101.87.201.112",
  "language": "cn",
  "dbArea": 0,
  "data": {
    "page": 13,
    "pageSize": 30,
    "pageCount": 70,
    "total": 2073,
    "list": [
      {
        "id": "3003261",
        "name": "勇武加冕",
        "icon": "item_3003261",
        "rank": 3,
        "position": 7,
        "effect": "",
        "buff": "生命上限+3%\n人形种族加伤+5%",
        "adventureBuff": "",
        "storageBuff": "魔法攻击+3，生命上限+30",
        "storageRefineBuff": null,
        "isCompose": 0
      },
      {
        "id": "3003206",
        "name": "未知银河",
        "icon": "item_3003206",
        "rank": 3,
        "position": 8,
        "effect": "",
        "buff": "对植物种族伤害+10%\n受到植物种族魔物伤害-10%",
        "adventureBuff": "",
        "storageBuff": "生命上限+60",
        "storageRefineBuff": null,
        "isCompose": 0
      },
      {
        "id": "3003205",
        "name": "牛气大波利",
        "icon": "item_3003205",
        "rank": 3,
        "position": 11,
        "effect": "",
        "buff": "对中型魔物伤害+6%\n受到中型魔物伤害-6%",
        "adventureBuff": "",
        "storageBuff": "物理攻击+6",
        "storageRefineBuff": null,
        "isCompose": 0
      },
      {
        "id": "3003204",
        "name": "爆竹精灵",
        "icon": "item_3003204",
        "rank": 3,
        "position": 10,
        "effect": "",
        "buff": "火属性攻击+5%\n受到地属性伤害-10%",
        "adventureBuff": "",
        "storageBuff": "魔法攻击+6",
        "storageRefineBuff": null,
        "isCompose": 0
      },
      {
        "id": "3003203",
        "name": "金羽幻翅",
        "icon": "item_3003203",
        "rank": 5,
        "position": 10,
        "effect": "",
        "buff": "全能力+2\n物理穿刺+4%\n魔法穿刺+4%",
        "adventureBuff": "",
        "storageBuff": "生命上限+90",
        "storageRefineBuff": null,
        "isCompose": 0
      },
      {
        "id": "3003202",
        "name": "福满新岁",
        "icon": "item_3003202",
        "rank": 3,
        "position": 7,
        "effect": "",
        "buff": "人形种族加伤+5%\n人形种族减伤+5%",
        "adventureBuff": "",
        "storageBuff": "物理攻击+3，生命上限+30",
        "storageRefineBuff": null,
        "isCompose": 0
      },
      {
        "id": "3003201",
        "name": "萌牛初生",
        "icon": "item_3003201",
        "rank": 3,
        "position": 7,
        "effect": "",
        "buff": "物理攻击+5%\n装备攻速+5%",
        "adventureBuff": "",
        "storageBuff": "魔法攻击+3，生命上限+30",
        "storageRefineBuff": null,
        "isCompose": 0
      },
      {
        "id": "3003199",
        "name": "春之福音头饰系列",
        "icon": "item_3003199",
        "rank": 3,
        "position": 7,
        "effect": "",
        "buff": "魔法伤害+3%\n击杀魔物Base经验+5%",
        "adventureBuff": "",
        "storageBuff": "物理防御+2，生命上限+30",
        "storageRefineBuff": null,
        "isCompose": 0
      },
      {
        "id": "3003194",
        "name": "春之华章头饰系列",
        "icon": "item_3003194",
        "rank": 3,
        "position": 7,
        "effect": "",
        "buff": "物理伤害+3%\n击杀魔物Base经验+5%",
        "adventureBuff": "",
        "storageBuff": "魔法防御+2，生命上限+30",
        "storageRefineBuff": null,
        "isCompose": 0
      },
      {
        "id": "3003174",
        "name": "希冀春之晨系列时装",
        "icon": "item_3003174",
        "rank": 1,
        "position": 13,
        "effect": "",
        "buff": "",
        "adventureBuff": "物理攻击+1%\n魔法攻击+1%",
        "storageBuff": "物理攻击+12\n魔法攻击+12",
        "storageRefineBuff": null,
        "isCompose": 0
      },
      {
        "id": "3003156",
        "name": "辞旧礼炮",
        "icon": "item_3003156",
        "rank": 2,
        "position": 11,
        "effect": "",
        "buff": "生命上限+200\n物理攻击+10",
        "adventureBuff": "",
        "storageBuff": "生命上限+30",
        "storageRefineBuff": null,
        "isCompose": 0
      },
      {
        "id": "3003155",
        "name": "祥云蒸饺",
        "icon": "item_3003155",
        "rank": 2,
        "position": 11,
        "effect": "",
        "buff": "生命上限+300\nHP恢复+10%",
        "adventureBuff": "",
        "storageBuff": "生命上限+60\n物理防御+4",
        "storageRefineBuff": null,
        "isCompose": 0
      },
      {
        "id": "3003154",
        "name": "铃尾红符",
        "icon": "item_3003154",
        "rank": 2,
        "position": 8,
        "effect": "",
        "buff": "全能力+1\n火属性攻击+3%",
        "adventureBuff": "",
        "storageBuff": "物理攻击+4\n魔法攻击+4",
        "storageRefineBuff": null,
        "isCompose": 0
      },
      {
        "id": "3003153",
        "name": "暖暖内含春",
        "icon": "item_3003153",
        "rank": 2,
        "position": 9,
        "effect": "",
        "buff": "受到风属性伤害-5%",
        "adventureBuff": "",
        "storageBuff": "生命上限+60\n魔法防御+4",
        "storageRefineBuff": null,
        "isCompose": 0
      },
      {
        "id": "3003152",
        "name": "青牛铜火",
        "icon": "item_3003152",
        "rank": 3,
        "position": 10,
        "effect": "",
        "buff": "全能力+1\n对地属性魔物伤害+20%",
        "adventureBuff": "",
        "storageBuff": "物理攻击+6\n魔法攻击+6",
        "storageRefineBuff": null,
        "isCompose": 0
      },
      {
        "id": "3003151",
        "name": "年兽朱面",
        "icon": "item_3003151",
        "rank": 3,
        "position": 8,
        "effect": "",
        "buff": "对普通魔物（不包含MVP、Mini魔物）增伤+10%\n受普通魔物（不包含MVP、Mini魔物）造成的伤害-5%",
        "adventureBuff": "",
        "storageBuff": "生命上限+120",
        "storageRefineBuff": null,
        "isCompose": 0
      },
      {
        "id": "3003150",
        "name": "丰愿春盘[1]",
        "icon": "item_3003150",
        "rank": 4,
        "position": 7,
        "effect": "",
        "buff": "全能力+2\n暴击+10\n暴击伤害+10%\n每10点暴击额外增加1%暴击伤害",
        "adventureBuff": "",
        "storageBuff": "物理攻击+1%\n魔法攻击+1%",
        "storageRefineBuff": null,
        "isCompose": 0
      },
      {
        "id": "900243",
        "name": "天狐阴阳师宠物蛋",
        "icon": "item_900243",
        "rank": 1,
        "position": 12,
        "effect": "",
        "buff": "移动速度+25%",
        "adventureBuff": "",
        "storageBuff": "",
        "storageRefineBuff": null,
        "isCompose": 0
      },
      {
        "id": "900242",
        "name": "天狐巫祝宠物蛋",
        "icon": "item_900242",
        "rank": 1,
        "position": 12,
        "effect": "",
        "buff": "移动速度+25%",
        "adventureBuff": "",
        "storageBuff": "",
        "storageRefineBuff": null,
        "isCompose": 0
      },
      {
        "id": "900241",
        "name": "天狐修业生宠物蛋",
        "icon": "item_900241",
        "rank": 1,
        "position": 12,
        "effect": "",
        "buff": "移动速度+25%",
        "adventureBuff": "",
        "storageBuff": "",
        "storageRefineBuff": null,
        "isCompose": 0
      },
      {
        "id": "149543",
        "name": "犬阵笠[1]",
        "icon": "item_49543",
        "rank": 3,
        "position": 7,
        "effect": "",
        "buff": "生命上限+1000\n竞技场模式（6V6）中，精炼魔攻+500",
        "adventureBuff": "",
        "storageBuff": "生命上限+60",
        "storageRefineBuff": null,
        "isCompose": 0
      },
      {
        "id": "48109",
        "name": "犬行灯",
        "icon": "item_48109",
        "rank": 3,
        "position": 11,
        "effect": "",
        "buff": "魔伤减免+4%\n竞技场模式（6V6）中，暴击伤害+50%，魔法上限-100%",
        "adventureBuff": "",
        "storageBuff": "魔法攻击+3，生命上限+30",
        "storageRefineBuff": null,
        "isCompose": 0
      },
      {
        "id": "47252",
        "name": "犬神龛",
        "icon": "item_47252",
        "rank": 3,
        "position": 10,
        "effect": "",
        "buff": "物伤减免+4%\n竞技场模式（6V6）中，魔法防御+40%，物理防御-20%",
        "adventureBuff": "",
        "storageBuff": "物理攻击+3，生命上限+30",
        "storageRefineBuff": null,
        "isCompose": 0
      },
      {
        "id": "25163",
        "name": "虹光马·翱翔",
        "icon": "item_25163",
        "rank": 3,
        "position": 12,
        "effect": "",
        "buff": "移动速度+25%",
        "adventureBuff": "生命上限+60",
        "storageBuff": "",
        "storageRefineBuff": null,
        "isCompose": 0
      },
      {
        "id": "25162",
        "name": "虹光马·永恒",
        "icon": "item_25162",
        "rank": 3,
        "position": 12,
        "effect": "",
        "buff": "移动速度+25%",
        "adventureBuff": "生命上限+60",
        "storageBuff": "",
        "storageRefineBuff": null,
        "isCompose": 0
      },
      {
        "id": "3003380",
        "name": "辉煌的棒球帽[1]",
        "icon": "item_3003380",
        "rank": 3,
        "position": 7,
        "effect": "",
        "buff": "剑士系，刺客系，弓手系，牧师系，商人系，超初系，忍者系，枪手系装备时物理攻击+10\n法师系，多兰族，悟灵士系装备时魔法攻击+10",
        "adventureBuff": "",
        "storageBuff": "生命上限+10",
        "storageRefineBuff": null,
        "isCompose": 0
      },
      {
        "id": "3003106",
        "name": "天波头套",
        "icon": "item_3003106",
        "rank": 3,
        "position": 7,
        "effect": "",
        "buff": "全能力+5\n物理穿刺+5%\n魔法穿刺+5%",
        "adventureBuff": "",
        "storageBuff": "物理攻击+6\n魔法攻击+6",
        "storageRefineBuff": null,
        "isCompose": 0
      },
      {
        "id": "3003105",
        "name": "趴趴亿亿酱",
        "icon": "item_3003105",
        "rank": 3,
        "position": 7,
        "effect": "",
        "buff": "生命上限+1500\n魔法上限+100",
        "adventureBuff": "",
        "storageBuff": "生命上限+60",
        "storageRefineBuff": null,
        "isCompose": 0
      },
      {
        "id": "3003104",
        "name": "亿亿酱发饰",
        "icon": "item_3003104",
        "rank": 3,
        "position": 7,
        "effect": "",
        "buff": "力量+5、智力+5、灵巧+5\n魔法攻击+6%\n物理攻击+6%",
        "adventureBuff": "",
        "storageBuff": "物理攻击+3，魔法攻击+3",
        "storageRefineBuff": null,
        "isCompose": 0
      },
      {
        "id": "3003103",
        "name": "罗森便利制服",
        "icon": "item_3003103",
        "rank": 3,
        "position": 13,
        "effect": "",
        "buff": "",
        "adventureBuff": "",
        "storageBuff": "生命上限+60",
        "storageRefineBuff": null,
        "isCompose": 0
      }
    ]
  }
}