{
  "code": 0,
  "status": "success",
  "timeStamp": 1643702535,
  "staticDomain": "http:\/\/rosc1.zhaiwuyu.com",
  "ip": "101.87.201.112",
  "language": "cn",
  "dbArea": 0,
  "data": {
    "page": 31,
    "pageSize": 30,
    "pageCount": 70,
    "total": 2073,
    "list": [
      {
        "id": "3001114",
        "name": "山岳融熔",
        "icon": "item_3001114",
        "rank": 2,
        "position": 10,
        "effect": "",
        "buff": "体质+2\n生命上限+300",
        "adventureBuff": "",
        "storageBuff": "物理攻击+4\n魔法攻击+4",
        "storageRefineBuff": null,
        "isCompose": 0
      },
      {
        "id": "3001113",
        "name": "导师的面容",
        "icon": "item_3001113",
        "rank": 2,
        "position": 8,
        "effect": "",
        "buff": "全能力+1\n对恶魔种族伤害+3%",
        "adventureBuff": "",
        "storageBuff": "生命上限+60\n魔法防御+4",
        "storageRefineBuff": null,
        "isCompose": 0
      },
      {
        "id": "3001112",
        "name": "翡翠助教·欧沃尔",
        "icon": "item_3001112",
        "rank": 3,
        "position": 11,
        "effect": "",
        "buff": "魔法伤害+3%\n攻击目标时，有100%概率降低目标3%魔伤减免，持续5秒",
        "adventureBuff": "",
        "storageBuff": "物理攻击+6\n魔法攻击+6",
        "storageRefineBuff": null,
        "isCompose": 0
      },
      {
        "id": "3001111",
        "name": "聚灵冠冕[1]",
        "icon": "item_3001111",
        "rank": 3,
        "position": 7,
        "effect": "",
        "buff": "对小型魔物伤害+6%\n物理攻击+25",
        "adventureBuff": "",
        "storageBuff": "生命上限+120",
        "storageRefineBuff": null,
        "isCompose": 0
      },
      {
        "id": "3001110",
        "name": "衫德尔的遗产",
        "icon": "item_3001110",
        "rank": 4,
        "position": 9,
        "effect": "",
        "buff": "击杀魔物Job经验+20%，击杀魔物Base经验-20%",
        "adventureBuff": "",
        "storageBuff": "物理攻击+1%\n魔法攻击+1%",
        "storageRefineBuff": null,
        "isCompose": 0
      },
      {
        "id": "3000942",
        "name": "星途雪橇系列",
        "icon": "item_3000940",
        "rank": 4,
        "position": 12,
        "effect": "",
        "buff": "",
        "adventureBuff": "物理攻击+6，魔法攻击+6",
        "storageBuff": "",
        "storageRefineBuff": null,
        "isCompose": 0
      },
      {
        "id": "3000936",
        "name": "妖精之加护",
        "icon": "item_3000936",
        "rank": 3,
        "position": 11,
        "effect": "",
        "buff": "对恶魔种族伤害+8%\n受到恶魔种族魔物伤害-8%",
        "adventureBuff": "",
        "storageBuff": "生命上限+60",
        "storageRefineBuff": null,
        "isCompose": 0
      },
      {
        "id": "3000935",
        "name": "雪之印象",
        "icon": "item_3000935",
        "rank": 3,
        "position": 8,
        "effect": "",
        "buff": "生命上限+1000\n人形种族减伤+15%",
        "adventureBuff": "",
        "storageBuff": "物理攻击+6",
        "storageRefineBuff": null,
        "isCompose": 0
      },
      {
        "id": "3000934",
        "name": "圆脸托尼",
        "icon": "item_3000934",
        "rank": 3,
        "position": 10,
        "effect": "",
        "buff": "技能伤害+5%\nSP恢复+10%",
        "adventureBuff": "",
        "storageBuff": "魔法攻击+6",
        "storageRefineBuff": null,
        "isCompose": 0
      },
      {
        "id": "3000933",
        "name": "月下星途",
        "icon": "item_3000933",
        "rank": 5,
        "position": 7,
        "effect": "",
        "buff": "全能力+2\n物理穿刺+4%\n魔法穿刺+4%",
        "adventureBuff": "",
        "storageBuff": "生命上限+90",
        "storageRefineBuff": null,
        "isCompose": 0
      },
      {
        "id": "3000932",
        "name": "雪灵的馈赠",
        "icon": "item_3000932",
        "rank": 3,
        "position": 7,
        "effect": "",
        "buff": "水属性攻击+6%\n冰冻抵抗+20%",
        "adventureBuff": "",
        "storageBuff": "物理攻击+3，生命上限+30",
        "storageRefineBuff": null,
        "isCompose": 0
      },
      {
        "id": "3000931",
        "name": "仙灵鹿冠",
        "icon": "item_3000931",
        "rank": 3,
        "position": 7,
        "effect": "",
        "buff": "移动速度+5%\n生命上限+5%",
        "adventureBuff": "",
        "storageBuff": "魔法攻击+3，生命上限+30",
        "storageRefineBuff": null,
        "isCompose": 0
      },
      {
        "id": "3000929",
        "name": "雪落星冠系列",
        "icon": "item_3000929",
        "rank": 3,
        "position": 7,
        "effect": "",
        "buff": "魔法攻击+40\n忽视魔法防御+5%",
        "adventureBuff": "",
        "storageBuff": "物理防御+2，生命上限+30",
        "storageRefineBuff": null,
        "isCompose": 0
      },
      {
        "id": "3000924",
        "name": "彩虹星粹系列",
        "icon": "item_3000924",
        "rank": 3,
        "position": 7,
        "effect": "",
        "buff": "物理攻击+40\n忽视物理防御+5%",
        "adventureBuff": "",
        "storageBuff": "魔法防御+2，生命上限+30",
        "storageRefineBuff": null,
        "isCompose": 0
      },
      {
        "id": "3000904",
        "name": "冬灵幻境系列时装",
        "icon": "item_3000904",
        "rank": 1,
        "position": 13,
        "effect": "",
        "buff": "",
        "adventureBuff": "物理攻击+1%\n魔法攻击+1%",
        "storageBuff": "物理防御+1%，魔法防御+1%",
        "storageRefineBuff": null,
        "isCompose": 0
      },
      {
        "id": "900204",
        "name": "祥瑞驭风者魔物蛋",
        "icon": "item_900204",
        "rank": 1,
        "position": 12,
        "effect": "",
        "buff": "移动速度+25%",
        "adventureBuff": "",
        "storageBuff": "",
        "storageRefineBuff": null,
        "isCompose": 0
      },
      {
        "id": "900203",
        "name": "祥瑞踏风者魔物蛋",
        "icon": "item_900203",
        "rank": 1,
        "position": 12,
        "effect": "",
        "buff": "移动速度+25%",
        "adventureBuff": "",
        "storageBuff": "",
        "storageRefineBuff": null,
        "isCompose": 0
      },
      {
        "id": "900202",
        "name": "祥瑞追风者魔物蛋",
        "icon": "item_900202",
        "rank": 1,
        "position": 12,
        "effect": "",
        "buff": "移动速度+25%",
        "adventureBuff": "",
        "storageBuff": "",
        "storageRefineBuff": null,
        "isCompose": 0
      },
      {
        "id": "900190",
        "name": "神勇小豆柴魔物蛋",
        "icon": "item_900190",
        "rank": 1,
        "position": 12,
        "effect": "",
        "buff": "移动速度+25%",
        "adventureBuff": "",
        "storageBuff": "",
        "storageRefineBuff": null,
        "isCompose": 0
      },
      {
        "id": "900189",
        "name": "威风小豆柴魔物蛋",
        "icon": "item_900189",
        "rank": 1,
        "position": 12,
        "effect": "",
        "buff": "移动速度+25%",
        "adventureBuff": "",
        "storageBuff": "",
        "storageRefineBuff": null,
        "isCompose": 0
      },
      {
        "id": "900188",
        "name": "顽皮小豆柴魔物蛋",
        "icon": "item_900188",
        "rank": 1,
        "position": 12,
        "effect": "",
        "buff": "移动速度+25%",
        "adventureBuff": "",
        "storageBuff": "",
        "storageRefineBuff": null,
        "isCompose": 0
      },
      {
        "id": "900186",
        "name": "霹雳咩咩魔物蛋",
        "icon": "item_900186",
        "rank": 1,
        "position": 12,
        "effect": "",
        "buff": "移动速度+25%",
        "adventureBuff": "",
        "storageBuff": "",
        "storageRefineBuff": null,
        "isCompose": 0
      },
      {
        "id": "900185",
        "name": "旋风咩咩魔物蛋",
        "icon": "item_900185",
        "rank": 1,
        "position": 12,
        "effect": "",
        "buff": "移动速度+25%",
        "adventureBuff": "",
        "storageBuff": "",
        "storageRefineBuff": null,
        "isCompose": 0
      },
      {
        "id": "900184",
        "name": "叮铃咩咩魔物蛋",
        "icon": "item_900184",
        "rank": 1,
        "position": 12,
        "effect": "",
        "buff": "移动速度+25%",
        "adventureBuff": "",
        "storageBuff": "",
        "storageRefineBuff": null,
        "isCompose": 0
      },
      {
        "id": "900183",
        "name": "朵拉兔魔物蛋",
        "icon": "item_900183",
        "rank": 1,
        "position": 12,
        "effect": "",
        "buff": "移动速度+25%",
        "adventureBuff": "",
        "storageBuff": "",
        "storageRefineBuff": null,
        "isCompose": 0
      },
      {
        "id": "900182",
        "name": "布蕾兔魔物蛋",
        "icon": "item_900182",
        "rank": 1,
        "position": 12,
        "effect": "",
        "buff": "移动速度+25%",
        "adventureBuff": "",
        "storageBuff": "",
        "storageRefineBuff": null,
        "isCompose": 0
      },
      {
        "id": "900181",
        "name": "绒耳兔魔物蛋",
        "icon": "item_900181",
        "rank": 1,
        "position": 12,
        "effect": "",
        "buff": "移动速度+25%",
        "adventureBuff": "",
        "storageBuff": "",
        "storageRefineBuff": null,
        "isCompose": 0
      },
      {
        "id": "900169",
        "name": "斗骑虎宝宠物蛋",
        "icon": "item_900169",
        "rank": 1,
        "position": 12,
        "effect": "",
        "buff": "移动速度+25%",
        "adventureBuff": "",
        "storageBuff": "",
        "storageRefineBuff": null,
        "isCompose": 0
      },
      {
        "id": "900168",
        "name": "赭星虎宝宠物蛋",
        "icon": "item_900168",
        "rank": 1,
        "position": 12,
        "effect": "",
        "buff": "移动速度+25%",
        "adventureBuff": "",
        "storageBuff": "",
        "storageRefineBuff": null,
        "isCompose": 0
      },
      {
        "id": "900167",
        "name": "苍月虎宝宠物蛋",
        "icon": "item_900167",
        "rank": 1,
        "position": 12,
        "effect": "",
        "buff": "移动速度+25%",
        "adventureBuff": "",
        "storageBuff": "",
        "storageRefineBuff": null,
        "isCompose": 0
      }
    ]
  }
}