{
  "code": 0,
  "status": "success",
  "timeStamp": 1642842752,
  "staticDomain": "http:\/\/rosc1.zhaiwuyu.com",
  "ip": "101.87.200.160",
  "language": "cn",
  "dbArea": 0,
  "data": {
    "page": 34,
    "pageSize": 30,
    "pageCount": 68,
    "total": 2037,
    "list": [
      {
        "id": "3000449",
        "name": "皎月礼赞系列头饰",
        "icon": "item_3000449",
        "rank": 3,
        "position": 7,
        "effect": "",
        "buff": "魔法穿刺+3%\n可变吟唱时间-0.5秒",
        "adventureBuff": "",
        "storageBuff": "物理防御+2，生命上限+30",
        "storageRefineBuff": null,
        "isCompose": 0
      },
      {
        "id": "3000444",
        "name": "无垠星河系列头饰",
        "icon": "item_3000444",
        "rank": 3,
        "position": 7,
        "effect": "",
        "buff": "物理穿刺+3%\n可变吟唱时间-0.5秒",
        "adventureBuff": "",
        "storageBuff": "魔法防御+2，生命上限+30",
        "storageRefineBuff": null,
        "isCompose": 0
      },
      {
        "id": "3000432",
        "name": "驭海蛟龙系列坐骑",
        "icon": "item_3000430",
        "rank": 4,
        "position": 12,
        "effect": "",
        "buff": "移动速度+25%",
        "adventureBuff": "物理攻击+6，魔法攻击+6",
        "storageBuff": "",
        "storageRefineBuff": null,
        "isCompose": 0
      },
      {
        "id": "3000404",
        "name": "深海恋歌系列时装",
        "icon": "item_3000404",
        "rank": 1,
        "position": 13,
        "effect": "",
        "buff": "",
        "adventureBuff": "物理攻击+1%\n魔法攻击+1%",
        "storageBuff": "物理攻击+12\n魔法攻击+12",
        "storageRefineBuff": null,
        "isCompose": 0
      },
      {
        "id": "49086",
        "name": "狱牙头盔",
        "icon": "item_49086",
        "rank": 1,
        "position": 7,
        "effect": "",
        "buff": "生命上限+200\n物理防御+5\n魔法防御+5",
        "adventureBuff": "",
        "storageBuff": "",
        "storageRefineBuff": null,
        "isCompose": 0
      },
      {
        "id": "49085",
        "name": "红莲头盔",
        "icon": "item_49085",
        "rank": 1,
        "position": 7,
        "effect": "",
        "buff": "生命上限+200\n物理防御+5\n魔法防御+5",
        "adventureBuff": "",
        "storageBuff": "",
        "storageRefineBuff": null,
        "isCompose": 0
      },
      {
        "id": "45698",
        "name": "魔导头盔系列",
        "icon": "item_45657",
        "rank": 1,
        "position": 7,
        "effect": "",
        "buff": "生命上限+200\n物理防御+5\n魔法防御+5",
        "adventureBuff": "",
        "storageBuff": "",
        "storageRefineBuff": null,
        "isCompose": 0
      },
      {
        "id": "45694",
        "name": "辉光号头盔",
        "icon": "item_45694",
        "rank": 1,
        "position": 7,
        "effect": "",
        "buff": "生命上限+200\n物理防御+5\n魔法防御+5",
        "adventureBuff": "",
        "storageBuff": "",
        "storageRefineBuff": null,
        "isCompose": 0
      },
      {
        "id": "3031553",
        "name": "河豚料理师",
        "icon": "item_3031553",
        "rank": 2,
        "position": 11,
        "effect": "",
        "buff": "生命上限+200\n毒属性伤害减免+3%",
        "adventureBuff": "物理攻击+3",
        "storageBuff": "生命上限+30",
        "storageRefineBuff": null,
        "isCompose": 1
      },
      {
        "id": "3031552",
        "name": "鱼子酱寿司",
        "icon": "item_3031552",
        "rank": 2,
        "position": 7,
        "effect": "",
        "buff": "全能力+1\n忽视物理防御+3%",
        "adventureBuff": "魔法攻击+3",
        "storageBuff": "生命上限+30",
        "storageRefineBuff": null,
        "isCompose": 1
      },
      {
        "id": "3000691",
        "name": "森空光影系列坐骑",
        "icon": "item_3000517",
        "rank": 4,
        "position": 12,
        "effect": "",
        "buff": "移动速度+25%",
        "adventureBuff": "物理攻击+6，魔法攻击+6",
        "storageBuff": "",
        "storageRefineBuff": null,
        "isCompose": 0
      },
      {
        "id": "3000626",
        "name": "骑士的沉默",
        "icon": "item_3000626",
        "rank": 3,
        "position": 9,
        "effect": "",
        "buff": "普攻伤害+4%\n暴击-8",
        "adventureBuff": "",
        "storageBuff": "物理攻击+6",
        "storageRefineBuff": null,
        "isCompose": 0
      },
      {
        "id": "3000625",
        "name": "雪国明镜",
        "icon": "item_3000625",
        "rank": 5,
        "position": 10,
        "effect": "",
        "buff": "全能力+2\n物理穿刺+4%\n魔法穿刺+4%",
        "adventureBuff": "",
        "storageBuff": "生命上限+90",
        "storageRefineBuff": null,
        "isCompose": 0
      },
      {
        "id": "3000624",
        "name": "白之火",
        "icon": "item_3000624",
        "rank": 3,
        "position": 11,
        "effect": "",
        "buff": "对MVP、Mini魔物造成的伤害+5%",
        "adventureBuff": "",
        "storageBuff": "物理攻击+3，生命上限+30",
        "storageRefineBuff": null,
        "isCompose": 0
      },
      {
        "id": "3000623",
        "name": "白金之眼",
        "icon": "item_3000623",
        "rank": 3,
        "position": 8,
        "effect": "",
        "buff": "幸运+6\n暴击伤害+6%",
        "adventureBuff": "",
        "storageBuff": "魔法攻击+3，生命上限+30",
        "storageRefineBuff": null,
        "isCompose": 0
      },
      {
        "id": "3000622",
        "name": "天鹅的敬意",
        "icon": "item_3000622",
        "rank": 3,
        "position": 10,
        "effect": "",
        "buff": "力量+5\n近战物理伤害+5%",
        "adventureBuff": "",
        "storageBuff": "魔法攻击+6",
        "storageRefineBuff": null,
        "isCompose": 0
      },
      {
        "id": "3000621",
        "name": "蔷薇礼仪",
        "icon": "item_3000621",
        "rank": 3,
        "position": 7,
        "effect": "",
        "buff": "暴击防护+10\n暴伤减免+10%",
        "adventureBuff": "",
        "storageBuff": "生命上限+60",
        "storageRefineBuff": null,
        "isCompose": 0
      },
      {
        "id": "3000620",
        "name": "浮光跃金",
        "icon": "item_3000620",
        "rank": 3,
        "position": 7,
        "effect": "",
        "buff": "全能力+1\n物理伤害+4%\n魔法伤害+4%",
        "adventureBuff": "",
        "storageBuff": "生命上限+90",
        "storageRefineBuff": null,
        "isCompose": 0
      },
      {
        "id": "3000619",
        "name": "雪天鹅之羽系列头饰",
        "icon": "item_3000619",
        "rank": 3,
        "position": 7,
        "effect": "",
        "buff": "全能力+5\n魔法防御+5%",
        "adventureBuff": "",
        "storageBuff": "物理防御+2，生命上限+30",
        "storageRefineBuff": null,
        "isCompose": 0
      },
      {
        "id": "3000614",
        "name": "希尔芙之羽系列头饰",
        "icon": "item_3000614",
        "rank": 3,
        "position": 7,
        "effect": "",
        "buff": "全能力+5\n物理防御+5%",
        "adventureBuff": "",
        "storageBuff": "魔法防御+2，生命上限+30",
        "storageRefineBuff": null,
        "isCompose": 0
      },
      {
        "id": "3000584",
        "name": "蔷薇骑士团系列时装",
        "icon": "item_3000584",
        "rank": 1,
        "position": 13,
        "effect": "",
        "buff": "",
        "adventureBuff": "物理攻击+1%\n魔法攻击+1%",
        "storageBuff": "物理攻击+12\n魔法攻击+12",
        "storageRefineBuff": null,
        "isCompose": 0
      },
      {
        "id": "3000536",
        "name": "夜光魔法",
        "icon": "item_3000536",
        "rank": 2,
        "position": 7,
        "effect": "",
        "buff": "魔法上限+50\n物理攻击+10",
        "adventureBuff": "",
        "storageBuff": "生命上限+30",
        "storageRefineBuff": null,
        "isCompose": 0
      },
      {
        "id": "3000535",
        "name": "银河梦游",
        "icon": "item_3000535",
        "rank": 2,
        "position": 11,
        "effect": "",
        "buff": "敏捷+2\n移动速度+2%",
        "adventureBuff": "",
        "storageBuff": "生命上限+60\n物理防御+4",
        "storageRefineBuff": null,
        "isCompose": 0
      },
      {
        "id": "3000534",
        "name": "瞌睡喵的呼噜",
        "icon": "item_3000534",
        "rank": 2,
        "position": 8,
        "effect": "",
        "buff": "生命上限+200\n睡眠攻击+5%",
        "adventureBuff": "",
        "storageBuff": "物理攻击+4\n魔法攻击+4",
        "storageRefineBuff": null,
        "isCompose": 0
      },
      {
        "id": "3000533",
        "name": "沉梦编织[1]",
        "icon": "item_3000533",
        "rank": 2,
        "position": 7,
        "effect": "",
        "buff": "智力+2\n魔法攻击+20",
        "adventureBuff": "",
        "storageBuff": "生命上限+60\n魔法防御+4",
        "storageRefineBuff": null,
        "isCompose": 0
      },
      {
        "id": "3000532",
        "name": "旋转梦境[1]",
        "icon": "item_3000532",
        "rank": 3,
        "position": 7,
        "effect": "",
        "buff": "生命上限+8%\n睡眠抵抗+10%\n受到攻击时,有一定概率（10%）使敌人陷入睡眠状态，持续3秒",
        "adventureBuff": "",
        "storageBuff": "物理攻击+6\n魔法攻击+6",
        "storageRefineBuff": null,
        "isCompose": 0
      },
      {
        "id": "3000531",
        "name": "摇曳月光",
        "icon": "item_3000531",
        "rank": 3,
        "position": 10,
        "effect": "",
        "buff": "物理穿刺+5%\n攻击目标时，有10%概率使目标进入流血状态，持续3秒\n对流血目标伤害+5%",
        "adventureBuff": "",
        "storageBuff": "生命上限+120",
        "storageRefineBuff": null,
        "isCompose": 0
      },
      {
        "id": "3000530",
        "name": "星璇夜曲",
        "icon": "item_3000530",
        "rank": 4,
        "position": 9,
        "effect": "",
        "buff": "魔法伤害+4%\n可变吟唱时间-5%\n精炼+6时，使用技能Sp消耗量-5%",
        "adventureBuff": "",
        "storageBuff": "物理攻击+1%\n魔法攻击+1%",
        "storageRefineBuff": null,
        "isCompose": 0
      },
      {
        "id": "3000516",
        "name": "熠光白枭",
        "icon": "item_3000516",
        "rank": 5,
        "position": 10,
        "effect": "",
        "buff": "全能力+2\n物理穿刺+4%\n魔法穿刺+4%",
        "adventureBuff": "",
        "storageBuff": "生命上限+90",
        "storageRefineBuff": null,
        "isCompose": 0
      },
      {
        "id": "3000514",
        "name": "鹿尾鸢",
        "icon": "item_3000514",
        "rank": 3,
        "position": 9,
        "effect": "",
        "buff": "智力+5\n可变吟唱时间-5%\n魔法攻击+20",
        "adventureBuff": "",
        "storageBuff": "物理攻击+6",
        "storageRefineBuff": null,
        "isCompose": 0
      }
    ]
  }
}