{
  "code": 0,
  "status": "success",
  "timeStamp": 1643702595,
  "staticDomain": "http:\/\/rosc1.zhaiwuyu.com",
  "ip": "101.87.201.112",
  "language": "cn",
  "dbArea": 0,
  "data": {
    "page": 37,
    "pageSize": 30,
    "pageCount": 70,
    "total": 2073,
    "list": [
      {
        "id": "3000465",
        "name": "幻梦占星师",
        "icon": "item_3000465",
        "rank": 2,
        "position": 11,
        "effect": "",
        "buff": "生命上限+200\n受到圣属性伤害-3%",
        "adventureBuff": "",
        "storageBuff": "生命上限+60\n物理防御+4",
        "storageRefineBuff": null,
        "isCompose": 0
      },
      {
        "id": "3000464",
        "name": "灵魂塔罗",
        "icon": "item_3000464",
        "rank": 2,
        "position": 9,
        "effect": "",
        "buff": "幸运+3\n暴击伤害+2%",
        "adventureBuff": "",
        "storageBuff": "物理攻击+4\n魔法攻击+4",
        "storageRefineBuff": null,
        "isCompose": 0
      },
      {
        "id": "3000463",
        "name": "铭刻时光之印",
        "icon": "item_3000463",
        "rank": 2,
        "position": 8,
        "effect": "",
        "buff": "全能力+1\n人形种族减伤+3%",
        "adventureBuff": "",
        "storageBuff": "生命上限+60\n魔法防御+4",
        "storageRefineBuff": null,
        "isCompose": 0
      },
      {
        "id": "3000462",
        "name": "月光预言[1]",
        "icon": "item_3000462",
        "rank": 3,
        "position": 7,
        "effect": "",
        "buff": "普攻伤害+5%\n装备攻速+5%\n精炼+6时，暴击+10",
        "adventureBuff": "",
        "storageBuff": "物理攻击+6\n魔法攻击+6",
        "storageRefineBuff": null,
        "isCompose": 0
      },
      {
        "id": "3000461",
        "name": "时光欧珀[1]",
        "icon": "item_3000461",
        "rank": 3,
        "position": 7,
        "effect": "",
        "buff": "魔法上限+350\nSP恢复+20%",
        "adventureBuff": "",
        "storageBuff": "生命上限+120",
        "storageRefineBuff": null,
        "isCompose": 0
      },
      {
        "id": "3000460",
        "name": "迷离星途",
        "icon": "item_3000460",
        "rank": 4,
        "position": 10,
        "effect": "",
        "buff": "魔法穿刺+5%\n忽视魔法防御+5%\n精炼+6时，可变吟唱时间-10%",
        "adventureBuff": "",
        "storageBuff": "物理攻击+1%\n魔法攻击+1%",
        "storageRefineBuff": null,
        "isCompose": 0
      },
      {
        "id": "149103",
        "name": "上将军帽[1]",
        "icon": "item_49103",
        "rank": 3,
        "position": 7,
        "effect": "",
        "buff": "生命上限+1000\n竞技场模式（6V6）中，受到远距离物理伤害减免+15%",
        "adventureBuff": "",
        "storageBuff": "生命上限+60",
        "storageRefineBuff": null,
        "isCompose": 0
      },
      {
        "id": "145971",
        "name": "幸运投掷[1]",
        "icon": "item_45971",
        "rank": 2,
        "position": 7,
        "effect": "",
        "buff": "幸运+8\n闪避+20",
        "adventureBuff": "",
        "storageBuff": "生命上限+30",
        "storageRefineBuff": null,
        "isCompose": 0
      },
      {
        "id": "51255",
        "name": "雷根贝勒防护服系列衣装",
        "icon": "item_51255",
        "rank": 1,
        "position": 13,
        "effect": "",
        "buff": "",
        "adventureBuff": "",
        "storageBuff": "物理攻击+3\n魔法攻击+3",
        "storageRefineBuff": null,
        "isCompose": 0
      },
      {
        "id": "51175",
        "name": "夏日系列时装",
        "icon": "item_51175",
        "rank": 1,
        "position": 13,
        "effect": "",
        "buff": "",
        "adventureBuff": "物理攻击+1%\n魔法攻击+1%",
        "storageBuff": "物理防御+6\n魔法防御+6",
        "storageRefineBuff": null,
        "isCompose": 0
      },
      {
        "id": "49037",
        "name": "杏仁补丁帽",
        "icon": "item_49037",
        "rank": 1,
        "position": 7,
        "effect": "",
        "buff": "生命上限+50\n魔法防御+20",
        "adventureBuff": "",
        "storageBuff": "魔法防御+2",
        "storageRefineBuff": null,
        "isCompose": 0
      },
      {
        "id": "48707",
        "name": "航空护目镜",
        "icon": "item_48707",
        "rank": 3,
        "position": 8,
        "effect": "",
        "buff": "人形种族加伤+5%\n竞技场模式（6V6）中，人形种族加伤+10%",
        "adventureBuff": "",
        "storageBuff": "魔法攻击+3，生命上限+30",
        "storageRefineBuff": null,
        "isCompose": 0
      },
      {
        "id": "48673",
        "name": "单片镜",
        "icon": "item_48673",
        "rank": 2,
        "position": 8,
        "effect": "",
        "buff": "生命上限+200\n眩晕抵抗+5%",
        "adventureBuff": "",
        "storageBuff": "生命上限+30",
        "storageRefineBuff": null,
        "isCompose": 0
      },
      {
        "id": "48072",
        "name": "雷鸣号歼灭机",
        "icon": "item_48072",
        "rank": 3,
        "position": 11,
        "effect": "",
        "buff": "人形种族加伤+4%\n竞技场模式（6V6）中，攻击目标时，使自身移动速度+10%，持续5秒，最多叠加3层",
        "adventureBuff": "",
        "storageBuff": "物理攻击+3，生命上限+30",
        "storageRefineBuff": null,
        "isCompose": 0
      },
      {
        "id": "47145",
        "name": "高级收纳包",
        "icon": "item_47145",
        "rank": 1,
        "position": 10,
        "effect": "",
        "buff": "魔法上限+50\nSP恢复+5",
        "adventureBuff": "",
        "storageBuff": "物理防御+2",
        "storageRefineBuff": null,
        "isCompose": 0
      },
      {
        "id": "47129",
        "name": "断剑背饰",
        "icon": "item_47129",
        "rank": 3,
        "position": 10,
        "effect": "",
        "buff": "受到物理伤害-10%\n魔法防御-10%",
        "adventureBuff": "物理攻击+6",
        "storageBuff": "魔法防御+2，生命上限+30",
        "storageRefineBuff": [
          {
            "lv": 6,
            "buff": "暴伤减免+1%"
          },
          {
            "lv": 8,
            "buff": "魔法攻击+4，生命上限+40"
          }
        ],
        "isCompose": 1
      },
      {
        "id": "45685",
        "name": "夏日向日葵系列头饰",
        "icon": "item_45685",
        "rank": 3,
        "position": 7,
        "effect": "",
        "buff": "生命上限+400\n魔法防御+5%",
        "adventureBuff": "",
        "storageBuff": "魔法防御+2，生命上限+30",
        "storageRefineBuff": null,
        "isCompose": 0
      },
      {
        "id": "45684",
        "name": "夏日扶桑系列头饰",
        "icon": "item_45684",
        "rank": 3,
        "position": 7,
        "effect": "",
        "buff": "生命上限+400\n物理防御+5%",
        "adventureBuff": "",
        "storageBuff": "物理防御+2，生命上限+30",
        "storageRefineBuff": null,
        "isCompose": 0
      },
      {
        "id": "3031284",
        "name": "一吻定情",
        "icon": "item_3031284",
        "rank": 3,
        "position": 8,
        "effect": "",
        "buff": "暴击+3\n幸运+5\n物理攻击+20",
        "adventureBuff": "魔法攻击+3，生命上限+30",
        "storageBuff": "物理防御+2，生命上限+30",
        "storageRefineBuff": null,
        "isCompose": 0
      },
      {
        "id": "3031283",
        "name": "闪闪惹人爱",
        "icon": "item_3031283",
        "rank": 3,
        "position": 10,
        "effect": "",
        "buff": "全能力+1\n人形种族加伤+4%\n人形种族减伤+4%",
        "adventureBuff": "生命上限+60",
        "storageBuff": "魔法防御+2，生命上限+30",
        "storageRefineBuff": null,
        "isCompose": 1
      },
      {
        "id": "3000384",
        "name": "荆棘之爱",
        "icon": "item_3000384",
        "rank": 3,
        "position": 8,
        "effect": "",
        "buff": "魔法攻击+4%\n人形种族减伤+4%",
        "adventureBuff": "",
        "storageBuff": "魔法攻击+6",
        "storageRefineBuff": null,
        "isCompose": 0
      },
      {
        "id": "3000383",
        "name": "迷梦之蝶",
        "icon": "item_3000383",
        "rank": 3,
        "position": 8,
        "effect": "",
        "buff": "物理攻击+4%\n人形种族减伤+4%",
        "adventureBuff": "",
        "storageBuff": "物理攻击+6",
        "storageRefineBuff": null,
        "isCompose": 0
      },
      {
        "id": "3000382",
        "name": "猫头鹰执事",
        "icon": "item_3000382",
        "rank": 3,
        "position": 11,
        "effect": "",
        "buff": "全能力+2\n物理伤害+2%",
        "adventureBuff": "",
        "storageBuff": "物理攻击+3，生命上限+30",
        "storageRefineBuff": null,
        "isCompose": 0
      },
      {
        "id": "3000381",
        "name": "月亮熊先生",
        "icon": "item_3000381",
        "rank": 3,
        "position": 10,
        "effect": "",
        "buff": "生命上限+1000\n人形种族减伤+8%",
        "adventureBuff": "",
        "storageBuff": "魔法攻击+3，生命上限+30",
        "storageRefineBuff": null,
        "isCompose": 0
      },
      {
        "id": "3000380",
        "name": "漆黑星辰",
        "icon": "item_3000380",
        "rank": 3,
        "position": 7,
        "effect": "",
        "buff": "对昆虫种族伤害+10%\n受到昆虫种族魔物伤害-10%",
        "adventureBuff": "",
        "storageBuff": "生命上限+60",
        "storageRefineBuff": null,
        "isCompose": 0
      },
      {
        "id": "3000379",
        "name": "刺玫心语系列头饰",
        "icon": "item_3000379",
        "rank": 3,
        "position": 7,
        "effect": "",
        "buff": "魔法攻击+4%\n使用技能时SP消耗量-8%",
        "adventureBuff": "",
        "storageBuff": "物理防御+2，生命上限+30",
        "storageRefineBuff": null,
        "isCompose": 0
      },
      {
        "id": "3000374",
        "name": "落日蔷薇系列头饰",
        "icon": "item_3000374",
        "rank": 3,
        "position": 7,
        "effect": "",
        "buff": "物理攻击+4%\n使用技能时SP消耗量-8%",
        "adventureBuff": "",
        "storageBuff": "魔法防御+2，生命上限+30",
        "storageRefineBuff": null,
        "isCompose": 0
      },
      {
        "id": "3000344",
        "name": "星夜蔷薇系列时装",
        "icon": "item_3000344",
        "rank": 1,
        "position": 13,
        "effect": "",
        "buff": "",
        "adventureBuff": "物理攻击+1%\n魔法攻击+1%",
        "storageBuff": "生命上限+200",
        "storageRefineBuff": null,
        "isCompose": 0
      },
      {
        "id": "3000326",
        "name": "恶作剧涂鸦",
        "icon": "item_3000326",
        "rank": 2,
        "position": 8,
        "effect": "",
        "buff": "生命上限+150\n魔法攻击+10",
        "adventureBuff": "",
        "storageBuff": "生命上限+30",
        "storageRefineBuff": null,
        "isCompose": 0
      },
      {
        "id": "3000325",
        "name": "睡梦泡泡",
        "icon": "item_3000325",
        "rank": 2,
        "position": 9,
        "effect": "",
        "buff": "生命上限+200\n睡眠抵抗+5%",
        "adventureBuff": "",
        "storageBuff": "生命上限+60\n物理防御+4",
        "storageRefineBuff": null,
        "isCompose": 0
      }
    ]
  }
}