{
  "code": 0,
  "status": "success",
  "timeStamp": 1643702677,
  "staticDomain": "http:\/\/rosc1.zhaiwuyu.com",
  "ip": "101.87.201.112",
  "language": "cn",
  "dbArea": 0,
  "data": {
    "page": 45,
    "pageSize": 30,
    "pageCount": 70,
    "total": 2073,
    "list": [
      {
        "id": "51215",
        "name": "枫之忆",
        "icon": "item_51215",
        "rank": 1,
        "position": 13,
        "effect": "",
        "buff": "",
        "adventureBuff": "",
        "storageBuff": "生命上限+60",
        "storageRefineBuff": null,
        "isCompose": 0
      },
      {
        "id": "49043",
        "name": "魅舞公主",
        "icon": "item_49043",
        "rank": 3,
        "position": 7,
        "effect": "",
        "buff": "魔法攻击+3%\n击杀魔物Base经验+5%",
        "adventureBuff": "",
        "storageBuff": "魔法防御+2，生命上限+30",
        "storageRefineBuff": null,
        "isCompose": 0
      },
      {
        "id": "49042",
        "name": "砾沙王子",
        "icon": "item_49042",
        "rank": 3,
        "position": 7,
        "effect": "",
        "buff": "物理攻击+3%\n击杀魔物Base经验+5%",
        "adventureBuff": "",
        "storageBuff": "物理防御+2，生命上限+30",
        "storageRefineBuff": null,
        "isCompose": 0
      },
      {
        "id": "49027",
        "name": "星耀之冠",
        "icon": "item_49027",
        "rank": 3,
        "position": 7,
        "effect": "",
        "buff": "生命上限+5%\n沉默抵抗+15%",
        "adventureBuff": "",
        "storageBuff": "魔法攻击+3，生命上限+30",
        "storageRefineBuff": null,
        "isCompose": 0
      },
      {
        "id": "49026",
        "name": "十字圣裁",
        "icon": "item_49026",
        "rank": 3,
        "position": 7,
        "effect": "",
        "buff": "全能力+2\n对恶魔种族魔物伤害+6%",
        "adventureBuff": "",
        "storageBuff": "物理攻击+3，生命上限+30",
        "storageRefineBuff": null,
        "isCompose": 0
      },
      {
        "id": "49025",
        "name": "辰耀系列头饰",
        "icon": "item_49025",
        "rank": 3,
        "position": 7,
        "effect": "",
        "buff": "魔法攻击+3%\n对人形种族加伤+3%",
        "adventureBuff": "",
        "storageBuff": "物理防御+2，生命上限+30",
        "storageRefineBuff": null,
        "isCompose": 0
      },
      {
        "id": "49020",
        "name": "天祈系列头饰",
        "icon": "item_49020",
        "rank": 3,
        "position": 7,
        "effect": "",
        "buff": "物理攻击+3%\n对人形种族加伤+3%",
        "adventureBuff": "",
        "storageBuff": "魔法防御+2，生命上限+30",
        "storageRefineBuff": null,
        "isCompose": 0
      },
      {
        "id": "49014",
        "name": "雪之华发夹",
        "icon": "item_49014",
        "rank": 2,
        "position": 7,
        "effect": "",
        "buff": "生命上限+150\n物理防御+8\n魔法防御+8",
        "adventureBuff": "",
        "storageBuff": "生命上限+30",
        "storageRefineBuff": null,
        "isCompose": 0
      },
      {
        "id": "49005",
        "name": "青风车",
        "icon": "item_49005",
        "rank": 3,
        "position": 7,
        "effect": "",
        "buff": "物理攻击+2%\n魔法攻击+2%\n物理攻击+10\n魔法攻击+10",
        "adventureBuff": "物理攻击+3，生命上限+30",
        "storageBuff": "魔法防御+2，生命上限+30",
        "storageRefineBuff": null,
        "isCompose": 1
      },
      {
        "id": "49004",
        "name": "随身遮阳伞",
        "icon": "item_49004",
        "rank": 2,
        "position": 7,
        "effect": "",
        "buff": "生命上限+200\n物理防御+10\n魔法防御+10",
        "adventureBuff": "",
        "storageBuff": "生命上限+30",
        "storageRefineBuff": null,
        "isCompose": 0
      },
      {
        "id": "49003",
        "name": "不良贝雷帽",
        "icon": "item_49003",
        "rank": 2,
        "position": 7,
        "effect": "",
        "buff": "魔法上限+50\n生命上限+50\n生命恢复+5\n魔法恢复+5",
        "adventureBuff": "",
        "storageBuff": "魔法防御+2",
        "storageRefineBuff": null,
        "isCompose": 0
      },
      {
        "id": "49002",
        "name": "雪波利帽",
        "icon": "item_49002",
        "rank": 2,
        "position": 7,
        "effect": "",
        "buff": "暴击伤害+2%\n幸运+2\n敏捷+2",
        "adventureBuff": "",
        "storageBuff": "物理防御+2",
        "storageRefineBuff": null,
        "isCompose": 0
      },
      {
        "id": "49001",
        "name": "黄雀羽贝雷",
        "icon": "item_49001",
        "rank": 2,
        "position": 7,
        "effect": "",
        "buff": "力量+2\n灵巧+2\n敏捷+2\n物理攻击+15",
        "adventureBuff": "",
        "storageBuff": "魔法攻击+3",
        "storageRefineBuff": null,
        "isCompose": 0
      },
      {
        "id": "49000",
        "name": "蝴蝶结头箍",
        "icon": "item_49000",
        "rank": 2,
        "position": 7,
        "effect": "",
        "buff": "智力+2\n敏捷+2\n灵巧+2\n魔法攻击+10",
        "adventureBuff": "",
        "storageBuff": "物理攻击+3",
        "storageRefineBuff": null,
        "isCompose": 0
      },
      {
        "id": "48688",
        "name": "辉光之佑",
        "icon": "item_48688",
        "rank": 3,
        "position": 8,
        "effect": "",
        "buff": "生命上限+1000\n牧师系，多兰族装备时，治疗加成+4%，其他系装备时受治疗加成+4%",
        "adventureBuff": "",
        "storageBuff": "魔法攻击+6",
        "storageRefineBuff": null,
        "isCompose": 0
      },
      {
        "id": "48687",
        "name": "冰晶·蔷薇",
        "icon": "item_48687",
        "rank": 2,
        "position": 9,
        "effect": "",
        "buff": "全能力+1\n魔法攻击+15",
        "adventureBuff": "",
        "storageBuff": "生命上限+60",
        "storageRefineBuff": null,
        "isCompose": 0
      },
      {
        "id": "48686",
        "name": "霜羽假面",
        "icon": "item_48686",
        "rank": 4,
        "position": 8,
        "effect": "",
        "buff": "物理攻击+30、物理攻击+3%\n任意一条六维属性（力量、敏捷、体质、智力、灵巧、幸运）达到99点，即可额外激活一层“霜之凝视”效果：物理攻击+10、物理攻击+1%，最多激活六层",
        "adventureBuff": "",
        "storageBuff": "物理攻击+1%\n魔法攻击+1%",
        "storageRefineBuff": null,
        "isCompose": 0
      },
      {
        "id": "48682",
        "name": "湛蓝妖姬",
        "icon": "item_48682",
        "rank": 2,
        "position": 9,
        "effect": "",
        "buff": "全能力+1\n物理攻击+10\n魔法攻击+10",
        "adventureBuff": "魔法防御+2",
        "storageBuff": "物理防御+2",
        "storageRefineBuff": null,
        "isCompose": 1
      },
      {
        "id": "48681",
        "name": "天使波利眼镜",
        "icon": "item_48681",
        "rank": 3,
        "position": 8,
        "effect": "",
        "buff": "全能力+1\n物理防御+3%\n魔法防御+3%",
        "adventureBuff": "魔法攻击+3，生命上限+30",
        "storageBuff": "物理防御+2，生命上限+30",
        "storageRefineBuff": null,
        "isCompose": 1
      },
      {
        "id": "48678",
        "name": "异度视界",
        "icon": "item_48678",
        "rank": 2,
        "position": 8,
        "effect": "",
        "buff": "生命上限+100\n物理防御+2%\n魔法防御+2%",
        "adventureBuff": "",
        "storageBuff": "生命上限+30",
        "storageRefineBuff": null,
        "isCompose": 0
      },
      {
        "id": "48677",
        "name": "猛毒净化器",
        "icon": "item_48677",
        "rank": 1,
        "position": 9,
        "effect": "",
        "buff": "生命上限+100\n物理防御+10\n对野外地图的白蚁、基尔瑟造成的伤害增加20%",
        "adventureBuff": "",
        "storageBuff": "生命上限+15",
        "storageRefineBuff": null,
        "isCompose": 0
      },
      {
        "id": "48676",
        "name": "3d眼镜",
        "icon": "item_48676",
        "rank": 1,
        "position": 8,
        "effect": "",
        "buff": "生命上限+100\n魔法防御+10\n对野外地图的噬人花、艾吉欧蜈蚣造成的伤害增加30%",
        "adventureBuff": "",
        "storageBuff": "生命上限+15",
        "storageRefineBuff": null,
        "isCompose": 0
      },
      {
        "id": "48671",
        "name": "圣诞鹿变装",
        "icon": "item_48671",
        "rank": 3,
        "position": 8,
        "effect": "",
        "buff": "生命上限+3%\n物理防御+4%",
        "adventureBuff": "",
        "storageBuff": "魔法攻击+3，生命上限+30",
        "storageRefineBuff": null,
        "isCompose": 0
      },
      {
        "id": "48670",
        "name": "姜饼仔",
        "icon": "item_48670",
        "rank": 3,
        "position": 9,
        "effect": "",
        "buff": "全能力+1\n魔法攻击+2%",
        "adventureBuff": "",
        "storageBuff": "物理攻击+3，生命上限+30",
        "storageRefineBuff": null,
        "isCompose": 0
      },
      {
        "id": "48064",
        "name": "大天使加利尔",
        "icon": "item_48064",
        "rank": 3,
        "position": 11,
        "effect": "",
        "buff": "圣属性攻击+3%\n智力+3",
        "adventureBuff": "",
        "storageBuff": "物理攻击+6",
        "storageRefineBuff": null,
        "isCompose": 0
      },
      {
        "id": "48063",
        "name": "西瓦诺诺",
        "icon": "item_48063",
        "rank": 2,
        "position": 11,
        "effect": "",
        "buff": "对植物、动物种族魔物伤害+2%",
        "adventureBuff": "",
        "storageBuff": "物理攻击+4\n魔法攻击+4",
        "storageRefineBuff": null,
        "isCompose": 0
      },
      {
        "id": "48062",
        "name": "冰心之愿",
        "icon": "item_48062",
        "rank": 2,
        "position": 11,
        "effect": "",
        "buff": "幸运+5\n物理攻击+20",
        "adventureBuff": "",
        "storageBuff": "生命上限+60",
        "storageRefineBuff": null,
        "isCompose": 0
      },
      {
        "id": "48061",
        "name": "赤鳞斗士",
        "icon": "item_48061",
        "rank": 3,
        "position": 11,
        "effect": "",
        "buff": "魔伤减免+4%\n竞技场模式（6V6）中，魔法上限+100%，物理防御-100%，魔法防御-100%",
        "adventureBuff": "",
        "storageBuff": "物理防御+2，生命上限+30",
        "storageRefineBuff": null,
        "isCompose": 0
      },
      {
        "id": "48060",
        "name": "古代逆鳞",
        "icon": "item_48060",
        "rank": 3,
        "position": 11,
        "effect": "",
        "buff": "生命上限+2%\n生命上限+500",
        "adventureBuff": "",
        "storageBuff": "生命上限+60",
        "storageRefineBuff": null,
        "isCompose": 0
      },
      {
        "id": "48057",
        "name": "梦眼崽",
        "icon": "item_48057",
        "rank": 4,
        "position": 11,
        "effect": "",
        "buff": "魔法攻击+20\n忽视魔法防御+3%\n攻击目标时，100%概率降低目标3%魔法防御，持续5秒",
        "adventureBuff": "",
        "storageBuff": "物理攻击+4.5，生命上限+45",
        "storageRefineBuff": null,
        "isCompose": 0
      }
    ]
  }
}