{
  "code": 0,
  "status": "success",
  "timeStamp": 1643702393,
  "staticDomain": "http:\/\/rosc1.zhaiwuyu.com",
  "ip": "101.87.201.112",
  "language": "cn",
  "dbArea": 0,
  "data": {
    "page": 17,
    "pageSize": 30,
    "pageCount": 70,
    "total": 2073,
    "list": [
      {
        "id": "25160",
        "name": "陆行鸟健将",
        "icon": "item_25160",
        "rank": 3,
        "position": 12,
        "effect": "",
        "buff": "移动速度+25%",
        "adventureBuff": "",
        "storageBuff": "",
        "storageRefineBuff": null,
        "isCompose": 0
      },
      {
        "id": "25157",
        "name": "彩虹石波利",
        "icon": "item_25157",
        "rank": 3,
        "position": 12,
        "effect": "",
        "buff": "移动速度+25%",
        "adventureBuff": "生命上限+30",
        "storageBuff": "",
        "storageRefineBuff": null,
        "isCompose": 0
      },
      {
        "id": "25133",
        "name": "银翼雪鹿",
        "icon": "item_25133",
        "rank": 1,
        "position": 12,
        "effect": "",
        "buff": "移动速度+25%",
        "adventureBuff": "物理攻击+6，魔法攻击+6",
        "storageBuff": "",
        "storageRefineBuff": null,
        "isCompose": 0
      },
      {
        "id": "3002931",
        "name": "槲寄生发冠",
        "icon": "item_3002931",
        "rank": 2,
        "position": 7,
        "effect": "",
        "buff": "全能力+2\n技能伤害+2%",
        "adventureBuff": "",
        "storageBuff": "生命上限+30",
        "storageRefineBuff": null,
        "isCompose": 0
      },
      {
        "id": "3002930",
        "name": "小小圣诞信使",
        "icon": "item_3002930",
        "rank": 3,
        "position": 11,
        "effect": "",
        "buff": "移动速度+5%\n灵巧+5\n力量+5\n幸运+10",
        "adventureBuff": "",
        "storageBuff": "魔法攻击+3，生命上限+30",
        "storageRefineBuff": null,
        "isCompose": 0
      },
      {
        "id": "3002906",
        "name": "冰霜精灵",
        "icon": "item_3002906",
        "rank": 2,
        "position": 8,
        "effect": "",
        "buff": "物理攻击+20\n物理防御+10",
        "adventureBuff": "",
        "storageBuff": "生命上限+30",
        "storageRefineBuff": null,
        "isCompose": 0
      },
      {
        "id": "3002905",
        "name": "冬日小憩[1]",
        "icon": "item_3002905",
        "rank": 2,
        "position": 7,
        "effect": "",
        "buff": "全能力+1\n对动物种族伤害+3%",
        "adventureBuff": "",
        "storageBuff": "生命上限+60\n物理防御+4",
        "storageRefineBuff": null,
        "isCompose": 0
      },
      {
        "id": "3002904",
        "name": "冰原猎手的尾巴",
        "icon": "item_3002904",
        "rank": 2,
        "position": 11,
        "effect": "",
        "buff": "移动速度+5%\n敏捷+5",
        "adventureBuff": "",
        "storageBuff": "物理攻击+4\n魔法攻击+4",
        "storageRefineBuff": null,
        "isCompose": 0
      },
      {
        "id": "3002903",
        "name": "风雪游人",
        "icon": "item_3002903",
        "rank": 2,
        "position": 9,
        "effect": "",
        "buff": "生命上限+500\n受到风属性伤害-2%",
        "adventureBuff": "",
        "storageBuff": "生命上限+60\n魔法防御+4",
        "storageRefineBuff": null,
        "isCompose": 0
      },
      {
        "id": "3002902",
        "name": "冬灵旅社",
        "icon": "item_3002902",
        "rank": 3,
        "position": 10,
        "effect": "",
        "buff": "移动速度+5%\n暴击+10\n暴击伤害+10%\n普通攻击暴击时，100%的概率降低目标3%物伤减免，持续5秒",
        "adventureBuff": "",
        "storageBuff": "物理攻击+6\n魔法攻击+6",
        "storageRefineBuff": null,
        "isCompose": 0
      },
      {
        "id": "3002901",
        "name": "雪童子[1]",
        "icon": "item_3002901",
        "rank": 3,
        "position": 7,
        "effect": "",
        "buff": "击杀魔物Base经验+10%\n击杀魔物Job经验+10%\n攻击时，对目标额外造成自身BaseLv×100的真实伤害",
        "adventureBuff": "",
        "storageBuff": "生命上限+120",
        "storageRefineBuff": null,
        "isCompose": 0
      },
      {
        "id": "3002900",
        "name": "凛冬桂冠",
        "icon": "item_3002900",
        "rank": 4,
        "position": 8,
        "effect": "",
        "buff": "技能伤害+6%\n任意三条六维属性（力量、敏捷、体质、智力、灵巧、幸运）达到159时，技能伤害+3%",
        "adventureBuff": "",
        "storageBuff": "物理攻击+1%\n魔法攻击+1%",
        "storageRefineBuff": null,
        "isCompose": 0
      },
      {
        "id": "3002887",
        "name": "花见轮舞",
        "icon": "item_3002887",
        "rank": 5,
        "position": 10,
        "effect": "",
        "buff": "全能力+2\n物理穿刺+4%\n魔法穿刺+4%",
        "adventureBuff": "",
        "storageBuff": "生命上限+90",
        "storageRefineBuff": null,
        "isCompose": 0
      },
      {
        "id": "3002886",
        "name": "龙女巡行",
        "icon": "item_3002886",
        "rank": 3,
        "position": 10,
        "effect": "",
        "buff": "全能力+2\n对MVP、Mini魔物造成的伤害+6%",
        "adventureBuff": "",
        "storageBuff": "物理攻击+6",
        "storageRefineBuff": null,
        "isCompose": 0
      },
      {
        "id": "3002885",
        "name": "鲤观诸世",
        "icon": "item_3002885",
        "rank": 3,
        "position": 8,
        "effect": "",
        "buff": "对中型魔物伤害+5%\n受到中型魔物伤害-10%",
        "adventureBuff": "",
        "storageBuff": "生命上限+60",
        "storageRefineBuff": null,
        "isCompose": 0
      },
      {
        "id": "3002884",
        "name": "画缚鲤",
        "icon": "item_3002884",
        "rank": 3,
        "position": 11,
        "effect": "",
        "buff": "对植物种族伤害+8%\n受到植物种族魔物伤害-8%",
        "adventureBuff": "",
        "storageBuff": "魔法攻击+6",
        "storageRefineBuff": null,
        "isCompose": 0
      },
      {
        "id": "3002883",
        "name": "纳福锦幡",
        "icon": "item_3002883",
        "rank": 3,
        "position": 10,
        "effect": "",
        "buff": "全能力+2\n对普通魔物（不包含MVP、Mini魔物）增伤+6%",
        "adventureBuff": "",
        "storageBuff": "生命上限+60",
        "storageRefineBuff": null,
        "isCompose": 0
      },
      {
        "id": "3002882",
        "name": "缘结团子",
        "icon": "item_3002882",
        "rank": 3,
        "position": 7,
        "effect": "",
        "buff": "魔法上限+4%\nSP恢复+20%",
        "adventureBuff": "",
        "storageBuff": "物理攻击+3，生命上限+30",
        "storageRefineBuff": null,
        "isCompose": 0
      },
      {
        "id": "3002881",
        "name": "龙女的花冠",
        "icon": "item_3002881",
        "rank": 3,
        "position": 7,
        "effect": "",
        "buff": "生命上限+4%\nHp恢复+20%",
        "adventureBuff": "",
        "storageBuff": "魔法攻击+3，生命上限+30",
        "storageRefineBuff": null,
        "isCompose": 0
      },
      {
        "id": "3002879",
        "name": "月入春池头饰系列",
        "icon": "item_3002879",
        "rank": 3,
        "position": 7,
        "effect": "",
        "buff": "技能伤害减免+3%\n人形种族减伤+3%",
        "adventureBuff": "",
        "storageBuff": "物理防御+2，生命上限+30",
        "storageRefineBuff": null,
        "isCompose": 0
      },
      {
        "id": "3002874",
        "name": "岭上花鲤头饰系列",
        "icon": "item_3002874",
        "rank": 3,
        "position": 7,
        "effect": "",
        "buff": "普攻伤害减免+3%\n人形种族减伤+3%",
        "adventureBuff": "",
        "storageBuff": "魔法防御+2，生命上限+30",
        "storageRefineBuff": null,
        "isCompose": 0
      },
      {
        "id": "3002854",
        "name": "花鲤物语系列时装",
        "icon": "item_3002854",
        "rank": 1,
        "position": 13,
        "effect": "",
        "buff": "",
        "adventureBuff": "物理攻击+1%\n魔法攻击+1%",
        "storageBuff": "物理攻击+12\n魔法攻击+12",
        "storageRefineBuff": null,
        "isCompose": 0
      },
      {
        "id": "3002497",
        "name": "矩阵空间",
        "icon": "item_3002497",
        "rank": 5,
        "position": 10,
        "effect": "",
        "buff": "全能力+2\n物理穿刺+4%\n魔法穿刺+4%",
        "adventureBuff": "",
        "storageBuff": "生命上限+90",
        "storageRefineBuff": null,
        "isCompose": 0
      },
      {
        "id": "3002496",
        "name": "霓虹小精灵",
        "icon": "item_3002496",
        "rank": 3,
        "position": 11,
        "effect": "",
        "buff": "智力+5\n魔法伤害+3%",
        "adventureBuff": "",
        "storageBuff": "物理攻击+6",
        "storageRefineBuff": null,
        "isCompose": 0
      },
      {
        "id": "3002495",
        "name": "自组装式护目镜",
        "icon": "item_3002495",
        "rank": 3,
        "position": 8,
        "effect": "",
        "buff": "生命上限+1000\n物理防御+15%",
        "adventureBuff": "",
        "storageBuff": "生命上限+60",
        "storageRefineBuff": null,
        "isCompose": 0
      },
      {
        "id": "3002494",
        "name": "增强型光学迷彩",
        "icon": "item_3002494",
        "rank": 3,
        "position": 11,
        "effect": "",
        "buff": "全能力+2\n地属性攻击+5%",
        "adventureBuff": "",
        "storageBuff": "魔法攻击+6",
        "storageRefineBuff": null,
        "isCompose": 0
      },
      {
        "id": "3002493",
        "name": "旋律漫游者",
        "icon": "item_3002493",
        "rank": 3,
        "position": 10,
        "effect": "",
        "buff": "全能力+2\n普攻伤害+4%",
        "adventureBuff": "",
        "storageBuff": "生命上限+60",
        "storageRefineBuff": null,
        "isCompose": 0
      },
      {
        "id": "3002492",
        "name": "音速行星",
        "icon": "item_3002492",
        "rank": 3,
        "position": 7,
        "effect": "",
        "buff": "生命上限+1500\n魔伤减免+5%",
        "adventureBuff": "",
        "storageBuff": "物理攻击+3，生命上限+30",
        "storageRefineBuff": null,
        "isCompose": 0
      },
      {
        "id": "3002491",
        "name": "骇客小子",
        "icon": "item_3002491",
        "rank": 3,
        "position": 7,
        "effect": "",
        "buff": "生命上限+1500\n物伤减免+5%",
        "adventureBuff": "",
        "storageBuff": "魔法攻击+3，生命上限+30",
        "storageRefineBuff": null,
        "isCompose": 0
      },
      {
        "id": "3002489",
        "name": "青春舞者头饰系列",
        "icon": "item_3002489",
        "rank": 3,
        "position": 7,
        "effect": "",
        "buff": "魔法攻击+3%\n忽视魔法防御+3%",
        "adventureBuff": "",
        "storageBuff": "物理防御+2，生命上限+30",
        "storageRefineBuff": null,
        "isCompose": 0
      }
    ]
  }
}