{
  "code": 0,
  "status": "success",
  "timeStamp": 1642842892,
  "staticDomain": "http:\/\/rosc1.zhaiwuyu.com",
  "ip": "101.87.200.160",
  "language": "cn",
  "dbArea": 0,
  "data": {
    "page": 48,
    "pageSize": 30,
    "pageCount": 68,
    "total": 2037,
    "list": [
      {
        "id": "145841",
        "name": "趴趴鬼娃[1]",
        "icon": "item_45841",
        "rank": 2,
        "position": 7,
        "effect": "",
        "buff": "对毒属性魔物伤害+3%\n受到毒属性伤害-5%",
        "adventureBuff": "魔法防御+2",
        "storageBuff": "生命上限+30",
        "storageRefineBuff": null,
        "isCompose": 1
      },
      {
        "id": "145840",
        "name": "乌鸦头饰[1]",
        "icon": "item_45840",
        "rank": 3,
        "position": 7,
        "effect": "",
        "buff": "生命上限+500\n对恶魔种族魔物伤害+5%",
        "adventureBuff": "物理防御+2，魔法防御+2",
        "storageBuff": "物理防御+2，生命上限+30",
        "storageRefineBuff": [
          {
            "lv": 6,
            "buff": "魔法攻击+2，生命上限+20"
          },
          {
            "lv": 8,
            "buff": "生命上限+120"
          }
        ],
        "isCompose": 1
      },
      {
        "id": "145839",
        "name": "招魂蜡烛[1]",
        "icon": "item_45839",
        "rank": 2,
        "position": 7,
        "effect": "",
        "buff": "全能力+1\n忽视物理防御+2%",
        "adventureBuff": "物理攻击+3",
        "storageBuff": "生命上限+30",
        "storageRefineBuff": null,
        "isCompose": 1
      },
      {
        "id": "145838",
        "name": "血色红帽[1]",
        "icon": "item_45838",
        "rank": 4,
        "position": 7,
        "effect": "",
        "buff": "灵巧+10\n暴击+10\n精炼+10时，幸运+10，暴击+10",
        "adventureBuff": "魔法攻击+8",
        "storageBuff": "魔法防御+3，生命上限+45",
        "storageRefineBuff": [
          {
            "lv": 6,
            "buff": "生命上限+90"
          },
          {
            "lv": 8,
            "buff": "暴击+1"
          }
        ],
        "isCompose": 1
      },
      {
        "id": "145837",
        "name": "悲伤召唤师头饰[1]",
        "icon": "item_45837",
        "rank": 3,
        "position": 7,
        "effect": "",
        "buff": "全能力+2\n魔法上限+200\n魔法防御+5%\n魔法上限+2%",
        "adventureBuff": "物理攻击+3，生命上限+30",
        "storageBuff": "物理防御+2，生命上限+30",
        "storageRefineBuff": [
          {
            "lv": 6,
            "buff": "物理攻击+3"
          },
          {
            "lv": 8,
            "buff": "魔法攻击+4，生命上限+40"
          }
        ],
        "isCompose": 1
      },
      {
        "id": "48658",
        "name": "无限围巾",
        "icon": "item_48658",
        "rank": 2,
        "position": 9,
        "effect": "",
        "buff": "物理攻击+20\n对不死属性魔物伤害+3%",
        "adventureBuff": "",
        "storageBuff": "生命上限+60",
        "storageRefineBuff": null,
        "isCompose": 0
      },
      {
        "id": "48657",
        "name": "阿斯特蕾娅的眷恋",
        "icon": "item_48657",
        "rank": 3,
        "position": 8,
        "effect": "",
        "buff": "装备攻速+5%\n每2点敏捷额外增加1点魔法攻击",
        "adventureBuff": "",
        "storageBuff": "物理攻击+6\n魔法攻击+6",
        "storageRefineBuff": null,
        "isCompose": 0
      },
      {
        "id": "48650",
        "name": "阿特罗斯之嘴",
        "icon": "item_48650",
        "rank": 4,
        "position": 8,
        "effect": "",
        "buff": "忽视物理防御+3%\n每精炼+1，忽视物理防御+1%",
        "adventureBuff": "物理防御+4.5",
        "storageBuff": "生命上限+90",
        "storageRefineBuff": [
          {
            "lv": 6,
            "buff": "魔法攻击+3，生命上限+30"
          },
          {
            "lv": 8,
            "buff": "生命上限+180"
          }
        ],
        "isCompose": 1
      },
      {
        "id": "48649",
        "name": "蚁后面具",
        "icon": "item_48649",
        "rank": 4,
        "position": 8,
        "effect": "",
        "buff": "生命上限+1500\n圣属性攻击+2%\n每精炼+1，生命上限+1%",
        "adventureBuff": "魔法攻击+4.5，生命上限+45",
        "storageBuff": "生命上限+90",
        "storageRefineBuff": null,
        "isCompose": 1
      },
      {
        "id": "48648",
        "name": "海神面冠",
        "icon": "item_48648",
        "rank": 4,
        "position": 7,
        "effect": "",
        "buff": "对于血量小于40%的目标伤害增加4%\n每精炼+1，伤害值增加+1%",
        "adventureBuff": "物理攻击+4.5，生命上限+45",
        "storageBuff": "魔法防御+3，生命上限+45",
        "storageRefineBuff": null,
        "isCompose": 1
      },
      {
        "id": "48645",
        "name": "万圣魔面具",
        "icon": "item_48645",
        "rank": 3,
        "position": 8,
        "effect": "",
        "buff": "智力+3\n灵巧+3\n移动速度+3%\n魔法攻击+15",
        "adventureBuff": "物理攻击+3，生命上限+30",
        "storageBuff": "魔法防御+2，生命上限+30",
        "storageRefineBuff": null,
        "isCompose": 1
      },
      {
        "id": "48644",
        "name": "嗜血面具",
        "icon": "item_48644",
        "rank": 4,
        "position": 8,
        "effect": "",
        "buff": "普通攻击时，有3%概率暴击+20，物理攻击+6%，持续5秒；\n近战职业击杀魔物时，装备攻速+5%，移动速度+5%，持续5秒",
        "adventureBuff": "物理攻击+8",
        "storageBuff": "物理防御+3，生命上限+45",
        "storageRefineBuff": null,
        "isCompose": 1
      },
      {
        "id": "48048",
        "name": "厨神之魂",
        "icon": "item_48048",
        "rank": 3,
        "position": 11,
        "effect": "",
        "buff": "全能力+1\n对植物、动物种族加伤+5%",
        "adventureBuff": "魔法攻击+3，生命上限+30",
        "storageBuff": "物理防御+2，生命上限+30",
        "storageRefineBuff": null,
        "isCompose": 1
      },
      {
        "id": "48046",
        "name": "星灯游鱼",
        "icon": "item_48046",
        "rank": 3,
        "position": 11,
        "effect": "",
        "buff": "对暗属性魔物伤害+10%\n受到暗属性伤害-10%",
        "adventureBuff": "",
        "storageBuff": "生命上限+120",
        "storageRefineBuff": null,
        "isCompose": 0
      },
      {
        "id": "47126",
        "name": "奈伯利安·星切",
        "icon": "item_47126",
        "rank": 4,
        "position": 10,
        "effect": "",
        "buff": "物理穿刺+5%\n攻击目标时15%概率获得星切buff，自身物理攻击+200，物理、魔法防御-100，持续10秒\n攻击目标时有概率召唤“星辰爆破”，对自身周围目标造成一定的物理伤害。（装备在时装栏时不产生伤害）",
        "adventureBuff": "",
        "storageBuff": "物理攻击+1%\n魔法攻击+1%",
        "storageRefineBuff": null,
        "isCompose": 0
      },
      {
        "id": "47122",
        "name": "鹗枭宝宝",
        "icon": "item_47122",
        "rank": 4,
        "position": 10,
        "effect": "",
        "buff": "全能力+1\n物理穿刺+5%\n魔法穿刺+5%",
        "adventureBuff": "魔法攻击+4.5，生命上限+45",
        "storageBuff": "物理防御+3，生命上限+45",
        "storageRefineBuff": [
          {
            "lv": 6,
            "buff": "物理防御+3，魔法防御+3"
          },
          {
            "lv": 8,
            "buff": "精炼魔攻+10"
          }
        ],
        "isCompose": 1
      },
      {
        "id": "47121",
        "name": "幽灵船舵",
        "icon": "item_47121",
        "rank": 4,
        "position": 10,
        "effect": "",
        "buff": "生命上限+1500\n精炼+10时，生命上限+10%",
        "adventureBuff": "生命上限+90",
        "storageBuff": "物理攻击+4.5，生命上限+45",
        "storageRefineBuff": null,
        "isCompose": 1
      },
      {
        "id": "47120",
        "name": "恶魔咕波钟",
        "icon": "item_47120",
        "rank": 4,
        "position": 10,
        "effect": "",
        "buff": "受到魔法伤害-15%\n物理防御-15%",
        "adventureBuff": "生命上限+90",
        "storageBuff": "魔法攻击+4.5，生命上限+45",
        "storageRefineBuff": null,
        "isCompose": 1
      },
      {
        "id": "47117",
        "name": "海拉的仆从",
        "icon": "item_47117",
        "rank": 2,
        "position": 10,
        "effect": "",
        "buff": "生命上限+200\n物理防御+2%\n魔法防御+2%",
        "adventureBuff": "",
        "storageBuff": "生命上限+30",
        "storageRefineBuff": null,
        "isCompose": 1
      },
      {
        "id": "45939",
        "name": "章鱼头饰",
        "icon": "item_45939",
        "rank": 2,
        "position": 7,
        "effect": "",
        "buff": "生命上限+100\n物理攻击+15",
        "adventureBuff": "",
        "storageBuff": "生命上限+30",
        "storageRefineBuff": null,
        "isCompose": 0
      },
      {
        "id": "45938",
        "name": "惊吓猫",
        "icon": "item_45938",
        "rank": 3,
        "position": 7,
        "effect": "",
        "buff": "生命上限+400\n物理攻击+45\n魔法攻击+30",
        "adventureBuff": "",
        "storageBuff": "生命上限+60",
        "storageRefineBuff": null,
        "isCompose": 0
      },
      {
        "id": "45937",
        "name": "执事的谢礼",
        "icon": "item_45937",
        "rank": 1,
        "position": 7,
        "effect": "",
        "buff": "物理防御+3，魔法防御+3",
        "adventureBuff": "",
        "storageBuff": "生命上限+15",
        "storageRefineBuff": null,
        "isCompose": 0
      },
      {
        "id": "45889",
        "name": "薇格的女巫帽",
        "icon": "item_45889",
        "rank": 1,
        "position": 7,
        "effect": "",
        "buff": "全能力+1\n生命上限+200",
        "adventureBuff": "生命上限+30",
        "storageBuff": "生命上限+30",
        "storageRefineBuff": null,
        "isCompose": 0
      },
      {
        "id": "45867",
        "name": "海拉的翼盔",
        "icon": "item_45867",
        "rank": 2,
        "position": 7,
        "effect": "",
        "buff": "全能力+1\n物理攻击+10\n魔法攻击+10",
        "adventureBuff": "",
        "storageBuff": "生命上限+30",
        "storageRefineBuff": null,
        "isCompose": 1
      },
      {
        "id": "51295",
        "name": "学园心动社系列时装",
        "icon": "item_51295",
        "rank": 1,
        "position": 13,
        "effect": "",
        "buff": "",
        "adventureBuff": "物理攻击+1%\n魔法攻击+1%",
        "storageBuff": "生命上限+200",
        "storageRefineBuff": null,
        "isCompose": 0
      },
      {
        "id": "48656",
        "name": "圈圈镜",
        "icon": "item_48656",
        "rank": 3,
        "position": 8,
        "effect": "",
        "buff": "生命上限+200\n魔法穿刺+3%",
        "adventureBuff": "",
        "storageBuff": "物理防御+2，生命上限+30",
        "storageRefineBuff": null,
        "isCompose": 0
      },
      {
        "id": "48655",
        "name": "面包加蛋",
        "icon": "item_48655",
        "rank": 3,
        "position": 9,
        "effect": "",
        "buff": "全能力+1\n物理攻击+2%",
        "adventureBuff": "",
        "storageBuff": "生命上限+60",
        "storageRefineBuff": null,
        "isCompose": 0
      },
      {
        "id": "48045",
        "name": "学霸鸭",
        "icon": "item_48045",
        "rank": 3,
        "position": 11,
        "effect": "",
        "buff": "对地属性魔物伤害+8%\n受到地属性伤害-8%",
        "adventureBuff": "",
        "storageBuff": "生命上限+60",
        "storageRefineBuff": null,
        "isCompose": 0
      },
      {
        "id": "47125",
        "name": "课堂背包",
        "icon": "item_47125",
        "rank": 3,
        "position": 10,
        "effect": "",
        "buff": "魔法攻击+3%\n忽视魔法防御+3%",
        "adventureBuff": "",
        "storageBuff": "物理攻击+3，生命上限+30",
        "storageRefineBuff": null,
        "isCompose": 0
      },
      {
        "id": "47119",
        "name": "万象月盘",
        "icon": "item_47119",
        "rank": 4,
        "position": 10,
        "effect": "",
        "buff": "物理攻击+3%\n魔法攻击+3%\n击杀魔物Job经验+4%\n击杀魔物Base经验+4%",
        "adventureBuff": "物理攻击+4.5，生命上限+45",
        "storageBuff": "物理防御+3，生命上限+45",
        "storageRefineBuff": null,
        "isCompose": 1
      }
    ]
  }
}