{
  "code": 0,
  "status": "success",
  "timeStamp": 1642842822,
  "staticDomain": "http:\/\/rosc1.zhaiwuyu.com",
  "ip": "101.87.200.160",
  "language": "cn",
  "dbArea": 0,
  "data": {
    "page": 41,
    "pageSize": 30,
    "pageCount": 68,
    "total": 2037,
    "list": [
      {
        "id": "3000046",
        "name": "趴趴小乌贼",
        "icon": "item_3000046",
        "rank": 2,
        "position": 7,
        "effect": "",
        "buff": "生命上限+200\n物理防御+15",
        "adventureBuff": "",
        "storageBuff": "生命上限+30",
        "storageRefineBuff": null,
        "isCompose": 0
      },
      {
        "id": "3000045",
        "name": "星光水母[1]",
        "icon": "item_3000045",
        "rank": 2,
        "position": 7,
        "effect": "",
        "buff": "击杀目标时，立刻恢复20点的生命值",
        "adventureBuff": "",
        "storageBuff": "生命上限+60\n物理防御+4",
        "storageRefineBuff": null,
        "isCompose": 0
      },
      {
        "id": "3000044",
        "name": "泡沫感应",
        "icon": "item_3000044",
        "rank": 2,
        "position": 8,
        "effect": "",
        "buff": "生命上限+200\n受到水属性伤害-3%",
        "adventureBuff": "",
        "storageBuff": "物理攻击+4\n魔法攻击+4",
        "storageRefineBuff": null,
        "isCompose": 0
      },
      {
        "id": "3000043",
        "name": "深海眷恋",
        "icon": "item_3000043",
        "rank": 2,
        "position": 9,
        "effect": "",
        "buff": "物理攻击+20\n魔法攻击+20",
        "adventureBuff": "",
        "storageBuff": "生命上限+60\n魔法防御+4",
        "storageRefineBuff": null,
        "isCompose": 0
      },
      {
        "id": "3000042",
        "name": "回旋情诗[1]",
        "icon": "item_3000042",
        "rank": 3,
        "position": 7,
        "effect": "",
        "buff": "生命上限+200\n人形种族加伤+5%\n精炼+6时，人形种族加伤额外+5%",
        "adventureBuff": "",
        "storageBuff": "物理攻击+6\n魔法攻击+6",
        "storageRefineBuff": null,
        "isCompose": 0
      },
      {
        "id": "3000041",
        "name": "潘罗的秘藏",
        "icon": "item_3000041",
        "rank": 3,
        "position": 10,
        "effect": "",
        "buff": "普通攻击时触发触手攻击，普通攻击的伤害增加BaseLv×10，精炼+1至+6，每精炼+1，普通攻击的伤害增加BaseLv×5（最多额外增加BaseLv×30）\n击杀目标时有5%概率额外获得5Zeny",
        "adventureBuff": "",
        "storageBuff": "生命上限+120",
        "storageRefineBuff": null,
        "isCompose": 0
      },
      {
        "id": "3000040",
        "name": "彩虹许愿鲸",
        "icon": "item_3000040",
        "rank": 4,
        "position": 11,
        "effect": "",
        "buff": "物理伤害+3%\n攻击血量低于自身的目标时，最终伤害增加5%",
        "adventureBuff": "",
        "storageBuff": "物理攻击+1%\n魔法攻击+1%",
        "storageRefineBuff": null,
        "isCompose": 0
      },
      {
        "id": "3000039",
        "name": "星屑蔷薇",
        "icon": "item_3000039",
        "rank": 2,
        "position": 9,
        "effect": "",
        "buff": "生命上限+100\n物理攻击+10",
        "adventureBuff": "",
        "storageBuff": "生命上限+30",
        "storageRefineBuff": null,
        "isCompose": 0
      },
      {
        "id": "3000038",
        "name": "月萤流羽[1]",
        "icon": "item_3000038",
        "rank": 2,
        "position": 7,
        "effect": "",
        "buff": "体质+2\n生命上限+500",
        "adventureBuff": "",
        "storageBuff": "生命上限+60\n物理防御+4",
        "storageRefineBuff": null,
        "isCompose": 0
      },
      {
        "id": "3000037",
        "name": "风汐回响",
        "icon": "item_3000037",
        "rank": 2,
        "position": 10,
        "effect": "",
        "buff": "全能力+1\n风属性攻击+2%",
        "adventureBuff": "",
        "storageBuff": "物理攻击+4\n魔法攻击+4",
        "storageRefineBuff": null,
        "isCompose": 0
      },
      {
        "id": "3000036",
        "name": "月之露比",
        "icon": "item_3000036",
        "rank": 2,
        "position": 11,
        "effect": "",
        "buff": "冰冻抵抗+10%",
        "adventureBuff": "",
        "storageBuff": "生命上限+60\n魔法防御+4",
        "storageRefineBuff": null,
        "isCompose": 0
      },
      {
        "id": "3000035",
        "name": "苍穹泪滴",
        "icon": "item_3000035",
        "rank": 3,
        "position": 8,
        "effect": "",
        "buff": "智力+2、忽视魔法防御+6%\n精炼+6时，智力+2、忽视魔法防御+6%",
        "adventureBuff": "",
        "storageBuff": "物理攻击+6\n魔法攻击+6",
        "storageRefineBuff": null,
        "isCompose": 0
      },
      {
        "id": "3000034",
        "name": "浮光之冠[1]",
        "icon": "item_3000034",
        "rank": 3,
        "position": 7,
        "effect": "",
        "buff": "魔法穿刺+3%\n攻击目标时，有100%概率降低目标5%魔伤减免、10%移动速度，持续5秒",
        "adventureBuff": "",
        "storageBuff": "生命上限+120",
        "storageRefineBuff": null,
        "isCompose": 0
      },
      {
        "id": "3000033",
        "name": "敛梦星纱",
        "icon": "item_3000033",
        "rank": 4,
        "position": 9,
        "effect": "",
        "buff": "物理穿刺+4%\n攻击目标时，有100%概率释放“星尘领域”，使目标进入冰冻状态，持续3秒（目标10秒内只能被冰冻一次）",
        "adventureBuff": "",
        "storageBuff": "物理攻击+1%\n魔法攻击+1%",
        "storageRefineBuff": null,
        "isCompose": 0
      },
      {
        "id": "149047",
        "name": "骨枷[1]",
        "icon": "item_49047",
        "rank": 3,
        "position": 7,
        "effect": "",
        "buff": "生命上限+1000\n竞技场模式（6V6）中，中毒、冰冻类型攻击的效果（概率和时间）+25%",
        "adventureBuff": "",
        "storageBuff": "物理攻击+3，生命上限+30",
        "storageRefineBuff": null,
        "isCompose": 0
      },
      {
        "id": "49100",
        "name": "ohsiesie",
        "icon": "item_49100",
        "rank": 3,
        "position": 7,
        "effect": "",
        "buff": "生命上限+300\n物理攻击+30、魔法攻击+30",
        "adventureBuff": "",
        "storageBuff": "生命上限+60",
        "storageRefineBuff": null,
        "isCompose": 0
      },
      {
        "id": "49084",
        "name": "往昔之书",
        "icon": "item_49084",
        "rank": 2,
        "position": 7,
        "effect": "",
        "buff": "全能力+1\n魔法上限+50",
        "adventureBuff": "",
        "storageBuff": "生命上限+30",
        "storageRefineBuff": null,
        "isCompose": 0
      },
      {
        "id": "49083",
        "name": "初见之印",
        "icon": "item_49083",
        "rank": 2,
        "position": 7,
        "effect": "",
        "buff": "力量+2\n灵巧+2\n智力+2\n生命上限+100",
        "adventureBuff": "",
        "storageBuff": "生命上限+30",
        "storageRefineBuff": null,
        "isCompose": 0
      },
      {
        "id": "48703",
        "name": "七彩防护镜",
        "icon": "item_48703",
        "rank": 2,
        "position": 8,
        "effect": "",
        "buff": "对水属性魔物伤害+3%\n受到水属性伤害-3%",
        "adventureBuff": "生命上限+30",
        "storageBuff": "生命上限+30",
        "storageRefineBuff": null,
        "isCompose": 1
      },
      {
        "id": "48690",
        "name": "炽吼",
        "icon": "item_48690",
        "rank": 3,
        "position": 9,
        "effect": "",
        "buff": "人形种族减伤+5%\n竞技场模式（6V6）中，人形种族加伤+10%",
        "adventureBuff": "",
        "storageBuff": "生命上限+60",
        "storageRefineBuff": null,
        "isCompose": 0
      },
      {
        "id": "48069",
        "name": "冲刺哥布灵",
        "icon": "item_48069",
        "rank": 2,
        "position": 11,
        "effect": "",
        "buff": "生命上限+100\n人形种族加伤+2%",
        "adventureBuff": "物理防御+3",
        "storageBuff": "生命上限+30",
        "storageRefineBuff": null,
        "isCompose": 1
      },
      {
        "id": "47170",
        "name": "驭海之戟",
        "icon": "item_47170",
        "rank": 2,
        "position": 10,
        "effect": "",
        "buff": "物理、魔法攻击+2%\n攻击目标时，有10%概率使目标进入冰冻状态，持续3秒",
        "adventureBuff": "",
        "storageBuff": "魔法攻击+3",
        "storageRefineBuff": null,
        "isCompose": 0
      },
      {
        "id": "47169",
        "name": "兔兔彩蛋背包",
        "icon": "item_47169",
        "rank": 2,
        "position": 10,
        "effect": "",
        "buff": "智力+2\n圣属性攻击+3%",
        "adventureBuff": "魔法防御+3",
        "storageBuff": "生命上限+30",
        "storageRefineBuff": null,
        "isCompose": 1
      },
      {
        "id": "47163",
        "name": "狂脊",
        "icon": "item_47163",
        "rank": 3,
        "position": 11,
        "effect": "",
        "buff": "物伤减免+4%\n竞技场模式（6V6）中，物伤减免+20%、魔伤减免-10%",
        "adventureBuff": "",
        "storageBuff": "魔法攻击+3，生命上限+30",
        "storageRefineBuff": null,
        "isCompose": 0
      },
      {
        "id": "25136",
        "name": "芬里尔脉冲型Ⅵ号",
        "icon": "item_25136",
        "rank": 5,
        "position": 12,
        "effect": "",
        "buff": "移动速度+50%\n永久获得技能【纳米背包】",
        "adventureBuff": "物理攻击+8，魔法攻击+8",
        "storageBuff": "",
        "storageRefineBuff": null,
        "isCompose": 0
      },
      {
        "id": "3031176",
        "name": "音乐会邀请函",
        "icon": "item_3031176",
        "rank": 2,
        "position": 9,
        "effect": "",
        "buff": "生命上限+200\n击杀魔物Base经验+2%\n击杀魔物Job经验+2%",
        "adventureBuff": "物理攻击+3",
        "storageBuff": "生命上限+30",
        "storageRefineBuff": null,
        "isCompose": 1
      },
      {
        "id": "3000179",
        "name": "闪烁的棒球帽[1]",
        "icon": "item_3000179",
        "rank": 1,
        "position": 7,
        "effect": "",
        "buff": "剑士系，刺客系，弓手系，牧师系，商人系，超初系，忍者系，枪手系装备时物理攻击+10\n法师系，多兰族，悟灵士系装备时魔法攻击+10",
        "adventureBuff": "",
        "storageBuff": "生命上限+10",
        "storageRefineBuff": null,
        "isCompose": 0
      },
      {
        "id": "3000032",
        "name": "蜜语甜心",
        "icon": "item_3000032",
        "rank": 3,
        "position": 8,
        "effect": "",
        "buff": "魔伤减免+5%\n生命上限+300",
        "adventureBuff": "",
        "storageBuff": "魔法攻击+3，生命上限+30",
        "storageRefineBuff": null,
        "isCompose": 0
      },
      {
        "id": "3000031",
        "name": "星尾蝶系列背饰",
        "icon": "item_3000031",
        "rank": 3,
        "position": 10,
        "effect": "",
        "buff": "物理攻击+20\n对中型魔物伤害+8%",
        "adventureBuff": "",
        "storageBuff": "生命上限+60",
        "storageRefineBuff": null,
        "isCompose": 0
      },
      {
        "id": "3000026",
        "name": "小夜曲",
        "icon": "item_3000026",
        "rank": 3,
        "position": 8,
        "effect": "",
        "buff": "物伤减免+5%\n生命上限+300",
        "adventureBuff": "",
        "storageBuff": "物理攻击+3，生命上限+30",
        "storageRefineBuff": null,
        "isCompose": 0
      }
    ]
  }
}