{
  "code": 0,
  "status": "success",
  "timeStamp": 1642843043,
  "staticDomain": "http:\/\/rosc1.zhaiwuyu.com",
  "ip": "101.87.200.160",
  "language": "cn",
  "dbArea": 0,
  "data": {
    "page": 63,
    "pageSize": 30,
    "pageCount": 68,
    "total": 2037,
    "list": [
      {
        "id": "48547",
        "name": "雷蒙盖顿的猫眼",
        "icon": "item_48547",
        "rank": 2,
        "position": 8,
        "effect": "",
        "buff": "物理防御+10",
        "adventureBuff": "魔法攻击+4.5",
        "storageBuff": "魔法攻击+6",
        "storageRefineBuff": null,
        "isCompose": 1
      },
      {
        "id": "48545",
        "name": "天使魅影",
        "icon": "item_48545",
        "rank": 3,
        "position": 8,
        "effect": "",
        "buff": "物理攻击+4%\n魔法攻击+4%",
        "adventureBuff": "魔法攻击+14",
        "storageBuff": "生命上限+19",
        "storageRefineBuff": null,
        "isCompose": 1
      },
      {
        "id": "48542",
        "name": "暗黑假面",
        "icon": "item_48542",
        "rank": 2,
        "position": 8,
        "effect": "",
        "buff": "体质+2\n精炼每+1获得魔法防御+1%，最多提升至+15%",
        "adventureBuff": "魔法防御+1",
        "storageBuff": "生命上限+10",
        "storageRefineBuff": null,
        "isCompose": 1
      },
      {
        "id": "48540",
        "name": "防毒面具",
        "icon": "item_48540",
        "rank": 2,
        "position": 8,
        "effect": "",
        "buff": "物理防御-20\n受到毒属性伤害-30%",
        "adventureBuff": "魔法攻击+7.5",
        "storageBuff": "生命上限+10",
        "storageRefineBuff": [
          {
            "lv": 6,
            "buff": "毒属性攻击+1%"
          },
          {
            "lv": 8,
            "buff": "对毒属性伤害减免+1%"
          }
        ],
        "isCompose": 1
      },
      {
        "id": "48537",
        "name": "口罩",
        "icon": "item_48537",
        "rank": 2,
        "position": 9,
        "effect": "",
        "buff": "沉默抵抗+10%",
        "adventureBuff": "魔法攻击+4.5",
        "storageBuff": "生命上限+10",
        "storageRefineBuff": null,
        "isCompose": 1
      },
      {
        "id": "48535",
        "name": "黑暗骑士面具",
        "icon": "item_48535",
        "rank": 4,
        "position": 7,
        "effect": "",
        "buff": "普攻时5%概率使目标流血持续一定时间，最多可叠加2层，该效果可与伤害增压叠加生效",
        "adventureBuff": "物理攻击+8",
        "storageBuff": "精炼物攻+10",
        "storageRefineBuff": [
          {
            "lv": 6,
            "buff": "魔法攻击+4.5"
          },
          {
            "lv": 8,
            "buff": "敏捷+1"
          }
        ],
        "isCompose": 1
      },
      {
        "id": "48534",
        "name": "草叶",
        "icon": "item_48534",
        "rank": 2,
        "position": 9,
        "effect": "",
        "buff": "生命上限+120\nSP恢复+1",
        "adventureBuff": "生命上限+28",
        "storageBuff": "生命上限+10",
        "storageRefineBuff": null,
        "isCompose": 1
      },
      {
        "id": "48533",
        "name": "红晕",
        "icon": "item_48533",
        "rank": 2,
        "position": 8,
        "effect": "",
        "buff": "魔法防御+10",
        "adventureBuff": "物理攻击+4.5",
        "storageBuff": "魔法攻击+6",
        "storageRefineBuff": null,
        "isCompose": 1
      },
      {
        "id": "48531",
        "name": "微笑面具",
        "icon": "item_48531",
        "rank": 1,
        "position": 8,
        "effect": "",
        "buff": "物理防御+5",
        "adventureBuff": "魔法防御+2",
        "storageBuff": "生命上限+10",
        "storageRefineBuff": null,
        "isCompose": 1
      },
      {
        "id": "48530",
        "name": "太阳眼镜",
        "icon": "item_48530",
        "rank": 1,
        "position": 8,
        "effect": "",
        "buff": "灼烧抗性+5%",
        "adventureBuff": "受到暗属性伤害-2%",
        "storageBuff": "生命上限+10",
        "storageRefineBuff": null,
        "isCompose": 1
      },
      {
        "id": "48529",
        "name": "眼罩",
        "icon": "item_48529",
        "rank": 1,
        "position": 8,
        "effect": "",
        "buff": "物理防御+5",
        "adventureBuff": "物理防御+2",
        "storageBuff": "物理攻击+6",
        "storageRefineBuff": null,
        "isCompose": 1
      },
      {
        "id": "48528",
        "name": "蝴蝶假面",
        "icon": "item_48528",
        "rank": 3,
        "position": 8,
        "effect": "",
        "buff": "人形种族加伤+8%",
        "adventureBuff": "人形种族加伤+1%",
        "storageBuff": "生命上限+19",
        "storageRefineBuff": [
          {
            "lv": 6,
            "buff": "魔法攻击+2，生命上限+20"
          },
          {
            "lv": 8,
            "buff": "生命上限+120"
          }
        ],
        "isCompose": 1
      },
      {
        "id": "48527",
        "name": "金属口罩",
        "icon": "item_48527",
        "rank": 2,
        "position": 9,
        "effect": "",
        "buff": "物理防御+10",
        "adventureBuff": "魔法攻击+4.5",
        "storageBuff": "生命上限+10",
        "storageRefineBuff": null,
        "isCompose": 1
      },
      {
        "id": "48526",
        "name": "傲慢之像",
        "icon": "item_48526",
        "rank": 3,
        "position": 8,
        "effect": "",
        "buff": "使用普攻或任何技能攻击时概率使目标降低物理攻击5%持续一定时间",
        "adventureBuff": "生命上限+32",
        "storageBuff": "生命上限+19",
        "storageRefineBuff": [
          {
            "lv": 6,
            "buff": "物理攻击+2，生命上限+20"
          },
          {
            "lv": 8,
            "buff": "物理攻击+6"
          }
        ],
        "isCompose": 1
      },
      {
        "id": "48525",
        "name": "单眼眼镜",
        "icon": "item_48525",
        "rank": 4,
        "position": 8,
        "effect": "",
        "buff": "魔法攻击+5%\n精炼每+1获得魔法攻击+1%，最多提升至+15%",
        "adventureBuff": "魔法攻击+4.5",
        "storageBuff": "精炼魔攻+10",
        "storageRefineBuff": [
          {
            "lv": 6,
            "buff": "物理攻击+3，物理防御+3"
          },
          {
            "lv": 8,
            "buff": "物理攻击+6，魔法防御+3"
          }
        ],
        "isCompose": 1
      },
      {
        "id": "48524",
        "name": "奶嘴",
        "icon": "item_48524",
        "rank": 3,
        "position": 9,
        "effect": "",
        "buff": "物理防御+15",
        "adventureBuff": "魔法攻击+4.5",
        "storageBuff": "生命上限+19",
        "storageRefineBuff": [
          {
            "lv": 6,
            "buff": "物理防御+4"
          },
          {
            "lv": 8,
            "buff": "物理攻击+4，魔法防御+2"
          }
        ],
        "isCompose": 1
      },
      {
        "id": "48523",
        "name": "香烟",
        "icon": "item_48523",
        "rank": 3,
        "position": 9,
        "effect": "",
        "buff": "物理防御+10\n昆虫种族减伤+5%",
        "adventureBuff": "魔法攻击+4.5",
        "storageBuff": "生命上限+19",
        "storageRefineBuff": null,
        "isCompose": 1
      },
      {
        "id": "48521",
        "name": "圣殿士面具",
        "icon": "item_48521",
        "rank": 3,
        "position": 8,
        "effect": "",
        "buff": "物理防御+15",
        "adventureBuff": "物理攻击+8",
        "storageBuff": "生命上限+19",
        "storageRefineBuff": null,
        "isCompose": 1
      },
      {
        "id": "48520",
        "name": "烟斗",
        "icon": "item_48520",
        "rank": 4,
        "position": 9,
        "effect": "",
        "buff": "力量+3\n昆虫种族减伤+10%\n精炼+10时，生命上限+10%",
        "adventureBuff": "物理攻击+12",
        "storageBuff": "精炼物攻+10",
        "storageRefineBuff": [
          {
            "lv": 6,
            "buff": "魔法攻击+3，生命上限+30"
          },
          {
            "lv": 8,
            "buff": "物理攻击+6，魔法防御+3"
          }
        ],
        "isCompose": 1
      },
      {
        "id": "48519",
        "name": "整人面具",
        "icon": "item_48519",
        "rank": 4,
        "position": 8,
        "effect": "",
        "buff": "石化抵抗+30%\n精炼每+1石化抵抗+2%，最多可提升+30%",
        "adventureBuff": "生命上限+127",
        "storageBuff": "生命上限+28",
        "storageRefineBuff": [
          {
            "lv": 6,
            "buff": "魔法攻击+3，物理防御+3"
          },
          {
            "lv": 8,
            "buff": "物理攻击+6，魔法防御+3"
          }
        ],
        "isCompose": 1
      },
      {
        "id": "48518",
        "name": "独眼眼罩",
        "icon": "item_48518",
        "rank": 2,
        "position": 8,
        "effect": "",
        "buff": "物理防御+10",
        "adventureBuff": "生命上限+55",
        "storageBuff": "生命上限+10",
        "storageRefineBuff": null,
        "isCompose": 1
      },
      {
        "id": "48517",
        "name": "哥布灵首领假面",
        "icon": "item_48517",
        "rank": 2,
        "position": 8,
        "effect": "",
        "buff": "物理防御-30\n人形种族减伤+30%",
        "adventureBuff": "生命上限+55",
        "storageBuff": "生命上限+10",
        "storageRefineBuff": [
          {
            "lv": 6,
            "buff": "物理防御+1，魔法防御+1"
          },
          {
            "lv": 8,
            "buff": "魔法攻击+2，生命上限+20"
          }
        ],
        "isCompose": 1
      },
      {
        "id": "48516",
        "name": "妖精长耳朵饰",
        "icon": "item_48516",
        "rank": 3,
        "position": 8,
        "effect": "",
        "buff": "智力+2\n魔法攻击+5%",
        "adventureBuff": "生命上限+97",
        "storageBuff": "精炼魔攻+8",
        "storageRefineBuff": [
          {
            "lv": 6,
            "buff": "魔法攻击+2，物理防御+2"
          },
          {
            "lv": 8,
            "buff": "魔法攻击+4，生命上限+40"
          }
        ],
        "isCompose": 1
      },
      {
        "id": "48515",
        "name": "黄凤蝶翅膀",
        "icon": "item_48515",
        "rank": 3,
        "position": 8,
        "effect": "",
        "buff": "物理防御+15",
        "adventureBuff": "魔法防御+4",
        "storageBuff": "生命上限+19",
        "storageRefineBuff": [
          {
            "lv": 6,
            "buff": "物理攻击+2，生命上限+20"
          },
          {
            "lv": 8,
            "buff": "生命上限+120"
          }
        ],
        "isCompose": 1
      },
      {
        "id": "48514",
        "name": "大眼睛眼镜",
        "icon": "item_48514",
        "rank": 2,
        "position": 8,
        "effect": "",
        "buff": "物理防御+10",
        "adventureBuff": "魔法防御+2",
        "storageBuff": "生命上限+10",
        "storageRefineBuff": null,
        "isCompose": 1
      },
      {
        "id": "48513",
        "name": "愤怒的嘴",
        "icon": "item_48513",
        "rank": 4,
        "position": 9,
        "effect": "",
        "buff": "可变吟唱时间-10%\n人形种族减伤+5%\n精炼每+1人形种族减伤+1%，最多可提升至+15%",
        "adventureBuff": "魔法防御+5",
        "storageBuff": "精炼魔攻+10",
        "storageRefineBuff": [
          {
            "lv": 6,
            "buff": "生命上限+90"
          },
          {
            "lv": 8,
            "buff": "物理攻击+6，魔法防御+3"
          }
        ],
        "isCompose": 1
      },
      {
        "id": "48512",
        "name": "讨厌的假面",
        "icon": "item_48512",
        "rank": 2,
        "position": 8,
        "effect": "",
        "buff": "人形种族减伤+10%",
        "adventureBuff": "物理攻击+3",
        "storageBuff": "生命上限+10",
        "storageRefineBuff": [
          {
            "lv": 6,
            "buff": "物理防御+2"
          },
          {
            "lv": 8,
            "buff": "物理攻击+2，魔法防御+1"
          }
        ],
        "isCompose": 1
      },
      {
        "id": "48511",
        "name": "无表情的假面",
        "icon": "item_48511",
        "rank": 2,
        "position": 8,
        "effect": "",
        "buff": "人形种族减伤+10%",
        "adventureBuff": "物理攻击+3",
        "storageBuff": "生命上限+10",
        "storageRefineBuff": null,
        "isCompose": 1
      },
      {
        "id": "48510",
        "name": "吓坏眼的假面",
        "icon": "item_48510",
        "rank": 2,
        "position": 8,
        "effect": "",
        "buff": "人形种族减伤+10%",
        "adventureBuff": "物理攻击+3",
        "storageBuff": "生命上限+10",
        "storageRefineBuff": null,
        "isCompose": 1
      },
      {
        "id": "48509",
        "name": "哥布灵面具",
        "icon": "item_48509",
        "rank": 2,
        "position": 8,
        "effect": "",
        "buff": "物理防御+5\n人形种族减伤+5%",
        "adventureBuff": "魔法攻击+4.5",
        "storageBuff": "生命上限+10",
        "storageRefineBuff": null,
        "isCompose": 1
      }
    ]
  }
}