{
  "code": 0,
  "status": "success",
  "timeStamp": 1643702515,
  "staticDomain": "http:\/\/rosc1.zhaiwuyu.com",
  "ip": "101.87.201.112",
  "language": "cn",
  "dbArea": 0,
  "data": {
    "page": 29,
    "pageSize": 30,
    "pageCount": 70,
    "total": 2073,
    "list": [
      {
        "id": "3032290",
        "name": "子头巾",
        "icon": "item_3032290",
        "rank": 2,
        "position": 7,
        "effect": "",
        "buff": "生命上限+300\n魔法上限+30",
        "adventureBuff": "魔法防御+3",
        "storageBuff": "物理防御+3",
        "storageRefineBuff": null,
        "isCompose": 0
      },
      {
        "id": "3001740",
        "name": "病毒抵御者",
        "icon": "item_3001740",
        "rank": 2,
        "position": 9,
        "effect": "",
        "buff": "幸运+3\n受到毒属性伤害-3%\n中毒抵抗+10%",
        "adventureBuff": "",
        "storageBuff": "生命上限+30",
        "storageRefineBuff": null,
        "isCompose": 0
      },
      {
        "id": "3001600",
        "name": "温暖的棒球帽[1]",
        "icon": "item_3001600",
        "rank": 1,
        "position": 7,
        "effect": "",
        "buff": "剑士系，刺客系，弓手系，牧师系，商人系，超初系，忍者系，枪手系装备时物理攻击+10\n法师系，多兰族，悟灵士系装备时魔法攻击+10",
        "adventureBuff": "",
        "storageBuff": "生命上限+10",
        "storageRefineBuff": null,
        "isCompose": 0
      },
      {
        "id": "3001326",
        "name": "怨毒的面容",
        "icon": "item_3001326",
        "rank": 2,
        "position": 11,
        "effect": "",
        "buff": "生命上限+200",
        "adventureBuff": "",
        "storageBuff": "生命上限+30",
        "storageRefineBuff": null,
        "isCompose": 0
      },
      {
        "id": "3001325",
        "name": "虞眉姬",
        "icon": "item_3001325",
        "rank": 2,
        "position": 8,
        "effect": "",
        "buff": "体质+3\n生命上限+300",
        "adventureBuff": "",
        "storageBuff": "生命上限+60\n物理防御+4",
        "storageRefineBuff": null,
        "isCompose": 0
      },
      {
        "id": "3001324",
        "name": "武魂信仰",
        "icon": "item_3001324",
        "rank": 2,
        "position": 9,
        "effect": "",
        "buff": "力量+3\n物理攻击+30",
        "adventureBuff": "",
        "storageBuff": "物理攻击+4\n魔法攻击+4",
        "storageRefineBuff": null,
        "isCompose": 0
      },
      {
        "id": "3001323",
        "name": "诗菊短册",
        "icon": "item_3001323",
        "rank": 2,
        "position": 9,
        "effect": "",
        "buff": "全能力+1\n人形种族加伤+2%",
        "adventureBuff": "",
        "storageBuff": "生命上限+60\n魔法防御+4",
        "storageRefineBuff": null,
        "isCompose": 0
      },
      {
        "id": "3001322",
        "name": "结云铃扇",
        "icon": "item_3001322",
        "rank": 3,
        "position": 10,
        "effect": "",
        "buff": "智力+5\n灵巧+5\n风属性攻击+10%",
        "adventureBuff": "",
        "storageBuff": "物理攻击+6\n魔法攻击+6",
        "storageRefineBuff": null,
        "isCompose": 0
      },
      {
        "id": "3001321",
        "name": "永恒奴役",
        "icon": "item_3001321",
        "rank": 3,
        "position": 10,
        "effect": "",
        "buff": "人形种族加伤+5%\n攻击目标时，自身有15%概率获得一层“狂气”效果：人形种族加伤+2%，持续3秒，最多可叠加5层",
        "adventureBuff": "",
        "storageBuff": "生命上限+120",
        "storageRefineBuff": null,
        "isCompose": 0
      },
      {
        "id": "3001320",
        "name": "地渊悲鸣[1]",
        "icon": "item_3001320",
        "rank": 4,
        "position": 7,
        "effect": "",
        "buff": "对大型魔物伤害+10%\n精炼+6时，对MVP、Mini魔物造成的伤害+5%",
        "adventureBuff": "",
        "storageBuff": "物理攻击+1%\n魔法攻击+1%",
        "storageRefineBuff": null,
        "isCompose": 0
      },
      {
        "id": "3001179",
        "name": "祈祷灵兽系列坐骑",
        "icon": "item_3001177",
        "rank": 5,
        "position": 12,
        "effect": "",
        "buff": "移动速度+25%\n可以使用技能【羊羊助力】",
        "adventureBuff": "物理攻击+6，魔法攻击+6",
        "storageBuff": "",
        "storageRefineBuff": null,
        "isCompose": 0
      },
      {
        "id": "3001176",
        "name": "圣歌的祝福",
        "icon": "item_3001176",
        "rank": 5,
        "position": 10,
        "effect": "",
        "buff": "全能力+2\n物理穿刺+4%\n魔法穿刺+4%",
        "adventureBuff": "",
        "storageBuff": "生命上限+90",
        "storageRefineBuff": null,
        "isCompose": 0
      },
      {
        "id": "3001175",
        "name": "真视之镜",
        "icon": "item_3001175",
        "rank": 3,
        "position": 8,
        "effect": "",
        "buff": "物伤减免+5%\n人形种族减伤+5%",
        "adventureBuff": "",
        "storageBuff": "物理攻击+6",
        "storageRefineBuff": null,
        "isCompose": 0
      },
      {
        "id": "3001174",
        "name": "云端乐章",
        "icon": "item_3001174",
        "rank": 3,
        "position": 11,
        "effect": "",
        "buff": "魔法攻击+2%\n可变吟唱时间-5%",
        "adventureBuff": "",
        "storageBuff": "魔法攻击+6",
        "storageRefineBuff": null,
        "isCompose": 0
      },
      {
        "id": "3001173",
        "name": "布莱奇之翼",
        "icon": "item_3001173",
        "rank": 3,
        "position": 10,
        "effect": "",
        "buff": "对动物种族伤害+10%\n受到动物种族魔物伤害-10%",
        "adventureBuff": "",
        "storageBuff": "生命上限+60",
        "storageRefineBuff": null,
        "isCompose": 0
      },
      {
        "id": "3001172",
        "name": "星辰之谕",
        "icon": "item_3001172",
        "rank": 3,
        "position": 7,
        "effect": "",
        "buff": "对水属性魔物伤害+8%\n受到水属性伤害-8%",
        "adventureBuff": "",
        "storageBuff": "物理攻击+3，生命上限+30",
        "storageRefineBuff": null,
        "isCompose": 0
      },
      {
        "id": "3001171",
        "name": "圣堂之歌",
        "icon": "item_3001171",
        "rank": 3,
        "position": 7,
        "effect": "",
        "buff": "魔法攻击+20\n风属性攻击+6%",
        "adventureBuff": "",
        "storageBuff": "魔法攻击+3，生命上限+30",
        "storageRefineBuff": null,
        "isCompose": 0
      },
      {
        "id": "3001169",
        "name": "晴空诗语系列头饰",
        "icon": "item_3001169",
        "rank": 3,
        "position": 7,
        "effect": "",
        "buff": "全能力+2\n技能伤害+4%",
        "adventureBuff": "",
        "storageBuff": "物理防御+2，生命上限+30",
        "storageRefineBuff": null,
        "isCompose": 0
      },
      {
        "id": "3001164",
        "name": "云端微风系列头饰",
        "icon": "item_3001164",
        "rank": 3,
        "position": 7,
        "effect": "",
        "buff": "全能力+2\n普攻伤害+4%",
        "adventureBuff": "",
        "storageBuff": "魔法防御+2，生命上限+30",
        "storageRefineBuff": null,
        "isCompose": 0
      },
      {
        "id": "3001144",
        "name": "晴空唱诗班系列时装",
        "icon": "item_3001144",
        "rank": 1,
        "position": 13,
        "effect": "",
        "buff": "",
        "adventureBuff": "物理攻击+1%\n魔法攻击+1%",
        "storageBuff": "生命上限+200",
        "storageRefineBuff": null,
        "isCompose": 0
      },
      {
        "id": "3032248",
        "name": "炸鸡之魂",
        "icon": "item_3032248",
        "rank": 3,
        "position": 10,
        "effect": "",
        "buff": "全能力+3\n物理攻击+8%\n魔法攻击+8%",
        "adventureBuff": "物理攻击+3，生命上限+30",
        "storageBuff": "魔法攻击+3，生命上限+30",
        "storageRefineBuff": null,
        "isCompose": 1
      },
      {
        "id": "3032214",
        "name": "爱与勇气的冒险·2020",
        "icon": "item_3032214",
        "rank": 2,
        "position": 7,
        "effect": "",
        "buff": "全能力+3\n生命上限+300",
        "adventureBuff": "生命上限+30",
        "storageBuff": "生命上限+30",
        "storageRefineBuff": null,
        "isCompose": 1
      },
      {
        "id": "3031700",
        "name": "我是熊本熊",
        "icon": "item_3031700",
        "rank": 3,
        "position": 7,
        "effect": "",
        "buff": "人形种族加伤+5%\n物理攻击+40\n魔法攻击+40",
        "adventureBuff": "物理攻击+3，生命上限+30",
        "storageBuff": "生命上限+60",
        "storageRefineBuff": null,
        "isCompose": 1
      },
      {
        "id": "3001452",
        "name": "天使羽翼系列背饰",
        "icon": "item_3001452",
        "rank": 2,
        "position": 10,
        "effect": "",
        "buff": "全能力+1\n物理攻击+30\n魔法攻击+30",
        "adventureBuff": "",
        "storageBuff": "生命上限+30",
        "storageRefineBuff": null,
        "isCompose": 0
      },
      {
        "id": "3001392",
        "name": "庆典王冠系列头饰",
        "icon": "item_3001392",
        "rank": 3,
        "position": 7,
        "effect": "",
        "buff": "生命上限+5%\n魔法上限+50",
        "adventureBuff": "",
        "storageBuff": "生命上限+60",
        "storageRefineBuff": null,
        "isCompose": 0
      },
      {
        "id": "3001334",
        "name": "熊本熊向前进",
        "icon": "item_3001334",
        "rank": 1,
        "position": 11,
        "effect": "",
        "buff": "全能力+2\n物理穿刺+2%\n魔法穿刺+2%",
        "adventureBuff": "",
        "storageBuff": "物理攻击+6\n魔法攻击+6",
        "storageRefineBuff": null,
        "isCompose": 0
      },
      {
        "id": "3001192",
        "name": "皇家庆典系列时装",
        "icon": "item_3001192",
        "rank": 1,
        "position": 13,
        "effect": "",
        "buff": "",
        "adventureBuff": "物理攻击+1%\n魔法攻击+1%",
        "storageBuff": "物理防御+1%，魔法防御+1%",
        "storageRefineBuff": null,
        "isCompose": 0
      },
      {
        "id": "3001000",
        "name": "惊喜波利",
        "icon": "item_3001000",
        "rank": 3,
        "position": 7,
        "effect": "",
        "buff": "全能力+2\n对全种族伤害+3%",
        "adventureBuff": "",
        "storageBuff": "生命上限+60",
        "storageRefineBuff": null,
        "isCompose": 0
      },
      {
        "id": "3000995",
        "name": "圣灵",
        "icon": "item_3000995",
        "rank": 5,
        "position": 10,
        "effect": "",
        "buff": "全能力+2\n物理穿刺+4%\n魔法穿刺+4%",
        "adventureBuff": "",
        "storageBuff": "生命上限+90",
        "storageRefineBuff": null,
        "isCompose": 0
      },
      {
        "id": "3000994",
        "name": "路易十六伯爵",
        "icon": "item_3000994",
        "rank": 3,
        "position": 11,
        "effect": "",
        "buff": "生命上限+3%\n生命上限+1500",
        "adventureBuff": "",
        "storageBuff": "物理攻击+3，生命上限+30",
        "storageRefineBuff": null,
        "isCompose": 0
      }
    ]
  }
}