{
  "code": 0,
  "status": "success",
  "timeStamp": 1642842511,
  "staticDomain": "http:\/\/rosc1.zhaiwuyu.com",
  "ip": "101.87.200.160",
  "language": "cn",
  "dbArea": 0,
  "data": {
    "page": 10,
    "pageSize": 30,
    "pageCount": 68,
    "total": 2037,
    "list": [
      {
        "id": "3003395",
        "name": "巧豆姑娘",
        "icon": "item_3003395",
        "rank": 2,
        "position": 11,
        "effect": "",
        "buff": "幸运+2\n暴击伤害+2%",
        "adventureBuff": "",
        "storageBuff": "生命上限+60\n物理防御+4",
        "storageRefineBuff": null,
        "isCompose": 0
      },
      {
        "id": "3003394",
        "name": "甜蜜星月",
        "icon": "item_3003394",
        "rank": 2,
        "position": 10,
        "effect": "",
        "buff": "移动速度+3%\n生命上限+300",
        "adventureBuff": "",
        "storageBuff": "物理攻击+4\n魔法攻击+4",
        "storageRefineBuff": null,
        "isCompose": 0
      },
      {
        "id": "3003393",
        "name": "泰迪之吻[1]",
        "icon": "item_3003393",
        "rank": 2,
        "position": 7,
        "effect": "",
        "buff": "智力+3\n忽视魔法防御+3%",
        "adventureBuff": "",
        "storageBuff": "生命上限+60\n魔法防御+4",
        "storageRefineBuff": null,
        "isCompose": 0
      },
      {
        "id": "3003392",
        "name": "糖分不确定性",
        "icon": "item_3003392",
        "rank": 3,
        "position": 8,
        "effect": "",
        "buff": "对全种族伤害+5%\n任意三条六维属性（力量、敏捷、体质、智力、灵巧、幸运）达到159，击杀目标时,有5%概率额外获得20Zeny",
        "adventureBuff": "",
        "storageBuff": "物理攻击+6\n魔法攻击+6",
        "storageRefineBuff": null,
        "isCompose": 0
      },
      {
        "id": "3003391",
        "name": "甘草魔泡棒",
        "icon": "item_3003391",
        "rank": 3,
        "position": 9,
        "effect": "",
        "buff": "每120秒恢复所有生命\n自身生命值低于50%时,技能伤害减免+10%",
        "adventureBuff": "",
        "storageBuff": "生命上限+120",
        "storageRefineBuff": null,
        "isCompose": 0
      },
      {
        "id": "3003390",
        "name": "羞涩时刻[1]",
        "icon": "item_3003390",
        "rank": 4,
        "position": 7,
        "effect": "",
        "buff": "全能力+2\n对魔物（包含MVP、Mini魔物）增伤+10%\n精炼+6时，对MVP、Mini魔物魔物增伤+5%",
        "adventureBuff": "",
        "storageBuff": "物理攻击+1%\n魔法攻击+1%",
        "storageRefineBuff": null,
        "isCompose": 0
      },
      {
        "id": "900250",
        "name": "冥河水怪·教皇宠物蛋",
        "icon": "item_900250",
        "rank": 1,
        "position": 12,
        "effect": "",
        "buff": "移动速度+25%",
        "adventureBuff": "",
        "storageBuff": "",
        "storageRefineBuff": null,
        "isCompose": 0
      },
      {
        "id": "900249",
        "name": "冥河水怪·国王宠物蛋",
        "icon": "item_900249",
        "rank": 1,
        "position": 12,
        "effect": "",
        "buff": "移动速度+25%",
        "adventureBuff": "",
        "storageBuff": "",
        "storageRefineBuff": null,
        "isCompose": 0
      },
      {
        "id": "900248",
        "name": "冥河水怪宠物蛋",
        "icon": "item_900248",
        "rank": 1,
        "position": 12,
        "effect": "",
        "buff": "移动速度+25%",
        "adventureBuff": "",
        "storageBuff": "",
        "storageRefineBuff": null,
        "isCompose": 0
      },
      {
        "id": "149553",
        "name": "提灯男爵[1]",
        "icon": "item_49553",
        "rank": 3,
        "position": 7,
        "effect": "",
        "buff": "生命上限+1000\n竞技场模式（6V6）中，定身、流血类型攻击的效果（概率和时间）+25%",
        "adventureBuff": "",
        "storageBuff": "生命上限+60",
        "storageRefineBuff": null,
        "isCompose": 0
      },
      {
        "id": "51662",
        "name": "幻影系列时装",
        "icon": "item_51662",
        "rank": 1,
        "position": 13,
        "effect": "",
        "buff": "",
        "adventureBuff": "",
        "storageBuff": "生命上限+60",
        "storageRefineBuff": null,
        "isCompose": 0
      },
      {
        "id": "49552",
        "name": "波姬系列头饰",
        "icon": "item_49552",
        "rank": 2,
        "position": 7,
        "effect": "",
        "buff": "物伤减免+3%",
        "adventureBuff": "",
        "storageBuff": "物理攻击+3",
        "storageRefineBuff": null,
        "isCompose": 0
      },
      {
        "id": "48113",
        "name": "冥府之眼",
        "icon": "item_48113",
        "rank": 3,
        "position": 11,
        "effect": "",
        "buff": "魔伤减免+4%\n竞技场模式（6V6）中，技能伤害减免+10%",
        "adventureBuff": "",
        "storageBuff": "魔法攻击+3，生命上限+30",
        "storageRefineBuff": null,
        "isCompose": 0
      },
      {
        "id": "47259",
        "name": "地牢卫士",
        "icon": "item_47259",
        "rank": 3,
        "position": 10,
        "effect": "",
        "buff": "物伤减免+4%\n竞技场模式（6V6）中，普攻伤害减免+10%",
        "adventureBuff": "",
        "storageBuff": "物理攻击+3，生命上限+30",
        "storageRefineBuff": null,
        "isCompose": 0
      },
      {
        "id": "47258",
        "name": "回应之人",
        "icon": "item_47258",
        "rank": 4,
        "position": 10,
        "effect": "",
        "buff": "全能力+2\n普攻伤害+4%\n技能伤害+4%",
        "adventureBuff": "",
        "storageBuff": "生命上限+90",
        "storageRefineBuff": null,
        "isCompose": 0
      },
      {
        "id": "25164",
        "name": "黎明火焰",
        "icon": "item_25164",
        "rank": 5,
        "position": 12,
        "effect": "",
        "buff": "移动速度+25%",
        "adventureBuff": "物理攻击+8，魔法攻击+8",
        "storageBuff": "",
        "storageRefineBuff": null,
        "isCompose": 0
      },
      {
        "id": "3003652",
        "name": "春樱发卡",
        "icon": "item_3003652",
        "rank": 2,
        "position": 7,
        "effect": "",
        "buff": "全能力+2\n生命上限+400",
        "adventureBuff": "",
        "storageBuff": "生命上限+30",
        "storageRefineBuff": null,
        "isCompose": 0
      },
      {
        "id": "3003651",
        "name": "熊猫背篓",
        "icon": "item_3003651",
        "rank": 2,
        "position": 10,
        "effect": "",
        "buff": "对植物种族伤害+3%\n受到植物种族魔物伤害-3%",
        "adventureBuff": "",
        "storageBuff": "魔法防御+3",
        "storageRefineBuff": null,
        "isCompose": 0
      },
      {
        "id": "3003650",
        "name": "青空之梦",
        "icon": "item_3003650",
        "rank": 2,
        "position": 11,
        "effect": "",
        "buff": "灵巧+5\n物理攻击+25",
        "adventureBuff": "",
        "storageBuff": "物理防御+3",
        "storageRefineBuff": null,
        "isCompose": 0
      },
      {
        "id": "3003536",
        "name": "樱花祭便当",
        "icon": "item_3003536",
        "rank": 2,
        "position": 10,
        "effect": "",
        "buff": "物理攻击+20\n物理防御+10",
        "adventureBuff": "",
        "storageBuff": "生命上限+30",
        "storageRefineBuff": null,
        "isCompose": 0
      },
      {
        "id": "3003535",
        "name": "鸠居笔",
        "icon": "item_3003535",
        "rank": 2,
        "position": 9,
        "effect": "",
        "buff": "对普通魔物（不包含MVP、Mini魔物）增伤+3%",
        "adventureBuff": "",
        "storageBuff": "生命上限+60\n物理防御+4",
        "storageRefineBuff": null,
        "isCompose": 0
      },
      {
        "id": "3003534",
        "name": "山樱切",
        "icon": "item_3003534",
        "rank": 2,
        "position": 10,
        "effect": "",
        "buff": "全能力+1\n物理攻击+2%",
        "adventureBuff": "",
        "storageBuff": "物理攻击+4\n魔法攻击+4",
        "storageRefineBuff": null,
        "isCompose": 0
      },
      {
        "id": "3003533",
        "name": "枝垂樱[1]",
        "icon": "item_3003533",
        "rank": 2,
        "position": 7,
        "effect": "",
        "buff": "生命上限+300\n受到植物种族魔物伤害-3%",
        "adventureBuff": "",
        "storageBuff": "生命上限+60\n魔法防御+4",
        "storageRefineBuff": null,
        "isCompose": 0
      },
      {
        "id": "3003532",
        "name": "金箔狐面",
        "icon": "item_3003532",
        "rank": 3,
        "position": 8,
        "effect": "",
        "buff": "物理普通攻击对魔物（包含MVP、Mini魔物）必定暴击，但基础暴击伤害由150%降低为125%\n每2点暴击额外增加0.5%暴击伤害",
        "adventureBuff": "",
        "storageBuff": "物理攻击+6\n魔法攻击+6",
        "storageRefineBuff": null,
        "isCompose": 0
      },
      {
        "id": "3003531",
        "name": "天水风铃",
        "icon": "item_3003531",
        "rank": 3,
        "position": 9,
        "effect": "",
        "buff": "对鱼贝种族伤害+10%\n对水属性魔物伤害+10%",
        "adventureBuff": "",
        "storageBuff": "生命上限+120",
        "storageRefineBuff": null,
        "isCompose": 0
      },
      {
        "id": "3003530",
        "name": "玉藻之尾",
        "icon": "item_3003530",
        "rank": 4,
        "position": 10,
        "effect": "",
        "buff": "物理穿刺+5%\n魔法穿刺+5%\n对于血量低于40%的目标最终伤害增加10%",
        "adventureBuff": "",
        "storageBuff": "物理攻击+1%\n魔法攻击+1%",
        "storageRefineBuff": null,
        "isCompose": 0
      },
      {
        "id": "49521",
        "name": "诗神的祝福",
        "icon": "item_49521",
        "rank": 3,
        "position": 7,
        "effect": "",
        "buff": "生命上限+3%\n人形种族减伤+5%",
        "adventureBuff": "",
        "storageBuff": "生命上限+60",
        "storageRefineBuff": null,
        "isCompose": 0
      },
      {
        "id": "3003610",
        "name": "黄金四翼女武神",
        "icon": "item_3003610",
        "rank": 5,
        "position": 10,
        "effect": "",
        "buff": "全能力+4\n物理穿刺+5%\n魔法穿刺+5%",
        "adventureBuff": "",
        "storageBuff": "物理攻击+12\n魔法攻击+12",
        "storageRefineBuff": null,
        "isCompose": 0
      },
      {
        "id": "3003371",
        "name": "精灵的祝福",
        "icon": "item_3003371",
        "rank": 3,
        "position": 11,
        "effect": "",
        "buff": "技能伤害+2%\n可变吟唱时间-3%",
        "adventureBuff": "魔法攻击+3，生命上限+30",
        "storageBuff": "物理防御+2，生命上限+30",
        "storageRefineBuff": null,
        "isCompose": 1
      },
      {
        "id": "3003370",
        "name": "精灵之眼",
        "icon": "item_3003370",
        "rank": 3,
        "position": 8,
        "effect": "",
        "buff": "生命上限+500\n物伤减免+5%\n魔伤减免+5%",
        "adventureBuff": "魔法防御+2，生命上限+30",
        "storageBuff": "生命上限+60",
        "storageRefineBuff": null,
        "isCompose": 1
      }
    ]
  }
}