{
  "code": 0,
  "status": "success",
  "timeStamp": 1642842912,
  "staticDomain": "http:\/\/rosc1.zhaiwuyu.com",
  "ip": "101.87.200.160",
  "language": "cn",
  "dbArea": 0,
  "data": {
    "page": 50,
    "pageSize": 30,
    "pageCount": 68,
    "total": 2037,
    "list": [
      {
        "id": "47098",
        "name": "绯红之印",
        "icon": "item_47098",
        "rank": 4,
        "position": 10,
        "effect": "",
        "buff": "魔伤减免+5%\n灵巧+2\n敏捷+2",
        "adventureBuff": "魔法攻击+4.5，生命上限+45",
        "storageBuff": "生命上限+90",
        "storageRefineBuff": null,
        "isCompose": 1
      },
      {
        "id": "47094",
        "name": "曙光之翼",
        "icon": "item_47094",
        "rank": 4,
        "position": 10,
        "effect": "",
        "buff": "生命上限+800\n全能力+2\n移动速度+3%",
        "adventureBuff": "魔法攻击+4.5，生命上限+45",
        "storageBuff": "物理防御+3，生命上限+45",
        "storageRefineBuff": null,
        "isCompose": 1
      },
      {
        "id": "47078",
        "name": "燃烧禁止",
        "icon": "item_47078",
        "rank": 2,
        "position": 10,
        "effect": "",
        "buff": "全能力+1\n物理攻击+15",
        "adventureBuff": "魔法防御+2",
        "storageBuff": "生命上限+30",
        "storageRefineBuff": null,
        "isCompose": 1
      },
      {
        "id": "45880",
        "name": "粉黛",
        "icon": "item_45880",
        "rank": 3,
        "position": 7,
        "effect": "",
        "buff": "魔法攻击+3%\n忽视魔法防御+3%",
        "adventureBuff": "",
        "storageBuff": "魔法攻击+3，生命上限+30",
        "storageRefineBuff": null,
        "isCompose": 0
      },
      {
        "id": "45879",
        "name": "祈风",
        "icon": "item_45879",
        "rank": 3,
        "position": 7,
        "effect": "",
        "buff": "生命上限+4%\n魔法上限+4%",
        "adventureBuff": "",
        "storageBuff": "物理攻击+3，生命上限+30",
        "storageRefineBuff": null,
        "isCompose": 0
      },
      {
        "id": "45878",
        "name": "悠悠铃音系列头饰",
        "icon": "item_45878",
        "rank": 3,
        "position": 7,
        "effect": "",
        "buff": "全能力+1\n魔法伤害+3%",
        "adventureBuff": "",
        "storageBuff": "物理防御+2，生命上限+30",
        "storageRefineBuff": null,
        "isCompose": 0
      },
      {
        "id": "45877",
        "name": "袅袅聆音系列头饰",
        "icon": "item_45877",
        "rank": 3,
        "position": 7,
        "effect": "",
        "buff": "全能力+1\n物理伤害+3%",
        "adventureBuff": "",
        "storageBuff": "魔法防御+2，生命上限+30",
        "storageRefineBuff": null,
        "isCompose": 0
      },
      {
        "id": "45689",
        "name": "双角犀鸟冠",
        "icon": "item_45689",
        "rank": 3,
        "position": 7,
        "effect": "",
        "buff": "物理攻击+45\n力量+2\n幸运+2",
        "adventureBuff": "魔法防御+4",
        "storageBuff": "物理攻击+3，生命上限+30",
        "storageRefineBuff": null,
        "isCompose": 1
      },
      {
        "id": "45688",
        "name": "鹦鹦之羽",
        "icon": "item_45688",
        "rank": 3,
        "position": 7,
        "effect": "",
        "buff": "物理攻击+45\n灵巧+2\n敏捷+2",
        "adventureBuff": "魔法攻击+3，生命上限+30",
        "storageBuff": "生命上限+60",
        "storageRefineBuff": null,
        "isCompose": 1
      },
      {
        "id": "45687",
        "name": "鹉雀发夹",
        "icon": "item_45687",
        "rank": 3,
        "position": 7,
        "effect": "",
        "buff": "魔法防御+20\n魔法防御+4%",
        "adventureBuff": "生命上限+60",
        "storageBuff": "魔法防御+2，生命上限+30",
        "storageRefineBuff": null,
        "isCompose": 1
      },
      {
        "id": "45651",
        "name": "啾啾云雀",
        "icon": "item_45651",
        "rank": 3,
        "position": 7,
        "effect": "",
        "buff": "生命上限+400\n生命上限+3%",
        "adventureBuff": "魔法攻击+3，生命上限+30",
        "storageBuff": "生命上限+60",
        "storageRefineBuff": null,
        "isCompose": 1
      },
      {
        "id": "45650",
        "name": "圣十字使",
        "icon": "item_45650",
        "rank": 3,
        "position": 7,
        "effect": "",
        "buff": "智力+2\n体质+2\n生命上限+300\n魔法上限+50",
        "adventureBuff": "魔法防御+2，生命上限+30",
        "storageBuff": "物理防御+2，生命上限+30",
        "storageRefineBuff": null,
        "isCompose": 1
      },
      {
        "id": "45649",
        "name": "毗摩质多罗的角",
        "icon": "item_45649",
        "rank": 3,
        "position": 7,
        "effect": "",
        "buff": "力量+2\n智力+2\n生命上限+300\n魔法上限+50",
        "adventureBuff": "魔法防御+2，生命上限+30",
        "storageBuff": "物理防御+2，生命上限+30",
        "storageRefineBuff": null,
        "isCompose": 1
      },
      {
        "id": "45648",
        "name": "魔力激荡者",
        "icon": "item_45648",
        "rank": 3,
        "position": 7,
        "effect": "",
        "buff": "力量+2\n敏捷+2\n生命上限+300\n魔法上限+50",
        "adventureBuff": "魔法防御+2，生命上限+30",
        "storageBuff": "物理防御+2，生命上限+30",
        "storageRefineBuff": null,
        "isCompose": 1
      },
      {
        "id": "45647",
        "name": "御龙银盔",
        "icon": "item_45647",
        "rank": 3,
        "position": 7,
        "effect": "",
        "buff": "力量+2\n体质+2\n生命上限+300\n魔法上限+50",
        "adventureBuff": "魔法防御+2，生命上限+30",
        "storageBuff": "物理防御+2，生命上限+30",
        "storageRefineBuff": null,
        "isCompose": 1
      },
      {
        "id": "45646",
        "name": "纯白尖塔",
        "icon": "item_45646",
        "rank": 3,
        "position": 7,
        "effect": "",
        "buff": "智力+2\n灵巧+2\n生命上限+300\n魔法上限+50",
        "adventureBuff": "魔法防御+2，生命上限+30",
        "storageBuff": "物理防御+2，生命上限+30",
        "storageRefineBuff": null,
        "isCompose": 1
      },
      {
        "id": "45645",
        "name": "斑毛狼耳",
        "icon": "item_45645",
        "rank": 3,
        "position": 7,
        "effect": "",
        "buff": "力量+2\n敏捷+2\n生命上限+300\n魔法上限+50",
        "adventureBuff": "魔法防御+2，生命上限+30",
        "storageBuff": "物理防御+2，生命上限+30",
        "storageRefineBuff": null,
        "isCompose": 1
      },
      {
        "id": "45644",
        "name": "护林小队帽",
        "icon": "item_45644",
        "rank": 3,
        "position": 7,
        "effect": "",
        "buff": "灵巧+2\n幸运+2\n生命上限+300\n魔法上限+50",
        "adventureBuff": "魔法防御+2，生命上限+30",
        "storageBuff": "物理防御+2，生命上限+30",
        "storageRefineBuff": null,
        "isCompose": 1
      },
      {
        "id": "45643",
        "name": "飞天猫仔帽",
        "icon": "item_45643",
        "rank": 3,
        "position": 7,
        "effect": "",
        "buff": "力量+2\n敏捷+2\n生命上限+300\n魔法上限+50",
        "adventureBuff": "魔法防御+2，生命上限+30",
        "storageBuff": "物理防御+2，生命上限+30",
        "storageRefineBuff": null,
        "isCompose": 1
      },
      {
        "id": "45642",
        "name": "杀意犀角",
        "icon": "item_45642",
        "rank": 3,
        "position": 7,
        "effect": "",
        "buff": "力量+2\n幸运+2\n生命上限+300\n魔法上限+50",
        "adventureBuff": "魔法防御+2，生命上限+30",
        "storageBuff": "物理防御+2，生命上限+30",
        "storageRefineBuff": null,
        "isCompose": 1
      },
      {
        "id": "45641",
        "name": "生命之轮",
        "icon": "item_45641",
        "rank": 3,
        "position": 7,
        "effect": "",
        "buff": "力量+2\n体质+2\n生命上限+300\n魔法上限+50",
        "adventureBuff": "魔法防御+2，生命上限+30",
        "storageBuff": "物理防御+2，生命上限+30",
        "storageRefineBuff": null,
        "isCompose": 1
      },
      {
        "id": "45640",
        "name": "独角兽盔",
        "icon": "item_45640",
        "rank": 3,
        "position": 7,
        "effect": "",
        "buff": "物理防御+30\n物理防御+4%",
        "adventureBuff": "生命上限+60",
        "storageBuff": "物理防御+2，生命上限+30",
        "storageRefineBuff": null,
        "isCompose": 1
      },
      {
        "id": "45638",
        "name": "打铁面具",
        "icon": "item_45638",
        "rank": 2,
        "position": 7,
        "effect": "",
        "buff": "受到火属性伤害-2%\n物理防御+10\n魔法防御+5",
        "adventureBuff": "物理防御+2",
        "storageBuff": "生命上限+30",
        "storageRefineBuff": null,
        "isCompose": 1
      },
      {
        "id": "45636",
        "name": "见习飞空艇船长帽",
        "icon": "item_45636",
        "rank": 3,
        "position": 7,
        "effect": "",
        "buff": "人形种族加伤+3%\n人形种族减伤+3%",
        "adventureBuff": "物理攻击+3，生命上限+30",
        "storageBuff": "生命上限+60",
        "storageRefineBuff": null,
        "isCompose": 1
      },
      {
        "id": "45633",
        "name": "天兽角",
        "icon": "item_45633",
        "rank": 3,
        "position": 7,
        "effect": "",
        "buff": "魔法攻击+30\n智力+2\n体质+2",
        "adventureBuff": "物理防御+4",
        "storageBuff": "魔法攻击+3，生命上限+30",
        "storageRefineBuff": null,
        "isCompose": 1
      },
      {
        "id": "45575",
        "name": "朱诺守备官",
        "icon": "item_45575",
        "rank": 2,
        "position": 7,
        "effect": "",
        "buff": "魔法攻击+1%\n智力+2",
        "adventureBuff": "物理攻击+3",
        "storageBuff": "物理防御+2",
        "storageRefineBuff": null,
        "isCompose": 1
      },
      {
        "id": "45574",
        "name": "金苹果的秘密",
        "icon": "item_45574",
        "rank": 2,
        "position": 7,
        "effect": "",
        "buff": "物理攻击+1%\n力量+2",
        "adventureBuff": "魔法攻击+3",
        "storageBuff": "魔法防御+2",
        "storageRefineBuff": null,
        "isCompose": 1
      },
      {
        "id": "145690",
        "name": "黄金触角[1]",
        "icon": "item_45690",
        "rank": 3,
        "position": 7,
        "effect": "",
        "buff": "物理穿刺+2%\n物理攻击+45\n力量+2",
        "adventureBuff": "物理防御+2，魔法防御+2",
        "storageBuff": "生命上限+60",
        "storageRefineBuff": null,
        "isCompose": 1
      },
      {
        "id": "145635",
        "name": "天空护卫头盔[1]",
        "icon": "item_45635",
        "rank": 2,
        "position": 7,
        "effect": "",
        "buff": "物伤减免+2%\n魔伤减免+2%",
        "adventureBuff": "生命上限+30",
        "storageBuff": "物理防御+2",
        "storageRefineBuff": null,
        "isCompose": 1
      },
      {
        "id": "145634",
        "name": "羽毛发卡[1]",
        "icon": "item_45634",
        "rank": 3,
        "position": 7,
        "effect": "",
        "buff": "物伤减免+3%\n物理防御+5%\n生命上限+2%",
        "adventureBuff": "魔法防御+2，生命上限+30",
        "storageBuff": "物理攻击+3，生命上限+30",
        "storageRefineBuff": null,
        "isCompose": 1
      }
    ]
  }
}