{
  "code": 0,
  "status": "success",
  "timeStamp": 1642842993,
  "staticDomain": "http:\/\/rosc1.zhaiwuyu.com",
  "ip": "101.87.200.160",
  "language": "cn",
  "dbArea": 0,
  "data": {
    "page": 58,
    "pageSize": 30,
    "pageCount": 68,
    "total": 2037,
    "list": [
      {
        "id": "47036",
        "name": "万圣惊魂夜",
        "icon": "item_47036",
        "rank": 3,
        "position": 10,
        "effect": "",
        "buff": "普通攻击时30%概率提高物理攻击20点持续8秒，最多叠加10层",
        "adventureBuff": "生命上限+21",
        "storageBuff": "生命上限+120",
        "storageRefineBuff": null,
        "isCompose": 0
      },
      {
        "id": "45292",
        "name": "甜蜜的死亡",
        "icon": "item_45292",
        "rank": 2,
        "position": 9,
        "effect": "",
        "buff": "受治疗加成+3%\n生命上限+100",
        "adventureBuff": "",
        "storageBuff": "生命上限+60",
        "storageRefineBuff": null,
        "isCompose": 0
      },
      {
        "id": "45290",
        "name": "不给糖就捣蛋",
        "icon": "item_45290",
        "rank": 3,
        "position": 10,
        "effect": "",
        "buff": "使用技能（不含普通攻击）时50%概率提高魔法攻击20点持续15秒，最多叠加5层",
        "adventureBuff": "生命上限+21",
        "storageBuff": "物理攻击+7.5，魔法攻击+7.5",
        "storageRefineBuff": null,
        "isCompose": 0
      },
      {
        "id": "45289",
        "name": "银月魔女的猫",
        "icon": "item_45289",
        "rank": 4,
        "position": 11,
        "effect": "",
        "buff": "普通攻击时附带自身现有Sp值*（1+Luk\/100）的物理伤害\n每次普通攻击自身Sp-2",
        "adventureBuff": "",
        "storageBuff": "精炼物攻+10\n精炼魔攻+10",
        "storageRefineBuff": null,
        "isCompose": 0
      },
      {
        "id": "45287",
        "name": "小恶魔耳机",
        "icon": "item_45287",
        "rank": 1,
        "position": 7,
        "effect": "",
        "buff": "生命上限+50\n魔法上限+50",
        "adventureBuff": "",
        "storageBuff": "物理攻击+4.5，魔法攻击+4.5",
        "storageRefineBuff": null,
        "isCompose": 0
      },
      {
        "id": "145284",
        "name": "致·爱丽丝[1]",
        "icon": "item_45284",
        "rank": 2,
        "position": 7,
        "effect": "",
        "buff": "生命上限+300\n击杀魔物Job经验+5%",
        "adventureBuff": "",
        "storageBuff": "生命上限+60",
        "storageRefineBuff": null,
        "isCompose": 0
      },
      {
        "id": "47035",
        "name": "蔚蓝的依斯鲁得海",
        "icon": "item_47035",
        "rank": 3,
        "position": 10,
        "effect": "",
        "buff": "物理攻击+3%\n魔法攻击+3%\n击杀魔物Job经验+5%",
        "adventureBuff": "生命上限+21",
        "storageBuff": "精炼物攻+5，精炼魔攻+5",
        "storageRefineBuff": null,
        "isCompose": 0
      },
      {
        "id": "45285",
        "name": "夜后的咏叹调",
        "icon": "item_45285",
        "rank": 2,
        "position": 8,
        "effect": "",
        "buff": "物理攻击+10\n魔法攻击+10\n击杀魔物Base经验+5%",
        "adventureBuff": "",
        "storageBuff": "生命上限+60",
        "storageRefineBuff": null,
        "isCompose": 0
      },
      {
        "id": "45283",
        "name": "金色的进行曲",
        "icon": "item_45283",
        "rank": 4,
        "position": 11,
        "effect": "",
        "buff": "对非人形种族伤害+3%",
        "adventureBuff": "",
        "storageBuff": "人形种族加伤+3%",
        "storageRefineBuff": null,
        "isCompose": 0
      },
      {
        "id": "45280",
        "name": "学士帽",
        "icon": "item_45280",
        "rank": 1,
        "position": 7,
        "effect": "",
        "buff": "生命上限+50\n魔法上限+50\n智力+1",
        "adventureBuff": "",
        "storageBuff": "魔法上限+10",
        "storageRefineBuff": null,
        "isCompose": 0
      },
      {
        "id": "550001",
        "name": "厨师帽",
        "icon": "item_550001",
        "rank": 4,
        "position": 7,
        "effect": "",
        "buff": "灵巧+3\n敏捷+3",
        "adventureBuff": "",
        "storageBuff": "生命上限+18",
        "storageRefineBuff": null,
        "isCompose": 0
      },
      {
        "id": "145293",
        "name": "艾希头饰[1]",
        "icon": "item_45293",
        "rank": 1,
        "position": 7,
        "effect": "",
        "buff": "智力+2\n灵巧+2",
        "adventureBuff": "",
        "storageBuff": "生命上限+18",
        "storageRefineBuff": null,
        "isCompose": 0
      },
      {
        "id": "145286",
        "name": "月·光[1]",
        "icon": "item_45286",
        "rank": 2,
        "position": 7,
        "effect": "",
        "buff": "生命上限+300\n击杀魔物Base经验+5%",
        "adventureBuff": "",
        "storageBuff": "生命上限+60",
        "storageRefineBuff": null,
        "isCompose": 0
      },
      {
        "id": "148583",
        "name": "梦中的婚礼[1]",
        "icon": "item_48583",
        "rank": 3,
        "position": 7,
        "effect": "",
        "buff": "全能力+2\n击杀魔物Base经验+3%\n击杀魔物Job经验+3%",
        "adventureBuff": "",
        "storageBuff": "精炼物攻+5，精炼魔攻+5",
        "storageRefineBuff": null,
        "isCompose": 0
      },
      {
        "id": "48585",
        "name": "艾希流苏",
        "icon": "item_48585",
        "rank": 1,
        "position": 8,
        "effect": "",
        "buff": "闪避+5\n幸运+3",
        "adventureBuff": "",
        "storageBuff": "物理攻击+1.5，魔法攻击+1.5",
        "storageRefineBuff": null,
        "isCompose": 0
      },
      {
        "id": "47037",
        "name": "温蒂",
        "icon": "item_47037",
        "rank": 1,
        "position": 10,
        "effect": "",
        "buff": "生命上限+300\n敏捷+3\n幸运+3",
        "adventureBuff": "生命上限+21",
        "storageBuff": "生命上限+30",
        "storageRefineBuff": null,
        "isCompose": 0
      },
      {
        "id": "45293",
        "name": "艾希头饰",
        "icon": "item_45293",
        "rank": 1,
        "position": 7,
        "effect": "",
        "buff": "智力+2\n灵巧+2",
        "adventureBuff": "",
        "storageBuff": "",
        "storageRefineBuff": null,
        "isCompose": 0
      },
      {
        "id": "45518",
        "name": "满月头饰",
        "icon": "item_45518",
        "rank": 3,
        "position": 7,
        "effect": "",
        "buff": "圣属性攻击+3%\n对暗属性魔物伤害+5%",
        "adventureBuff": "生命上限+14",
        "storageBuff": "对暗属性魔物伤害+1%",
        "storageRefineBuff": null,
        "isCompose": 1
      },
      {
        "id": "45510",
        "name": "爱心沙滩镜",
        "icon": "item_45510",
        "rank": 2,
        "position": 8,
        "effect": "",
        "buff": "魔法上限+50",
        "adventureBuff": "",
        "storageBuff": "魔法上限+5，生命上限+10",
        "storageRefineBuff": null,
        "isCompose": 0
      },
      {
        "id": "561115",
        "name": "食神王冠·雪糕",
        "icon": "item_551016",
        "rank": 1,
        "position": 7,
        "effect": "",
        "buff": "物理攻击+10\n魔法攻击+10\n幸运+1",
        "adventureBuff": "生命上限+6",
        "storageBuff": "生命上限+18",
        "storageRefineBuff": null,
        "isCompose": 0
      },
      {
        "id": "561114",
        "name": "食神王冠·菜汤",
        "icon": "item_551006",
        "rank": 1,
        "position": 7,
        "effect": "",
        "buff": "物理攻击+10\n魔法攻击+10\n灵巧+1",
        "adventureBuff": "生命上限+6",
        "storageBuff": "生命上限+18",
        "storageRefineBuff": null,
        "isCompose": 0
      },
      {
        "id": "561113",
        "name": "食神王冠·烤菜",
        "icon": "item_551005",
        "rank": 1,
        "position": 7,
        "effect": "",
        "buff": "物理攻击+10\n魔法攻击+10\n智力+1",
        "adventureBuff": "生命上限+6",
        "storageBuff": "生命上限+18",
        "storageRefineBuff": null,
        "isCompose": 0
      },
      {
        "id": "561112",
        "name": "食神王冠·拌菜",
        "icon": "item_551004",
        "rank": 1,
        "position": 7,
        "effect": "",
        "buff": "物理攻击+10\n魔法攻击+10\n体质+1",
        "adventureBuff": "生命上限+6",
        "storageBuff": "生命上限+18",
        "storageRefineBuff": null,
        "isCompose": 0
      },
      {
        "id": "561111",
        "name": "食神王冠·饼干",
        "icon": "item_551015",
        "rank": 1,
        "position": 7,
        "effect": "",
        "buff": "物理攻击+10\n魔法攻击+10\n敏捷+1",
        "adventureBuff": "生命上限+6",
        "storageBuff": "生命上限+18",
        "storageRefineBuff": null,
        "isCompose": 0
      },
      {
        "id": "561110",
        "name": "食神王冠·鱼汤",
        "icon": "item_551010",
        "rank": 1,
        "position": 7,
        "effect": "",
        "buff": "物理攻击+10\n魔法攻击+10\n力量+1",
        "adventureBuff": "生命上限+6",
        "storageBuff": "生命上限+18",
        "storageRefineBuff": null,
        "isCompose": 0
      },
      {
        "id": "561109",
        "name": "食神王冠·鱼串",
        "icon": "item_551009",
        "rank": 1,
        "position": 7,
        "effect": "",
        "buff": "生命上限+50\n幸运+2",
        "adventureBuff": "生命上限+6",
        "storageBuff": "生命上限+18",
        "storageRefineBuff": null,
        "isCompose": 0
      },
      {
        "id": "561108",
        "name": "食神王冠·鱼排",
        "icon": "item_551008",
        "rank": 1,
        "position": 7,
        "effect": "",
        "buff": "生命上限+50\n灵巧+2",
        "adventureBuff": "生命上限+6",
        "storageBuff": "生命上限+18",
        "storageRefineBuff": null,
        "isCompose": 0
      },
      {
        "id": "561107",
        "name": "食神王冠·果汁",
        "icon": "item_551012",
        "rank": 1,
        "position": 7,
        "effect": "",
        "buff": "生命上限+50\n敏捷+2",
        "adventureBuff": "生命上限+6",
        "storageBuff": "生命上限+18",
        "storageRefineBuff": null,
        "isCompose": 0
      },
      {
        "id": "561106",
        "name": "食神王冠·肉汤",
        "icon": "item_551002",
        "rank": 1,
        "position": 7,
        "effect": "",
        "buff": "生命上限+50\n智力+2",
        "adventureBuff": "生命上限+6",
        "storageBuff": "生命上限+18",
        "storageRefineBuff": null,
        "isCompose": 0
      },
      {
        "id": "561105",
        "name": "食神王冠·肉串",
        "icon": "item_551001",
        "rank": 1,
        "position": 7,
        "effect": "",
        "buff": "生命上限+50\n体质+2",
        "adventureBuff": "生命上限+6",
        "storageBuff": "生命上限+18",
        "storageRefineBuff": null,
        "isCompose": 0
      }
    ]
  }
}