{
  "code": 0,
  "status": "success",
  "timeStamp": 1642839761,
  "staticDomain": "http:\/\/rosc1.zhaiwuyu.com",
  "ip": "101.87.200.160",
  "language": "cn",
  "dbArea": 0,
  "data": {
    "page": 18,
    "pageSize": 30,
    "pageCount": 18,
    "total": 527,
    "list": [
      {
        "id": "20017",
        "name": "海葵卡片",
        "icon": "Hydra",
        "picture": "card_10017",
        "quality": 3,
        "position": 1,
        "buff": "人形种族加伤+15%",
        "adventureBuff": "人形种族加伤+2%",
        "storageBuff": "人形种族加伤+2%",
        "isCompose": 0
      },
      {
        "id": "20016",
        "name": "狼卡片",
        "icon": "Wolf",
        "picture": "card_10016",
        "quality": 2,
        "position": 1,
        "buff": "物理攻击+15\n暴击+2",
        "adventureBuff": "物理攻击+6",
        "storageBuff": "物理攻击+9",
        "isCompose": 0
      },
      {
        "id": "20015",
        "name": "曼陀罗魔花卡片",
        "icon": "Mandragora",
        "picture": "card_10015",
        "quality": 2,
        "position": 1,
        "buff": "对风属性魔物伤害+20%",
        "adventureBuff": "对风属性魔物伤害+2%",
        "storageBuff": "对风属性魔物伤害+5%",
        "isCompose": 0
      },
      {
        "id": "20014",
        "name": "克瑞米卡片",
        "icon": "creamy",
        "picture": "card_10014",
        "quality": 3,
        "position": 6,
        "buff": "可使用技能【瞬间移动】Lv.1",
        "adventureBuff": "魔法防御+4",
        "storageBuff": "生命上限+28",
        "isCompose": 0
      },
      {
        "id": "20013",
        "name": "树精卡片",
        "icon": "Wilow",
        "picture": "card_10013",
        "quality": 1,
        "position": 7,
        "buff": "魔法上限+100",
        "adventureBuff": "魔法上限+10",
        "storageBuff": "生命上限+10",
        "isCompose": 0
      },
      {
        "id": "20012",
        "name": "蝗虫卡片",
        "icon": "Rocker",
        "picture": "card_10012",
        "quality": 1,
        "position": 1,
        "buff": "灵巧+1\n物理攻击+5",
        "adventureBuff": "物理攻击+3",
        "storageBuff": "灵巧+1，物理攻击+4.5",
        "isCompose": 0
      },
      {
        "id": "20011",
        "name": "溜溜猴卡片",
        "icon": "Yoyo",
        "picture": "card_10011",
        "quality": 2,
        "position": 6,
        "buff": "敏捷+2",
        "adventureBuff": "物理防御+2",
        "storageBuff": "物理攻击+6",
        "isCompose": 0
      },
      {
        "id": "20010",
        "name": "苍蝇卡片",
        "icon": "ChonChon",
        "picture": "card_10010",
        "quality": 1,
        "position": 5,
        "buff": "力量+2",
        "adventureBuff": "物理防御+2",
        "storageBuff": "生命上限+10",
        "isCompose": 0
      },
      {
        "id": "20009",
        "name": "玛勒盗虫卡片",
        "icon": "GThiefBug",
        "picture": "card_10009",
        "quality": 1,
        "position": 5,
        "buff": "装备攻速+3%",
        "adventureBuff": "物理攻击+6",
        "storageBuff": "生命上限+10",
        "isCompose": 0
      },
      {
        "id": "20008",
        "name": "浮勒盗虫卡片",
        "icon": "Thiefbug",
        "picture": "card_10008",
        "quality": 2,
        "position": 1,
        "buff": "敏捷+1\n命中+5",
        "adventureBuff": "物理攻击+6",
        "storageBuff": "命中+5",
        "isCompose": 0
      },
      {
        "id": "20007",
        "name": "吸血蝙蝠卡片",
        "icon": "Farmiliar",
        "picture": "card_10007",
        "quality": 1,
        "position": 1,
        "buff": "智力+1\n魔法攻击+5",
        "adventureBuff": "物理攻击+3",
        "storageBuff": "智力+1，魔法攻击+4.5",
        "isCompose": 0
      },
      {
        "id": "20006",
        "name": "魔菇卡片",
        "icon": "Spore",
        "picture": "card_10006",
        "quality": 2,
        "position": 6,
        "buff": "体质+2",
        "adventureBuff": "魔法攻击+4.5",
        "storageBuff": "生命上限+18",
        "isCompose": 0
      },
      {
        "id": "20005",
        "name": "盗虫卡片",
        "icon": "Thiefbug",
        "picture": "card_10005",
        "quality": 1,
        "position": 2,
        "buff": "命中+10",
        "adventureBuff": "物理攻击+3",
        "storageBuff": "命中+10",
        "isCompose": 0
      },
      {
        "id": "20004",
        "name": "白鼠卡片",
        "icon": "Tarou",
        "picture": "card_10004",
        "quality": 2,
        "position": 6,
        "buff": "力量+2",
        "adventureBuff": "物理攻击+3",
        "storageBuff": "生命上限+18",
        "isCompose": 0
      },
      {
        "id": "20003",
        "name": "绿棉虫卡片",
        "icon": "lvmianchong",
        "picture": "card_10003",
        "quality": 1,
        "position": 1,
        "buff": "体质+1\n生命上限+50",
        "adventureBuff": "生命上限+24",
        "storageBuff": "生命上限+36",
        "isCompose": 0
      },
      {
        "id": "20002",
        "name": "疯兔卡片",
        "icon": "fengtu",
        "picture": "card_10002",
        "quality": 1,
        "position": 1,
        "buff": "幸运+1\n暴击+1",
        "adventureBuff": "物理攻击+3",
        "storageBuff": "物理攻击+4.5",
        "isCompose": 0
      },
      {
        "id": "20001",
        "name": "波利卡片",
        "icon": "boli",
        "picture": "card_10001",
        "quality": 1,
        "position": 3,
        "buff": "幸运+1\n闪避+1",
        "adventureBuff": "物理防御+2",
        "storageBuff": "闪避+2",
        "isCompose": 0
      }
    ]
  }
}