{
  "code": 0,
  "status": "success",
  "timeStamp": 1642839610,
  "staticDomain": "http:\/\/rosc1.zhaiwuyu.com",
  "ip": "101.87.200.160",
  "language": "cn",
  "dbArea": 0,
  "data": {
    "page": 3,
    "pageSize": 30,
    "pageCount": 18,
    "total": 527,
    "list": [
      {
        "id": "23057",
        "name": "灵魂奏者卡片",
        "icon": "Soul_performer",
        "picture": "card_30063",
        "quality": 4,
        "position": 7,
        "buff": "智力+5\n念属性攻击+15%",
        "adventureBuff": "物理攻击+12",
        "storageBuff": "生命上限+120",
        "isCompose": 0
      },
      {
        "id": "23056",
        "name": "天地树之种卡片",
        "icon": "WorldTree",
        "picture": "card_30062",
        "quality": 4,
        "position": 1,
        "buff": "魔法技能攻击时，有100%概率获得5%伤害的HP恢复效果（卡片效果不叠加）\nHP恢复-100%",
        "adventureBuff": "魔法攻击+12",
        "storageBuff": "生命上限+120",
        "isCompose": 0
      },
      {
        "id": "22042",
        "name": "宝石灵兽卡片",
        "icon": "GemFlash",
        "picture": "card_20041",
        "quality": 3,
        "position": 7,
        "buff": "普攻伤害+5%\n装备攻速+5%",
        "adventureBuff": "装备攻速+1%",
        "storageBuff": "生命上限+72",
        "isCompose": 0
      },
      {
        "id": "22041",
        "name": "莉姆露卡片",
        "icon": "Limulus",
        "picture": "card_20040",
        "quality": 3,
        "position": 1,
        "buff": "对圣属性魔物伤害+20%\n暗属性攻击+10%",
        "adventureBuff": "对圣属性魔物伤害+1%",
        "storageBuff": "魔法攻击+8",
        "isCompose": 0
      },
      {
        "id": "20184",
        "name": "苗娃佩瑞丝卡片",
        "icon": "MiaoPerese",
        "picture": "card_10267",
        "quality": 3,
        "position": 2,
        "buff": "受到无属性伤害-15%\n对无属性魔物伤害+5%",
        "adventureBuff": "物理攻击+3，生命上限+36",
        "storageBuff": "生命上限+72",
        "isCompose": 0
      },
      {
        "id": "20181",
        "name": "玩偶魔妖卡片",
        "icon": "Demon_doll",
        "picture": "card_10264",
        "quality": 3,
        "position": 3,
        "buff": "魔伤减免+8%\n生命上限+500",
        "adventureBuff": "生命上限+60",
        "storageBuff": "魔法攻击+3，生命上限+36",
        "isCompose": 0
      },
      {
        "id": "20180",
        "name": "米米怪卡片",
        "icon": "Mimi",
        "picture": "card_10263",
        "quality": 2,
        "position": 7,
        "buff": "智力+5\n灵巧+5",
        "adventureBuff": "魔法防御+3",
        "storageBuff": "生命上限+36",
        "isCompose": 0
      },
      {
        "id": "20179",
        "name": "月光三角兽卡片",
        "icon": "Hornsbeast_2",
        "picture": "card_10262",
        "quality": 3,
        "position": 6,
        "buff": "全能力+2\n技能伤害+2%",
        "adventureBuff": "物理攻击+3，生命上限+36",
        "storageBuff": "物理防御+3，生命上限+36",
        "isCompose": 0
      },
      {
        "id": "20178",
        "name": "三角兽卡片",
        "icon": "Hornsbeast",
        "picture": "card_10261",
        "quality": 2,
        "position": 1,
        "buff": "物理攻击+10、暴击+5\n武器精炼+10时，物理攻击+20\n武器精炼+15时，暴击+10",
        "adventureBuff": "物理防御+3",
        "storageBuff": "生命上限+36",
        "isCompose": 0
      },
      {
        "id": "20177",
        "name": "捕虫堇卡片",
        "icon": "Trap_monster",
        "picture": "card_10260",
        "quality": 3,
        "position": 1,
        "buff": "对昆虫种族魔物伤害+20%",
        "adventureBuff": "生命上限+60",
        "storageBuff": "对昆虫种族魔物伤害+1%",
        "isCompose": 0
      },
      {
        "id": "23169",
        "name": "冰雪盛典卡片",
        "icon": "cardhead_23169",
        "picture": "card_23169",
        "quality": 3,
        "position": 3,
        "buff": "生命上限+5%\n冰冻抵抗+25%",
        "adventureBuff": "生命上限+60",
        "storageBuff": "物理攻击+3，生命上限+30",
        "isCompose": 0
      },
      {
        "id": "23167",
        "name": "熊本熊的善意卡片",
        "icon": "cardhead_23167",
        "picture": "card_23167",
        "quality": 3,
        "position": 6,
        "buff": "魔法防御+5%\n生命上限+800",
        "adventureBuff": "物理防御+2，生命上限+30",
        "storageBuff": "物理攻击+3，生命上限+30",
        "isCompose": 0
      },
      {
        "id": "23156",
        "name": "塞壬卡片",
        "icon": "cardhead_23156",
        "picture": "card_23156",
        "quality": 3,
        "position": 1,
        "buff": "对MVP、Mini魔物伤害+10%",
        "adventureBuff": "生命上限+60",
        "storageBuff": "对MVP、Mini魔物伤害+1%",
        "isCompose": 0
      },
      {
        "id": "23155",
        "name": "诺曼卡片",
        "icon": "cardhead_23155",
        "picture": "card_23155",
        "quality": 3,
        "position": 7,
        "buff": "对MVP、Mini魔物伤害+5%",
        "adventureBuff": "物理防御+2，生命上限+30",
        "storageBuff": "物理攻击+3，生命上限+30",
        "isCompose": 0
      },
      {
        "id": "23154",
        "name": "梅菲尔林瑟卡片",
        "icon": "cardhead_23154",
        "picture": "card_23154",
        "quality": 3,
        "position": 4,
        "buff": "对MVP、Mini魔物伤害+5%",
        "adventureBuff": "魔法防御+2，生命上限+30",
        "storageBuff": "魔法攻击+3，生命上限+30",
        "isCompose": 0
      },
      {
        "id": "23153",
        "name": "赫德卡片",
        "icon": "cardhead_23153",
        "picture": "card_23153",
        "quality": 3,
        "position": 3,
        "buff": "对MVP、Mini魔物伤害+10%",
        "adventureBuff": "物理防御+2，生命上限+30",
        "storageBuff": "物理攻击+3，生命上限+30",
        "isCompose": 0
      },
      {
        "id": "23152",
        "name": "梅丽尔·罗兰兹卡片",
        "icon": "cardhead_23152",
        "picture": "card_23152",
        "quality": 3,
        "position": 2,
        "buff": "对MVP、Mini魔物伤害+5%",
        "adventureBuff": "魔法防御+2，生命上限+30",
        "storageBuff": "魔法攻击+3，生命上限+30",
        "isCompose": 0
      },
      {
        "id": "23164",
        "name": "银月魔女的秘密卡片",
        "icon": "cardhead_23164",
        "picture": "card_23164",
        "quality": 3,
        "position": 6,
        "buff": "物理防御+5%\n生命上限+800",
        "adventureBuff": "魔法防御+2，生命上限+30",
        "storageBuff": "魔法攻击+3，生命上限+30",
        "isCompose": 0
      },
      {
        "id": "23163",
        "name": "虹色坠落卡片",
        "icon": "cardhead_23163",
        "picture": "card_23163",
        "quality": 3,
        "position": 5,
        "buff": "物理攻击+2%\n物理攻击+20",
        "adventureBuff": "生命上限+60",
        "storageBuff": "生命上限+60",
        "isCompose": 0
      },
      {
        "id": "23158",
        "name": "魔神英雄传卡片",
        "icon": "cardhead_23158",
        "picture": "card_23158",
        "quality": 3,
        "position": 7,
        "buff": "全能力+2\n普攻伤害+2%",
        "adventureBuff": "魔法攻击+3，生命上限+30",
        "storageBuff": "生命上限+60",
        "isCompose": 0
      },
      {
        "id": "23161",
        "name": "黄金美食节卡片",
        "icon": "cardhead_23161",
        "picture": "card_23161",
        "quality": 3,
        "position": 7,
        "buff": "全能力+2\n击杀魔物Base经验+2%\n击杀魔物Job经验+2%",
        "adventureBuff": "物理防御+2，生命上限+30",
        "storageBuff": "魔法攻击+3，生命上限+30",
        "isCompose": 0
      },
      {
        "id": "23159",
        "name": "新生庆典卡片",
        "icon": "cardhead_23159",
        "picture": "card_23159",
        "quality": 3,
        "position": 2,
        "buff": "生命上限+2000\n魔法上限+200\nHp恢复+10%\nSp恢复+10%",
        "adventureBuff": "魔法防御+2，生命上限+30",
        "storageBuff": "生命上限+60",
        "isCompose": 0
      },
      {
        "id": "23151",
        "name": "彩蛋狩猎卡片",
        "icon": "cardhead_23151",
        "picture": "card_23151",
        "quality": 3,
        "position": 4,
        "buff": "全能力+2\n物理攻击+30",
        "adventureBuff": "物理攻击+3，生命上限+30",
        "storageBuff": "生命上限+60",
        "isCompose": 0
      },
      {
        "id": "23055",
        "name": "元灵武士卡片",
        "icon": "Incantation_Samurai_2",
        "picture": "card_280600",
        "quality": 4,
        "position": 1,
        "buff": "魔法攻击+100\n魔法穿刺+15%",
        "adventureBuff": "物理攻击+12",
        "storageBuff": "魔法防御+6，生命上限+30",
        "isCompose": 0
      },
      {
        "id": "24635",
        "name": "钟塔守护者★卡片",
        "icon": "cardhead_24635",
        "picture": "card_24635",
        "quality": 4,
        "position": 7,
        "buff": "智力+5、魔法伤害+5%\n生命上限+400\n生命值100%时：智力+3、魔法伤害+3%",
        "adventureBuff": "物理攻击+12",
        "storageBuff": "魔法防御+6，生命上限+30",
        "isCompose": 1
      },
      {
        "id": "24634",
        "name": "爱丽丝女仆★卡片",
        "icon": "cardhead_24634",
        "picture": "card_24634",
        "quality": 4,
        "position": 2,
        "buff": "对MVP、Mini魔物伤害+15%\n受到MVP、Mini魔物伤害-15%",
        "adventureBuff": "魔法攻击+12",
        "storageBuff": "物理防御+6，生命上限+30",
        "isCompose": 1
      },
      {
        "id": "24633",
        "name": "草精★卡片",
        "icon": "cardhead_24633",
        "picture": "card_24633",
        "quality": 4,
        "position": 2,
        "buff": "对水、地属性魔物伤害+15%\n对昆虫、鱼贝种族魔物伤害+25%",
        "adventureBuff": "魔法防御+1%",
        "storageBuff": "对昆虫、鱼贝种族魔物伤害+1%",
        "isCompose": 1
      },
      {
        "id": "24632",
        "name": "半龙人★卡片",
        "icon": "cardhead_24632",
        "picture": "card_24632",
        "quality": 4,
        "position": 1,
        "buff": "物理攻击+15\n普攻时有15%概率自动施放【火球术】Lv.10\n【火球术】降低目标15%物伤减免，持续10秒",
        "adventureBuff": "智力+1，生命上限+36",
        "storageBuff": "生命上限+120",
        "isCompose": 1
      },
      {
        "id": "24631",
        "name": "弑神者★卡片",
        "icon": "cardhead_24631",
        "picture": "card_24631",
        "quality": 4,
        "position": 5,
        "buff": "对小型魔物伤害+10%\n受到小型魔物伤害-30%\n物理防御+10\n物理防御+10%",
        "adventureBuff": "物理防御+1%",
        "storageBuff": "受到小型魔物伤害-1%",
        "isCompose": 1
      },
      {
        "id": "24101",
        "name": "猫咪乐园卡片",
        "icon": "cardhead_24101",
        "picture": "card_24101",
        "quality": 3,
        "position": 7,
        "buff": "【猫飞碟轰炸】消耗的蓝色魔力矿石数量-1",
        "adventureBuff": "魔法攻击+3，生命上限+30",
        "storageBuff": "物理攻击+3，生命上限+30",
        "isCompose": 1
      }
    ]
  }
}