{
  "code": 0,
  "status": "success",
  "timeStamp": 1642839630,
  "staticDomain": "http:\/\/rosc1.zhaiwuyu.com",
  "ip": "101.87.200.160",
  "language": "cn",
  "dbArea": 0,
  "data": {
    "page": 5,
    "pageSize": 30,
    "pageCount": 18,
    "total": 527,
    "list": [
      {
        "id": "24626",
        "name": "安毕斯★卡片",
        "icon": "cardhead_24626",
        "picture": "card_24626",
        "quality": 4,
        "position": 2,
        "buff": "对全种族伤害+5%\n受到天使种族魔物伤害-30%",
        "adventureBuff": "魔法防御+6，生命上限+30",
        "storageBuff": "魔法防御+1%",
        "isCompose": 1
      },
      {
        "id": "24625",
        "name": "妖君★卡片",
        "icon": "cardhead_24625",
        "picture": "card_24625",
        "quality": 4,
        "position": 4,
        "buff": "暴击+10\n闪避+20\n每1点暴击额外增加0.1%暴击伤害",
        "adventureBuff": "魔法攻击+12",
        "storageBuff": "生命上限+120",
        "isCompose": 1
      },
      {
        "id": "24624",
        "name": "直升机哥布灵★卡片",
        "icon": "cardhead_24624",
        "picture": "card_24624",
        "quality": 4,
        "position": 1,
        "buff": "暴击+10\n暴击伤害+15%\n普通攻击暴击时100%概率使用目标眩晕，持续3秒（目标10秒内只能被该效果眩晕一次，不可叠加）\n对眩晕目标伤害+10%",
        "adventureBuff": "物理防御+6，生命上限+30",
        "storageBuff": "物理防御+1%",
        "isCompose": 1
      },
      {
        "id": "24623",
        "name": "炎之小魔女★卡片",
        "icon": "cardhead_24623",
        "picture": "card_24623",
        "quality": 4,
        "position": 6,
        "buff": "魔法攻击+20、忽视魔法防御+4%\n智力达到240点时，魔法攻击+20、忽视魔法防御+2%\n智力达到360点时，魔法攻击+20、忽视魔法防御+2%",
        "adventureBuff": "智力+1，生命上限+36",
        "storageBuff": "生命上限+120",
        "isCompose": 1
      },
      {
        "id": "24622",
        "name": "魔剑士达纳托斯卡片",
        "icon": "cardhead_24622",
        "picture": "card_24622",
        "quality": 4,
        "position": 1,
        "buff": "增加魔法攻击×0.3的普攻攻击力",
        "adventureBuff": "魔法防御+2，生命上限+30",
        "storageBuff": "魔法攻击+12",
        "isCompose": 0
      },
      {
        "id": "24100",
        "name": "鬼火★卡片",
        "icon": "cardhead_24100",
        "picture": "card_24100",
        "quality": 3,
        "position": 6,
        "buff": "生命上限+1000\n可使用【火狩】Lv.1技能，魔法师系穿戴时，【火狩】范围+3米",
        "adventureBuff": "物理攻击+8",
        "storageBuff": "生命上限+72",
        "isCompose": 1
      },
      {
        "id": "24099",
        "name": "鸟人哈比★卡片",
        "icon": "cardhead_24099",
        "picture": "card_24099",
        "quality": 4,
        "position": 4,
        "buff": "智力+2\n魔法攻击+20\n每6点智力额外增加0.1%魔法攻击",
        "adventureBuff": "物理攻击+12",
        "storageBuff": "生命上限+120",
        "isCompose": 1
      },
      {
        "id": "23137",
        "name": "一千零一夜的纪念卡片",
        "icon": "cardhead_23137",
        "picture": "card_23137",
        "quality": 3,
        "position": 4,
        "buff": "全能力+3\n生命上限+1001",
        "adventureBuff": "魔法攻击+3，生命上限+30",
        "storageBuff": "物理攻击+3，生命上限+30",
        "isCompose": 0
      },
      {
        "id": "23134",
        "name": "熊本熊卡片",
        "icon": "cardhead_23134",
        "picture": "card_23134",
        "quality": 3,
        "position": 7,
        "buff": "全能力+1\n人形种族加伤+2%\n人形种族减伤+2%",
        "adventureBuff": "生命上限+60",
        "storageBuff": "魔法攻击+3，生命上限+30",
        "isCompose": 0
      },
      {
        "id": "24621",
        "name": "意念聚合体",
        "icon": "cardhead_24621",
        "picture": "card_24621",
        "quality": 4,
        "position": 7,
        "buff": "体质+5\n避免陷入恐惧状态",
        "adventureBuff": "物理防御+2，生命上限+30",
        "storageBuff": "物理攻击+12",
        "isCompose": 0
      },
      {
        "id": "23136",
        "name": "不射猎的悲惨圣诞节卡片",
        "icon": "cardhead_23136",
        "picture": "card_23136",
        "quality": 3,
        "position": 7,
        "buff": "生命上限+300\n技能伤害减免+3%",
        "adventureBuff": "物理攻击+3，生命上限+30",
        "storageBuff": "魔法攻击+3，生命上限+30",
        "isCompose": 0
      },
      {
        "id": "24618",
        "name": "流浪之狼★卡片",
        "icon": "cardhead_24618",
        "picture": "card_24618",
        "quality": 4,
        "position": 4,
        "buff": "力量+10\n闪避+20\n每18点力量额外增加0.5%物理攻击",
        "adventureBuff": "力量+1，生命上限+36",
        "storageBuff": "生命上限+120",
        "isCompose": 1
      },
      {
        "id": "24617",
        "name": "龙蝇★卡片",
        "icon": "cardhead_24617",
        "picture": "card_24617",
        "quality": 4,
        "position": 4,
        "buff": "敏捷+10\n闪避+20\n每12点敏捷额外增加0.5%普攻伤害",
        "adventureBuff": "敏捷+1，生命上限+36",
        "storageBuff": "生命上限+120",
        "isCompose": 1
      },
      {
        "id": "24616",
        "name": "蛙王★卡片",
        "icon": "cardhead_24616",
        "picture": "card_24616",
        "quality": 4,
        "position": 4,
        "buff": "灵巧+10\n闪避+20\n每18点灵巧额外增加0.5%物理攻击",
        "adventureBuff": "灵巧+1，生命上限+36",
        "storageBuff": "生命上限+120",
        "isCompose": 1
      },
      {
        "id": "24615",
        "name": "蓝疯兔★卡片",
        "icon": "cardhead_24615",
        "picture": "card_24615",
        "quality": 4,
        "position": 4,
        "buff": "体质+10\n闪避+20\n每12点体质额外增加0.5%生命上限",
        "adventureBuff": "体质+1，生命上限+36",
        "storageBuff": "生命上限+120",
        "isCompose": 1
      },
      {
        "id": "24614",
        "name": "波利之王★卡片",
        "icon": "cardhead_24614",
        "picture": "card_24614",
        "quality": 4,
        "position": 4,
        "buff": "幸运+10\n闪避+20\n每12点幸运额外增加0.5%物理伤害",
        "adventureBuff": "幸运+1，生命上限+36",
        "storageBuff": "生命上限+120",
        "isCompose": 1
      },
      {
        "id": "24098",
        "name": "稻草人★卡片",
        "icon": "cardhead_24098",
        "picture": "card_24098",
        "quality": 3,
        "position": 6,
        "buff": "生命上限+3%\n受治疗加成+5%",
        "adventureBuff": "物理攻击+8",
        "storageBuff": "生命上限+72",
        "isCompose": 1
      },
      {
        "id": "24097",
        "name": "烈鬃马★卡片",
        "icon": "cardhead_24097",
        "picture": "card_24097",
        "quality": 3,
        "position": 5,
        "buff": "受到攻击时，50%概率降低攻击者15%装备攻速和30%移动速度，持续3秒",
        "adventureBuff": "魔法攻击+8",
        "storageBuff": "生命上限+72",
        "isCompose": 1
      },
      {
        "id": "24096",
        "name": "暗神官★卡片",
        "icon": "cardhead_24096",
        "picture": "card_24096",
        "quality": 4,
        "position": 3,
        "buff": "智力+5\n圣属性攻击+5%\n治疗加成+5%",
        "adventureBuff": "魔法防御+6，生命上限+30",
        "storageBuff": "物理攻击+12",
        "isCompose": 1
      },
      {
        "id": "24095",
        "name": "南瓜魂★卡片",
        "icon": "cardhead_24095",
        "picture": "card_24095",
        "quality": 4,
        "position": 2,
        "buff": "魔伤减免+20%\n当副手精炼+12时，魔伤减免+5%",
        "adventureBuff": "魔法防御+1%",
        "storageBuff": "物理防御+1%",
        "isCompose": 1
      },
      {
        "id": "24094",
        "name": "幽灵剑士★卡片",
        "icon": "cardhead_24094",
        "picture": "card_24094",
        "quality": 4,
        "position": 4,
        "buff": "无属性攻击+8%\n受到无属性伤害-8%",
        "adventureBuff": "物理防御+6，生命上限+30",
        "storageBuff": "魔法攻击+12",
        "isCompose": 1
      },
      {
        "id": "23135",
        "name": "光棍节卡片",
        "icon": "cardhead_23135",
        "picture": "card_23135",
        "quality": 3,
        "position": 4,
        "buff": "物伤减免+3%\n受治疗加成+5%",
        "adventureBuff": "生命上限+60",
        "storageBuff": "物理攻击+3，生命上限+30",
        "isCompose": 0
      },
      {
        "id": "23049",
        "name": "幽暗梦魇卡片",
        "icon": "Gloomundernight",
        "picture": "card_30056",
        "quality": 4,
        "position": 3,
        "buff": "对圣、暗属性魔物伤害+15%\n对天使、恶魔种族魔物伤害+15%",
        "adventureBuff": "对圣属性魔物伤害+2%",
        "storageBuff": "对天使种族魔物伤害+2%",
        "isCompose": 0
      },
      {
        "id": "23048",
        "name": "希尔队长卡片",
        "icon": "Captain_Hill",
        "picture": "card_30055",
        "quality": 4,
        "position": 1,
        "buff": "【雷鸣术】、【雷击术】、【怒雷强击】、【雷爆术】伤害+25%",
        "adventureBuff": "物理攻击+12",
        "storageBuff": "生命上限+112",
        "isCompose": 0
      },
      {
        "id": "23047",
        "name": "寒冰龙卡片",
        "icon": "Frozen_dragon",
        "picture": "card_30054",
        "quality": 4,
        "position": 3,
        "buff": "对火属性魔物伤害+25%\n受到伤害时有30%的概率对敌人施展【霜冻之术】Lv.10",
        "adventureBuff": "魔法攻击+12",
        "storageBuff": "生命上限+112",
        "isCompose": 0
      },
      {
        "id": "23046",
        "name": "塔妮小姐卡片",
        "icon": "Lady_tanee",
        "picture": "card_30057",
        "quality": 4,
        "position": 5,
        "buff": "生命上限-30%\n魔法上限+50%",
        "adventureBuff": "生命上限+1%",
        "storageBuff": "魔法上限+1%",
        "isCompose": 0
      },
      {
        "id": "22036",
        "name": "堕落神官希巴姆卡片",
        "icon": "Fallingbishop",
        "picture": "card_20034",
        "quality": 3,
        "position": 5,
        "buff": "人形种族加伤+15%\n魔法上限-30%",
        "adventureBuff": "物理攻击+8",
        "storageBuff": "魔法防御+3，生命上限+36",
        "isCompose": 0
      },
      {
        "id": "22035",
        "name": "疯狂鬣狗卡片",
        "icon": "Crazy_dog",
        "picture": "card_20033",
        "quality": 3,
        "position": 6,
        "buff": "命中+50\n对水属性魔物伤害+20%",
        "adventureBuff": "魔法攻击+8",
        "storageBuff": "物理防御+3，生命上限+36",
        "isCompose": 0
      },
      {
        "id": "22034",
        "name": "寒冰雕像卡片",
        "icon": "Ice_titan",
        "picture": "card_20032",
        "quality": 3,
        "position": 5,
        "buff": "移动速度+3%\n物伤减免+10%",
        "adventureBuff": "物理防御+1%，魔法防御+1%",
        "storageBuff": "装备寒冰雕像卡片时，移动速度+2%",
        "isCompose": 0
      },
      {
        "id": "22033",
        "name": "巴西里斯克卡片",
        "icon": "Basilisk",
        "picture": "card_20035",
        "quality": 3,
        "position": 2,
        "buff": "受到大、中型魔物伤害-20%\n受到小型魔物伤害+15%",
        "adventureBuff": "受到大型魔物伤害-1%",
        "storageBuff": "受到小型魔物伤害-1%",
        "isCompose": 0
      }
    ]
  }
}