{
  "code": 0,
  "status": "success",
  "timeStamp": 1643702081,
  "staticDomain": "http:\/\/rosc1.zhaiwuyu.com",
  "ip": "101.87.201.112",
  "language": "cn",
  "dbArea": 0,
  "data": {
    "page": 4,
    "pageSize": 30,
    "pageCount": 18,
    "total": 529,
    "list": [
      {
        "id": "24631",
        "name": "弑神者★卡片",
        "icon": "cardhead_24631",
        "picture": "card_24631",
        "quality": 4,
        "position": 5,
        "buff": "对小型魔物伤害+10%\n受到小型魔物伤害-30%\n物理防御+10\n物理防御+10%",
        "adventureBuff": "物理防御+1%",
        "storageBuff": "受到小型魔物伤害-1%",
        "isCompose": 1
      },
      {
        "id": "24101",
        "name": "猫咪乐园卡片",
        "icon": "cardhead_24101",
        "picture": "card_24101",
        "quality": 3,
        "position": 7,
        "buff": "【猫飞碟轰炸】消耗的蓝色魔力矿石数量-1",
        "adventureBuff": "魔法攻击+3，生命上限+30",
        "storageBuff": "物理攻击+3，生命上限+30",
        "isCompose": 1
      },
      {
        "id": "23150",
        "name": "魔神坛斗士卡片",
        "icon": "cardhead_23150",
        "picture": "card_23150",
        "quality": 3,
        "position": 3,
        "buff": "暴击+5\n暴击伤害+5%",
        "adventureBuff": "魔法攻击+3，生命上限+30",
        "storageBuff": "生命上限+60",
        "isCompose": 0
      },
      {
        "id": "23149",
        "name": "夏日狂想曲卡片",
        "icon": "cardhead_23149",
        "picture": "card_23149",
        "quality": 3,
        "position": 1,
        "buff": "全能力+2\n魔法攻击+30",
        "adventureBuff": "物理攻击+3，生命上限+30",
        "storageBuff": "魔法防御+2，生命上限+30",
        "isCompose": 0
      },
      {
        "id": "23053",
        "name": "欧德姆布拉卡片",
        "icon": "Ymir_ox",
        "picture": "card_30061",
        "quality": 4,
        "position": 7,
        "buff": "全能力+2\n物理穿刺+8%",
        "adventureBuff": "生命上限+120",
        "storageBuff": "魔法攻击+12",
        "isCompose": 0
      },
      {
        "id": "22040",
        "name": "火焰鸟啾利卡片",
        "icon": "KasaKid_Mini",
        "picture": "card_20039",
        "quality": 3,
        "position": 1,
        "buff": "魔法攻击+25\n忽视魔法防御+20%",
        "adventureBuff": "魔法防御+1%",
        "storageBuff": "忽视魔法防御+1%",
        "isCompose": 0
      },
      {
        "id": "23146",
        "name": "最强幼女",
        "icon": "cardhead_23146",
        "picture": "card_23146",
        "quality": 3,
        "position": 6,
        "buff": "生命上限+100\n技能伤害减免+2%",
        "adventureBuff": "魔法防御+2，生命上限+30",
        "storageBuff": "魔法攻击+3，生命上限+30",
        "isCompose": 0
      },
      {
        "id": "23054",
        "name": "龙骸卡片",
        "icon": "Longhai",
        "picture": "card_280500",
        "quality": 4,
        "position": 5,
        "buff": "人形种族减伤+10%\n受到无属性伤害-10%",
        "adventureBuff": "物理防御+1%",
        "storageBuff": "生命上限+120",
        "isCompose": 0
      },
      {
        "id": "24630",
        "name": "血腥骑士★卡片",
        "icon": "cardhead_24630",
        "picture": "card_24630",
        "quality": 4,
        "position": 1,
        "buff": "普攻伤害+5%\n普攻时有5%概率自动施放【陨石术】Lv.10技能\n【苍白领主卡片】【血腥骑士★卡片】一起装备时，普攻伤害+5%，普攻时自动施放【陨石术】概率提高5%",
        "adventureBuff": "物理防御+1%",
        "storageBuff": "魔法防御+6，生命上限+30",
        "isCompose": 1
      },
      {
        "id": "24627",
        "name": "哥布灵首领★卡片",
        "icon": "cardhead_24627",
        "picture": "card_24627",
        "quality": 4,
        "position": 1,
        "buff": "近战普攻可获得5%伤害的HP恢复效果\n物理伤害+5%",
        "adventureBuff": "魔法防御+1%",
        "storageBuff": "使自身血量低于30%，哥布灵首领★卡片触发吸血效果时50%概率产生暴击效果",
        "isCompose": 1
      },
      {
        "id": "24517",
        "name": "血腥骑士亡者卡片",
        "icon": "Bloody_Knight_dead",
        "picture": "card_24517",
        "quality": 4,
        "position": 3,
        "buff": "人形种族加伤+15%\n盔甲每精炼+1，人形种族加伤+1%",
        "adventureBuff": "物理攻击+12",
        "storageBuff": "魔法防御+6，生命上限+30",
        "isCompose": 0
      },
      {
        "id": "24514",
        "name": "哥布灵首领亡者卡片",
        "icon": "Goblin_King_dead",
        "picture": "card_24514",
        "quality": 4,
        "position": 1,
        "buff": "物理攻击+100\n物理穿刺+15%",
        "adventureBuff": "魔法攻击+12",
        "storageBuff": "物理防御+6，生命上限+30",
        "isCompose": 0
      },
      {
        "id": "23144",
        "name": "旅行的烦恼",
        "icon": "cardhead_23144",
        "picture": "card_23144",
        "quality": 3,
        "position": 5,
        "buff": "移动速度+2%\n体质+2\n物理攻击+20\n魔法攻击+20",
        "adventureBuff": "物理防御+2，生命上限+30",
        "storageBuff": "魔法攻击+3，生命上限+30",
        "isCompose": 1
      },
      {
        "id": "23052",
        "name": "荒境领主卡片",
        "icon": "WuLuo_villain",
        "picture": "card_30060",
        "quality": 4,
        "position": 5,
        "buff": "受到中型魔物伤害-30%\n物理防御+100",
        "adventureBuff": "物理攻击+12",
        "storageBuff": "受到中型魔物伤害-1%",
        "isCompose": 0
      },
      {
        "id": "23051",
        "name": "蛇妖戈耳工卡片",
        "icon": "Snake_demon",
        "picture": "card_30058",
        "quality": 4,
        "position": 2,
        "buff": "生命上限+15%\n技能伤害减免+5%",
        "adventureBuff": "物理防御+1%，魔法防御+1%",
        "storageBuff": "物理攻击+12",
        "isCompose": 0
      },
      {
        "id": "23050",
        "name": "波伊塔塔卡片",
        "icon": "BellSerpent",
        "picture": "card_30059",
        "quality": 4,
        "position": 3,
        "buff": "对风、地属性魔物伤害+15%\n对动物、昆虫种族魔物伤害+15%",
        "adventureBuff": "魔法攻击+12",
        "storageBuff": "生命上限+120",
        "isCompose": 0
      },
      {
        "id": "22039",
        "name": "枫树精灵伊斯玛卡片",
        "icon": "Maple_Elf",
        "picture": "card_20038",
        "quality": 3,
        "position": 1,
        "buff": "物理攻击+25\n忽视物理防御+20%",
        "adventureBuff": "物理防御+1%",
        "storageBuff": "忽视物理防御+1%",
        "isCompose": 0
      },
      {
        "id": "22038",
        "name": "狐仙莱卡翁卡片",
        "icon": "FoxImmortal",
        "picture": "card_20036",
        "quality": 3,
        "position": 3,
        "buff": "生命上限+1000\n魔法上限+10%",
        "adventureBuff": "魔法攻击+8",
        "storageBuff": "物理防御+3，生命上限+36",
        "isCompose": 0
      },
      {
        "id": "22037",
        "name": "银鱼湖主卡片",
        "icon": "Lakeghost",
        "picture": "card_20037",
        "quality": 3,
        "position": 7,
        "buff": "魔法攻击+5%\n使用技能时SP消耗量-20%",
        "adventureBuff": "物理攻击+8",
        "storageBuff": "魔法防御+3，生命上限+36",
        "isCompose": 0
      },
      {
        "id": "20174",
        "name": "魔纹纸妖卡片",
        "icon": "Taoist",
        "picture": "card_10213",
        "quality": 3,
        "position": 1,
        "buff": "敏捷+5\n力量+5\n移动速度+5%\n装备攻速+5%\n暴击伤害+5%",
        "adventureBuff": "物理攻击+3，生命上限+36",
        "storageBuff": "物理防御+3，生命上限+36",
        "isCompose": 0
      },
      {
        "id": "20173",
        "name": "熊猫波利卡片",
        "icon": "Panda_poring_1",
        "picture": "card_10214",
        "quality": 3,
        "position": 4,
        "buff": "物理攻击+5\n对地属性魔物伤害+10%\n对动物、植物种族魔物暴击+15",
        "adventureBuff": "魔法攻击+8",
        "storageBuff": "生命上限+72",
        "isCompose": 0
      },
      {
        "id": "20172",
        "name": "水蛇卡片",
        "icon": "Blacksnake",
        "picture": "card_10216",
        "quality": 2,
        "position": 1,
        "buff": "物理攻击+15\n攻击目标时，有5%的概率使目标中毒，持续10秒（卡片效果不叠加）",
        "adventureBuff": "魔法防御+3",
        "storageBuff": "生命上限+36",
        "isCompose": 0
      },
      {
        "id": "20171",
        "name": "红尾人鱼卡片",
        "icon": "Deaf",
        "picture": "card_10217",
        "quality": 2,
        "position": 3,
        "buff": "生命上限+200\n受到攻击时，有15%的概率使敌人陷入睡眠状态，持续3秒",
        "adventureBuff": "物理攻击+3",
        "storageBuff": "生命上限+36",
        "isCompose": 0
      },
      {
        "id": "20170",
        "name": "鱼人卡片",
        "icon": "Fishmonster_1",
        "picture": "card_10215",
        "quality": 3,
        "position": 6,
        "buff": "物伤减免+5%\n冰冻抵抗+10%",
        "adventureBuff": "魔法攻击+3，生命上限+36",
        "storageBuff": "魔法防御+3，生命上限+36",
        "isCompose": 0
      },
      {
        "id": "20169",
        "name": "灯笼鱼人卡片",
        "icon": "Fishmonster_2",
        "picture": "card_10212",
        "quality": 2,
        "position": 5,
        "buff": "生命上限+200\n受到远距离物理伤害减免+3%",
        "adventureBuff": "物理防御+3",
        "storageBuff": "生命上限+36",
        "isCompose": 0
      },
      {
        "id": "23141",
        "name": "NPC的复仇卡片",
        "icon": "cardhead_23141",
        "picture": "card_23141",
        "quality": 3,
        "position": 7,
        "buff": "全能力+2\n技能伤害+2%",
        "adventureBuff": "魔法防御+2，生命上限+30",
        "storageBuff": "魔法攻击+3，生命上限+30",
        "isCompose": 0
      },
      {
        "id": "24629",
        "name": "时间管理人★卡片",
        "icon": "cardhead_24629",
        "picture": "card_24629",
        "quality": 4,
        "position": 5,
        "buff": "普攻伤害+5%\n物理攻击+40，生命上限+500，装备攻速+5%，生命恢复+2",
        "adventureBuff": "生命上限+120",
        "storageBuff": "魔法防御+1%",
        "isCompose": 1
      },
      {
        "id": "24628",
        "name": "俄赛里斯★卡片",
        "icon": "cardhead_24628",
        "picture": "card_24628",
        "quality": 4,
        "position": 6,
        "buff": "生命上限+10%\n复活时，HP与SP全部恢复",
        "adventureBuff": "生命上限+120",
        "storageBuff": "物理防御+1%",
        "isCompose": 1
      },
      {
        "id": "24516",
        "name": "时间管理人亡者卡片",
        "icon": "TimeHolder_dead",
        "picture": "card_24516",
        "quality": 4,
        "position": 2,
        "buff": "人形种族加伤+15%\n人形种族减伤+15%",
        "adventureBuff": "魔法攻击+12",
        "storageBuff": "魔法防御+6，生命上限+30",
        "isCompose": 0
      },
      {
        "id": "24515",
        "name": "俄赛里斯亡者卡片",
        "icon": "Osiris_dead",
        "picture": "card_24515",
        "quality": 4,
        "position": 4,
        "buff": "智力+5\n魔法穿刺+5%\n智力达到360点时，魔法穿刺+5%",
        "adventureBuff": "物理攻击+12",
        "storageBuff": "物理防御+6，生命上限+30",
        "isCompose": 0
      }
    ]
  }
}