{
  "code": 0,
  "status": "success",
  "timeStamp": 1642839640,
  "staticDomain": "http:\/\/rosc1.zhaiwuyu.com",
  "ip": "101.87.200.160",
  "language": "cn",
  "dbArea": 0,
  "data": {
    "page": 6,
    "pageSize": 30,
    "pageCount": 18,
    "total": 527,
    "list": [
      {
        "id": "20166",
        "name": "冰波利卡片",
        "icon": "Ice_poring",
        "picture": "card_10198",
        "quality": 2,
        "position": 5,
        "buff": "体质+5\n冰冻抵抗+10%",
        "adventureBuff": "物理防御+3",
        "storageBuff": "魔法防御+3",
        "isCompose": 0
      },
      {
        "id": "20165",
        "name": "雪兽卡片",
        "icon": "Snowbeast",
        "picture": "card_10197",
        "quality": 3,
        "position": 3,
        "buff": "对水属性魔物伤害+15%\n受到水属性伤害-5%",
        "adventureBuff": "魔法攻击+3，生命上限+36",
        "storageBuff": "生命上限+72",
        "isCompose": 0
      },
      {
        "id": "20164",
        "name": "小雪兽卡片",
        "icon": "Snowbeast_S",
        "picture": "card_10196",
        "quality": 3,
        "position": 7,
        "buff": "【冰箭术】固定吟唱减少0.2秒\n【冰箭术】伤害+10%",
        "adventureBuff": "物理防御+4.5",
        "storageBuff": "装备小雪兽卡片时，【冰箭术】伤害+2%",
        "isCompose": 0
      },
      {
        "id": "20163",
        "name": "邪恶妖精卡片",
        "icon": "Little_monster",
        "picture": "card_10195",
        "quality": 2,
        "position": 4,
        "buff": "生命上限+100\n魔法上限+100",
        "adventureBuff": "魔法攻击+3",
        "storageBuff": "生命上限+36",
        "isCompose": 0
      },
      {
        "id": "20162",
        "name": "红恶魔之眼卡片",
        "icon": "ReDevil_sEye",
        "picture": "card_10194",
        "quality": 3,
        "position": 1,
        "buff": "对暗属性魔物伤害+20%",
        "adventureBuff": "对暗属性魔物伤害+1%",
        "storageBuff": "物理攻击+3，生命上限+36",
        "isCompose": 0
      },
      {
        "id": "20161",
        "name": "恶魔之眼卡片",
        "icon": "Devil_sEye",
        "picture": "card_10193",
        "quality": 2,
        "position": 3,
        "buff": "生命上限+200\n魔法上限+2%",
        "adventureBuff": "魔法上限+10",
        "storageBuff": "魔法防御+3",
        "isCompose": 0
      },
      {
        "id": "20160",
        "name": "鼬卡片",
        "icon": "Weasel",
        "picture": "card_10192",
        "quality": 3,
        "position": 4,
        "buff": "闪避+10\n对水属性魔物伤害+10%\n对鱼贝种族魔物暴击+20",
        "adventureBuff": "生命上限+60",
        "storageBuff": "对鱼贝种族魔物伤害+1%",
        "isCompose": 0
      },
      {
        "id": "20159",
        "name": "吃人草卡片",
        "icon": "Chomper",
        "picture": "card_10191",
        "quality": 3,
        "position": 2,
        "buff": "受治疗加成+5%\n受到物理技能攻击时，有10%概率对自己施展【治愈术】Lv.10",
        "adventureBuff": "受治疗加成+1%",
        "storageBuff": "魔法防御+4.5",
        "isCompose": 0
      },
      {
        "id": "20158",
        "name": "石头波利卡片",
        "icon": "Stone_Poring",
        "picture": "card_10190",
        "quality": 2,
        "position": 2,
        "buff": "魔法防御+30\n石化抵抗+15%",
        "adventureBuff": "物理攻击+3",
        "storageBuff": "生命上限+36",
        "isCompose": 0
      },
      {
        "id": "20157",
        "name": "群叶疯兔卡片",
        "icon": "Leaves_Lunatic",
        "picture": "card_10202",
        "quality": 1,
        "position": 5,
        "buff": "魔法攻击+5",
        "adventureBuff": "物理攻击+3",
        "storageBuff": "物理防御+2",
        "isCompose": 0
      },
      {
        "id": "20156",
        "name": "狂野蜂兵卡片",
        "icon": "Wild_Bee",
        "picture": "card_10205",
        "quality": 1,
        "position": 1,
        "buff": "物理攻击+5",
        "adventureBuff": "魔法防御+2",
        "storageBuff": "命中+5",
        "isCompose": 0
      },
      {
        "id": "20155",
        "name": "甜心罗达蛙卡片",
        "icon": "Pink_RodaFrog",
        "picture": "card_10201",
        "quality": 2,
        "position": 3,
        "buff": "魔法上限+20\n生命上限+300",
        "adventureBuff": "魔法攻击+3",
        "storageBuff": "魔法防御+2",
        "isCompose": 0
      },
      {
        "id": "20154",
        "name": "蛋黄波利卡片",
        "icon": "Yolk_Poring",
        "picture": "card_10200",
        "quality": 1,
        "position": 3,
        "buff": "幸运+2\n生命上限+50",
        "adventureBuff": "物理防御+2",
        "storageBuff": "闪避+2",
        "isCompose": 0
      },
      {
        "id": "20153",
        "name": "椰树龟卡片",
        "icon": "Coconut_turtle",
        "picture": "card_10211",
        "quality": 2,
        "position": 7,
        "buff": "受到暗属性伤害-15%",
        "adventureBuff": "对暗属性魔物伤害+1%",
        "storageBuff": "生命上限+30",
        "isCompose": 0
      },
      {
        "id": "20152",
        "name": "沙滩海螺卡片",
        "icon": "Beach_conch",
        "picture": "card_10210",
        "quality": 1,
        "position": 2,
        "buff": "物理攻击+10",
        "adventureBuff": "生命上限+30",
        "storageBuff": "魔法攻击+4.5",
        "isCompose": 0
      },
      {
        "id": "20151",
        "name": "海濑卡片",
        "icon": "Sea_otter",
        "picture": "card_10209",
        "quality": 1,
        "position": 6,
        "buff": "生命上限+100",
        "adventureBuff": "生命上限+30",
        "storageBuff": "物理攻击+4.5",
        "isCompose": 0
      },
      {
        "id": "20150",
        "name": "群叶猫卡片",
        "icon": "Leaf_cat",
        "picture": "card_10204",
        "quality": 2,
        "position": 7,
        "buff": "受到水属性伤害-15%",
        "adventureBuff": "对水属性魔物伤害+1%",
        "storageBuff": "生命上限+30",
        "isCompose": 0
      },
      {
        "id": "20149",
        "name": "松鼠卡片",
        "icon": "Squirrel",
        "picture": "card_10203",
        "quality": 1,
        "position": 7,
        "buff": "沉默抵抗+20%\n物理防御+15",
        "adventureBuff": "物理攻击+2",
        "storageBuff": "生命上限+18",
        "isCompose": 0
      },
      {
        "id": "20148",
        "name": "七彩龙蛋卡片",
        "icon": "Colorful_egg",
        "picture": "card_10208",
        "quality": 1,
        "position": 2,
        "buff": "魔法攻击+10",
        "adventureBuff": "魔法攻击+2",
        "storageBuff": "生命上限+18",
        "isCompose": 0
      },
      {
        "id": "20147",
        "name": "七彩地龙卡片",
        "icon": "Deleter_petit",
        "picture": "card_10207",
        "quality": 2,
        "position": 3,
        "buff": "SP恢复+10%\nSP恢复+5",
        "adventureBuff": "魔法上限+10",
        "storageBuff": "魔法恢复+1",
        "isCompose": 0
      },
      {
        "id": "20146",
        "name": "七彩飞龙卡片",
        "icon": "Deleter_petit_F",
        "picture": "card_10206",
        "quality": 2,
        "position": 3,
        "buff": "击杀目标时，立刻恢复100点的生命值\nHP恢复-100%",
        "adventureBuff": "生命上限+30",
        "storageBuff": "生命恢复+2",
        "isCompose": 0
      },
      {
        "id": "24620",
        "name": "奥术魔方卡片",
        "icon": "cardhead_24620",
        "picture": "card_24620",
        "quality": 4,
        "position": 5,
        "buff": "移动速度-15%\n生命上限+25%",
        "adventureBuff": "魔法防御+2，生命上限+30",
        "storageBuff": "物理攻击+12",
        "isCompose": 0
      },
      {
        "id": "24619",
        "name": "女武神拉斯格瑞丝卡片",
        "icon": "cardhead_24619",
        "picture": "card_24619",
        "quality": 4,
        "position": 6,
        "buff": "物理伤害+3%\n暴伤+8%",
        "adventureBuff": "物理防御+2，生命上限+30",
        "storageBuff": "魔法攻击+12",
        "isCompose": 0
      },
      {
        "id": "24613",
        "name": "斯佩夏尔★卡片",
        "icon": "cardhead_24613",
        "picture": "card_24613",
        "quality": 4,
        "position": 1,
        "buff": "生命上限+10%\n闪避+30\n有5%概率闪避魔法伤害",
        "adventureBuff": "生命上限+120",
        "storageBuff": "魔法攻击+12",
        "isCompose": 1
      },
      {
        "id": "24612",
        "name": "迪塔勒泰晤勒★卡片",
        "icon": "cardhead_24612",
        "picture": "card_24612",
        "quality": 4,
        "position": 3,
        "buff": "避免陷入冰冻状态\n冰冻抵抗+50%\n中毒抵抗+50%\n受到魔法攻击33%概率自动施放【崩裂术】Lv.20",
        "adventureBuff": "物理攻击+12",
        "storageBuff": "中毒抵抗+5%",
        "isCompose": 1
      },
      {
        "id": "24513",
        "name": "斯佩夏尔亡者卡片",
        "icon": "Specialre_dead",
        "picture": "card_24513",
        "quality": 4,
        "position": 1,
        "buff": "魔法上限+10%\n魔法上限+500",
        "adventureBuff": "生命上限+120",
        "storageBuff": "魔法上限+2%",
        "isCompose": 0
      },
      {
        "id": "24512",
        "name": "迪塔勒泰晤勒亡者卡片",
        "icon": "Detale_dead",
        "picture": "card_24512",
        "quality": 4,
        "position": 5,
        "buff": "吟唱不会被打断\n智力+5\n魔法穿刺+5%",
        "adventureBuff": "物理防御+2%",
        "storageBuff": "物理攻击+12",
        "isCompose": 0
      },
      {
        "id": "22030",
        "name": "赛尼亚卡片",
        "icon": "B_Swordman_F",
        "picture": "card_20030",
        "quality": 3,
        "position": 2,
        "buff": "生命上限+5%\n物伤减免+5%",
        "adventureBuff": "魔法攻击+8",
        "storageBuff": "物理防御+3，生命上限+36",
        "isCompose": 0
      },
      {
        "id": "23133",
        "name": "恋之双子星卡片",
        "icon": "cardhead_23133",
        "picture": "card_23133",
        "quality": 3,
        "position": 2,
        "buff": "忽视魔法防御+3%\n魔法攻击+5",
        "adventureBuff": "魔法防御+2，生命上限+30",
        "storageBuff": "物理攻击+3，生命上限+30",
        "isCompose": 1
      },
      {
        "id": "24611",
        "name": "皮里恩★卡片",
        "icon": "cardhead_24611",
        "picture": "card_24611",
        "quality": 4,
        "position": 1,
        "buff": "命中+100\n技能伤害+10%",
        "adventureBuff": "生命上限+120",
        "storageBuff": "装备皮里恩★卡片时，技能伤害+1%",
        "isCompose": 1
      }
    ]
  }
}