{
  "code": 0,
  "status": "success",
  "timeStamp": 1642839751,
  "staticDomain": "http:\/\/rosc1.zhaiwuyu.com",
  "ip": "101.87.200.160",
  "language": "cn",
  "dbArea": 0,
  "data": {
    "page": 17,
    "pageSize": 30,
    "pageCount": 18,
    "total": 527,
    "list": [
      {
        "id": "20047",
        "name": "蛇女伊丝卡片",
        "icon": "Isis",
        "picture": "card_10053",
        "quality": 1,
        "position": 4,
        "buff": "受到暗属性伤害-15%",
        "adventureBuff": "魔法上限+20",
        "storageBuff": "装备蛇女伊丝卡片时，受到攻击概率使目标流失魔法值直到魔法值降低为0",
        "isCompose": 0
      },
      {
        "id": "20046",
        "name": "木乃伊卡片",
        "icon": "mummy",
        "picture": "card_10052",
        "quality": 1,
        "position": 1,
        "buff": "命中+10",
        "adventureBuff": "魔法攻击+6",
        "storageBuff": "命中+5，物理攻击+3",
        "isCompose": 0
      },
      {
        "id": "20045",
        "name": "黑狐卡片",
        "icon": "Matyr",
        "picture": "card_10051",
        "quality": 2,
        "position": 5,
        "buff": "敏捷+1\n生命上限+5%",
        "adventureBuff": "生命上限+48",
        "storageBuff": "生命上限+48",
        "isCompose": 0
      },
      {
        "id": "20044",
        "name": "邪骸士兵卡片",
        "icon": "Skeleton_Solider",
        "picture": "card_10050",
        "quality": 3,
        "position": 1,
        "buff": "暴击+9",
        "adventureBuff": "暴击+1",
        "storageBuff": "暴击伤害+1%",
        "isCompose": 1
      },
      {
        "id": "20043",
        "name": "沙漠之狼卡片",
        "icon": "DesertWolf",
        "picture": "card_10049",
        "quality": 3,
        "position": 1,
        "buff": "对小型魔物伤害+25%\n物理攻击+15",
        "adventureBuff": "物理攻击+8",
        "storageBuff": "洞察：忽视物理防御+50%（当小型魔物加伤属性大于50%时生效）",
        "isCompose": 0
      },
      {
        "id": "20042",
        "name": "魔锅蛋卡片",
        "icon": "Magnolia",
        "picture": "card_10048",
        "quality": 2,
        "position": 1,
        "buff": "普攻时有5%的几率恢复自己30点魔法值",
        "adventureBuff": "魔法防御+2",
        "storageBuff": "魔法恢复+1",
        "isCompose": 0
      },
      {
        "id": "20041",
        "name": "大嘴鸟卡片",
        "icon": "Pecopeco",
        "picture": "card_10047",
        "quality": 3,
        "position": 3,
        "buff": "生命上限+10%",
        "adventureBuff": "生命上限+28",
        "storageBuff": "装备大嘴鸟卡片时，使生命点燃效果得到加强",
        "isCompose": 1
      },
      {
        "id": "20040",
        "name": "摩卡卡片",
        "icon": "Muka",
        "picture": "card_10046",
        "quality": 1,
        "position": 6,
        "buff": "生命自然恢复+10",
        "adventureBuff": "生命上限+24",
        "storageBuff": "生命上限+28",
        "isCompose": 0
      },
      {
        "id": "20039",
        "name": "基尔瑟卡片",
        "icon": "Giearth",
        "picture": "card_10045",
        "quality": 2,
        "position": 7,
        "buff": "避免陷入睡眠状态",
        "adventureBuff": "受到地属性伤害-2%",
        "storageBuff": "生命上限+18",
        "isCompose": 0
      },
      {
        "id": "20038",
        "name": "黑蚁卡片",
        "icon": "Black_Ant",
        "picture": "card_10044",
        "quality": 3,
        "position": 1,
        "buff": "可使用【治愈术】Lv.2技能",
        "adventureBuff": "生命上限+56",
        "storageBuff": "生命上限+84",
        "isCompose": 0
      },
      {
        "id": "20037",
        "name": "红蝙蝠卡片",
        "icon": "Drainliar",
        "picture": "card_10043",
        "quality": 2,
        "position": 1,
        "buff": "对水属性魔物伤害+20%",
        "adventureBuff": "魔法攻击+6",
        "storageBuff": "对水属性魔物伤害+5%",
        "isCompose": 0
      },
      {
        "id": "20036",
        "name": "白蚁卡片",
        "icon": "Ant2",
        "picture": "card_10040",
        "quality": 1,
        "position": 1,
        "buff": "物理攻击+10",
        "adventureBuff": "物理攻击+3",
        "storageBuff": "物理攻击+4.5",
        "isCompose": 0
      },
      {
        "id": "20035",
        "name": "彩蝶精灵卡片",
        "icon": "Menblatt",
        "picture": "card_10039",
        "quality": 2,
        "position": 1,
        "buff": "对地属性魔物伤害+20%",
        "adventureBuff": "魔法防御+4",
        "storageBuff": "对地属性魔物伤害+5%",
        "isCompose": 0
      },
      {
        "id": "20034",
        "name": "艾吉欧蜈蚣卡片",
        "icon": "Argiope",
        "picture": "card_10038",
        "quality": 2,
        "position": 3,
        "buff": "可将铠甲的属性转变为毒属性\n物理防御+20",
        "adventureBuff": "物理防御+4",
        "storageBuff": "当装备艾吉欧蜈蚣卡片时，中毒抵抗+50%",
        "isCompose": 0
      },
      {
        "id": "20033",
        "name": "噬人花卡片",
        "icon": "flora",
        "picture": "card_10037",
        "quality": 1,
        "position": 1,
        "buff": "鱼贝种族加伤+15%",
        "adventureBuff": "鱼贝种族加伤+2%",
        "storageBuff": "鱼贝种族加伤+2%",
        "isCompose": 0
      },
      {
        "id": "20032",
        "name": "蜂兵卡片",
        "icon": "Bee",
        "picture": "card_10036",
        "quality": 2,
        "position": 1,
        "buff": "力量+1\n物理攻击+10",
        "adventureBuff": "物理攻击+6",
        "storageBuff": "物理攻击+9",
        "isCompose": 0
      },
      {
        "id": "20031",
        "name": "喷射哥布灵卡片",
        "icon": "Goblin_Panzer",
        "picture": "card_10035",
        "quality": 3,
        "position": 1,
        "buff": "暴击伤害+10%\n对无形种族魔物暴击+20",
        "adventureBuff": "暴击伤害+5%",
        "storageBuff": "对无形种族暴击伤害+5%",
        "isCompose": 1
      },
      {
        "id": "20030",
        "name": "弓箭哥布灵卡片",
        "icon": "Goblin_Archer",
        "picture": "card_10034",
        "quality": 3,
        "position": 1,
        "buff": "暴击伤害+10%\n对不死种族魔物暴击+20",
        "adventureBuff": "暴击伤害+5%",
        "storageBuff": "对不死种族暴击伤害+5%",
        "isCompose": 1
      },
      {
        "id": "20029",
        "name": "哥布灵卡片",
        "icon": "Goblin",
        "picture": "card_10029",
        "quality": 1,
        "position": 1,
        "buff": "动物种族加伤+15%",
        "adventureBuff": "动物种族加伤+2%",
        "storageBuff": "动物种族加伤+2%",
        "isCompose": 0
      },
      {
        "id": "20028",
        "name": "马克卡片",
        "icon": "Marc",
        "picture": "card_10028",
        "quality": 2,
        "position": 2,
        "buff": "受到水属性伤害-15%\n避免陷入冰冻的状态",
        "adventureBuff": "受到水属性伤害-2%",
        "storageBuff": "受到水属性伤害-8%",
        "isCompose": 0
      },
      {
        "id": "20027",
        "name": "剑鱼卡片",
        "icon": "Swordfish",
        "picture": "card_10027",
        "quality": 3,
        "position": 6,
        "buff": "吟唱打断耐性+20%",
        "adventureBuff": "魔法防御+4",
        "storageBuff": "生命上限+70",
        "isCompose": 0
      },
      {
        "id": "20026",
        "name": "人鱼卡片",
        "icon": "Obeaune",
        "picture": "card_10026",
        "quality": 1,
        "position": 6,
        "buff": "可使用技能【驱散】Lv.1",
        "adventureBuff": "生命上限+64",
        "storageBuff": "生命上限+72",
        "isCompose": 0
      },
      {
        "id": "20025",
        "name": "水母卡片",
        "icon": "Marina",
        "picture": "card_10025",
        "quality": 1,
        "position": 1,
        "buff": "普攻时有5%的几率使敌人冰冻持续5秒\n物理攻击+10",
        "adventureBuff": "魔法防御+2",
        "storageBuff": "当装备水母卡片时，使普攻时触发冰冻概率+5%，同时对处于冰冻目标造成的伤害增加25%",
        "isCompose": 0
      },
      {
        "id": "20024",
        "name": "达拉蛙卡片",
        "icon": "Thara",
        "picture": "card_10024",
        "quality": 3,
        "position": 3,
        "buff": "人形种族减伤+30%",
        "adventureBuff": "魔法防御+2",
        "storageBuff": "使每人形种族减伤+1%，受到怪物互击的伤害就-20点",
        "isCompose": 0
      },
      {
        "id": "20023",
        "name": "螃蟹卡片",
        "icon": "Vadon",
        "picture": "card_10023",
        "quality": 1,
        "position": 1,
        "buff": "对火属性魔物伤害+15%",
        "adventureBuff": "对火属性魔物伤害+2%",
        "storageBuff": "对火属性魔物伤害+5%",
        "isCompose": 0
      },
      {
        "id": "20022",
        "name": "邪骸战士卡片",
        "icon": "Skeleton",
        "picture": "card_10022",
        "quality": 2,
        "position": 1,
        "buff": "普攻时有3%的几率使敌人眩晕持续5秒",
        "adventureBuff": "物理防御+4",
        "storageBuff": "装备邪骸战士卡片时，此卡片效果的眩晕时间增加2秒",
        "isCompose": 0
      },
      {
        "id": "20021",
        "name": "毒魔菇卡片",
        "icon": "PoisenSpore",
        "picture": "card_10021",
        "quality": 1,
        "position": 6,
        "buff": "可使用技能【毒刃】Lv.1",
        "adventureBuff": "物理攻击+3",
        "storageBuff": "生命上限+10",
        "isCompose": 0
      },
      {
        "id": "20020",
        "name": "邪骸海盗卡片",
        "icon": "Skeleton_Pirate",
        "picture": "card_10020",
        "quality": 3,
        "position": 7,
        "buff": "可使用技能【狂击】Lv.6",
        "adventureBuff": "物理攻击+4",
        "storageBuff": "魔法攻击+10",
        "isCompose": 0
      },
      {
        "id": "20019",
        "name": "白幽灵卡片",
        "icon": "Whisper",
        "picture": "card_10019",
        "quality": 3,
        "position": 4,
        "buff": "受到念属性伤害+50%\n闪避+20",
        "adventureBuff": "对念属性魔物伤害+2%",
        "storageBuff": "装备白幽灵卡片时，受到念属性伤害-50%",
        "isCompose": 0
      },
      {
        "id": "20018",
        "name": "罗达蛙卡片",
        "icon": "RodaFrog",
        "picture": "card_10018",
        "quality": 1,
        "position": 3,
        "buff": "生命上限+150\n魔法上限+50",
        "adventureBuff": "生命上限+24",
        "storageBuff": "装备罗达蛙卡片时，魔法恢复+1",
        "isCompose": 0
      }
    ]
  }
}