{
  "code": 0,
  "status": "success",
  "timeStamp": 1643702121,
  "staticDomain": "http:\/\/rosc1.zhaiwuyu.com",
  "ip": "101.87.201.112",
  "language": "cn",
  "dbArea": 0,
  "data": {
    "page": 8,
    "pageSize": 30,
    "pageCount": 18,
    "total": 529,
    "list": [
      {
        "id": "23127",
        "name": "魔王梦罗克卡片",
        "icon": "cardhead_23127",
        "picture": "card_23127",
        "quality": 3,
        "position": 2,
        "buff": "对无属性魔物伤害+5%\n受到无属性伤害-5%",
        "adventureBuff": "物理攻击+2，生命上限+30",
        "storageBuff": "魔法攻击+2，生命上限+30",
        "isCompose": 0
      },
      {
        "id": "23122",
        "name": "2周年限定卡片",
        "icon": "cardhead_23122",
        "picture": "card_23122",
        "quality": 3,
        "position": 6,
        "buff": "全能力+2\n物理攻击+20\n魔法攻击+20",
        "adventureBuff": "魔法攻击+3，生命上限+30",
        "storageBuff": "物理攻击+3，生命上限+30",
        "isCompose": 0
      },
      {
        "id": "24609",
        "name": "阿特罗斯★卡片",
        "icon": "cardhead_24609",
        "picture": "card_24609",
        "quality": 4,
        "position": 1,
        "buff": "普攻时有5%概率获得急速狂暴效果，急速狂暴：装备攻速+20%，普攻伤害+7.5%，持续10秒\n【死灵★卡片】和【阿特罗斯★卡片】一同装备时，普攻伤害+10%",
        "adventureBuff": "生命上限+112",
        "storageBuff": "装备阿特罗斯★卡片时，普攻伤害+1.5%",
        "isCompose": 1
      },
      {
        "id": "24608",
        "name": "月夜猫★卡片",
        "icon": "cardhead_24608",
        "picture": "card_24608",
        "quality": 4,
        "position": 5,
        "buff": "永久提升移速30%\n避免移动速度降低",
        "adventureBuff": "移动速度+2%",
        "storageBuff": "物理防御+6",
        "isCompose": 1
      },
      {
        "id": "24607",
        "name": "虎王★卡片",
        "icon": "cardhead_24607",
        "picture": "card_24607",
        "quality": 4,
        "position": 5,
        "buff": "生命上限-10%\n处于无限【霸体】状态\n避免陷入定身状态\n【虎王亡者卡片】和【虎王★卡片】一起装备时，生命上限+15%",
        "adventureBuff": "体质+1，生命上限+36",
        "storageBuff": "生命上限+112",
        "isCompose": 1
      },
      {
        "id": "24606",
        "name": "蚁后★卡片",
        "icon": "cardhead_24606",
        "picture": "card_24606",
        "quality": 4,
        "position": 2,
        "buff": "反射20%的魔法伤害\n受到魔法伤害时，15%概率提升30%魔法防御，持续5秒\n【蚁后亡者卡片】和【蚁后★卡片】一起装备时，物理防御和魔法防御额外提升20%",
        "adventureBuff": "生命上限+112",
        "storageBuff": "魔法防御+2%",
        "isCompose": 1
      },
      {
        "id": "24605",
        "name": "海神★卡片",
        "icon": "cardhead_24605",
        "picture": "card_24605",
        "quality": 4,
        "position": 1,
        "buff": "对恶魔种族魔物伤害+25%\n对不死种族魔物伤害+25%",
        "adventureBuff": "对不死种族魔物伤害+3%",
        "storageBuff": "对恶魔种族魔物伤害+3%",
        "isCompose": 1
      },
      {
        "id": "24604",
        "name": "颚枭男爵★卡片",
        "icon": "cardhead_24604",
        "picture": "card_24604",
        "quality": 4,
        "position": 1,
        "buff": "普攻时有20%概率自动施放【天使之怒】Lv.1技能，使敌方单体下次受到的伤害增加100%\n【鹗枭男爵亡者卡片】和【鹗枭男爵★卡片】一起装备时，释放概率提升至45%",
        "adventureBuff": "物理攻击+12",
        "storageBuff": "生命上限+112",
        "isCompose": 1
      },
      {
        "id": "24603",
        "name": "海盗之王★卡片",
        "icon": "cardhead_24603",
        "picture": "card_24603",
        "quality": 4,
        "position": 1,
        "buff": "对小、中、大型魔物都造成100%的伤害\n物理攻击+100\n对大型魔物伤害额外增加30%",
        "adventureBuff": "生命上限+112",
        "storageBuff": "装备海盗之王★卡片时，对大型魔物伤害额外增加5%",
        "isCompose": 1
      },
      {
        "id": "24602",
        "name": "恶魔波利★卡片",
        "icon": "cardhead_24602",
        "picture": "card_24602",
        "quality": 4,
        "position": 4,
        "buff": "受到无属性伤害+50%\n受到其他属性伤害-20%\n【恶魔波利亡者卡片】和【恶魔波利★卡片】一起装备时，受到无属性伤害-50%，受到物理伤害-15%",
        "adventureBuff": "物伤减免+1%，生命上限+36",
        "storageBuff": "魔法防御+6",
        "isCompose": 1
      },
      {
        "id": "24601",
        "name": "凯美拉★卡片",
        "icon": "cardhead_24601",
        "picture": "card_24601",
        "quality": 4,
        "position": 3,
        "buff": "受到物理伤害时有3%概率使敌人中毒。当刺客系装备时中毒概率提升至12%\n中毒攻击+50%，中毒抵抗+100%\n对中毒的目标造成伤害+20%",
        "adventureBuff": "魔法攻击+12",
        "storageBuff": "对中毒的目标造成伤害+5%",
        "isCompose": 1
      },
      {
        "id": "24600",
        "name": "死灵★卡片",
        "icon": "cardhead_24600",
        "picture": "card_24600",
        "quality": 4,
        "position": 1,
        "buff": "装备攻速+20%（可突破攻速上限，不可叠加）\n普攻伤害+7.5%，当敏捷大于180时，普攻伤害+5%\n【死灵★卡片】和【阿特罗斯★卡片】一同装备时，普攻伤害+10%",
        "adventureBuff": "装备攻速+5%",
        "storageBuff": "魔法防御+6",
        "isCompose": 1
      },
      {
        "id": "24509",
        "name": "阿特罗斯亡者卡片",
        "icon": "Atroce_dead",
        "picture": "card_24509",
        "quality": 4,
        "position": 6,
        "buff": "圣属性攻击+3%\n治疗加成+3%\n使用法系技能时有10%概率获得强效治疗效果（治疗加成+10%，持续6秒）",
        "adventureBuff": "生命上限+112",
        "storageBuff": "治疗加成+2%",
        "isCompose": 0
      },
      {
        "id": "24508",
        "name": "月夜猫亡者卡片",
        "icon": "MoonLight_dead",
        "picture": "card_24508",
        "quality": 4,
        "position": 5,
        "buff": "闪避+20\n灵巧+5\n物理穿刺+3%",
        "adventureBuff": "物理攻击+12",
        "storageBuff": "生命上限+112",
        "isCompose": 0
      },
      {
        "id": "24507",
        "name": "虎王亡者卡片",
        "icon": "Eddga_dead",
        "picture": "card_24507",
        "quality": 4,
        "position": 4,
        "buff": "生命上限+5%\n每损失10%生命上限，自身伤害提高2%\n【虎王亡者卡片】和【虎王★卡片】一起装备时，生命上限+15%",
        "adventureBuff": "物理攻击+12",
        "storageBuff": "魔法攻击+12",
        "isCompose": 0
      },
      {
        "id": "24506",
        "name": "蚁后亡者卡片",
        "icon": "Maya_dead",
        "picture": "card_24506",
        "quality": 4,
        "position": 5,
        "buff": "反射20%物理伤害\n受到物理攻击时，15%概率提升30%物理防御，持续5秒\n【蚁后亡者卡片】和【蚁后★卡片】一起装备时，物理防御和魔法防御额外提升20%",
        "adventureBuff": "魔法攻击+12",
        "storageBuff": "物理防御+2%",
        "isCompose": 0
      },
      {
        "id": "24505",
        "name": "海神亡者卡片",
        "icon": "Strouf_dead",
        "picture": "card_24505",
        "quality": 4,
        "position": 2,
        "buff": "受到火属性伤害-15%\n受到风属性伤害-15%\n每隔15秒向自身周围释放出一圈寒冰吐息，使周围3米范围内全部敌人攻击速度-50%、移动速度-50%，持续5秒。",
        "adventureBuff": "受到火属性伤害-3%",
        "storageBuff": "受到风属性伤害-3%",
        "isCompose": 0
      },
      {
        "id": "24504",
        "name": "颚枭男爵亡者卡片",
        "icon": "Owl_Baron_dead",
        "picture": "card_24504",
        "quality": 4,
        "position": 7,
        "buff": "技能攻击目标时，有20%概率自动施放【天使之怒】Lv.1技能，使敌方单体下次受到的伤害增加100%\n【鹗枭男爵亡者卡片】和【鹗枭男爵★卡片】一起装备时，释放概率提升至45%",
        "adventureBuff": "物理攻击+12",
        "storageBuff": "魔法攻击+12",
        "isCompose": 0
      },
      {
        "id": "24503",
        "name": "海盗之王亡者卡片",
        "icon": "Drake_dead",
        "picture": "card_24503",
        "quality": 4,
        "position": 1,
        "buff": "对小、中、大型魔物都造成100%的伤害\n物理攻击+100\n对小型魔物伤害额外增加30%",
        "adventureBuff": "生命上限+112",
        "storageBuff": "装备海盗之王亡者卡片时，对小型魔物伤害额外增加5%",
        "isCompose": 0
      },
      {
        "id": "24502",
        "name": "恶魔波利亡者卡片",
        "icon": "Deviling_dead",
        "picture": "card_24502",
        "quality": 4,
        "position": 3,
        "buff": "受到魔法伤害-30%\n受到物理伤害+15%\n【恶魔波利亡者卡片】和【恶魔波利★卡片】一起装备时，受到无属性伤害-50%，受到物理伤害-15%",
        "adventureBuff": "魔伤减免+1%，生命上限+36",
        "storageBuff": "物理防御+6",
        "isCompose": 0
      },
      {
        "id": "24501",
        "name": "凯美拉亡者卡片",
        "icon": "Chimera_dead",
        "picture": "card_24501",
        "quality": 4,
        "position": 4,
        "buff": "普通攻击时有3%概率自动施放【天使加护】Lv.1技能，使自身接下来的3秒时间内无敌",
        "adventureBuff": "物理攻击+12",
        "storageBuff": "生命上限+112",
        "isCompose": 0
      },
      {
        "id": "24500",
        "name": "死灵亡者卡片",
        "icon": "Doppelganger_dead",
        "picture": "card_24500",
        "quality": 4,
        "position": 1,
        "buff": "攻击目标时，有25%概率给目标施加一个【死灵标记】：被标记的目标流血，生命魔法恢复停止，受治疗加成降低200%，物伤减免降低10%，魔伤减免降低10%，持续8秒",
        "adventureBuff": "物理攻击+12",
        "storageBuff": "生命上限+112",
        "isCompose": 0
      },
      {
        "id": "24086",
        "name": "兽人腐尸★卡片",
        "icon": "cardhead_24086",
        "picture": "card_24086",
        "quality": 3,
        "position": 4,
        "buff": "生命上限+3000\n受到物理攻击时，有一定概率（10%）给与敌人随机状态异常（眩晕、诅咒、沉默、中毒、流血）",
        "adventureBuff": "物理攻击+8",
        "storageBuff": "生命上限+72",
        "isCompose": 1
      },
      {
        "id": "24085",
        "name": "恶灵★卡片",
        "icon": "cardhead_24085",
        "picture": "card_24085",
        "quality": 3,
        "position": 6,
        "buff": "全能力+1\n晕眩、冰冻类型攻击的晕眩、冰冻概率+25%，晕眩、冰冻时间+25%",
        "adventureBuff": "魔法攻击+8",
        "storageBuff": "生命上限+72",
        "isCompose": 1
      },
      {
        "id": "24084",
        "name": "蛇女伊丝★卡片",
        "icon": "cardhead_24084",
        "picture": "card_24084",
        "quality": 4,
        "position": 7,
        "buff": "可变吟唱时间-5%\n火属性攻击+5%",
        "adventureBuff": "魔法防御+6",
        "storageBuff": "生命上限+112",
        "isCompose": 1
      },
      {
        "id": "24083",
        "name": "梦魇★卡片",
        "icon": "cardhead_24083",
        "picture": "card_24083",
        "quality": 4,
        "position": 3,
        "buff": "技能【白色障壁】冷却时间减少3秒",
        "adventureBuff": "物理防御+6",
        "storageBuff": "生命上限+112",
        "isCompose": 1
      },
      {
        "id": "24082",
        "name": "转转蛋★卡片",
        "icon": "cardhead_24082",
        "picture": "card_24082",
        "quality": 4,
        "position": 7,
        "buff": "全能力+2\n物理攻击+3%\n普通攻击攻击目标时5%概率使其恐惧，持续2秒\n物理技能攻击攻击目标时15%概率使其恐惧，持续2秒（恐惧效果内置CD：10秒）",
        "adventureBuff": "物理攻击+12",
        "storageBuff": "物理防御+6",
        "isCompose": 1
      },
      {
        "id": "24081",
        "name": "土人★卡片",
        "icon": "cardhead_24081",
        "picture": "card_24081",
        "quality": 3,
        "position": 3,
        "buff": "暴击防护+15\n当盔甲精炼+10及以上时，暴击防护+15",
        "adventureBuff": "生命上限+72",
        "storageBuff": "暴击防护+2",
        "isCompose": 1
      },
      {
        "id": "24080",
        "name": "完美舞姿",
        "icon": "cardhead_24080",
        "picture": "card_24080",
        "quality": 4,
        "position": 3,
        "buff": "当诗人或舞娘系职业演奏时，佩戴者每800点魔法上限可以使周围5米范围内队友提升1%物理和魔法伤害减免",
        "adventureBuff": "物理攻击+12",
        "storageBuff": "物理和魔法防御+1%",
        "isCompose": 1
      },
      {
        "id": "24079",
        "name": "无影无踪",
        "icon": "cardhead_24079",
        "picture": "card_24079",
        "quality": 4,
        "position": 5,
        "buff": "当佩戴者是刺客系职业时，对中毒的目标造成伤害+10%\n当佩戴者是刺客系职业时，攻击中毒的目标有5%概率使目标晕眩3秒",
        "adventureBuff": "魔法攻击+12",
        "storageBuff": "生命上限+112",
        "isCompose": 1
      }
    ]
  }
}