{
  "code": 0,
  "status": "success",
  "timeStamp": 1643702172,
  "staticDomain": "http:\/\/rosc1.zhaiwuyu.com",
  "ip": "101.87.201.112",
  "language": "cn",
  "dbArea": 0,
  "data": {
    "page": 13,
    "pageSize": 30,
    "pageCount": 18,
    "total": 529,
    "list": [
      {
        "id": "24014",
        "name": "邪骸矿工卡片",
        "icon": "cardhead_400300",
        "picture": "card_400300",
        "quality": 3,
        "position": 1,
        "buff": "对中型魔物伤害+15%\n物理攻击+5",
        "adventureBuff": "生命上限+28",
        "storageBuff": "物理攻击+10",
        "isCompose": 0
      },
      {
        "id": "24013",
        "name": "蝎子卡片",
        "icon": "cardhead_400290",
        "picture": "card_400290",
        "quality": 3,
        "position": 6,
        "buff": "对植物种族魔物伤害+10%",
        "adventureBuff": "生命上限+28",
        "storageBuff": "植物种族加伤+1%",
        "isCompose": 1
      },
      {
        "id": "24012",
        "name": "卡浩卡片",
        "icon": "cardhead_400280",
        "picture": "card_400280",
        "quality": 3,
        "position": 6,
        "buff": "对地属性魔物伤害+15%",
        "adventureBuff": "生命上限+28",
        "storageBuff": "对地属性魔物伤害+1%",
        "isCompose": 1
      },
      {
        "id": "24011",
        "name": "刺猬虫卡片",
        "icon": "cardhead_400270",
        "picture": "card_400270",
        "quality": 3,
        "position": 6,
        "buff": "对昆虫种族魔物伤害+10%",
        "adventureBuff": "生命上限+28",
        "storageBuff": "昆虫种族加伤+1%",
        "isCompose": 1
      },
      {
        "id": "24010",
        "name": "黄蛇卡片",
        "icon": "cardhead_400260",
        "picture": "card_400260",
        "quality": 3,
        "position": 6,
        "buff": "对毒属性魔物伤害+15%",
        "adventureBuff": "生命上限+28",
        "storageBuff": "对毒属性魔物伤害+1%",
        "isCompose": 1
      },
      {
        "id": "24009",
        "name": "圣诞波利卡片",
        "icon": "cardhead_400250",
        "picture": "card_400250",
        "quality": 3,
        "position": 6,
        "buff": "对暗属性魔物伤害+15%",
        "adventureBuff": "生命上限+28",
        "storageBuff": "对暗属性魔物伤害+1%",
        "isCompose": 1
      },
      {
        "id": "24008",
        "name": "阿加波卡片",
        "icon": "cardhead_400200",
        "picture": "card_400200",
        "quality": 3,
        "position": 3,
        "buff": "魔法攻击+5%\n佩戴者是魔法师系列时，魔法攻击+3%，生命上限+300，魔法上限+150",
        "adventureBuff": "生命上限+28",
        "storageBuff": "魔法攻击+1%",
        "isCompose": 1
      },
      {
        "id": "24006",
        "name": "巫婆卡片",
        "icon": "cardhead_400140",
        "picture": "card_400140",
        "quality": 3,
        "position": 3,
        "buff": "可将铠甲的属性转变为暗属性",
        "adventureBuff": "生命上限+28",
        "storageBuff": "圣属性攻击+1%",
        "isCompose": 0
      },
      {
        "id": "24005",
        "name": "泥人卡片",
        "icon": "cardhead_400130",
        "picture": "card_400130",
        "quality": 3,
        "position": 3,
        "buff": "可将铠甲的属性转变为地属性",
        "adventureBuff": "生命上限+28",
        "storageBuff": "火属性攻击+1%",
        "isCompose": 0
      },
      {
        "id": "24004",
        "name": "帕莎纳卡片",
        "icon": "cardhead_400120",
        "picture": "card_400120",
        "quality": 3,
        "position": 3,
        "buff": "可将铠甲的属性转变为火属性",
        "adventureBuff": "生命上限+28",
        "storageBuff": "水属性攻击+1%",
        "isCompose": 0
      },
      {
        "id": "24003",
        "name": "异变鱼卡片",
        "icon": "cardhead_400110",
        "picture": "card_400110",
        "quality": 3,
        "position": 3,
        "buff": "可将铠甲的属性转变为水属性",
        "adventureBuff": "生命上限+28",
        "storageBuff": "风属性攻击+1%",
        "isCompose": 0
      },
      {
        "id": "24002",
        "name": "封印的贝思波卡片",
        "icon": "cardhead_400040",
        "picture": "card_400040",
        "quality": 3,
        "position": 7,
        "buff": "忽视魔法防御+10%\n物理防御+40",
        "adventureBuff": "生命上限+28",
        "storageBuff": "忽视魔法防御+2%",
        "isCompose": 1
      },
      {
        "id": "24001",
        "name": "封印的白素贞卡片",
        "icon": "cardhead_400030",
        "picture": "card_400030",
        "quality": 3,
        "position": 7,
        "buff": "【治愈术】【光耀之堂】效果提升10%，SP消耗+20%",
        "adventureBuff": "生命上限+28",
        "storageBuff": "智力+1",
        "isCompose": 1
      },
      {
        "id": "23206",
        "name": "邪恶箱卡片",
        "icon": "Mimic",
        "picture": "card_40015",
        "quality": 1,
        "position": 6,
        "buff": "击杀目标时有3%概率额外获得8Zeny（效果不叠加）",
        "adventureBuff": "生命上限+28",
        "storageBuff": "物理攻击+4.5",
        "isCompose": 0
      },
      {
        "id": "23205",
        "name": "气泡虫卡片",
        "icon": "MarineSphere",
        "picture": "card_40014",
        "quality": 3,
        "position": 6,
        "buff": "可使用【怒爆】Lv.3技能",
        "adventureBuff": "生命上限+24",
        "storageBuff": "使怒爆技能伤害提升50%，但是每次使用怒爆技能都会损失自身一定血量值",
        "isCompose": 0
      },
      {
        "id": "23204",
        "name": "盗虫卵卡片",
        "icon": "ThiefBug_Egg",
        "picture": "card_40013",
        "quality": 1,
        "position": 2,
        "buff": "生命上限+200",
        "adventureBuff": "生命上限+24",
        "storageBuff": "每次受到攻击时有10%概率扣除目标1%的魔法上限",
        "isCompose": 0
      },
      {
        "id": "23203",
        "name": "蚂蚁卵卡片",
        "icon": "Ant_Egg",
        "picture": "card_40012",
        "quality": 2,
        "position": 1,
        "buff": "生命上限+5%",
        "adventureBuff": "生命上限+24",
        "storageBuff": "生命上限+36",
        "isCompose": 0
      },
      {
        "id": "23202",
        "name": "小鸡卡片",
        "icon": "Picky",
        "picture": "card_40011",
        "quality": 1,
        "position": 3,
        "buff": "力量+1\n物理攻击+10",
        "adventureBuff": "生命上限+24",
        "storageBuff": "力量+1",
        "isCompose": 0
      },
      {
        "id": "23201",
        "name": "大嘴鸟蛋卡片",
        "icon": "Pecopeco_Egg",
        "picture": "card_40010",
        "quality": 1,
        "position": 1,
        "buff": "对无形种族魔物伤害+15%",
        "adventureBuff": "生命上限+24",
        "storageBuff": "无形种族加伤+2%",
        "isCompose": 0
      },
      {
        "id": "23200",
        "name": "虫蛹卡片",
        "icon": "pupa",
        "picture": "card_40009",
        "quality": 1,
        "position": 3,
        "buff": "生命上限+200",
        "adventureBuff": "生命上限+24",
        "storageBuff": "生命上限+20\n眩晕抵抗+5%",
        "isCompose": 0
      },
      {
        "id": "23103",
        "name": "国王波利的恩惠",
        "icon": "CardMech",
        "picture": "card_23103",
        "quality": 1,
        "position": 7,
        "buff": "魔法防御+1",
        "adventureBuff": "魔法上限+10",
        "storageBuff": "生命上限+10",
        "isCompose": 0
      },
      {
        "id": "23102",
        "name": "沙漠幼狼卡片",
        "icon": "DesertWolf",
        "picture": "card_23102",
        "quality": 1,
        "position": 6,
        "buff": "人形种族加伤+3%",
        "adventureBuff": "人形种族加伤+1%",
        "storageBuff": "人形种族加伤+1%",
        "isCompose": 0
      },
      {
        "id": "23101",
        "name": "初心者爱意卡片",
        "icon": "lovecard",
        "picture": "card_23101",
        "quality": 1,
        "position": 7,
        "buff": "全能力+1",
        "adventureBuff": "生命上限+48",
        "storageBuff": "生命上限+70",
        "isCompose": 0
      },
      {
        "id": "23100",
        "name": "初心者卡片",
        "icon": "Novice_M",
        "picture": "card_23100",
        "quality": 1,
        "position": 1,
        "buff": "生命上限+50\n魔法上限+10",
        "adventureBuff": "生命上限+48",
        "storageBuff": "生命上限+48",
        "isCompose": 0
      },
      {
        "id": "23029",
        "name": "兰特克力斯卡片",
        "icon": "Valkyrie",
        "picture": "card_60002",
        "quality": 4,
        "position": 1,
        "buff": "精炼物攻+50",
        "adventureBuff": "精炼物攻+5",
        "storageBuff": "物理攻击+12",
        "isCompose": 0
      },
      {
        "id": "23028",
        "name": "德古拉男爵卡片",
        "icon": "Dracula",
        "picture": "card_60001",
        "quality": 4,
        "position": 1,
        "buff": "任何攻击时10%概率使对敌人造成伤害的一定百分比转化为自己的魔法值",
        "adventureBuff": "生命上限+28",
        "storageBuff": "魔法攻击+12",
        "isCompose": 0
      },
      {
        "id": "23027",
        "name": "黑暗之王卡片",
        "icon": "Dark_Lord",
        "picture": "card_30029",
        "quality": 4,
        "position": 5,
        "buff": "受到物理技能攻击时有一定的机率释放10级陨石术",
        "adventureBuff": "火属性攻击+8%",
        "storageBuff": "生命上限+70",
        "isCompose": 0
      },
      {
        "id": "23024",
        "name": "犬妖首领卡片",
        "icon": "Kobold_Leader",
        "picture": "card_30024",
        "quality": 4,
        "position": 1,
        "buff": "锁定目标类的物理伤害技能可获得5%伤害的HP恢复效果",
        "adventureBuff": "生命上限+112",
        "storageBuff": "魔法攻击+10，物理攻击+10",
        "isCompose": 0
      },
      {
        "id": "23023",
        "name": "波利之王卡片",
        "icon": "Masterring",
        "picture": "card_20017",
        "quality": 3,
        "position": 4,
        "buff": "幸运+4\n闪避+5",
        "adventureBuff": "生命上限+24",
        "storageBuff": "生命上限+70",
        "isCompose": 0
      },
      {
        "id": "23022",
        "name": "圣天使波利卡片",
        "icon": "Archangeling",
        "picture": "card_30045",
        "quality": 4,
        "position": 7,
        "buff": "生命上限+10%",
        "adventureBuff": "物理防御+1%，魔法防御+1%",
        "storageBuff": "装备圣天使波利卡片时，每10秒恢复5%最大生命\n装备圣天使波利卡片时，每10秒恢复5%最大魔法",
        "isCompose": 0
      }
    ]
  }
}