{
  "code": 0,
  "status": "success",
  "timeStamp": 1643702131,
  "staticDomain": "http:\/\/rosc1.zhaiwuyu.com",
  "ip": "101.87.201.112",
  "language": "cn",
  "dbArea": 0,
  "data": {
    "page": 9,
    "pageSize": 30,
    "pageCount": 18,
    "total": 529,
    "list": [
      {
        "id": "24078",
        "name": "贤者之书",
        "icon": "cardhead_24078",
        "picture": "card_24078",
        "quality": 4,
        "position": 3,
        "buff": "当佩戴者是贤者系职业时，每20点敏捷增加自身1%忽视魔法防御，1%装备攻速",
        "adventureBuff": "生命上限+112",
        "storageBuff": "当佩戴者是贤者职业时，装备攻速+3%",
        "isCompose": 1
      },
      {
        "id": "24077",
        "name": "移动援护",
        "icon": "cardhead_24077",
        "picture": "card_24077",
        "quality": 4,
        "position": 5,
        "buff": "施放技能【舍命庇护】之后可以移动",
        "adventureBuff": "物理攻击+12",
        "storageBuff": "魔法攻击+12",
        "isCompose": 1
      },
      {
        "id": "24076",
        "name": "倾城卡片",
        "icon": "cardhead_24076",
        "picture": "card_24076",
        "quality": 3,
        "position": 1,
        "buff": "生命上限+500",
        "adventureBuff": "PVP\/GVG中对玩家伤害+3%",
        "storageBuff": "生命上限+72",
        "isCompose": 0
      },
      {
        "id": "24075",
        "name": "守护卡片",
        "icon": "cardhead_24075",
        "picture": "card_24075",
        "quality": 3,
        "position": 1,
        "buff": "生命上限+500",
        "adventureBuff": "PVP\/GVG中受玩家伤害-3%",
        "storageBuff": "生命上限+72",
        "isCompose": 0
      },
      {
        "id": "23119",
        "name": "厨神卡片",
        "icon": "cardhead_23119",
        "picture": "card_23119",
        "quality": 3,
        "position": 7,
        "buff": "对动物、植物种族魔物伤害+2%\n生命上限+200",
        "adventureBuff": "物理攻击+2，生命上限+30",
        "storageBuff": "魔法攻击+2，生命上限+30",
        "isCompose": 0
      },
      {
        "id": "23037",
        "name": "狼外婆卡片",
        "icon": "Wolf_Grandam",
        "picture": "card_30050",
        "quality": 4,
        "position": 3,
        "buff": "异常状态抵抗+25%\n异常状态下，将获得25%物伤减免和魔伤减免",
        "adventureBuff": "异常状态抵抗+5%",
        "storageBuff": "装备狼外婆卡片时，异常状态下，将获得5%物伤减免和魔伤减免",
        "isCompose": 0
      },
      {
        "id": "23036",
        "name": "嗜血怪人卡片",
        "icon": "Bloody_Murderer",
        "picture": "card_30049",
        "quality": 4,
        "position": 1,
        "buff": "暴击+7，暴击伤害增加+12%\n普通攻击，暴击时有概率（10%）获得【嗜血】状态，普通攻击伤害+5%，持续5秒",
        "adventureBuff": "生命上限+112",
        "storageBuff": "暴击伤害增加+3%",
        "isCompose": 0
      },
      {
        "id": "23035",
        "name": "死灵骑士卡片",
        "icon": "Death_lord",
        "picture": "card_30048",
        "quality": 4,
        "position": 1,
        "buff": "近战攻击时有一定的概率（8%）使目标眩晕、诅咒、沉默、中毒、流血，持续3秒\n对眩晕、诅咒、沉默、中毒、流血目标伤害增加20%",
        "adventureBuff": "物理攻击+12",
        "storageBuff": "装备死灵骑士卡片时，对眩晕、诅咒、沉默、中毒、流血目标伤害增加5%",
        "isCompose": 0
      },
      {
        "id": "22027",
        "name": "吹笛人卡片",
        "icon": "Pied_Piper",
        "picture": "card_20029",
        "quality": 3,
        "position": 5,
        "buff": "暴击+5\n敏捷+5\n灵巧+2\n移动速度+5%",
        "adventureBuff": "魔法攻击+8",
        "storageBuff": "生命上限+72",
        "isCompose": 0
      },
      {
        "id": "22026",
        "name": "银月魔女卡片",
        "icon": "Ruriloli",
        "picture": "card_20028",
        "quality": 3,
        "position": 3,
        "buff": "生命上限+1000\n受到攻击时，有一定的概率（15%）对自己施展【治愈术】Lv.10",
        "adventureBuff": "物理攻击+8",
        "storageBuff": "生命上限+72",
        "isCompose": 0
      },
      {
        "id": "20133",
        "name": "墓碑怪人卡片",
        "icon": "TombstoneMan",
        "picture": "card_10170",
        "quality": 2,
        "position": 2,
        "buff": "物理防御+2%\n魔法防御+2%\n物理防御+10\n魔法防御+10",
        "adventureBuff": "魔法防御+3",
        "storageBuff": "生命上限+36",
        "isCompose": 0
      },
      {
        "id": "20132",
        "name": "稻草人卡片",
        "icon": "ScareCrow",
        "picture": "card_10171",
        "quality": 3,
        "position": 6,
        "buff": "对不死属性魔物伤害+10%",
        "adventureBuff": "物理防御+4.5",
        "storageBuff": "魔法防御+2，生命上限+36",
        "isCompose": 0
      },
      {
        "id": "20131",
        "name": "兔斯拉卡片",
        "icon": "Hylozoist",
        "picture": "card_10169",
        "quality": 2,
        "position": 4,
        "buff": "物伤减免+2%\n生命上限+100",
        "adventureBuff": "物理防御+3",
        "storageBuff": "生命上限+36",
        "isCompose": 0
      },
      {
        "id": "20130",
        "name": "南瓜魂卡片",
        "icon": "Lude",
        "picture": "card_10168",
        "quality": 3,
        "position": 2,
        "buff": "受到不死属性伤害-5%\n对不死属性魔物伤害+10%",
        "adventureBuff": "生命上限+60",
        "storageBuff": "魔法攻击+3，生命上限+36",
        "isCompose": 0
      },
      {
        "id": "20129",
        "name": "无颅武士卡片",
        "icon": "Dullahan",
        "picture": "card_10167",
        "quality": 3,
        "position": 4,
        "buff": "受到火属性伤害-15%\n【枪阵-血十字】伤害+10%",
        "adventureBuff": "生命上限+60",
        "storageBuff": "物理攻击+3，生命上限+36",
        "isCompose": 0
      },
      {
        "id": "20128",
        "name": "鬼娃树卡片",
        "icon": "Gibbet",
        "picture": "card_10166",
        "quality": 3,
        "position": 7,
        "buff": "生命上限+200\n魔法防御+10%",
        "adventureBuff": "物理攻击+8",
        "storageBuff": "物理防御+2，生命上限+36",
        "isCompose": 0
      },
      {
        "id": "20127",
        "name": "万圣魔卡片",
        "icon": "Quve",
        "picture": "card_10165",
        "quality": 2,
        "position": 6,
        "buff": "魔法防御+2%\n魔法防御+15",
        "adventureBuff": "物理防御+3",
        "storageBuff": "生命上限+36",
        "isCompose": 0
      },
      {
        "id": "23116",
        "name": "冰雪派对卡片",
        "icon": "cardhead_23116",
        "picture": "card_23116",
        "quality": 3,
        "position": 3,
        "buff": "受到无属性伤害-10%\n生命上限+500\n魔法上限+200",
        "adventureBuff": "物理攻击+2，生命上限+36",
        "storageBuff": "魔法攻击+2，生命上限+36",
        "isCompose": 0
      },
      {
        "id": "24074",
        "name": "溜溜猴★卡片",
        "icon": "cardhead_24074",
        "picture": "card_24074",
        "quality": 2,
        "position": 7,
        "buff": "敏捷+3\n暴击+3",
        "adventureBuff": "生命上限+30",
        "storageBuff": "物理防御+3",
        "isCompose": 1
      },
      {
        "id": "24073",
        "name": "摩卡★卡片",
        "icon": "cardhead_24073",
        "picture": "card_24073",
        "quality": 3,
        "position": 4,
        "buff": "魔伤减免+8%\n魔法上限+200",
        "adventureBuff": "生命上限+60",
        "storageBuff": "物理防御+4.5",
        "isCompose": 1
      },
      {
        "id": "24072",
        "name": "巨石怪★卡片",
        "icon": "cardhead_24072",
        "picture": "card_24072",
        "quality": 3,
        "position": 3,
        "buff": "物伤减免+8%\n生命上限+500",
        "adventureBuff": "生命上限+60",
        "storageBuff": "生命上限+72",
        "isCompose": 1
      },
      {
        "id": "24071",
        "name": "吸血蝙蝠★卡片",
        "icon": "cardhead_24071",
        "picture": "card_24071",
        "quality": 4,
        "position": 5,
        "buff": "魔法攻击+3%\n魔法攻击+20",
        "adventureBuff": "魔法防御+6",
        "storageBuff": "物理攻击+12",
        "isCompose": 1
      },
      {
        "id": "24070",
        "name": "白蚁★卡片",
        "icon": "cardhead_24070",
        "picture": "card_24070",
        "quality": 4,
        "position": 7,
        "buff": "物理穿刺+3%\n力量或灵巧达到225时，忽视物理防御+3%",
        "adventureBuff": "物理防御+6",
        "storageBuff": "魔法攻击+12",
        "isCompose": 1
      },
      {
        "id": "24069",
        "name": "傀儡娃娃★卡片",
        "icon": "cardhead_24069",
        "picture": "card_24069",
        "quality": 3,
        "position": 5,
        "buff": "受到念属性伤害-10%\n念属性攻击+5%",
        "adventureBuff": "物理攻击+8",
        "storageBuff": "生命上限+72",
        "isCompose": 1
      },
      {
        "id": "24068",
        "name": "水怪卡片",
        "icon": "cardhead_24068",
        "picture": "card_24068",
        "quality": 2,
        "position": 2,
        "buff": "受到火属性伤害-5%\n对火属性魔物伤害+10%",
        "adventureBuff": "物理防御+3",
        "storageBuff": "魔法防御+3",
        "isCompose": 1
      },
      {
        "id": "24067",
        "name": "致命涂毒卡片",
        "icon": "cardhead_24067",
        "picture": "card_24067",
        "quality": 3,
        "position": 2,
        "buff": "技能【剧毒武器】消耗【新毒】-1",
        "adventureBuff": "魔法防御+4.5",
        "storageBuff": "生命上限+72",
        "isCompose": 1
      },
      {
        "id": "24066",
        "name": "念力增幅卡片",
        "icon": "cardhead_24066",
        "picture": "card_24066",
        "quality": 3,
        "position": 2,
        "buff": "使用【白色监狱】后，自身念属性攻击提升20%，持续5秒",
        "adventureBuff": "物理防御+4.5",
        "storageBuff": "生命上限+72",
        "isCompose": 1
      },
      {
        "id": "24065",
        "name": "领袖之风卡片",
        "icon": "cardhead_24065",
        "picture": "card_24065",
        "quality": 4,
        "position": 3,
        "buff": "使用【领主光环】后，使全队物理伤害提升额外+8%",
        "adventureBuff": "生命上限+112",
        "storageBuff": "装备领袖之风卡片时，使用【领主光环】后，使全队物理伤害提升额外再+2%",
        "isCompose": 1
      },
      {
        "id": "23115",
        "name": "怪兽卡片",
        "icon": "cardhead_209",
        "picture": "card_209",
        "quality": 3,
        "position": 2,
        "buff": "人形种族加伤+2%\n受到植物、动物种族魔物伤害-10%",
        "adventureBuff": "魔法防御+4.5",
        "storageBuff": "生命上限+72",
        "isCompose": 0
      },
      {
        "id": "23114",
        "name": "奥特曼卡片",
        "icon": "cardhead_208",
        "picture": "card_208",
        "quality": 3,
        "position": 6,
        "buff": "对动物、恶魔种族魔物伤害+8%\n人形种族减伤+2%",
        "adventureBuff": "物理防御+4.5",
        "storageBuff": "生命上限+72",
        "isCompose": 0
      }
    ]
  }
}