{
  "code": 0,
  "status": "success",
  "timeStamp": 1643702202,
  "staticDomain": "http:\/\/rosc1.zhaiwuyu.com",
  "ip": "101.87.201.112",
  "language": "cn",
  "dbArea": 0,
  "data": {
    "page": 16,
    "pageSize": 30,
    "pageCount": 18,
    "total": 529,
    "list": [
      {
        "id": "20079",
        "name": "蓝鼠卡片",
        "icon": "Cramp",
        "picture": "card_10085",
        "quality": 2,
        "position": 7,
        "buff": "幸运+3\n闪避+5",
        "adventureBuff": "闪避+4",
        "storageBuff": "生命上限+18",
        "isCompose": 0
      },
      {
        "id": "20078",
        "name": "深渊骑士卡片",
        "icon": "Abyssknight",
        "picture": "card_10084",
        "quality": 4,
        "position": 1,
        "buff": "对MVP、Mini魔物伤害+10%",
        "adventureBuff": "对MVP、Mini魔物伤害+1%",
        "storageBuff": "装备深渊骑士卡片时，对MVP、Mini魔物伤害+5%（不可叠加）",
        "isCompose": 0
      },
      {
        "id": "20077",
        "name": "恶魔侍者卡片",
        "icon": "Incubus",
        "picture": "card_10083",
        "quality": 3,
        "position": 7,
        "buff": "魔法上限+200\nSP恢复+15%",
        "adventureBuff": "魔法自然恢复+1%",
        "storageBuff": "生命上限+70",
        "isCompose": 0
      },
      {
        "id": "20076",
        "name": "恶魔女仆卡片",
        "icon": "Succubus",
        "picture": "card_10082",
        "quality": 3,
        "position": 3,
        "buff": "生命上限+500\nHP恢复+15%",
        "adventureBuff": "生命自然恢复+1%",
        "storageBuff": "魔法攻击+10",
        "isCompose": 1
      },
      {
        "id": "20075",
        "name": "蝙蝠弓箭手卡片",
        "icon": "Gargoyle",
        "picture": "card_10081",
        "quality": 2,
        "position": 6,
        "buff": "每当击杀昆虫系魔物时有3%概率使移动速度增加25%持续20秒",
        "adventureBuff": "移动速度+1%",
        "storageBuff": "生命上限+18",
        "isCompose": 0
      },
      {
        "id": "20074",
        "name": "恶灵卡片",
        "icon": "Wraith",
        "picture": "card_10080",
        "quality": 2,
        "position": 6,
        "buff": "每当击杀不死系魔物时有3%概率恢复9%伤害的生命值",
        "adventureBuff": "生命上限+28",
        "storageBuff": "生命上限+30",
        "isCompose": 0
      },
      {
        "id": "20073",
        "name": "绿贝勒斯卡片",
        "icon": "Ferus",
        "picture": "card_10079",
        "quality": 3,
        "position": 5,
        "buff": "体质+2\n生命上限+10%",
        "adventureBuff": "生命上限+24",
        "storageBuff": "生命上限+70",
        "isCompose": 1
      },
      {
        "id": "20072",
        "name": "毕帝特地龙卡片",
        "icon": "Petit",
        "picture": "card_10078",
        "quality": 2,
        "position": 1,
        "buff": "对龙族魔物伤害+20%",
        "adventureBuff": "生命上限+24",
        "storageBuff": "龙形种族加伤+2%",
        "isCompose": 0
      },
      {
        "id": "20071",
        "name": "毕帝特飞龙卡片",
        "icon": "Petit_F",
        "picture": "card_10077",
        "quality": 1,
        "position": 2,
        "buff": "受到龙族魔物伤害-15%",
        "adventureBuff": "生命上限+24",
        "storageBuff": "使被龙形种族魔物攻击到50%血量时，根据自身生命上限和魔法上限增加免疫物理伤害护盾，持续10秒或被击破（最多每60秒触发1次）",
        "isCompose": 0
      },
      {
        "id": "20070",
        "name": "赤苍蝇卡片",
        "icon": "HunterFly",
        "picture": "card_10076",
        "quality": 2,
        "position": 1,
        "buff": "使用物理技能攻击时有3%概率恢复自身2%生命上限的血量",
        "adventureBuff": "生命上限+24",
        "storageBuff": "赤苍蝇卡片触发吸血效果时额外恢复自身1%生命上限的血量",
        "isCompose": 0
      },
      {
        "id": "20069",
        "name": "邪骸兽人卡片",
        "icon": "Orc_Skeleton",
        "picture": "card_10075",
        "quality": 2,
        "position": 1,
        "buff": "对圣属性魔物伤害+20%",
        "adventureBuff": "生命上限+24",
        "storageBuff": "对圣属性魔物伤害+5%",
        "isCompose": 0
      },
      {
        "id": "20068",
        "name": "兽人腐尸卡片",
        "icon": "Orc_Zombie",
        "picture": "card_10074",
        "quality": 2,
        "position": 4,
        "buff": "受到不死属性伤害-20%",
        "adventureBuff": "生命上限+24",
        "storageBuff": "装备兽人腐尸卡片时，对不死属性魔物伤害+10%",
        "isCompose": 0
      },
      {
        "id": "20067",
        "name": "小恶魔卡片",
        "icon": "Deviruchi",
        "picture": "card_10073",
        "quality": 3,
        "position": 7,
        "buff": "力量+3\n避免陷入黑暗的状态",
        "adventureBuff": "生命上限+24",
        "storageBuff": "恶魔种族加伤+2%",
        "isCompose": 0
      },
      {
        "id": "20066",
        "name": "傀儡娃娃卡片",
        "icon": "Marionette",
        "picture": "card_10072",
        "quality": 1,
        "position": 4,
        "buff": "受到念属性伤害-15%",
        "adventureBuff": "生命上限+24",
        "storageBuff": "【念力连击】伤害+10%",
        "isCompose": 0
      },
      {
        "id": "20065",
        "name": "梦魇卡片",
        "icon": "Nightmare",
        "picture": "card_10071",
        "quality": 2,
        "position": 7,
        "buff": "避免进入睡眠状态\n敏捷+1",
        "adventureBuff": "生命上限+24",
        "storageBuff": "生命上限+18",
        "isCompose": 0
      },
      {
        "id": "20064",
        "name": "兽人战士长卡片",
        "icon": "Orc_Captain",
        "picture": "card_10070",
        "quality": 2,
        "position": 2,
        "buff": "受到敌人物理攻击时，10%物理伤害会反射给敌人",
        "adventureBuff": "生命上限+24",
        "storageBuff": "装备兽人战士长卡片时，每隔30秒使物理伤害+1%，持续5秒",
        "isCompose": 0
      },
      {
        "id": "20063",
        "name": "兽人弓箭手卡片",
        "icon": "Orc_Archer",
        "picture": "card_10069",
        "quality": 1,
        "position": 6,
        "buff": "每当击杀人形系魔物时有10%的概率恢复自身20点魔法值",
        "adventureBuff": "闪避+10",
        "storageBuff": "使装备兽人弓箭手卡片时，魔法恢复+2",
        "isCompose": 0
      },
      {
        "id": "20062",
        "name": "兽人战士卡片",
        "icon": "Orc",
        "picture": "card_10068",
        "quality": 1,
        "position": 2,
        "buff": "动物种族减伤+20%",
        "adventureBuff": "闪避+10",
        "storageBuff": "动物种族减伤+2%",
        "isCompose": 0
      },
      {
        "id": "20061",
        "name": "九尾狐卡片",
        "icon": "Ninetail",
        "picture": "card_10067",
        "quality": 2,
        "position": 4,
        "buff": "敏捷+2\n闪避+5",
        "adventureBuff": "闪避+10",
        "storageBuff": "生命上限+18",
        "isCompose": 0
      },
      {
        "id": "20060",
        "name": "土人卡片",
        "icon": "Dokebi",
        "picture": "card_10066",
        "quality": 2,
        "position": 3,
        "buff": "可将铠甲的属性转变为风属性",
        "adventureBuff": "物理防御+4",
        "storageBuff": "当装备土人卡片时不会受到定身属性的影响",
        "isCompose": 0
      },
      {
        "id": "20059",
        "name": "鬼女卡片",
        "icon": "Sohee",
        "picture": "card_10065",
        "quality": 2,
        "position": 5,
        "buff": "魔法上限+15%\nSP恢复+2",
        "adventureBuff": "魔法上限+20",
        "storageBuff": "生命上限+18",
        "isCompose": 0
      },
      {
        "id": "20058",
        "name": "马尔杜克卡片",
        "icon": "Marduk",
        "picture": "card_10064",
        "quality": 1,
        "position": 7,
        "buff": "避免陷入沉默状态",
        "adventureBuff": "魔法防御+4",
        "storageBuff": "生命上限+10",
        "isCompose": 0
      },
      {
        "id": "20057",
        "name": "邪骸弓箭手卡片",
        "icon": "Skeleton",
        "picture": "card_10063",
        "quality": 3,
        "position": 1,
        "buff": "近战物理攻击+5%\n远程物理攻击+10%",
        "adventureBuff": "物理攻击+8",
        "storageBuff": "装备邪骸弓箭手卡片时，物理攻击+5%",
        "isCompose": 0
      },
      {
        "id": "20056",
        "name": "米诺斯卡片",
        "icon": "Minorous",
        "picture": "card_10062",
        "quality": 3,
        "position": 1,
        "buff": "对大型魔物伤害+25%\n物理攻击+15",
        "adventureBuff": "物理攻击+8",
        "storageBuff": "洞察：忽视物理防御+50%（当大型魔物加伤属性大于50%时生效）",
        "isCompose": 0
      },
      {
        "id": "20055",
        "name": "妖道卡片",
        "icon": "Bon_cun",
        "picture": "card_10061",
        "quality": 1,
        "position": 1,
        "buff": "普攻时有3%概率自动释放【狂击】Lv.5",
        "adventureBuff": "魔法防御+2",
        "storageBuff": "使狂击技能受到力量值影响",
        "isCompose": 0
      },
      {
        "id": "20054",
        "name": "僵尸卡片",
        "icon": "Munak",
        "picture": "card_10060",
        "quality": 1,
        "position": 2,
        "buff": "受到地属性伤害-10%\n物理防御+10",
        "adventureBuff": "魔法攻击+3",
        "storageBuff": "魔法攻击+12",
        "isCompose": 0
      },
      {
        "id": "20053",
        "name": "转转蛋卡片",
        "icon": "Eggyra",
        "picture": "card_10059",
        "quality": 3,
        "position": 5,
        "buff": "智力+2\nSP恢复+5",
        "adventureBuff": "生命上限+28",
        "storageBuff": "魔法攻击+10",
        "isCompose": 0
      },
      {
        "id": "20052",
        "name": "鬼火卡片",
        "icon": "Horong",
        "picture": "card_10058",
        "quality": 1,
        "position": 6,
        "buff": "可使用【火狩】Lv.1技能",
        "adventureBuff": "魔法防御+4",
        "storageBuff": "生命上限+10",
        "isCompose": 0
      },
      {
        "id": "20051",
        "name": "野猪卡片",
        "icon": "Savage",
        "picture": "card_10057",
        "quality": 2,
        "position": 3,
        "buff": "体质+3",
        "adventureBuff": "物理防御+4",
        "storageBuff": "体质+1\n被野猪攻击时，每点体质都会增加额外的反射伤害",
        "isCompose": 0
      },
      {
        "id": "20050",
        "name": "将军魔碑卡片",
        "icon": "Greatest_General",
        "picture": "card_10056",
        "quality": 2,
        "position": 6,
        "buff": "普攻时3%概率蓄气（最终伤害+10%）持续1分钟",
        "adventureBuff": "魔法防御+2",
        "storageBuff": "生命上限+18",
        "isCompose": 0
      }
    ]
  }
}