{
  "code": 0,
  "status": "success",
  "timeStamp": 1643702111,
  "staticDomain": "http:\/\/rosc1.zhaiwuyu.com",
  "ip": "101.87.201.112",
  "language": "cn",
  "dbArea": 0,
  "data": {
    "page": 7,
    "pageSize": 30,
    "pageCount": 18,
    "total": 529,
    "list": [
      {
        "id": "23133",
        "name": "恋之双子星卡片",
        "icon": "cardhead_23133",
        "picture": "card_23133",
        "quality": 3,
        "position": 2,
        "buff": "忽视魔法防御+3%\n魔法攻击+5",
        "adventureBuff": "魔法防御+2，生命上限+30",
        "storageBuff": "物理攻击+3，生命上限+30",
        "isCompose": 1
      },
      {
        "id": "24611",
        "name": "皮里恩★卡片",
        "icon": "cardhead_24611",
        "picture": "card_24611",
        "quality": 4,
        "position": 1,
        "buff": "命中+100\n技能伤害+10%",
        "adventureBuff": "生命上限+120",
        "storageBuff": "装备皮里恩★卡片时，技能伤害+1%",
        "isCompose": 1
      },
      {
        "id": "24610",
        "name": "蜂后★卡片",
        "icon": "cardhead_24610",
        "picture": "card_24610",
        "quality": 4,
        "position": 7,
        "buff": "可变吟唱时间-10%\n使用技能不需要消耗道具",
        "adventureBuff": "魔法防御+2%",
        "storageBuff": "魔法攻击+12",
        "isCompose": 1
      },
      {
        "id": "24511",
        "name": "皮里恩亡者卡片",
        "icon": "Phreeoni_dead",
        "picture": "card_24511",
        "quality": 4,
        "position": 2,
        "buff": "物伤减免+20%\n生命值低于70%时，物理伤害+10%",
        "adventureBuff": "魔法防御+6，生命上限+30",
        "storageBuff": "生命上限+120",
        "isCompose": 0
      },
      {
        "id": "24510",
        "name": "蜂后亡者卡片",
        "icon": "Bee_Queen_dead",
        "picture": "card_24510",
        "quality": 4,
        "position": 1,
        "buff": "魔法攻击目标时，有50%概率触发蜂群攻击效果，使目标陷入流血状态（不可解除），可叠加3层，持续10秒，每层流血状态使目标受到法师系的伤害+5%（卡片效果不叠加）",
        "adventureBuff": "物理防御+6，生命上限+30",
        "storageBuff": "生命上限+120",
        "isCompose": 0
      },
      {
        "id": "23041",
        "name": "迪文卡片",
        "icon": "B_Hunter_F",
        "picture": "card_30052",
        "quality": 4,
        "position": 1,
        "buff": "暴击+5\nHP恢复-100%\n远程普通攻击时，有30%概率获得20%伤害的HP恢复效果（卡片效果不叠加）",
        "adventureBuff": "魔法攻击+12",
        "storageBuff": "暴击+1，暴击伤害+1%",
        "isCompose": 0
      },
      {
        "id": "23040",
        "name": "凯特莉娜卡片",
        "icon": "B_Wizard_F",
        "picture": "card_30051",
        "quality": 4,
        "position": 7,
        "buff": "魔法穿刺+8%\n可变吟唱时间+5%\nSP恢复+10%",
        "adventureBuff": "物理攻击+12",
        "storageBuff": "忽视魔法防御+2%",
        "isCompose": 0
      },
      {
        "id": "23038",
        "name": "艾勒梅斯卡片",
        "icon": "B_AssassinCross_M",
        "picture": "card_30053",
        "quality": 4,
        "position": 3,
        "buff": "生命上限+10%\n受到物理伤害时100%概率使用技能【剧毒暗器】Lv1",
        "adventureBuff": "物理防御+1%，魔法防御+1%",
        "storageBuff": "生命上限+112",
        "isCompose": 0
      },
      {
        "id": "22032",
        "name": "娣洁卡片",
        "icon": "B_Merchant_F",
        "picture": "card_20031",
        "quality": 3,
        "position": 4,
        "buff": "受到无属性伤害-10%\n【金钱攻击】伤害+15%",
        "adventureBuff": "物理攻击+8",
        "storageBuff": "魔法防御+3，生命上限+36",
        "isCompose": 0
      },
      {
        "id": "20145",
        "name": "暗·盗贼卡片",
        "icon": "B_Thief_M",
        "picture": "card_10187",
        "quality": 3,
        "position": 4,
        "buff": "受到火属性伤害-5%\n【十字斩】伤害+15%",
        "adventureBuff": "物理攻击+3，生命上限+36",
        "storageBuff": "魔法防御+2，生命上限+36",
        "isCompose": 0
      },
      {
        "id": "20144",
        "name": "暗·商人卡片",
        "icon": "B_Merchant_M",
        "picture": "card_10186",
        "quality": 3,
        "position": 6,
        "buff": "提升【强酸攻击】【火烟瓶投掷】【强酸火烟瓶投掷】导致装备部位破坏的概率（5%）（卡片效果不叠加）",
        "adventureBuff": "物理攻击+3，生命上限+36",
        "storageBuff": "物理防御+2，生命上限+36",
        "isCompose": 0
      },
      {
        "id": "20143",
        "name": "暗·服事卡片",
        "icon": "B_Acolyte_F",
        "picture": "card_10185",
        "quality": 2,
        "position": 4,
        "buff": "受到远程物理伤害时, 有5%概率使用技能【光之壁障】Lv.1",
        "adventureBuff": "物理防御+3",
        "storageBuff": "生命上限+36",
        "isCompose": 0
      },
      {
        "id": "20142",
        "name": "暗·弓箭手卡片",
        "icon": "B_Archer_F",
        "picture": "card_10184",
        "quality": 3,
        "position": 4,
        "buff": "受到火属性伤害-10%\n【箭雨】(【狂风暴雨】)伤害+10%",
        "adventureBuff": "物理攻击+8",
        "storageBuff": "生命上限+72",
        "isCompose": 0
      },
      {
        "id": "20141",
        "name": "暗·魔法师卡片",
        "icon": "B_Magician_F",
        "picture": "card_10183",
        "quality": 3,
        "position": 1,
        "buff": "魔法攻击+20\n【自动念咒】的触发概率提高3%（卡片效果不叠加）",
        "adventureBuff": "生命上限+60",
        "storageBuff": "物理攻击+3，生命上限+36",
        "isCompose": 0
      },
      {
        "id": "20140",
        "name": "暗·剑士卡片",
        "icon": "B_Swordman_M",
        "picture": "card_10182",
        "quality": 2,
        "position": 3,
        "buff": "每10点力量额外带来1点智力的加成",
        "adventureBuff": "魔法防御+3",
        "storageBuff": "生命上限+36",
        "isCompose": 0
      },
      {
        "id": "20139",
        "name": "异变堆积物卡片",
        "icon": "Mutated_heaps",
        "picture": "card_10181",
        "quality": 2,
        "position": 5,
        "buff": "生命上限+100\n魔法上限+100",
        "adventureBuff": "物理防御+3",
        "storageBuff": "生命上限+36",
        "isCompose": 0
      },
      {
        "id": "20138",
        "name": "机械猎犬卡片",
        "icon": "Robot_hound",
        "picture": "card_10180",
        "quality": 3,
        "position": 1,
        "buff": "【加农炮】伤害+5%；当武器精炼+10以上时，【加农炮】伤害+5%（卡片效果不叠加）",
        "adventureBuff": "生命上限+60",
        "storageBuff": "魔法攻击+3，生命上限+36",
        "isCompose": 0
      },
      {
        "id": "20137",
        "name": "消防魔卡片",
        "icon": "Firefighting",
        "picture": "card_10179",
        "quality": 2,
        "position": 3,
        "buff": "生命上限+200\n灵巧+2\n体质+2",
        "adventureBuff": "魔法攻击+3",
        "storageBuff": "生命上限+36",
        "isCompose": 0
      },
      {
        "id": "20136",
        "name": "土拨鼠拾荒者卡片",
        "icon": "Tramp_Martin",
        "picture": "card_10178",
        "quality": 2,
        "position": 2,
        "buff": "【暴风雪】伤害+5%",
        "adventureBuff": "物理攻击+3",
        "storageBuff": "生命上限+36",
        "isCompose": 0
      },
      {
        "id": "20135",
        "name": "飓风魔卡片",
        "icon": "Hurricane",
        "picture": "card_10177",
        "quality": 3,
        "position": 1,
        "buff": "物理攻击+20\n攻击目标时, 有5%概率使目标流血，持续3秒（卡片效果不叠加）",
        "adventureBuff": "魔法攻击+8",
        "storageBuff": "生命上限+72",
        "isCompose": 0
      },
      {
        "id": "20134",
        "name": "金属波利卡片",
        "icon": "Metalring",
        "picture": "card_10176",
        "quality": 3,
        "position": 1,
        "buff": "物理攻击+20\n物理攻击时，有5%概率使用技能【卸除饰品】 Lv.1（卡片效果不叠加）",
        "adventureBuff": "生命上限+60",
        "storageBuff": "魔法攻击+3，生命上限+36",
        "isCompose": 0
      },
      {
        "id": "23132",
        "name": "清凉夏日卡片",
        "icon": "cardhead_23132",
        "picture": "card_23132",
        "quality": 2,
        "position": 1,
        "buff": "全能力+1\n物理攻击+15",
        "adventureBuff": "魔法防御+3",
        "storageBuff": "生命上限+30",
        "isCompose": 1
      },
      {
        "id": "23131",
        "name": "大梦想家卡片",
        "icon": "cardhead_23131",
        "picture": "card_23131",
        "quality": 2,
        "position": 4,
        "buff": "灵巧+1、力量+1\n物理攻击+5",
        "adventureBuff": "生命上限+30",
        "storageBuff": "魔法攻击+3",
        "isCompose": 0
      },
      {
        "id": "23130",
        "name": "春日庆典卡片",
        "icon": "cardhead_23130",
        "picture": "card_23130",
        "quality": 2,
        "position": 1,
        "buff": "生命上限+100\n魔法攻击+10",
        "adventureBuff": "生命上限+30",
        "storageBuff": "物理攻击+3",
        "isCompose": 0
      },
      {
        "id": "23129",
        "name": "樱之华波利卡片",
        "icon": "cardhead_23129",
        "picture": "card_23129",
        "quality": 2,
        "position": 3,
        "buff": "力量+1、灵巧+1、智力+1\n生命上限+200",
        "adventureBuff": "生命上限+30",
        "storageBuff": "生命上限+30",
        "isCompose": 1
      },
      {
        "id": "23128",
        "name": "桃之夭波利卡片",
        "icon": "cardhead_23128",
        "picture": "card_23128",
        "quality": 3,
        "position": 5,
        "buff": "全能力+1\n移动速度+2%\n生命上限+4%",
        "adventureBuff": "物理攻击+2，生命上限+30",
        "storageBuff": "魔法攻击+2，生命上限+30",
        "isCompose": 0
      },
      {
        "id": "23126",
        "name": "初号机卡片",
        "icon": "cardhead_23126",
        "picture": "card_23126",
        "quality": 3,
        "position": 5,
        "buff": "物理攻击+10\n力量+2\n灵巧+2",
        "adventureBuff": "物理防御+2，生命上限+30",
        "storageBuff": "魔法攻击+3，生命上限+30",
        "isCompose": 0
      },
      {
        "id": "23125",
        "name": "明日香卡片",
        "icon": "cardhead_23125",
        "picture": "card_23125",
        "quality": 3,
        "position": 3,
        "buff": "物理防御+4%\n物伤减免+4%",
        "adventureBuff": "魔法防御+2，生命上限+30",
        "storageBuff": "物理攻击+3，生命上限+30",
        "isCompose": 0
      },
      {
        "id": "23121",
        "name": "新年如意卡片",
        "icon": "cardhead_23121",
        "picture": "card_23121",
        "quality": 2,
        "position": 4,
        "buff": "生命上限+200\n击杀魔物Job经验+3%",
        "adventureBuff": "魔法攻击+3",
        "storageBuff": "生命上限+30",
        "isCompose": 1
      },
      {
        "id": "23120",
        "name": "亥之福神卡片",
        "icon": "cardhead_23120",
        "picture": "card_23120",
        "quality": 2,
        "position": 2,
        "buff": "生命上限+200\n击杀魔物Base经验+3%",
        "adventureBuff": "物理攻击+3",
        "storageBuff": "生命上限+30",
        "isCompose": 0
      }
    ]
  }
}