{
  "code": 0,
  "status": "success",
  "timeStamp": 1643702142,
  "staticDomain": "http:\/\/rosc1.zhaiwuyu.com",
  "ip": "101.87.201.112",
  "language": "cn",
  "dbArea": 0,
  "data": {
    "page": 10,
    "pageSize": 30,
    "pageCount": 18,
    "total": 529,
    "list": [
      {
        "id": "23034",
        "name": "炎之领主卡浩卡片",
        "icon": "LordKaho",
        "picture": "card_30044",
        "quality": 4,
        "position": 1,
        "buff": "对地属性魔物伤害+20%\n火属性攻击+10%",
        "adventureBuff": "物理攻击+12",
        "storageBuff": "火属性攻击+1%",
        "isCompose": 0
      },
      {
        "id": "22025",
        "name": "炎之小魔女卡片",
        "icon": "RedExplosion",
        "picture": "card_20027",
        "quality": 3,
        "position": 6,
        "buff": "魔法攻击+20\n忽视魔法防御+4%",
        "adventureBuff": "物理攻击+8",
        "storageBuff": "生命上限+72",
        "isCompose": 0
      },
      {
        "id": "20126",
        "name": "烈鬃马卡片",
        "icon": "Flamehorse",
        "picture": "card_10160",
        "quality": 2,
        "position": 5,
        "buff": "移动速度+3%\n敏捷+2",
        "adventureBuff": "魔法攻击+4.5",
        "storageBuff": "物理防御+3",
        "isCompose": 0
      },
      {
        "id": "20125",
        "name": "幼年火焰鸟卡片",
        "icon": "KasaKid",
        "picture": "card_10159",
        "quality": 2,
        "position": 7,
        "buff": "【强酸火烟瓶投掷】、【火焰爆炸】消耗的火烟瓶数量-1",
        "adventureBuff": "物理防御+3",
        "storageBuff": "生命上限+36",
        "isCompose": 0
      },
      {
        "id": "20124",
        "name": "火焰精灵卡片",
        "icon": "LavaMeco",
        "picture": "card_10158",
        "quality": 3,
        "position": 3,
        "buff": "受到火属性伤害-15%\n【龙之吐息】伤害+10%",
        "adventureBuff": "物理防御+4.5",
        "storageBuff": "魔法防御+4.5",
        "isCompose": 0
      },
      {
        "id": "20123",
        "name": "爆炎小恶魔卡片",
        "icon": "Diabolic",
        "picture": "card_10157",
        "quality": 3,
        "position": 7,
        "buff": "体质+3\n避免陷入灼烧状态",
        "adventureBuff": "魔法攻击+8",
        "storageBuff": "生命上限+72",
        "isCompose": 0
      },
      {
        "id": "20122",
        "name": "高原佩瑞丝卡片",
        "icon": "Perese_G",
        "picture": "card_10156",
        "quality": 2,
        "position": 2,
        "buff": "【心灵震波】的技能延迟-0.5秒",
        "adventureBuff": "生命上限+30",
        "storageBuff": "物理防御+3",
        "isCompose": 0
      },
      {
        "id": "20121",
        "name": "鸟人哈比卡片",
        "icon": "Hapy",
        "picture": "card_10155",
        "quality": 3,
        "position": 4,
        "buff": "受到无属性伤害-8%\n【灵魂爆发】伤害+10%",
        "adventureBuff": "物理防御+4.5",
        "storageBuff": "生命上限+72",
        "isCompose": 0
      },
      {
        "id": "20120",
        "name": "邪恶向日葵卡片",
        "icon": "Geographer",
        "picture": "card_10154",
        "quality": 3,
        "position": 3,
        "buff": "当佩戴者是服事系列时，恶魔种族减伤和不死种族减伤+20%",
        "adventureBuff": "生命上限+60",
        "storageBuff": "魔法防御+4.5",
        "isCompose": 0
      },
      {
        "id": "20119",
        "name": "土拨鼠卡片",
        "icon": "Martin",
        "picture": "card_10153",
        "quality": 2,
        "position": 7,
        "buff": "物理防御+10\n对暗属性魔物伤害+10%",
        "adventureBuff": "魔法防御+3",
        "storageBuff": "生命上限+36",
        "isCompose": 0
      },
      {
        "id": "24064",
        "name": "圣晶石-急速卡片",
        "icon": "cardhead_24064",
        "picture": "card_24064",
        "quality": 2,
        "position": 5,
        "buff": "生命上限+200，幸运+2\n【圣晶石-奥术卡片】【圣晶石-元素卡片】【圣晶石-急速卡片】一起装备时，受到毒、圣、暗、念、无、火、水、地、风属性伤害-10%，移动速度+2%",
        "adventureBuff": "物理防御+3",
        "storageBuff": "魔法防御+3",
        "isCompose": 0
      },
      {
        "id": "24063",
        "name": "圣晶石-元素卡片",
        "icon": "cardhead_24063",
        "picture": "card_24063",
        "quality": 4,
        "position": 2,
        "buff": "受到火、水、地、风属性伤害-10%\n【圣晶石-奥术卡片】【圣晶石-元素卡片】【圣晶石-急速卡片】一起装备时，受到毒、圣、暗、念、无、火、水、地、风属性伤害-10%，移动速度+2%",
        "adventureBuff": "生命上限+112",
        "storageBuff": "火属性、水属性、地属性、风属性攻击+1%",
        "isCompose": 0
      },
      {
        "id": "24062",
        "name": "圣晶石-奥术卡片",
        "icon": "cardhead_24062",
        "picture": "card_24062",
        "quality": 4,
        "position": 4,
        "buff": "受到毒、圣、暗、念、无属性伤害-10%\n【圣晶石-奥术卡片】【圣晶石-元素卡片】【圣晶石-急速卡片】一起装备时，受到毒、圣、暗、念、无、火、水、地、风属性伤害-10%，移动速度+2%",
        "adventureBuff": "生命上限+112",
        "storageBuff": "圣属性、暗属性、无属性攻击+1%",
        "isCompose": 0
      },
      {
        "id": "24061",
        "name": "幼蛇卡片",
        "icon": "cardhead_24061",
        "picture": "card_24061",
        "quality": 2,
        "position": 3,
        "buff": "智力+2\n魔法攻击+10",
        "adventureBuff": "生命上限+30",
        "storageBuff": "生命上限+36",
        "isCompose": 0
      },
      {
        "id": "24060",
        "name": "魔蛇卡片",
        "icon": "cardhead_24060",
        "picture": "card_24060",
        "quality": 3,
        "position": 6,
        "buff": "智力+1，魔法穿刺+2%",
        "adventureBuff": "生命上限+60",
        "storageBuff": "物理攻击+8",
        "isCompose": 0
      },
      {
        "id": "24059",
        "name": "白狼卡片",
        "icon": "cardhead_24059",
        "picture": "card_24059",
        "quality": 3,
        "position": 6,
        "buff": "力量+1，物理穿刺+2%",
        "adventureBuff": "生命上限+60",
        "storageBuff": "魔法攻击+8",
        "isCompose": 0
      },
      {
        "id": "24058",
        "name": "苍狼卡片",
        "icon": "cardhead_24058",
        "picture": "card_24058",
        "quality": 3,
        "position": 7,
        "buff": "力量+2，物理伤害+2%，生命上限+400",
        "adventureBuff": "魔法攻击+4.5",
        "storageBuff": "生命上限+36",
        "isCompose": 0
      },
      {
        "id": "24057",
        "name": "石像鬼卡片",
        "icon": "cardhead_24057",
        "picture": "card_24057",
        "quality": 2,
        "position": 7,
        "buff": "忽视物理防御+3%\n魔法防御+30",
        "adventureBuff": "生命上限+30",
        "storageBuff": "生命上限+36",
        "isCompose": 0
      },
      {
        "id": "24056",
        "name": "光耀之手卡片",
        "icon": "cardhead_24056",
        "picture": "card_24056",
        "quality": 4,
        "position": 1,
        "buff": "治疗加成+15%\n魔法攻击+40",
        "adventureBuff": "魔法攻击+12",
        "storageBuff": "物理攻击+12",
        "isCompose": 0
      },
      {
        "id": "24055",
        "name": "苍白领主卡片",
        "icon": "cardhead_24055",
        "picture": "card_24055",
        "quality": 4,
        "position": 1,
        "buff": "普攻伤害+10%\n【苍白领主卡片】【血腥骑士卡片】一起装备时，普攻伤害+5%，普攻时自动施放【陨石术】概率提高3%",
        "adventureBuff": "技能伤害减免+1%",
        "storageBuff": "普攻伤害减免+1%",
        "isCompose": 0
      },
      {
        "id": "24054",
        "name": "影之猎袭卡片",
        "icon": "cardhead_24054",
        "picture": "card_24054",
        "quality": 2,
        "position": 2,
        "buff": "【猎杀突击】消耗SP减少10点",
        "adventureBuff": "魔法攻击+4.5",
        "storageBuff": "生命上限+36",
        "isCompose": 1
      },
      {
        "id": "24053",
        "name": "万箭增发卡片",
        "icon": "cardhead_24053",
        "picture": "card_24053",
        "quality": 3,
        "position": 1,
        "buff": "装备这张卡片的武器每精炼+1，【箭雨】【多重扫射】的伤害提高2%",
        "adventureBuff": "魔法攻击+8",
        "storageBuff": "生命上限+72",
        "isCompose": 1
      },
      {
        "id": "24052",
        "name": "疾风劲速卡片",
        "icon": "cardhead_24052",
        "picture": "card_24052",
        "quality": 2,
        "position": 2,
        "buff": "佩戴者是魔法师系职业时，装备攻速增加10%",
        "adventureBuff": "物理攻击+4.5",
        "storageBuff": "生命上限+36",
        "isCompose": 1
      },
      {
        "id": "24051",
        "name": "气动强波卡片",
        "icon": "cardhead_24051",
        "picture": "card_24051",
        "quality": 3,
        "position": 1,
        "buff": "【浸透劲】冷却时间减少1秒",
        "adventureBuff": "物理攻击+8",
        "storageBuff": "生命上限+72",
        "isCompose": 1
      },
      {
        "id": "24050",
        "name": "增殖培养卡片",
        "icon": "cardhead_24050",
        "picture": "card_24050",
        "quality": 3,
        "position": 1,
        "buff": "【气泡虫寄生】消耗刺锤瓶-1",
        "adventureBuff": "生命上限+60",
        "storageBuff": "物理攻击+6\n魔法攻击+6",
        "isCompose": 1
      },
      {
        "id": "24049",
        "name": "疯兔★卡片",
        "icon": "cardhead_24049",
        "picture": "card_24049",
        "quality": 4,
        "position": 2,
        "buff": "暴击防护+30",
        "adventureBuff": "PVP\/GVG中受玩家伤害-2%",
        "storageBuff": "PVP\/GVG中对玩家伤害+2%",
        "isCompose": 1
      },
      {
        "id": "24048",
        "name": "达拉蛙★卡片",
        "icon": "cardhead_24048",
        "picture": "card_24048",
        "quality": 4,
        "position": 2,
        "buff": "人形种族加伤+3%\n人形种族减伤+3%",
        "adventureBuff": "魔法攻击+12",
        "storageBuff": "物理攻击+12",
        "isCompose": 1
      },
      {
        "id": "24047",
        "name": "虫蛹★卡片",
        "icon": "cardhead_24047",
        "picture": "card_24047",
        "quality": 3,
        "position": 4,
        "buff": "物理防御+15\n物理防御+5%",
        "adventureBuff": "生命上限+60",
        "storageBuff": "生命上限+72",
        "isCompose": 1
      },
      {
        "id": "24046",
        "name": "树精★卡片",
        "icon": "cardhead_24046",
        "picture": "card_24046",
        "quality": 3,
        "position": 4,
        "buff": "魔法防御+10\n魔法防御+5%",
        "adventureBuff": "生命上限+60",
        "storageBuff": "生命上限+72",
        "isCompose": 1
      },
      {
        "id": "24045",
        "name": "狂暴野猫★卡片",
        "icon": "cardhead_24045",
        "picture": "card_24045",
        "quality": 2,
        "position": 4,
        "buff": "智力+2\n闪避+5",
        "adventureBuff": "生命上限+30",
        "storageBuff": "魔法自然恢复+1%",
        "isCompose": 1
      }
    ]
  }
}