{
  "code": 0,
  "status": "success",
  "timeStamp": 1643702061,
  "staticDomain": "http:\/\/rosc1.zhaiwuyu.com",
  "ip": "101.87.201.112",
  "language": "cn",
  "dbArea": 0,
  "data": {
    "page": 2,
    "pageSize": 30,
    "pageCount": 18,
    "total": 529,
    "list": [
      {
        "id": "24521",
        "name": "兽人酋长亡者卡片",
        "icon": "Orc_R",
        "picture": "card_24521",
        "quality": 4,
        "position": 7,
        "buff": "人形种族加伤+5%\n人形种族减伤+5%\n自身生命值大于50%时，人形种族加伤+5%\n自身生命值低于50%时,人形种族减伤+5%",
        "adventureBuff": "魔法攻击+12",
        "storageBuff": "魔法防御+6，生命上限+30",
        "isCompose": 0
      },
      {
        "id": "24520",
        "name": "黑暗之主亡者卡片",
        "icon": "Dark_Lord_R",
        "picture": "card_24520",
        "quality": 4,
        "position": 6,
        "buff": "魔法穿刺+5%\n攻击目标时，有100%概率降低目标3%魔伤减免，持续5秒（效果不叠加）",
        "adventureBuff": "物理攻击+12",
        "storageBuff": "物理防御+6，生命上限+30",
        "isCompose": 0
      },
      {
        "id": "23059",
        "name": "塔奥群卡卡片",
        "icon": "Tao_Gunka",
        "picture": "card_Tao_Gunka",
        "quality": 4,
        "position": 3,
        "buff": "生命上限+30%\n物理防御和魔法防御降低一半",
        "adventureBuff": "物理攻击+12",
        "storageBuff": "装备塔奥群卡卡片时，物理防御和魔法防御降低效果减半",
        "isCompose": 0
      },
      {
        "id": "23058",
        "name": "魔鬼大乌贼卡片",
        "icon": "Kraken_V",
        "picture": "card_Kraken_V",
        "quality": 4,
        "position": 4,
        "buff": "闪避+20\n可使用【潜行】技能\n在隐匿的状态下，自身物理、魔法伤害提升10%",
        "adventureBuff": "魔法攻击+12",
        "storageBuff": "生命上限+120",
        "isCompose": 0
      },
      {
        "id": "22044",
        "name": "矿石精卡片",
        "icon": "Mineral_Mini",
        "picture": "card_Mineral_Mini",
        "quality": 3,
        "position": 2,
        "buff": "全能力+2\n攻击处于异常状态的目标时，目标身上每有一个异常状态，最终伤害额外增加5%",
        "adventureBuff": "魔法防御+1%",
        "storageBuff": "物理防御+1%",
        "isCompose": 0
      },
      {
        "id": "22043",
        "name": "大脚龙虾卡片",
        "icon": "King_dramoh",
        "picture": "card_King_dramoh",
        "quality": 3,
        "position": 7,
        "buff": "受普通魔物（不包含MVP、Mini魔物）造成的伤害-5%\n头饰每精炼+1，对普通魔物（不包含MVP、Mini魔物）增伤+1%",
        "adventureBuff": "生命上限+60",
        "storageBuff": "对普通魔物（不包含MVP、Mini魔物）增伤+1%",
        "isCompose": 0
      },
      {
        "id": "20191",
        "name": "鳄鱼人卡片",
        "icon": "Alligator",
        "picture": "card_Alligator",
        "quality": 2,
        "position": 6,
        "buff": "生命上限+200\n受到远距离物理伤害减免+3%",
        "adventureBuff": "魔法防御+3",
        "storageBuff": "生命上限+36",
        "isCompose": 0
      },
      {
        "id": "20190",
        "name": "奈吉鸟卡片",
        "icon": "Raggler",
        "picture": "card_Raggler",
        "quality": 2,
        "position": 5,
        "buff": "力量+5\n体质+5",
        "adventureBuff": "物理攻击+3",
        "storageBuff": "生命上限+36",
        "isCompose": 0
      },
      {
        "id": "20189",
        "name": "贝壳魔灵卡片",
        "icon": "Shellfish",
        "picture": "card_Shellfish",
        "quality": 3,
        "position": 1,
        "buff": "智力+5\n魔法技能攻击时，有15%概率暴击，造成150%的法术暴击伤害，每6点幸运额外增加1%法术暴击伤害（幸运增加法术暴击伤害效果不叠加）",
        "adventureBuff": "物理攻击+8",
        "storageBuff": "生命上限+72",
        "isCompose": 0
      },
      {
        "id": "20188",
        "name": "流氓卡片",
        "icon": "Mobster",
        "picture": "card_Mobster",
        "quality": 3,
        "position": 2,
        "buff": "暴击伤害+5%\n当盗贼系装备时,暴击+5",
        "adventureBuff": "魔法攻击+8",
        "storageBuff": "物理防御+3，生命上限+36",
        "isCompose": 0
      },
      {
        "id": "20187",
        "name": "卡拉蟹卡片",
        "icon": "kalaxie",
        "picture": "card_Kalaxie",
        "quality": 3,
        "position": 1,
        "buff": "暴击伤害+10%\n对鱼贝种族魔物暴击+20",
        "adventureBuff": "生命上限+60",
        "storageBuff": "对鱼贝种族魔物伤害+1%",
        "isCompose": 0
      },
      {
        "id": "20186",
        "name": "海豹宝宝卡片",
        "icon": "Fur_seal",
        "picture": "card_Fur_seal",
        "quality": 2,
        "position": 4,
        "buff": "对鱼贝种族伤害+3%\n受到水属性伤害-3%",
        "adventureBuff": "物理防御+3",
        "storageBuff": "生命上限+36",
        "isCompose": 0
      },
      {
        "id": "20185",
        "name": "啤酒企鹅卡片",
        "icon": "BeerPenguin",
        "picture": "card_BeerPenguin",
        "quality": 3,
        "position": 6,
        "buff": "Hp恢复类药水效果+10%\n受治疗加成+10%",
        "adventureBuff": "生命上限+60",
        "storageBuff": "魔法攻击+3，生命上限+36",
        "isCompose": 0
      },
      {
        "id": "23181",
        "name": "仲夏夜之梦卡片",
        "icon": "cardhead_23181",
        "picture": "card_23181",
        "quality": 3,
        "position": 2,
        "buff": "对昆虫种族魔物伤害+10%\n受到昆虫种族魔物伤害-10%",
        "adventureBuff": "物理攻击+3，生命上限+30",
        "storageBuff": "物理防御+2，生命上限+30",
        "isCompose": 0
      },
      {
        "id": "23177",
        "name": "嗒啦啦卡片",
        "icon": "cardhead_23177",
        "picture": "card_23177",
        "quality": 2,
        "position": 1,
        "buff": "全能力+2\n生命上限+100\n魔法上限+50",
        "adventureBuff": "生命上限+30",
        "storageBuff": "魔法攻击+3",
        "isCompose": 0
      },
      {
        "id": "23180",
        "name": "波利庆典卡片",
        "icon": "cardhead_23180",
        "picture": "card_23180",
        "quality": 3,
        "position": 7,
        "buff": "生命上限+400\n普攻伤害减免+4%",
        "adventureBuff": "魔法攻击+3，生命上限+30",
        "storageBuff": "物理防御+2，生命上限+30",
        "isCompose": 0
      },
      {
        "id": "24641",
        "name": "银月魔女★卡片",
        "icon": "cardhead_24641",
        "picture": "card_24641",
        "quality": 4,
        "position": 3,
        "buff": "生命上限+1000\n受到攻击时，有一定的概率（15%）对自己施展【治愈术】Lv.10\n技能伤害减免+10%\n生命值低于30%，受到技能攻击时，25%概率回复10%HP",
        "adventureBuff": "生命上限+120",
        "storageBuff": "魔法防御+1%",
        "isCompose": 1
      },
      {
        "id": "24640",
        "name": "迷幻之王★卡片",
        "icon": "cardhead_24640",
        "picture": "card_24640",
        "quality": 4,
        "position": 7,
        "buff": "固定吟唱时间-0.5秒",
        "adventureBuff": "魔法攻击+12",
        "storageBuff": "魔法防御+6，生命上限+30",
        "isCompose": 1
      },
      {
        "id": "24639",
        "name": "枯树精★卡片",
        "icon": "cardhead_24639",
        "picture": "card_24639",
        "quality": 4,
        "position": 2,
        "buff": "魔法上限+20%\nSP恢复+100%\n魔法值低于30%、受到攻击时，100%概率回复10%SP（2秒内只能受到一次效果）",
        "adventureBuff": "生命上限+120",
        "storageBuff": "魔法上限+1%",
        "isCompose": 1
      },
      {
        "id": "24638",
        "name": "狮鹫兽★卡片",
        "icon": "cardhead_24638",
        "picture": "card_24638",
        "quality": 4,
        "position": 1,
        "buff": "闪避+10\n暴击+5\n当装备的职业为剑士系时普攻有3%概率自动施放【怪物互击】Lv.5\n攻击目标时，提升50点物理攻击，持续10秒，最多叠加10层",
        "adventureBuff": "物理攻击+12",
        "storageBuff": "物理防御+6，生命上限+30",
        "isCompose": 1
      },
      {
        "id": "24105",
        "name": "忍法奥义卡片",
        "icon": "cardhead_24105",
        "picture": "card_24105",
        "quality": 4,
        "position": 7,
        "buff": "【通灵术】和【忍法】技能固定吟唱时间-0.25秒\n【通灵术】和【忍法】伤害+6%",
        "adventureBuff": "魔法防御+6，生命上限+30",
        "storageBuff": "生命上限+120",
        "isCompose": 1
      },
      {
        "id": "24104",
        "name": "风魔杀阵卡片",
        "icon": "cardhead_24104",
        "picture": "card_24104",
        "quality": 4,
        "position": 2,
        "buff": "命中+20\n每10点灵巧额外提升1%【风魔飞镖扔】伤害",
        "adventureBuff": "物理防御+6，生命上限+30",
        "storageBuff": "生命上限+120",
        "isCompose": 1
      },
      {
        "id": "24103",
        "name": "鬼娃树★卡片",
        "icon": "cardhead_24103",
        "picture": "card_24103",
        "quality": 4,
        "position": 4,
        "buff": "力量+2\n物理攻击+20\n每6点力量额外增加0.1%物理攻击",
        "adventureBuff": "魔法攻击+12",
        "storageBuff": "生命上限+120",
        "isCompose": 1
      },
      {
        "id": "24102",
        "name": "邪恶向日葵★卡片",
        "icon": "cardhead_24102",
        "picture": "card_24102",
        "quality": 4,
        "position": 2,
        "buff": "智力+5\n副手每精炼+1，魔法范围型技能伤害+1%",
        "adventureBuff": "生命上限+120",
        "storageBuff": "物理防御+1%",
        "isCompose": 1
      },
      {
        "id": "23178",
        "name": "春樱季卡片",
        "icon": "cardhead_23178",
        "picture": "card_23178",
        "quality": 2,
        "position": 7,
        "buff": "生命上限+200\n冰冻抵抗+5%",
        "adventureBuff": "生命上限+30",
        "storageBuff": "物理攻击+3",
        "isCompose": 0
      },
      {
        "id": "23176",
        "name": "森林女王的感恩卡片",
        "icon": "cardhead_23176",
        "picture": "card_23176",
        "quality": 3,
        "position": 4,
        "buff": "生命上限+1000\n魔法上限+100\nHp恢复+15%\nSp恢复+15%",
        "adventureBuff": "物理攻击+3，生命上限+30",
        "storageBuff": "生命上限+60",
        "isCompose": 0
      },
      {
        "id": "24637",
        "name": "冰暴骑士★卡片",
        "icon": "cardhead_24637",
        "picture": "card_24637",
        "quality": 4,
        "position": 1,
        "buff": "全种族伤害+5%\n普通攻击时有20%概率使敌人冰冻2秒，无视冰冻免疫\n普通攻击时5%概率使用【暴风雪】Lv.10\n冰暴骑士★卡片、冰暴骑士亡者卡片一起装备时，对冰冻目标伤害+10%",
        "adventureBuff": "物理攻击+12",
        "storageBuff": "生命上限+120",
        "isCompose": 1
      },
      {
        "id": "24636",
        "name": "卡浩★卡片",
        "icon": "cardhead_24636",
        "picture": "card_24636",
        "quality": 4,
        "position": 1,
        "buff": "对地属性魔物伤害+20%\n火属性攻击+15%\n攻击目标时，有30%概率使目标陷入灼烧状态，持续3秒",
        "adventureBuff": "生命上限+120",
        "storageBuff": "火属性攻击+1%",
        "isCompose": 1
      },
      {
        "id": "24519",
        "name": "冰暴骑士亡者卡片",
        "icon": "Dead_Windstorm",
        "picture": "card_24519",
        "quality": 4,
        "position": 1,
        "buff": "全种族伤害+5%\n攻击冰冻单位时不会打破冰冻\n冰暴骑士★卡片、冰暴骑士亡者卡片一起装备时，对冰冻目标伤害+10%",
        "adventureBuff": "物理攻击+12",
        "storageBuff": "魔法防御+6，生命上限+30",
        "isCompose": 0
      },
      {
        "id": "24518",
        "name": "卡浩亡者卡片",
        "icon": "Dead_Kaho",
        "picture": "card_24518",
        "quality": 4,
        "position": 4,
        "buff": "魔法伤害+5%\n攻击处于流血、灼烧异常状态的目标时，自身魔法伤害+10%，持续10秒",
        "adventureBuff": "魔法攻击+12",
        "storageBuff": "物理防御+6，生命上限+30",
        "isCompose": 0
      }
    ]
  }
}