{
  "code": 0,
  "status": "success",
  "timeStamp": 1643702152,
  "staticDomain": "http:\/\/rosc1.zhaiwuyu.com",
  "ip": "101.87.201.112",
  "language": "cn",
  "dbArea": 0,
  "data": {
    "page": 11,
    "pageSize": 30,
    "pageCount": 18,
    "total": 529,
    "list": [
      {
        "id": "24044",
        "name": "九尾狐★卡片",
        "icon": "cardhead_24044",
        "picture": "card_24044",
        "quality": 2,
        "position": 5,
        "buff": "灵巧+2\n闪避+5",
        "adventureBuff": "生命上限+30",
        "storageBuff": "生命自然恢复+1%",
        "isCompose": 1
      },
      {
        "id": "24043",
        "name": "黑魔女★卡片",
        "icon": "cardhead_24043",
        "picture": "card_24043",
        "quality": 3,
        "position": 5,
        "buff": "魔法攻击+20\n体质+2\n智力+2",
        "adventureBuff": "物理攻击+8",
        "storageBuff": "敏捷+1\n生命上限+30",
        "isCompose": 1
      },
      {
        "id": "24042",
        "name": "拉链熊★卡片",
        "icon": "cardhead_24042",
        "picture": "card_24042",
        "quality": 4,
        "position": 6,
        "buff": "命中+10\n物理攻击+3%\n魔法攻击+3%",
        "adventureBuff": "生命上限+112",
        "storageBuff": "物理防御+1%，魔法防御+1%",
        "isCompose": 1
      },
      {
        "id": "24041",
        "name": "长老树精★卡片",
        "icon": "cardhead_24041",
        "picture": "card_24041",
        "quality": 3,
        "position": 6,
        "buff": "智力+4\n魔法攻击+10",
        "adventureBuff": "魔法防御+4",
        "storageBuff": "力量+1\n生命上限+30",
        "isCompose": 1
      },
      {
        "id": "24040",
        "name": "白鼠★卡片",
        "icon": "cardhead_24040",
        "picture": "card_24040",
        "quality": 3,
        "position": 6,
        "buff": "力量+4\n物理攻击+15",
        "adventureBuff": "物理防御+4",
        "storageBuff": "智力+1\n生命上限+30",
        "isCompose": 1
      },
      {
        "id": "24039",
        "name": "僵尸★卡片",
        "icon": "cardhead_24039",
        "picture": "card_24039",
        "quality": 4,
        "position": 3,
        "buff": "忽视物理防御+15%\n忽视魔法防御+15%",
        "adventureBuff": "生命上限+112",
        "storageBuff": "物理攻击+9\n魔法攻击+9",
        "isCompose": 1
      },
      {
        "id": "24038",
        "name": "邪骸弓箭手★卡片",
        "icon": "cardhead_24038",
        "picture": "card_24038",
        "quality": 3,
        "position": 3,
        "buff": "力量+2\n物理攻击+5%",
        "adventureBuff": "魔法攻击+8",
        "storageBuff": "幸运+1\n生命上限+30",
        "isCompose": 1
      },
      {
        "id": "24037",
        "name": "木乃伊★卡片",
        "icon": "cardhead_24037",
        "picture": "card_24037",
        "quality": 2,
        "position": 7,
        "buff": "命中+25\n闪避+2",
        "adventureBuff": "生命上限+30",
        "storageBuff": "生命上限+36",
        "isCompose": 1
      },
      {
        "id": "24036",
        "name": "蝗虫★卡片",
        "icon": "cardhead_24036",
        "picture": "card_24036",
        "quality": 3,
        "position": 7,
        "buff": "灵巧+2\n物理攻击+20",
        "adventureBuff": "生命上限+60",
        "storageBuff": "灵巧+1\n生命上限+30",
        "isCompose": 1
      },
      {
        "id": "24035",
        "name": "史汀★卡片",
        "icon": "cardhead_24035",
        "picture": "card_24035",
        "quality": 4,
        "position": 1,
        "buff": "物理防御+10%\n魔法防御+10%",
        "adventureBuff": "物理攻击+12",
        "storageBuff": "暴击伤害+2%",
        "isCompose": 1
      },
      {
        "id": "23111",
        "name": "年卡片",
        "icon": "cardhead_23111",
        "picture": "card_23111",
        "quality": 3,
        "position": 6,
        "buff": "全能力+1\n闪避+5",
        "adventureBuff": "生命上限+60",
        "storageBuff": "物理攻击+6\n魔法攻击+6",
        "isCompose": 0
      },
      {
        "id": "23110",
        "name": "戌之犬卡片",
        "icon": "cardhead_23110",
        "picture": "card_23110",
        "quality": 2,
        "position": 7,
        "buff": "生命上限+100\n幸运+5",
        "adventureBuff": "物理防御+2",
        "storageBuff": "魔法防御+2",
        "isCompose": 0
      },
      {
        "id": "23109",
        "name": "皇家限定卡片",
        "icon": "cardhead_23109",
        "picture": "card_23109",
        "quality": 2,
        "position": 7,
        "buff": "生命上限+100\n魔法上限+100\n物理攻击+5\n魔法攻击+5",
        "adventureBuff": "生命上限+48",
        "storageBuff": "生命上限+60",
        "isCompose": 0
      },
      {
        "id": "23108",
        "name": "圣光精灵卡片",
        "icon": "cardhead_23108",
        "picture": "card_23108",
        "quality": 3,
        "position": 1,
        "buff": "【十字驱魔攻击】消耗的蓝色魔力矿石数量-1",
        "adventureBuff": "魔法攻击+6",
        "storageBuff": "生命上限+60",
        "isCompose": 1
      },
      {
        "id": "23107",
        "name": "幸福白色季节卡片",
        "icon": "cardhead_23107",
        "picture": "card_23107",
        "quality": 2,
        "position": 2,
        "buff": "对恶魔系魔物增伤+5%\n对恶魔系魔物减伤+5%",
        "adventureBuff": "生命上限+24",
        "storageBuff": "生命上限+30",
        "isCompose": 0
      },
      {
        "id": "23106",
        "name": "圣诞夜祝福卡片",
        "icon": "cardhead_23106",
        "picture": "card_23106",
        "quality": 3,
        "position": 1,
        "buff": "幸运+5\n普通攻击时3%自动释放【幸运之颂歌】Lv.5",
        "adventureBuff": "魔法上限+30",
        "storageBuff": "魔法上限+36",
        "isCompose": 0
      },
      {
        "id": "23033",
        "name": "冰暴骑士卡片",
        "icon": "Knight_Of_Windstorm",
        "picture": "card_30040",
        "quality": 4,
        "position": 1,
        "buff": "普通攻击时有20%概率使敌人冰冻2秒，无视冰冻免疫\n普通攻击时5%概率使用【暴风雪】Lv.10",
        "adventureBuff": "生命上限+112",
        "storageBuff": "装备冰暴骑士卡片时，【暴风雪】伤害+20%",
        "isCompose": 0
      },
      {
        "id": "23032",
        "name": "卡仑卡片",
        "icon": "Garm",
        "picture": "card_30039",
        "quality": 4,
        "position": 3,
        "buff": "受到物理伤害时30%概率使敌人冰冻2秒，无视冰冻免疫",
        "adventureBuff": "生命上限+112",
        "storageBuff": "装备卡仑卡片时，对冰冻目标额外造成20%伤害",
        "isCompose": 0
      },
      {
        "id": "22024",
        "name": "魔灵娃娃卡片",
        "icon": "Chepet",
        "picture": "card_20026",
        "quality": 3,
        "position": 1,
        "buff": "物理攻击+15\n普通攻击时5%概率使用【火烟瓶投掷】Lv.5",
        "adventureBuff": "生命上限+64",
        "storageBuff": "物理攻击+7.5，魔法攻击+7.5",
        "isCompose": 0
      },
      {
        "id": "20118",
        "name": "卡拉特小丑卡片",
        "icon": "Carat",
        "picture": "card_10146",
        "quality": 2,
        "position": 7,
        "buff": "智力+2\n魔法上限+80",
        "adventureBuff": "魔法攻击+4.5",
        "storageBuff": "生命上限+48",
        "isCompose": 0
      },
      {
        "id": "20116",
        "name": "甜饼人卡片",
        "icon": "Cookie_Gift_hong",
        "picture": "card_10144",
        "quality": 2,
        "position": 5,
        "buff": "幸运+2\n【审判】伤害+5%",
        "adventureBuff": "物理防御+2",
        "storageBuff": "生命上限+48",
        "isCompose": 0
      },
      {
        "id": "20115",
        "name": "拉链熊卡片",
        "icon": "ZipperBear_M",
        "picture": "card_10143",
        "quality": 2,
        "position": 1,
        "buff": "物理攻击+25",
        "adventureBuff": "生命上限+40",
        "storageBuff": "魔法攻击+4.5",
        "isCompose": 0
      },
      {
        "id": "20114",
        "name": "玩具士兵卡片",
        "icon": "Cruiser",
        "picture": "card_10142",
        "quality": 2,
        "position": 1,
        "buff": "暴击伤害+7%\n对动物种族魔物暴击+10",
        "adventureBuff": "物理攻击+4.5",
        "storageBuff": "生命上限+48",
        "isCompose": 0
      },
      {
        "id": "20113",
        "name": "邪恶礼盒卡片",
        "icon": "Mystcase",
        "picture": "card_10150",
        "quality": 2,
        "position": 7,
        "buff": "每次击杀魔物恢复自身10点魔法值，该效果每5秒最多触发一次",
        "adventureBuff": "生命上限+40",
        "storageBuff": "灵巧+1，物理攻击+4.5",
        "isCompose": 0
      },
      {
        "id": "20112",
        "name": "姜饼人卡片",
        "icon": "Cookie_Gift_lv",
        "picture": "card_10140",
        "quality": 2,
        "position": 6,
        "buff": "幸运+3",
        "adventureBuff": "魔法防御+2",
        "storageBuff": "生命上限+48",
        "isCompose": 0
      },
      {
        "id": "23031",
        "name": "斯佩夏尔卡片",
        "icon": "Specialre",
        "picture": "card_30034",
        "quality": 4,
        "position": 1,
        "buff": "生命上限+1000\n闪避+15\n生命自然恢复+3",
        "adventureBuff": "生命上限+14",
        "storageBuff": "生命上限+420，生命自然恢复+1",
        "isCompose": 0
      },
      {
        "id": "23030",
        "name": "时间管理人卡片",
        "icon": "TimeHolder",
        "picture": "card_30033",
        "quality": 4,
        "position": 5,
        "buff": "物理攻击+40\n生命上限+500\n装备攻速+5%\n生命自然恢复+2",
        "adventureBuff": "生命上限+14",
        "storageBuff": "装备攻速+5%",
        "isCompose": 0
      },
      {
        "id": "22023",
        "name": "草精卡片",
        "icon": "Raffliesia",
        "picture": "card_20023",
        "quality": 4,
        "position": 2,
        "buff": "对昆虫种族伤害+25%",
        "adventureBuff": "对昆虫种族伤害+1%",
        "storageBuff": "对昆虫种族伤害+5%",
        "isCompose": 0
      },
      {
        "id": "22022",
        "name": "钟塔守护者卡片",
        "icon": "Tower_Manager",
        "picture": "card_20025",
        "quality": 3,
        "position": 7,
        "buff": "智力+2\n魔法伤害+2%\n生命上限+400",
        "adventureBuff": "生命上限+14",
        "storageBuff": "生命上限+70，智力+1",
        "isCompose": 0
      },
      {
        "id": "22021",
        "name": "大本钟卡片",
        "icon": "BigBen",
        "picture": "card_20024",
        "quality": 3,
        "position": 1,
        "buff": "对无形种族伤害+10%\n对恶魔种族伤害+10%",
        "adventureBuff": "生命上限+14",
        "storageBuff": "物理攻击+10，魔法攻击+10",
        "isCompose": 0
      }
    ]
  }
}