{
  "code": 0,
  "status": "success",
  "timeStamp": 1643702192,
  "staticDomain": "http:\/\/rosc1.zhaiwuyu.com",
  "ip": "101.87.201.112",
  "language": "cn",
  "dbArea": 0,
  "data": {
    "page": 15,
    "pageSize": 30,
    "pageCount": 18,
    "total": 529,
    "list": [
      {
        "id": "22011",
        "name": "兽人婴儿卡片",
        "icon": "Orc_Baby",
        "picture": "card_20010",
        "quality": 3,
        "position": 4,
        "buff": "受到无属性伤害-30%\n闪避+10",
        "adventureBuff": "生命上限+84",
        "storageBuff": "装备兽人婴儿卡片时，受到无属性伤害-5%\n每次受到无属性攻击时，有概率根据对方和自己的等级差恢复生命值",
        "isCompose": 0
      },
      {
        "id": "22010",
        "name": "狮鹫兽卡片",
        "icon": "Grypjon",
        "picture": "card_20009",
        "quality": 3,
        "position": 1,
        "buff": "闪避+10\n暴击+5\n当装备的职业为剑士系时普攻有3%概率自动施放【怪物互击】Lv.5",
        "adventureBuff": "物理攻击+8",
        "storageBuff": "装备狮鹫兽卡片时，提升剑士系普攻释放【怪物互击】的概率",
        "isCompose": 0
      },
      {
        "id": "22009",
        "name": "枯树精卡片",
        "icon": "Wilow_Huge1",
        "picture": "card_30010",
        "quality": 3,
        "position": 2,
        "buff": "魔法上限+20%",
        "adventureBuff": "魔法攻击+12",
        "storageBuff": "魔法伤害+2%",
        "isCompose": 0
      },
      {
        "id": "22008",
        "name": "流浪之狼卡片",
        "icon": "VagabondWolf",
        "picture": "card_20008",
        "quality": 3,
        "position": 4,
        "buff": "力量+4\n闪避+5",
        "adventureBuff": "物理攻击+8",
        "storageBuff": "生命上限+70",
        "isCompose": 0
      },
      {
        "id": "22007",
        "name": "龙蝇卡片",
        "icon": "DragonFly",
        "picture": "card_20007",
        "quality": 3,
        "position": 4,
        "buff": "敏捷+4\n闪避+5",
        "adventureBuff": "物理攻击+8",
        "storageBuff": "物理攻击+10",
        "isCompose": 0
      },
      {
        "id": "22006",
        "name": "直升机哥布灵卡片",
        "icon": "Goblin_Helicopter",
        "picture": "card_20006",
        "quality": 3,
        "position": 1,
        "buff": "暴击+7\n暴击伤害+10%",
        "adventureBuff": "暴击+2",
        "storageBuff": "暴击伤害+1%",
        "isCompose": 0
      },
      {
        "id": "22005",
        "name": "蛙王卡片",
        "icon": "RodaFrog",
        "picture": "card_20005",
        "quality": 3,
        "position": 4,
        "buff": "灵巧+4\n闪避+5",
        "adventureBuff": "物理防御+4",
        "storageBuff": "生命上限+70",
        "isCompose": 0
      },
      {
        "id": "22004",
        "name": "幽灵波利卡片",
        "icon": "Ghostring",
        "picture": "card_20004",
        "quality": 3,
        "position": 3,
        "buff": "可将铠甲的属性转变为念属性\nHP恢复-50%",
        "adventureBuff": "物理防御+4",
        "storageBuff": "受到念属性伤害-10%",
        "isCompose": 0
      },
      {
        "id": "22003",
        "name": "摇滚蝗虫卡片",
        "icon": "Rocker",
        "picture": "card_10012",
        "quality": 3,
        "position": 1,
        "buff": "物理攻击+7%\n灵巧+3",
        "adventureBuff": "物理攻击+8",
        "storageBuff": "物理攻击+1%",
        "isCompose": 0
      },
      {
        "id": "22002",
        "name": "蓝疯兔卡片",
        "icon": "Eclipse",
        "picture": "card_20002",
        "quality": 3,
        "position": 4,
        "buff": "体质+4\n闪避+5",
        "adventureBuff": "生命上限+84",
        "storageBuff": "生命上限+84",
        "isCompose": 0
      },
      {
        "id": "22001",
        "name": "狸猫卡片",
        "icon": "Smokie",
        "picture": "card_20001",
        "quality": 3,
        "position": 6,
        "buff": "可使用【隐匿】Lv.1技能",
        "adventureBuff": "物理防御+4",
        "storageBuff": "生命上限+70",
        "isCompose": 0
      },
      {
        "id": "20102",
        "name": "虚弱的傀儡卡片",
        "icon": "Baphomet",
        "picture": "card_17301",
        "quality": 1,
        "position": 6,
        "buff": "人形种族加伤+2%",
        "adventureBuff": "生命上限+12",
        "storageBuff": "生命上限+10",
        "isCompose": 0
      },
      {
        "id": "20101",
        "name": "暗黑祭司卡片",
        "icon": "Dark_Priest",
        "picture": "card_10121",
        "quality": 2,
        "position": 1,
        "buff": "普通攻击时一定概率减少目标魔法值",
        "adventureBuff": "装备攻速+1%",
        "storageBuff": "生命上限+70",
        "isCompose": 0
      },
      {
        "id": "20100",
        "name": "暗神官卡片",
        "icon": "Evil_Druid",
        "picture": "card_10120",
        "quality": 3,
        "position": 3,
        "buff": "可将铠甲的属性转变为不死属性\n智力+4 ",
        "adventureBuff": "物理防御+4",
        "storageBuff": "生命上限+70",
        "isCompose": 0
      },
      {
        "id": "20098",
        "name": "曼陀罗卡片",
        "icon": "Mandala",
        "picture": "card_17000",
        "quality": 3,
        "position": 1,
        "buff": "普通攻击时5%概率使目标恐惧持续一定时间",
        "adventureBuff": "生命上限+24",
        "storageBuff": "生命上限+70",
        "isCompose": 0
      },
      {
        "id": "20097",
        "name": "犬妖弓箭手卡片",
        "icon": "Kobold_Archer",
        "picture": "card_10106",
        "quality": 2,
        "position": 1,
        "buff": "暴击伤害+10%\n对植物系魔物暴击+20",
        "adventureBuff": "生命上限+24",
        "storageBuff": "装备犬妖弓箭手卡片时，命中+25",
        "isCompose": 0
      },
      {
        "id": "20096",
        "name": "犬妖卡片",
        "icon": "Kobold",
        "picture": "card_10103",
        "quality": 3,
        "position": 6,
        "buff": "力量+4\n暴击+10",
        "adventureBuff": "生命上限+24",
        "storageBuff": "力量+1",
        "isCompose": 0
      },
      {
        "id": "20095",
        "name": "狂暴野猫卡片",
        "icon": "Wild_Rose",
        "picture": "card_10102",
        "quality": 2,
        "position": 5,
        "buff": "敏捷+2\n闪避+5",
        "adventureBuff": "生命上限+24",
        "storageBuff": "魔法攻击+6",
        "isCompose": 0
      },
      {
        "id": "20094",
        "name": "巨石怪卡片",
        "icon": "Golem",
        "picture": "card_10101",
        "quality": 1,
        "position": 1,
        "buff": "石化抵抗+20%",
        "adventureBuff": "生命上限+24",
        "storageBuff": "石化抵抗+5%",
        "isCompose": 0
      },
      {
        "id": "20090",
        "name": "邪骸浪人卡片",
        "icon": "Wander_Man",
        "picture": "card_10096",
        "quality": 2,
        "position": 1,
        "buff": "普攻时有5%概率释放【重伤箭】Lv.5技能",
        "adventureBuff": "物理攻击+1.5",
        "storageBuff": "物理攻击+6",
        "isCompose": 0
      },
      {
        "id": "20089",
        "name": "裘卡卡片",
        "icon": "Joker",
        "picture": "card_10095",
        "quality": 2,
        "position": 6,
        "buff": "可使用【石化术】Lv.5技能",
        "adventureBuff": "魔法攻击+1.5",
        "storageBuff": "生命上限+18",
        "isCompose": 0
      },
      {
        "id": "20088",
        "name": "小巴风特卡片",
        "icon": "Baphomet_S",
        "picture": "card_10094",
        "quality": 3,
        "position": 4,
        "buff": "敏捷+2\n暴击+5",
        "adventureBuff": "暴击+1",
        "storageBuff": "生命上限+70",
        "isCompose": 0
      },
      {
        "id": "20087",
        "name": "飞行魔书卡片",
        "icon": "Rideword",
        "picture": "card_10093",
        "quality": 2,
        "position": 7,
        "buff": "智力+5\n魔法防御+20",
        "adventureBuff": "魔法攻击+1.5",
        "storageBuff": "生命上限+18",
        "isCompose": 0
      },
      {
        "id": "20086",
        "name": "风魔巫师卡片",
        "icon": "Wind_Ghost",
        "picture": "card_10092",
        "quality": 3,
        "position": 6,
        "buff": "普攻时有5%概率自动施放【雷鸣术】Lv.5技能",
        "adventureBuff": "生命上限+21",
        "storageBuff": "生命上限+70",
        "isCompose": 0
      },
      {
        "id": "20085",
        "name": "卡利斯格卡片",
        "icon": "Khalitzburg",
        "picture": "card_10091",
        "quality": 2,
        "position": 2,
        "buff": "恶魔种族减伤+10%",
        "adventureBuff": "恶魔种族减伤+1%",
        "storageBuff": "生命上限+18",
        "isCompose": 0
      },
      {
        "id": "20084",
        "name": "幽灵剑士卡片",
        "icon": "Raydric",
        "picture": "card_10090",
        "quality": 3,
        "position": 4,
        "buff": "受到无属性伤害-10%",
        "adventureBuff": "受到无属性伤害-1%",
        "storageBuff": "生命上限+70",
        "isCompose": 0
      },
      {
        "id": "20083",
        "name": "幽灵弓箭手卡片",
        "icon": "Raydric_archer",
        "picture": "card_10089",
        "quality": 2,
        "position": 1,
        "buff": "每当击杀恶魔系魔物时有10%概率增加自身精炼物攻持续一定时间，该效果最多可叠加3层",
        "adventureBuff": "精炼物攻+1",
        "storageBuff": "生命上限+18",
        "isCompose": 0
      },
      {
        "id": "20082",
        "name": "虎蜥人卡片",
        "icon": "Anolian",
        "picture": "card_10088",
        "quality": 2,
        "position": 3,
        "buff": "受到物理伤害时3%概率使敏捷+5，灵巧+5持续2分钟。",
        "adventureBuff": "敏捷+1",
        "storageBuff": "生命上限+18",
        "isCompose": 0
      },
      {
        "id": "20081",
        "name": "史汀卡片",
        "icon": "Sting",
        "picture": "card_10087",
        "quality": 1,
        "position": 2,
        "buff": "物理防御+10\n魔法防御+15",
        "adventureBuff": "魔法防御+2",
        "storageBuff": "魔伤减免+2%",
        "isCompose": 0
      },
      {
        "id": "20080",
        "name": "邪恶使者卡片",
        "icon": "Injustice",
        "picture": "card_10086",
        "quality": 1,
        "position": 1,
        "buff": "普攻时有3%概率自动施放【音速投掷】Lv.5",
        "adventureBuff": "力量+1",
        "storageBuff": "魔法攻击+4.5",
        "isCompose": 0
      }
    ]
  }
}