{
  "code": 0,
  "status": "success",
  "timeStamp": 1642839700,
  "staticDomain": "http:\/\/rosc1.zhaiwuyu.com",
  "ip": "101.87.200.160",
  "language": "cn",
  "dbArea": 0,
  "data": {
    "page": 12,
    "pageSize": 30,
    "pageCount": 18,
    "total": 527,
    "list": [
      {
        "id": "20109",
        "name": "灰森灵卡片",
        "icon": "StemWorm",
        "picture": "card_10134",
        "quality": 3,
        "position": 6,
        "buff": "使【音速投掷】技能延迟-0.3秒",
        "adventureBuff": "物理攻击+6",
        "storageBuff": "【音速投掷】伤害+5%",
        "isCompose": 0
      },
      {
        "id": "20108",
        "name": "伊特瓢虫卡片",
        "icon": "Brilight",
        "picture": "card_10133",
        "quality": 2,
        "position": 3,
        "buff": "力量+3\n体质+1\n生命上限+100",
        "adventureBuff": "生命上限+12",
        "storageBuff": "力量+1",
        "isCompose": 0
      },
      {
        "id": "20107",
        "name": "邪灵魔导士卡片",
        "icon": "Elder",
        "picture": "card_10131",
        "quality": 2,
        "position": 1,
        "buff": "PVP\/GVG中对玩家伤害+3%",
        "adventureBuff": "PVP\/GVG中对玩家伤害+1%",
        "storageBuff": "PVP\/GVG中对玩家伤害+1%",
        "isCompose": 0
      },
      {
        "id": "20106",
        "name": "钟怪卡片",
        "icon": "Alarm",
        "picture": "card_10130",
        "quality": 2,
        "position": 5,
        "buff": "生命上限+300\n体质+1\n智力+1",
        "adventureBuff": "生命上限+12",
        "storageBuff": "物理攻击+7.5，魔法攻击+7.5",
        "isCompose": 0
      },
      {
        "id": "20105",
        "name": "古钟魔卡片",
        "icon": "Clock",
        "picture": "card_10128",
        "quality": 2,
        "position": 3,
        "buff": "力量+2\n智力+1\n生命上限+1%",
        "adventureBuff": "生命上限+12",
        "storageBuff": "生命上限+30",
        "isCompose": 0
      },
      {
        "id": "20104",
        "name": "黑魔女卡片",
        "icon": "BlackWitch",
        "picture": "card_10127",
        "quality": 2,
        "position": 7,
        "buff": "智力+1\n魔法攻击+10",
        "adventureBuff": "魔法攻击+1.5",
        "storageBuff": "魔法攻击+7.5",
        "isCompose": 0
      },
      {
        "id": "20103",
        "name": "朽魔卡片",
        "icon": "Punk",
        "picture": "card_10126",
        "quality": 2,
        "position": 4,
        "buff": "生命上限+200\n魔法上限+50",
        "adventureBuff": "生命上限+6，魔法上限+1",
        "storageBuff": "生命上限+60，魔法上限+10",
        "isCompose": 0
      },
      {
        "id": "23105",
        "name": "封印的伊芙利特卡片",
        "icon": "cardhead_23105",
        "picture": "card_23105",
        "quality": 2,
        "position": 1,
        "buff": "生命上限+2%\n无属性攻击+2%",
        "adventureBuff": "生命上限+12",
        "storageBuff": "生命上限+30",
        "isCompose": 0
      },
      {
        "id": "23104",
        "name": "魔法雪熊卡片",
        "icon": "cardhead_23104",
        "picture": "card_23104",
        "quality": 1,
        "position": 3,
        "buff": "魔法上限+200",
        "adventureBuff": "魔法上限+5",
        "storageBuff": "魔法上限+10",
        "isCompose": 0
      },
      {
        "id": "24034",
        "name": "螳螂卡片",
        "icon": "cardhead_400850",
        "picture": "card_400850",
        "quality": 3,
        "position": 6,
        "buff": "力量+5",
        "adventureBuff": "生命上限+28",
        "storageBuff": "力量+1",
        "isCompose": 1
      },
      {
        "id": "24033",
        "name": "杰洛米卡片",
        "icon": "cardhead_400840",
        "picture": "card_400840",
        "quality": 3,
        "position": 6,
        "buff": "灵巧+4\n智力+1",
        "adventureBuff": "生命上限+28",
        "storageBuff": "灵巧+1",
        "isCompose": 1
      },
      {
        "id": "24032",
        "name": "森灵卡片",
        "icon": "cardhead_400830",
        "picture": "card_400830",
        "quality": 3,
        "position": 6,
        "buff": "灵巧+1\n智力+4",
        "adventureBuff": "生命上限+28",
        "storageBuff": "智力+1",
        "isCompose": 1
      },
      {
        "id": "24031",
        "name": "库克雷卡片",
        "icon": "cardhead_400820",
        "picture": "card_400820",
        "quality": 3,
        "position": 6,
        "buff": "敏捷+3\n幸运+2",
        "adventureBuff": "生命上限+28",
        "storageBuff": "敏捷+1",
        "isCompose": 1
      },
      {
        "id": "24030",
        "name": "木乃伊犬卡片",
        "icon": "cardhead_400760",
        "picture": "card_400760",
        "quality": 3,
        "position": 5,
        "buff": "生命上限+8%\n魔法上限+8%",
        "adventureBuff": "生命上限+28",
        "storageBuff": "生命上限+140",
        "isCompose": 1
      },
      {
        "id": "24029",
        "name": "麦斯特卡片",
        "icon": "cardhead_400670",
        "picture": "card_400670",
        "quality": 3,
        "position": 4,
        "buff": "受到毒属性伤害-15%\n闪避+5",
        "adventureBuff": "生命上限+28",
        "storageBuff": "闪避+5",
        "isCompose": 0
      },
      {
        "id": "24028",
        "name": "乌贼卡片",
        "icon": "cardhead_400660",
        "picture": "card_400660",
        "quality": 3,
        "position": 4,
        "buff": "受到水属性伤害-15%\n闪避+5",
        "adventureBuff": "生命上限+28",
        "storageBuff": "闪避+5",
        "isCompose": 0
      },
      {
        "id": "24027",
        "name": "蚯蚓卡片",
        "icon": "cardhead_400650",
        "picture": "card_400650",
        "quality": 3,
        "position": 4,
        "buff": "受到地属性伤害-15%\n闪避+5",
        "adventureBuff": "生命上限+28",
        "storageBuff": "闪避+5",
        "isCompose": 0
      },
      {
        "id": "24026",
        "name": "猎蝇卡片",
        "icon": "cardhead_400640",
        "picture": "card_400640",
        "quality": 3,
        "position": 4,
        "buff": "受到风属性伤害-15%\n闪避+5",
        "adventureBuff": "生命上限+28",
        "storageBuff": "闪避+5",
        "isCompose": 0
      },
      {
        "id": "24025",
        "name": "黑影幽灵卡片",
        "icon": "cardhead_400620",
        "picture": "card_400620",
        "quality": 3,
        "position": 2,
        "buff": "受到暗属性伤害-15%\n对暗属性魔物伤害+5%",
        "adventureBuff": "生命上限+28",
        "storageBuff": "对暗属性魔物伤害+1%",
        "isCompose": 0
      },
      {
        "id": "24024",
        "name": "飞马卡片",
        "icon": "cardhead_400610",
        "picture": "card_400610",
        "quality": 3,
        "position": 2,
        "buff": "受到圣属性伤害-15%\n对圣属性魔物伤害+5%",
        "adventureBuff": "生命上限+28",
        "storageBuff": "对圣属性魔物伤害+1%",
        "isCompose": 0
      },
      {
        "id": "24023",
        "name": "变异蜈蚣卡片",
        "icon": "cardhead_400600",
        "picture": "card_400600",
        "quality": 3,
        "position": 2,
        "buff": "受到毒属性伤害-15%\n对毒属性魔物伤害+5%",
        "adventureBuff": "生命上限+28",
        "storageBuff": "对毒属性魔物伤害+1%",
        "isCompose": 0
      },
      {
        "id": "24022",
        "name": "毒黄蜂卡片",
        "icon": "cardhead_400590",
        "picture": "card_400590",
        "quality": 3,
        "position": 2,
        "buff": "受到风属性伤害-15%\n对风属性魔物伤害+5%",
        "adventureBuff": "生命上限+28",
        "storageBuff": "对风属性魔物伤害+1%",
        "isCompose": 0
      },
      {
        "id": "24021",
        "name": "飞龙卡片",
        "icon": "cardhead_400580",
        "picture": "card_400580",
        "quality": 3,
        "position": 2,
        "buff": "受到地属性伤害-15%\n对地属性魔物伤害+5%",
        "adventureBuff": "生命上限+28",
        "storageBuff": "对地属性魔物伤害+1%",
        "isCompose": 0
      },
      {
        "id": "24020",
        "name": "水元素卡片",
        "icon": "cardhead_400570",
        "picture": "card_400570",
        "quality": 3,
        "position": 2,
        "buff": "受到水属性伤害-15%\n对水属性魔物伤害+5%",
        "adventureBuff": "生命上限+28",
        "storageBuff": "对水属性魔物伤害+1%",
        "isCompose": 0
      },
      {
        "id": "24018",
        "name": "玩偶熊卡片",
        "icon": "cardhead_400530",
        "picture": "card_400530",
        "quality": 3,
        "position": 2,
        "buff": "不死种族减伤+10%",
        "adventureBuff": "生命上限+28",
        "storageBuff": "不死种族加伤+1%",
        "isCompose": 0
      },
      {
        "id": "24017",
        "name": "梅纳海葵卡片",
        "icon": "cardhead_400520",
        "picture": "card_400520",
        "quality": 3,
        "position": 2,
        "buff": "无形种族减伤+10%",
        "adventureBuff": "生命上限+28",
        "storageBuff": "无形种族加伤+1%",
        "isCompose": 0
      },
      {
        "id": "24016",
        "name": "海豹卡片",
        "icon": "cardhead_400420",
        "picture": "card_400420",
        "quality": 3,
        "position": 1,
        "buff": "命中+15\n闪避+5\n当佩戴者是服事系列时，对恶魔种族和不死属性暴击+9",
        "adventureBuff": "生命上限+28",
        "storageBuff": "命中+5",
        "isCompose": 1
      },
      {
        "id": "24015",
        "name": "狐仙卡片",
        "icon": "cardhead_400360",
        "picture": "card_400360",
        "quality": 3,
        "position": 6,
        "buff": "对念属性魔物伤害+15%",
        "adventureBuff": "生命上限+28",
        "storageBuff": "对念属性魔物伤害+1%",
        "isCompose": 1
      },
      {
        "id": "24014",
        "name": "邪骸矿工卡片",
        "icon": "cardhead_400300",
        "picture": "card_400300",
        "quality": 3,
        "position": 1,
        "buff": "对中型魔物伤害+15%\n物理攻击+5",
        "adventureBuff": "生命上限+28",
        "storageBuff": "物理攻击+10",
        "isCompose": 0
      },
      {
        "id": "24013",
        "name": "蝎子卡片",
        "icon": "cardhead_400290",
        "picture": "card_400290",
        "quality": 3,
        "position": 6,
        "buff": "对植物种族魔物伤害+10%",
        "adventureBuff": "生命上限+28",
        "storageBuff": "植物种族加伤+1%",
        "isCompose": 1
      }
    ]
  }
}