{
  "code": 0,
  "status": "success",
  "timeStamp": 1642841680,
  "staticDomain": "http:\/\/rosc1.zhaiwuyu.com",
  "ip": "101.87.200.160",
  "language": "cn",
  "dbArea": 0,
  "data": {
    "page": 1,
    "pageSize": 30,
    "pageCount": 18,
    "total": 527,
    "list": [
      {
        "id": "24648",
        "name": "塔妮小姐★卡片",
        "icon": "cardhead_24648",
        "picture": "card_24648",
        "quality": 4,
        "position": 5,
        "buff": "生命上限-30%，每1500点魔法上限使生命上限减少降低1%\n魔法上限+50%",
        "adventureBuff": "魔法攻击+12",
        "storageBuff": "魔法防御+1%",
        "isCompose": 1
      },
      {
        "id": "24647",
        "name": "大本钟★卡片",
        "icon": "cardhead_24647",
        "picture": "card_24647",
        "quality": 4,
        "position": 1,
        "buff": "对无形种族伤害+10%，对恶魔种族伤害+10%\n对普通魔物（不包含MVP、Mini魔物）增伤+15%",
        "adventureBuff": "生命上限+120",
        "storageBuff": "魔法防御+1%",
        "isCompose": 1
      },
      {
        "id": "24646",
        "name": "鹗枭首领★卡片",
        "icon": "cardhead_24646",
        "picture": "card_24646",
        "quality": 4,
        "position": 1,
        "buff": "普攻时有5%概率对自身施放【神威祈福】Lv.10技能；\n普通攻击时，100%的概率降低目标5%人形种族减伤，持续5秒，最多可叠加2层",
        "adventureBuff": "魔法攻击+12",
        "storageBuff": "魔法防御+6，生命上限+30",
        "isCompose": 1
      },
      {
        "id": "24645",
        "name": "赛尼亚★卡片",
        "icon": "cardhead_24645",
        "picture": "card_24645",
        "quality": 4,
        "position": 2,
        "buff": "生命上限+5%\n物伤减免+5%、物理防御+10%\n队伍里有剑士系时，同一地图队伍内成员（不包括自身）物伤减免+5%、物理防御+10%",
        "adventureBuff": "生命上限+120",
        "storageBuff": "物理防御+1%",
        "isCompose": 1
      },
      {
        "id": "24644",
        "name": "吹笛人★卡片",
        "icon": "cardhead_24644",
        "picture": "card_24644",
        "quality": 4,
        "position": 5,
        "buff": "暴击+5\n敏捷+5\n灵巧+5\n移动速度+15%\n处于异常状态时，自身移动速度+15%",
        "adventureBuff": "物理攻击+12",
        "storageBuff": "物理防御+6，生命上限+30",
        "isCompose": 1
      },
      {
        "id": "24522",
        "name": "塔妮小姐亡者卡片",
        "icon": "n_ladytanee_dead",
        "picture": "card_24522",
        "quality": 4,
        "position": 6,
        "buff": "物理穿刺+5%\n忽视物理防御+5%",
        "adventureBuff": "魔法攻击+12",
        "storageBuff": "魔法防御+1%",
        "isCompose": 0
      },
      {
        "id": "24109",
        "name": "御火卡",
        "icon": "cardhead_24109",
        "picture": "card_24109",
        "quality": 4,
        "position": 3,
        "buff": "生命上限+10%\n被火属性攻击时，反射25%受到的伤害",
        "adventureBuff": "魔法防御+6，生命上限+30",
        "storageBuff": "受到火属性伤害-1%",
        "isCompose": 1
      },
      {
        "id": "24108",
        "name": "御水卡",
        "icon": "cardhead_24108",
        "picture": "card_24108",
        "quality": 4,
        "position": 3,
        "buff": "生命上限+10%\n被水属性攻击时，反射25%受到的伤害",
        "adventureBuff": "物理防御+6，生命上限+30",
        "storageBuff": "受到水属性伤害-1%",
        "isCompose": 1
      },
      {
        "id": "24107",
        "name": "御地卡",
        "icon": "cardhead_24107",
        "picture": "card_24107",
        "quality": 4,
        "position": 3,
        "buff": "生命上限+10%\n被地属性攻击时，反射25%受到的伤害",
        "adventureBuff": "魔法防御+6，生命上限+30",
        "storageBuff": "受到地属性伤害-1%",
        "isCompose": 1
      },
      {
        "id": "24106",
        "name": "御风卡",
        "icon": "cardhead_24106",
        "picture": "card_24106",
        "quality": 4,
        "position": 3,
        "buff": "生命上限+10%\n被风属性攻击时，反射25%受到的伤害",
        "adventureBuff": "物理防御+6，生命上限+30",
        "storageBuff": "受到风属性伤害-1%",
        "isCompose": 1
      },
      {
        "id": "23196",
        "name": "魂体双生卡",
        "icon": "cardhead_23196",
        "picture": "card_23196",
        "quality": 4,
        "position": 1,
        "buff": "对魔物（包含MVP、Mini魔物）增伤+10%\n击杀魔物Base经验+2%\n击杀魔物Job经验+2%",
        "adventureBuff": "物理防御+6，生命上限+30",
        "storageBuff": "魔法攻击+6",
        "isCompose": 0
      },
      {
        "id": "23194",
        "name": "庆典之夜卡片",
        "icon": "cardhead_23194",
        "picture": "card_23194",
        "quality": 3,
        "position": 2,
        "buff": "全能力+5\n物理攻击+50\n魔法攻击+50",
        "adventureBuff": "物理防御+2，生命上限+30",
        "storageBuff": "生命上限+60",
        "isCompose": 0
      },
      {
        "id": "23060",
        "name": "迷梦猫妖卡片",
        "icon": "n_cheshirecat",
        "picture": "card_30067",
        "quality": 4,
        "position": 4,
        "buff": "灵巧+5\n物理穿刺+5%\n灵巧达到360点时，物理穿刺+5%",
        "adventureBuff": "物理攻击+12",
        "storageBuff": "生命上限+120",
        "isCompose": 0
      },
      {
        "id": "22045",
        "name": "白鹫女王卡片",
        "icon": "n_baldeagle",
        "picture": "card_20052",
        "quality": 3,
        "position": 3,
        "buff": "无属性攻击+15%\n受到无属性伤害-8%",
        "adventureBuff": "魔法攻击+8",
        "storageBuff": "魔法防御+3，生命上限+36",
        "isCompose": 0
      },
      {
        "id": "20198",
        "name": "流浪游魂卡片",
        "icon": "n_shadowghost",
        "picture": "card_10346",
        "quality": 2,
        "position": 6,
        "buff": "人形种族减伤+2%",
        "adventureBuff": "魔法防御+3",
        "storageBuff": "生命上限+36",
        "isCompose": 0
      },
      {
        "id": "20197",
        "name": "爆钻伞蜥卡片",
        "icon": "n_driller",
        "picture": "card_10345",
        "quality": 3,
        "position": 1,
        "buff": "暴击伤害+10%\n对龙族魔物暴击+20",
        "adventureBuff": "生命上限+60",
        "storageBuff": "对龙族魔物伤害+1%",
        "isCompose": 0
      },
      {
        "id": "20196",
        "name": "灵魂闪蝶卡片",
        "icon": "n_soulmorpho",
        "picture": "card_10344",
        "quality": 3,
        "position": 2,
        "buff": "灵巧+5\n暴击伤害+5%",
        "adventureBuff": "生命上限+60",
        "storageBuff": "魔法攻击+3，生命上限+36",
        "isCompose": 0
      },
      {
        "id": "20195",
        "name": "摄魂渡鸦卡片",
        "icon": "n_raven",
        "picture": "card_10343",
        "quality": 2,
        "position": 4,
        "buff": "对圣属性魔物伤害+5%\n受到圣属性伤害-5%",
        "adventureBuff": "物理防御+3",
        "storageBuff": "生命上限+36",
        "isCompose": 0
      },
      {
        "id": "20194",
        "name": "锹形虫卡片",
        "icon": "n_stagbeetle",
        "picture": "card_10342",
        "quality": 3,
        "position": 2,
        "buff": "生命上限+1000\n受到远距离物理伤害减免+10%",
        "adventureBuff": "魔法攻击+3，生命上限+36",
        "storageBuff": "魔法防御+2，生命上限+36",
        "isCompose": 0
      },
      {
        "id": "20193",
        "name": "精灵狐卡片",
        "icon": "n_foxelf",
        "picture": "card_10341",
        "quality": 3,
        "position": 7,
        "buff": "全能力+2\n圣属性攻击+5%",
        "adventureBuff": "物理攻击+3，生命上限+36",
        "storageBuff": "物理防御+2，生命上限+36",
        "isCompose": 0
      },
      {
        "id": "20192",
        "name": "绒绒鹿卡片",
        "icon": "n_fluffdeer",
        "picture": "card_10340",
        "quality": 2,
        "position": 5,
        "buff": "智力+5\n体质+5",
        "adventureBuff": "生命上限+30",
        "storageBuff": "生命上限+36",
        "isCompose": 0
      },
      {
        "id": "23193",
        "name": "冰雪童话卡片",
        "icon": "cardhead_23193",
        "picture": "card_23193",
        "quality": 3,
        "position": 2,
        "buff": "风属性攻击+3%\n对水属性魔物伤害+5%",
        "adventureBuff": "物理防御+2，生命上限+30",
        "storageBuff": "物理攻击+3，生命上限+30",
        "isCompose": 0
      },
      {
        "id": "23191",
        "name": "爆米花嘉年华卡片",
        "icon": "cardhead_23191",
        "picture": "card_23191",
        "quality": 3,
        "position": 1,
        "buff": "物理攻击+30\n忽视物理防御+3%",
        "adventureBuff": "魔法攻击+3，生命上限+30",
        "storageBuff": "物理防御+2，生命上限+30",
        "isCompose": 0
      },
      {
        "id": "23192",
        "name": "黄金比例卡片",
        "icon": "cardhead_23192",
        "picture": "card_23192",
        "quality": 3,
        "position": 7,
        "buff": "魔法上限+200\n使用技能时SP消耗量-5%",
        "adventureBuff": "物理防御+2，生命上限+30",
        "storageBuff": "物理攻击+3，生命上限+30",
        "isCompose": 0
      },
      {
        "id": "23190",
        "name": "知识之海卡片",
        "icon": "cardhead_23190",
        "picture": "card_23190",
        "quality": 3,
        "position": 5,
        "buff": "移动速度+3%\n忽视魔法防御+2%",
        "adventureBuff": "魔法攻击+3，生命上限+30",
        "storageBuff": "物理防御+2，生命上限+30",
        "isCompose": 0
      },
      {
        "id": "23188",
        "name": "梦境交织卡片",
        "icon": "cardhead_23188",
        "picture": "card_23188",
        "quality": 3,
        "position": 3,
        "buff": "全能力+2\n技能伤害+2%",
        "adventureBuff": "魔法攻击+3，生命上限+30",
        "storageBuff": "物理防御+2，生命上限+30",
        "isCompose": 0
      },
      {
        "id": "24643",
        "name": "兽人酋长★卡片",
        "icon": "cardhead_24643",
        "picture": "card_24643",
        "quality": 4,
        "position": 3,
        "buff": "受到敌人近距离物理攻击时有5%概率获得效果：受到的物理伤害会100%反射给敌人，持续5秒\n受到物理攻击时，可恢复来自伤害15%的HP",
        "adventureBuff": "生命上限+120",
        "storageBuff": "兽人酋长★卡片触发反射效果时会恢复该次伤害的血量",
        "isCompose": 1
      },
      {
        "id": "24642",
        "name": "黑暗之王★卡片",
        "icon": "cardhead_24642",
        "picture": "card_24642",
        "quality": 4,
        "position": 5,
        "buff": "受到物理技能攻击时有20%概率释放10级陨石术\n异常状态抵抗+25%",
        "adventureBuff": "生命上限+120",
        "storageBuff": "物理防御+1%",
        "isCompose": 1
      },
      {
        "id": "24521",
        "name": "兽人酋长亡者卡片",
        "icon": "Orc_R",
        "picture": "card_24521",
        "quality": 4,
        "position": 7,
        "buff": "人形种族加伤+5%\n人形种族减伤+5%\n自身生命值大于50%时，人形种族加伤+5%\n自身生命值低于50%时,人形种族减伤+5%",
        "adventureBuff": "魔法攻击+12",
        "storageBuff": "魔法防御+6，生命上限+30",
        "isCompose": 0
      },
      {
        "id": "24520",
        "name": "黑暗之主亡者卡片",
        "icon": "Dark_Lord_R",
        "picture": "card_24520",
        "quality": 4,
        "position": 6,
        "buff": "魔法穿刺+5%\n攻击目标时，有100%概率降低目标3%魔伤减免，持续5秒（效果不叠加）",
        "adventureBuff": "物理攻击+12",
        "storageBuff": "物理防御+6，生命上限+30",
        "isCompose": 0
      }
    ],
    "partner": {
      "id": 30101,
      "pos": 6,
      "title": "交易所订阅",
      "tip": "",
      "pic": "\/\/rosc3.zhaiwuyu.com\/partner\/self\/find-exchange-202103.jpg",
      "link": "http:\/\/romel.wiki\/article\/exchange-remind"
    }
  }
}