{
  "code": 0,
  "status": "success",
  "timeStamp": 1642839720,
  "staticDomain": "http:\/\/rosc1.zhaiwuyu.com",
  "ip": "101.87.200.160",
  "language": "cn",
  "dbArea": 0,
  "data": {
    "page": 14,
    "pageSize": 30,
    "pageCount": 18,
    "total": 527,
    "list": [
      {
        "id": "23019",
        "name": "凯美拉卡片",
        "icon": "Chimera",
        "picture": "card_30019",
        "quality": 4,
        "position": 3,
        "buff": "受到物理伤害时有3%概率使敌人中毒。当刺客系装备时中毒概率提升至12%",
        "adventureBuff": "生命上限+112",
        "storageBuff": "生命上限+28",
        "isCompose": 0
      },
      {
        "id": "23018",
        "name": "鹗枭首领卡片",
        "icon": "Owl_Duke",
        "picture": "card_30018",
        "quality": 3,
        "position": 1,
        "buff": "普攻时有5%概率对自身施放【神威祈福】Lv.10技能",
        "adventureBuff": "精炼物攻+10",
        "storageBuff": "生命上限+70",
        "isCompose": 0
      },
      {
        "id": "23017",
        "name": "迪塔勒泰晤勒卡片",
        "icon": "Detale",
        "picture": "card_30017",
        "quality": 4,
        "position": 3,
        "buff": "避免陷入冰冻的状态\n冰冻抵抗+50%\n受到魔法攻击5%概率自动施放【崩裂术】Lv.3",
        "adventureBuff": "生命上限+112",
        "storageBuff": "【火球术】伤害+15%",
        "isCompose": 0
      },
      {
        "id": "23016",
        "name": "兽人酋长卡片",
        "icon": "Orc_Lord",
        "picture": "card_30016",
        "quality": 4,
        "position": 3,
        "buff": "受到敌人近距离物理攻击时有5%概率获得效果：受到的物理伤害会100%反射给敌人，持续5秒",
        "adventureBuff": "生命上限+112",
        "storageBuff": "兽人酋长卡片触发反射效果时会恢复该次伤害的血量",
        "isCompose": 0
      },
      {
        "id": "23015",
        "name": "死灵卡片",
        "icon": "Doppelganger",
        "picture": "card_30015",
        "quality": 4,
        "position": 1,
        "buff": "装备攻速+15%",
        "adventureBuff": "生命上限+112",
        "storageBuff": "生命上限+112",
        "isCompose": 0
      },
      {
        "id": "23014",
        "name": "兽人英雄卡片",
        "icon": "Orc_Hero",
        "picture": "card_30014",
        "quality": 4,
        "position": 7,
        "buff": "体质+5\n避免陷入晕眩的状态",
        "adventureBuff": "生命上限+112",
        "storageBuff": "装备兽人英雄卡片时，对眩晕目标伤害+15%，对MVP、Mini魔物伤害+5%",
        "isCompose": 0
      },
      {
        "id": "23013",
        "name": "月夜猫卡片",
        "icon": "MoonLight",
        "picture": "card_30013",
        "quality": 4,
        "position": 5,
        "buff": "移动速度+25%",
        "adventureBuff": "物理防御+6",
        "storageBuff": "生命上限+112",
        "isCompose": 0
      },
      {
        "id": "23012",
        "name": "俄赛里斯卡片",
        "icon": "Osiris",
        "picture": "card_30012",
        "quality": 4,
        "position": 6,
        "buff": "复活时，HP与SP全部恢复",
        "adventureBuff": "生命上限+112",
        "storageBuff": "生命上限+112",
        "isCompose": 0
      },
      {
        "id": "23011",
        "name": "虎王卡片",
        "icon": "Eddga",
        "picture": "card_30011",
        "quality": 4,
        "position": 5,
        "buff": "生命上限-20%\n处于无限【霸体】状态",
        "adventureBuff": "生命上限+5%",
        "storageBuff": "物理攻击+12",
        "isCompose": 0
      },
      {
        "id": "23010",
        "name": "阿特罗斯卡片",
        "icon": "Atroce",
        "picture": "card_30023",
        "quality": 4,
        "position": 1,
        "buff": "普攻时有5%概率获得急速效果（装备攻速+20%持续10秒）",
        "adventureBuff": "物理攻击+12",
        "storageBuff": "阿特罗斯卡片触发急速效果时物理攻击+50点，持续10秒",
        "isCompose": 0
      },
      {
        "id": "23009",
        "name": "皮里恩卡片",
        "icon": "Phreeoni",
        "picture": "card_30009",
        "quality": 4,
        "position": 1,
        "buff": "命中+100",
        "adventureBuff": "命中+10",
        "storageBuff": "每次闪避后自身物理攻击+10，最多叠加10层，持续5秒",
        "isCompose": 0
      },
      {
        "id": "23008",
        "name": "蚁后卡片",
        "icon": "Maya",
        "picture": "card_30008",
        "quality": 4,
        "position": 2,
        "buff": "反射20%的魔法伤害",
        "adventureBuff": "魔法伤害+2%",
        "storageBuff": "魔法伤害+3%",
        "isCompose": 0
      },
      {
        "id": "23007",
        "name": "蜂后卡片",
        "icon": "Bee_Queen",
        "picture": "card_30007",
        "quality": 4,
        "position": 7,
        "buff": "可变吟唱时间-5%\n使需要消耗魔力矿石的技能消耗的魔力矿石数-1",
        "adventureBuff": "魔伤减免+2%",
        "storageBuff": "魔法攻击+12",
        "isCompose": 0
      },
      {
        "id": "23006",
        "name": "哥布灵首领卡片",
        "icon": "Goblin_King",
        "picture": "card_30006",
        "quality": 4,
        "position": 1,
        "buff": "近战普攻可获得5%伤害的HP恢复效果",
        "adventureBuff": "物理攻击+12",
        "storageBuff": "使自身血量低于30%，哥布灵首领卡片触发吸血效果时50%概率产生暴击效果",
        "isCompose": 0
      },
      {
        "id": "23005",
        "name": "海神卡片",
        "icon": "Strouf",
        "picture": "card_30005",
        "quality": 3,
        "position": 1,
        "buff": "对恶魔种族魔物伤害+25%",
        "adventureBuff": "恶魔种族加伤+2%",
        "storageBuff": "恶魔种族加伤+3%",
        "isCompose": 0
      },
      {
        "id": "23004",
        "name": "海盗之王卡片",
        "icon": "Drake",
        "picture": "card_30004",
        "quality": 4,
        "position": 1,
        "buff": "对小、中、大型魔物都造成100%的伤害",
        "adventureBuff": "物理伤害+1%",
        "storageBuff": "物理伤害+2%",
        "isCompose": 0
      },
      {
        "id": "23003",
        "name": "恶魔波利卡片",
        "icon": "Deviling",
        "picture": "card_30003",
        "quality": 4,
        "position": 4,
        "buff": "受到无属性伤害-50%\n受到其他所有属性伤害+50%",
        "adventureBuff": "物伤减免+2%",
        "storageBuff": "生命上限+70",
        "isCompose": 0
      },
      {
        "id": "23002",
        "name": "黄金虫卡片",
        "icon": "Golden_Bug",
        "picture": "card_30002",
        "quality": 4,
        "position": 2,
        "buff": "受到的所有魔法伤害-50%\n使用技能时SP消耗量+100%",
        "adventureBuff": "生命上限+112",
        "storageBuff": "魔伤减免+5%",
        "isCompose": 0
      },
      {
        "id": "23001",
        "name": "天使波利卡片",
        "icon": "Angeling",
        "picture": "card_30001",
        "quality": 4,
        "position": 3,
        "buff": "可将铠甲的属性转变为圣属性",
        "adventureBuff": "魔法攻击+20",
        "storageBuff": "圣属性攻击+5%",
        "isCompose": 0
      },
      {
        "id": "22020",
        "name": "迷幻之王卡片",
        "icon": "Dark_Illusion",
        "picture": "card_20022",
        "quality": 4,
        "position": 7,
        "buff": "生命上限-10%\n魔法上限-10%\n固定吟唱时间-0.25秒",
        "adventureBuff": "可变吟唱时间-1%",
        "storageBuff": "生命上限+70",
        "isCompose": 0
      },
      {
        "id": "22019",
        "name": "妖君卡片",
        "icon": "Hyegun",
        "picture": "card_20019",
        "quality": 3,
        "position": 4,
        "buff": "闪避+20\n暴击+5",
        "adventureBuff": "生命上限+84",
        "storageBuff": "生命上限+84",
        "isCompose": 0
      },
      {
        "id": "22018",
        "name": "安毕斯卡片",
        "icon": "Anubis",
        "picture": "card_20018",
        "quality": 2,
        "position": 2,
        "buff": "受到天使种族魔物伤害-30%",
        "adventureBuff": "生命上限+84",
        "storageBuff": "天使种族减伤+10%",
        "isCompose": 0
      },
      {
        "id": "22017",
        "name": "艾斯恩魔女卡片",
        "icon": "Zherlthsh",
        "picture": "card_20016",
        "quality": 3,
        "position": 1,
        "buff": "近战物理攻击+10%\n远程物理攻击+5%",
        "adventureBuff": "物理攻击+6",
        "storageBuff": "生命上限+70",
        "isCompose": 0
      },
      {
        "id": "22016",
        "name": "爱丽丝女仆卡片",
        "icon": "Alice",
        "picture": "card_20015",
        "quality": 4,
        "position": 2,
        "buff": "受到MVP、Mini魔物伤害-15%",
        "adventureBuff": "受到MVP、Mini魔物伤害-2%",
        "storageBuff": "物理攻击+12",
        "isCompose": 0
      },
      {
        "id": "22015",
        "name": "弑神者卡片",
        "icon": "Mysteltainn_Mini",
        "picture": "card_20014",
        "quality": 3,
        "position": 5,
        "buff": "受到小型魔物伤害-30%\n物理防御+10",
        "adventureBuff": "受到小型魔物伤害-1%",
        "storageBuff": "魔法攻击+10",
        "isCompose": 0
      },
      {
        "id": "22014",
        "name": "鹗枭男爵卡片",
        "icon": "Owl_Baron",
        "picture": "card_20013",
        "quality": 3,
        "position": 1,
        "buff": "普攻时有5%概率自动施放【天使之怒】Lv.1技能",
        "adventureBuff": "智力+2",
        "storageBuff": "生命上限+70",
        "isCompose": 0
      },
      {
        "id": "22013",
        "name": "半龙人卡片",
        "icon": "Mutant_Dragon",
        "picture": "card_20012",
        "quality": 3,
        "position": 1,
        "buff": "物理攻击+15\n普攻时有3%概率自动施放【火球术】Lv.5",
        "adventureBuff": "生命上限+84",
        "storageBuff": "提升普攻释放【火球术】的概率",
        "isCompose": 0
      },
      {
        "id": "22012",
        "name": "南瓜先生卡片",
        "icon": "NanGuaXianSheng",
        "picture": "card_20011",
        "quality": 3,
        "position": 4,
        "buff": "受到火属性伤害-30%\n闪避+10",
        "adventureBuff": "生命上限+84",
        "storageBuff": "装备南瓜先生卡片时，受到火属性伤害-20%\n每次受到火属性攻击时，有概率根据对方和自己的等级差恢复生命值",
        "isCompose": 0
      },
      {
        "id": "22011",
        "name": "兽人婴儿卡片",
        "icon": "Orc_Baby",
        "picture": "card_20010",
        "quality": 3,
        "position": 4,
        "buff": "受到无属性伤害-30%\n闪避+10",
        "adventureBuff": "生命上限+84",
        "storageBuff": "装备兽人婴儿卡片时，受到无属性伤害-5%\n每次受到无属性攻击时，有概率根据对方和自己的等级差恢复生命值",
        "isCompose": 0
      },
      {
        "id": "22010",
        "name": "狮鹫兽卡片",
        "icon": "Grypjon",
        "picture": "card_20009",
        "quality": 3,
        "position": 1,
        "buff": "闪避+10\n暴击+5\n当装备的职业为剑士系时普攻有3%概率自动施放【怪物互击】Lv.5",
        "adventureBuff": "物理攻击+8",
        "storageBuff": "装备狮鹫兽卡片时，提升剑士系普攻释放【怪物互击】的概率",
        "isCompose": 0
      }
    ]
  }
}