{
  "code": 0,
  "status": "success",
  "timeStamp": 1644809353,
  "staticDomain": "http:\/\/rosc1.zhaiwuyu.com",
  "ip": "124.74.160.162",
  "language": "cn",
  "dbArea": 0,
  "data": {
    "page": 4,
    "pageSize": 10,
    "pageCount": 5,
    "total": 50,
    "list": [
      {
        "id": "40648",
        "name": "万神的注视·神铸",
        "icon": "item_40648",
        "rank": 4,
        "job": [
          "22",
          "23",
          "24",
          "25",
          "52",
          "53",
          "54",
          "55",
          "82",
          "83",
          "84",
          "85",
          "143",
          "144",
          "145",
          "152",
          "153",
          "154",
          "155",
          "183",
          "184",
          "185",
          "223",
          "224",
          "225"
        ],
        "position": 14,
        "effect": "魔法攻击+700",
        "buff": "智力+20\n灵巧+10\n全能力+20\n提升15%法师系范围型技能伤害\n可变吟唱时间-5%\n魔法攻击+50%\n人形种族伤害+50%\n生命上限+26500\n物伤减免+10%，魔伤减免+10%\n万神赐予众生无比的智慧及爱护，使范围8米内的所有友方获得【万神的眷顾】效果。【万神的眷顾】：所有吟唱不会被打断，所有技能可变吟唱缩减100%，所有技能固定吟唱时间减少100%，持续8秒，CD：90秒",
        "isCompose": 1,
        "isUpgrade": 0,
        "isHigh": 0,
        "canSlot": 0,
        "canUpgrade": 0
      },
      {
        "id": "40647",
        "name": "金枝·精锻",
        "icon": "item_40647",
        "rank": 4,
        "job": [
          "22",
          "23",
          "24",
          "25",
          "52",
          "53",
          "54",
          "55",
          "143",
          "144",
          "145",
          "152",
          "153",
          "154",
          "155",
          "183",
          "184",
          "185",
          "223",
          "224",
          "225"
        ],
        "position": 14,
        "effect": "魔法攻击+500",
        "buff": "智力+18\n体质+12\n全能力+14\n治疗加成+15%\n所有技能SP消耗-10%\n魔法攻击+20%\n忽视魔法防御+25%\n人形种族伤害+40%\n生命上限+21000\n物伤减免+5%，魔伤减免+5%\n金枝中散发出天地树之力量，使12米范围内所有阵亡的友方目标全部复活，并恢复被复活目标60%生命上限。该效果不受GVG中复活时间限制。CD：200秒",
        "isCompose": 1,
        "isUpgrade": 0,
        "isHigh": 0,
        "canSlot": 0,
        "canUpgrade": 0
      },
      {
        "id": "40646",
        "name": "万神的注视·精锻",
        "icon": "item_40646",
        "rank": 4,
        "job": [
          "22",
          "23",
          "24",
          "25",
          "52",
          "53",
          "54",
          "55",
          "82",
          "83",
          "84",
          "85",
          "143",
          "144",
          "145",
          "152",
          "153",
          "154",
          "155",
          "183",
          "184",
          "185",
          "223",
          "224",
          "225"
        ],
        "position": 14,
        "effect": "魔法攻击+510",
        "buff": "智力+20\n灵巧+10\n全能力+14\n提升15%法师系范围型技能伤害\n可变吟唱时间-5%\n魔法攻击+40%\n人形种族伤害+40%\n生命上限+20000\n物伤减免+5%，魔伤减免+5%\n万神赐予众生无比的智慧及爱护，使范围8米内的所有友方获得【万神的眷顾】效果。【万神的眷顾】：所有吟唱不会被打断，所有技能可变吟唱缩减100%，所有技能固定吟唱时间减少50%，持续5秒，CD：120秒",
        "isCompose": 1,
        "isUpgrade": 0,
        "isHigh": 0,
        "canSlot": 0,
        "canUpgrade": 0
      },
      {
        "id": "40645",
        "name": "金枝",
        "icon": "item_40645",
        "rank": 4,
        "job": [
          "22",
          "23",
          "24",
          "25",
          "52",
          "53",
          "54",
          "55",
          "143",
          "144",
          "145",
          "152",
          "153",
          "154",
          "155",
          "183",
          "184",
          "185",
          "223",
          "224",
          "225"
        ],
        "position": 14,
        "effect": "魔法攻击+300",
        "buff": "智力+18\n体质+12\n全能力+8\n治疗加成+15%\n所有技能SP消耗-10%\n魔法攻击+15%\n忽视魔法防御+15%\n人形种族伤害+30%\n生命上限+14000",
        "isCompose": 1,
        "isUpgrade": 0,
        "isHigh": 0,
        "canSlot": 0,
        "canUpgrade": 0
      },
      {
        "id": "40644",
        "name": "万神的注视",
        "icon": "item_40644",
        "rank": 4,
        "job": [
          "22",
          "23",
          "24",
          "25",
          "52",
          "53",
          "54",
          "55",
          "82",
          "83",
          "84",
          "85",
          "143",
          "144",
          "145",
          "152",
          "153",
          "154",
          "155",
          "183",
          "184",
          "185",
          "223",
          "224",
          "225"
        ],
        "position": 14,
        "effect": "魔法攻击+320",
        "buff": "智力+20\n灵巧+10\n全能力+8\n提升15%法师系范围型技能伤害\n可变吟唱时间-5%\n魔法攻击+30%\n人形种族伤害+30%\n生命上限+13500",
        "isCompose": 1,
        "isUpgrade": 0,
        "isHigh": 0,
        "canSlot": 0,
        "canUpgrade": 0
      },
      {
        "id": "41521",
        "name": "复仇女神[1]",
        "icon": "item_41521",
        "rank": 3,
        "job": [
          "52",
          "53",
          "54",
          "55"
        ],
        "position": 1,
        "effect": "魔法攻击+174",
        "buff": "魔法攻击+15%\n幸运+5\n【神圣之击】，【转生术】，【十字驱魔攻击】的可变吟唱时间-25%\n幸运可为【神圣之击】、【审判】带来额外伤害",
        "isCompose": 0,
        "isUpgrade": 1,
        "isHigh": 0,
        "canSlot": 1,
        "canUpgrade": 1
      },
      {
        "id": "41510",
        "name": "红十字杖[1]",
        "icon": "item_41510",
        "rank": 3,
        "job": [
          "21",
          "22",
          "23",
          "24",
          "25",
          "51",
          "52",
          "53",
          "54",
          "55",
          "82",
          "83",
          "84",
          "85",
          "183",
          "184",
          "185",
          "223",
          "224",
          "225"
        ],
        "position": 1,
        "effect": "魔法攻击+144",
        "buff": "智力+5\nSP恢复+30%\n精炼每+1，治疗加成+4%\n【红十字杖Ⅳ】+【天衣月舞Ⅳ】：治疗加成+5%，【天衣月舞Ⅳ】精炼+10以上时治疗加成提升至10%\n【红十字杖Ⅳ】+【光辉礼赞】：治疗加成+5%，【光辉礼赞】精炼+10以上时治疗加成提升至10%",
        "isCompose": 0,
        "isUpgrade": 1,
        "isHigh": 0,
        "canSlot": 1,
        "canUpgrade": 1
      },
      {
        "id": "41519",
        "name": "神圣权杖[1]",
        "icon": "item_41519",
        "rank": 2,
        "job": [
          "51",
          "52",
          "53",
          "54",
          "55"
        ],
        "position": 1,
        "effect": "魔法攻击+75",
        "buff": "魔法攻击+10%\n【神圣之击】，【转生术】，【十字驱魔攻击】的可变吟唱时间-25%",
        "isCompose": 1,
        "isUpgrade": 0,
        "isHigh": 0,
        "canSlot": 1,
        "canUpgrade": 1
      },
      {
        "id": "41518",
        "name": "恢复之杖[1]",
        "icon": "item_41518",
        "rank": 3,
        "job": [
          "21",
          "22",
          "23",
          "24",
          "25",
          "51",
          "52",
          "53",
          "54",
          "55",
          "82",
          "83",
          "84",
          "85",
          "183",
          "184",
          "185",
          "223",
          "224",
          "225"
        ],
        "position": 1,
        "effect": "魔法攻击+54",
        "buff": "SP恢复+20%\n精炼每+1，治疗加成+3%",
        "isCompose": 1,
        "isUpgrade": 0,
        "isHigh": 0,
        "canSlot": 1,
        "canUpgrade": 1
      },
      {
        "id": "40624",
        "name": "克罗诺斯之杖[1]",
        "icon": "item_40609",
        "rank": 4,
        "job": [
          "22",
          "23",
          "24",
          "25",
          "183",
          "184",
          "185",
          "223",
          "224",
          "225"
        ],
        "position": 1,
        "effect": "魔法攻击+205",
        "buff": "智力+5\n生命上限+500\n精炼每+1时智力+1，生命上限+100\n使用魔法技能攻击时有3%概率进入“灵视”状态：在10秒内提升魔法攻击+25%，但SP消耗+50%",
        "isCompose": 0,
        "isUpgrade": 0,
        "isHigh": 0,
        "canSlot": 1,
        "canUpgrade": 1
      }
    ]
  }
}