{
  "code": 0,
  "status": "success",
  "timeStamp": 1644809348,
  "staticDomain": "http:\/\/rosc1.zhaiwuyu.com",
  "ip": "124.74.160.162",
  "language": "cn",
  "dbArea": 0,
  "data": {
    "page": 3,
    "pageSize": 10,
    "pageCount": 5,
    "total": 50,
    "list": [
      {
        "id": "40676",
        "name": "淬星魔杖[1]",
        "icon": "item_40676",
        "rank": 4,
        "job": [
          "82",
          "83",
          "84",
          "85"
        ],
        "position": 1,
        "effect": "魔法攻击+405",
        "buff": "智力+8、体质+8、灵巧+8\n魔法攻击+15%\n忽视魔法防御+5%\n【精神耗弱术】技能冷却时间-0.5秒；【精神耗弱术】成功概率+4%；每精炼+1，【精神耗弱术】伤害+1%\n精炼+5时，忽视魔法防御+5%；精炼+10时，忽视魔法防御+10%；精炼+12时，魔法伤害+5%；精炼+15时，魔法攻击+5%，【精神耗弱术】伤害+15%，成功概率+5%",
        "isCompose": 0,
        "isUpgrade": 0,
        "isHigh": 1,
        "canSlot": 0,
        "canUpgrade": 0
      },
      {
        "id": "40671",
        "name": "星屑龙之杖[1]",
        "icon": "item_40671",
        "rank": 4,
        "job": [
          "22",
          "23",
          "24",
          "25",
          "52",
          "53",
          "54",
          "55",
          "82",
          "83",
          "84",
          "85",
          "152",
          "153",
          "154",
          "155",
          "183",
          "184",
          "185",
          "223",
          "224",
          "225"
        ],
        "position": 1,
        "effect": "魔法攻击+405",
        "buff": "灵巧+10、智力+10\n生命上限+2000\n生命上限+15%\n每精炼+1，生命上限+200、魔法防御+1%\n精炼+5时，治疗加成5%；精炼+10时，治疗加成5%；精炼+15时，生命上限+5%、魔伤减免+5%",
        "isCompose": 0,
        "isUpgrade": 0,
        "isHigh": 1,
        "canSlot": 0,
        "canUpgrade": 0
      },
      {
        "id": "41568",
        "name": "厄利尼厄斯之杖[1]",
        "icon": "item_41568",
        "rank": 4,
        "job": [
          "52",
          "53",
          "54",
          "55"
        ],
        "position": 1,
        "effect": "魔法攻击+405",
        "buff": "魔法攻击+20%\n幸运+20\n【神圣之击】，【转生术】，【十字驱魔攻击】的可变吟唱时间-25%\n幸运可为【神圣之击】、【审判】带来额外伤害\n每精炼+1，十字驱魔伤害+1%，精炼+10时提升幸运为【神圣之击】增加的伤害，精炼+15时提升幸运为【审判】增加的伤害\n精炼+5时，圣属性攻击+5%；精炼+10时，魔法攻击+5%；精炼+15时，魔法伤害+5%",
        "isCompose": 0,
        "isUpgrade": 0,
        "isHigh": 1,
        "canSlot": 0,
        "canUpgrade": 0
      },
      {
        "id": "40664",
        "name": "精神手杖[1]",
        "icon": "item_40664",
        "rank": 3,
        "job": [
          "82",
          "83",
          "84",
          "85"
        ],
        "position": 1,
        "effect": "魔法攻击+96",
        "buff": "体质+2\n灵巧+2\n魔法攻击+5%",
        "isCompose": 1,
        "isUpgrade": 0,
        "isHigh": 0,
        "canSlot": 1,
        "canUpgrade": 1
      },
      {
        "id": "40663",
        "name": "生机之杖[1]",
        "icon": "item_40663",
        "rank": 4,
        "job": [
          "21",
          "22",
          "23",
          "24",
          "25",
          "51",
          "52",
          "53",
          "54",
          "55",
          "82",
          "83",
          "84",
          "85",
          "183",
          "184",
          "185",
          "223",
          "224",
          "225"
        ],
        "position": 1,
        "effect": "魔法攻击+408",
        "buff": "智力+15、灵巧+5\nSP恢复+45%\n治疗加成+20%\n精炼每+1，治疗加成+4%\n精炼+5时，治疗加成+10%；精炼+10时，生命上限+10%；精炼+13时，魔法攻击+5%、治疗加成+10%\n【生机之杖】+【天衣月舞Ⅳ】：治疗加成+5%，【天衣月舞Ⅳ】精炼+10以上时治疗加成提升至10%",
        "isCompose": 0,
        "isUpgrade": 0,
        "isHigh": 1,
        "canSlot": 0,
        "canUpgrade": 0
      },
      {
        "id": "40662",
        "name": "迷失之杖[1]",
        "icon": "item_40662",
        "rank": 4,
        "job": [
          "22",
          "23",
          "24",
          "25",
          "52",
          "53",
          "54",
          "55",
          "183",
          "184",
          "185",
          "223",
          "224",
          "225"
        ],
        "position": 1,
        "effect": "魔法攻击+408",
        "buff": "敏捷+10、智力+10\n装备攻速+15%\n魔法攻击+10%\n普攻时对目标及周围小范围内所有目标造成溅射伤害（仅魔法师系列有效）\n每精炼+1，闪避+3，装备攻速+2%，普攻攻击力+30",
        "isCompose": 0,
        "isUpgrade": 0,
        "isHigh": 1,
        "canSlot": 0,
        "canUpgrade": 0
      },
      {
        "id": "40661",
        "name": "无限[1]",
        "icon": "item_40661",
        "rank": 4,
        "job": [
          "21",
          "22",
          "23",
          "24",
          "25",
          "51",
          "52",
          "53",
          "54",
          "55",
          "143",
          "144",
          "145",
          "183",
          "184",
          "185",
          "223",
          "224",
          "225"
        ],
        "position": 1,
        "effect": "魔法攻击+408",
        "buff": "灵巧+10、智力+10\n风、火、水、地属性攻击+10%\n提升30%魔法范围型技能伤害\n精炼+8、+10、+15时伤害分别提升10%、10%、10%（范围型技能包括：【暴风雪】，【怒雷强击】，【火之猎杀】，【崩裂术】等）",
        "isCompose": 0,
        "isUpgrade": 0,
        "isHigh": 1,
        "canSlot": 0,
        "canUpgrade": 0
      },
      {
        "id": "40660",
        "name": "巫师之力[1]",
        "icon": "item_40660",
        "rank": 4,
        "job": [
          "21",
          "22",
          "23",
          "24",
          "25",
          "82",
          "83",
          "84",
          "85",
          "143",
          "144",
          "145",
          "151",
          "152",
          "153",
          "154",
          "155",
          "183",
          "184",
          "185",
          "223",
          "224",
          "225"
        ],
        "position": 1,
        "effect": "魔法攻击+408",
        "buff": "智力+18\n魔法攻击+15%\n精炼每+1，忽视魔法防御+2%\n精炼+5时，忽视魔法防御+5%；精炼+10时，魔法攻击+5%；精炼+10开始，每精炼+1，魔法伤害+1%（总计6%）\n【大巫师之杖Ⅷ】（【巫师之力】）+【创作者外袍Ⅷ】（【碎星者外袍】）+【永恒戒指Ⅷ】（【克拉肯之眼】）+【水晶靴Ⅳ】（【白宝石之靴】）：可变吟唱时间-5%，魔法伤害+3%，忽视魔法防御+3%",
        "isCompose": 0,
        "isUpgrade": 0,
        "isHigh": 1,
        "canSlot": 0,
        "canUpgrade": 0
      },
      {
        "id": "40652",
        "name": "法力风暴之杖[1]",
        "icon": "item_40652",
        "rank": 4,
        "job": [
          "24",
          "25",
          "184",
          "185",
          "224",
          "225"
        ],
        "position": 1,
        "effect": "魔法攻击+280",
        "buff": "智力+5\n灵巧+5\n魔法攻击+12%\n每次魔法技能攻击时有15%概率获得魔法伤害+10%效果，持续10秒\n【法力风暴之杖Ⅱ】+【法力风暴之靴】：魔法攻击+5%，法力风暴之杖精炼+10时，魔法攻击+10%",
        "isCompose": 0,
        "isUpgrade": 0,
        "isHigh": 0,
        "canSlot": 1,
        "canUpgrade": 1
      },
      {
        "id": "40649",
        "name": "金枝·神铸",
        "icon": "item_40649",
        "rank": 4,
        "job": [
          "22",
          "23",
          "24",
          "25",
          "52",
          "53",
          "54",
          "55",
          "143",
          "144",
          "145",
          "152",
          "153",
          "154",
          "155",
          "183",
          "184",
          "185",
          "223",
          "224",
          "225"
        ],
        "position": 14,
        "effect": "魔法攻击+700",
        "buff": "智力+18\n体质+12\n全能力+20\n治疗加成+15%\n所有技能SP消耗-10%\n魔法攻击+25%\n忽视魔法防御+35%\n人形种族伤害+50%\n生命上限+28000\n物伤减免+10%，魔伤减免+10%\n金枝中散发出天地树之力量，使16米范围内所有阵亡的友方目标全部复活，并恢复被复活目标100%MaxHp。该效果不受GVG中复活时间限制。CD：135秒",
        "isCompose": 1,
        "isUpgrade": 0,
        "isHigh": 0,
        "canSlot": 0,
        "canUpgrade": 0
      }
    ]
  }
}