{
  "code": 0,
  "status": "success",
  "timeStamp": 1644809338,
  "staticDomain": "http:\/\/rosc1.zhaiwuyu.com",
  "ip": "124.74.160.162",
  "language": "cn",
  "dbArea": 0,
  "data": {
    "page": 1,
    "pageSize": 10,
    "pageCount": 5,
    "total": 50,
    "list": [
      {
        "id": "64203",
        "name": "彼岸之钥[1]",
        "icon": "item_64203",
        "rank": 4,
        "job": [
          "183",
          "184",
          "185"
        ],
        "position": 1,
        "effect": "魔法攻击+405",
        "buff": "智力+10、体质+10\n生命上限+15%\n受到大型魔物伤害-10%\n每精炼+1，人形种族减伤+1%\n精炼+5时，受到小型魔物伤害-10%；精炼+10时，受到中型魔物伤害-10%；精炼+15时，受到大、中、小型魔物伤害-10%",
        "isCompose": 0,
        "isUpgrade": 0,
        "isHigh": 1,
        "canSlot": 0,
        "canUpgrade": 0
      },
      {
        "id": "64202",
        "name": "往生之刃[1]",
        "icon": "item_64202",
        "rank": 3,
        "job": [
          "183",
          "184",
          "185"
        ],
        "position": 1,
        "effect": "魔法攻击+105",
        "buff": "智力+4、体质+4\n生命上限+5%\n受到大型魔物伤害-5%\n每精炼+1，人形种族减伤+1%",
        "isCompose": 1,
        "isUpgrade": 0,
        "isHigh": 0,
        "canSlot": 1,
        "canUpgrade": 1
      },
      {
        "id": "64201",
        "name": "万灵渊噬[1]",
        "icon": "item_64201",
        "rank": 4,
        "job": [
          "183",
          "184",
          "185"
        ],
        "position": 1,
        "effect": "魔法攻击+420",
        "buff": "智力+10、幸运+10\n念属性攻击+15%\n每精炼+1，魔法攻击+2%\n对大型魔物伤害+15%\n精炼+5时，忽视魔法防御+5%；精炼+10时，忽视魔法防御+5%；精炼+15时，魔法伤害+8%",
        "isCompose": 0,
        "isUpgrade": 0,
        "isHigh": 1,
        "canSlot": 0,
        "canUpgrade": 0
      },
      {
        "id": "64200",
        "name": "暴噬之刃[1]",
        "icon": "item_64200",
        "rank": 3,
        "job": [
          "183",
          "184",
          "185"
        ],
        "position": 1,
        "effect": "魔法攻击+110",
        "buff": "智力+4、幸运+4\n念属性攻击+15%\n每精炼+1，魔法攻击+2%",
        "isCompose": 1,
        "isUpgrade": 0,
        "isHigh": 0,
        "canSlot": 1,
        "canUpgrade": 1
      },
      {
        "id": "44342",
        "name": "天后的恸哭·神铸",
        "icon": "item_44342",
        "rank": 4,
        "job": [
          "152",
          "153",
          "154",
          "155"
        ],
        "position": 14,
        "effect": "物理攻击+1050",
        "buff": "灵巧+20\n体质+10\n全能力+20\n生命上限+10%\n物理攻击+20%\n物理穿刺+20%\n人形种族伤害+50%\n生命上限+30000\n物伤减免+10%，魔伤减免+10%\n获得技能【大地之恸】：使施法者移速达到极速，并在自身脚下施展【地震】效果，有50%几率晕眩范围内的目标2秒，免疫晕眩的目标则会陷入恐惧状态。效果持续 6 秒，技能冷却时间 90 秒",
        "isCompose": 1,
        "isUpgrade": 0,
        "isHigh": 0,
        "canSlot": 0,
        "canUpgrade": 0
      },
      {
        "id": "44341",
        "name": "天后的恸哭·精锻",
        "icon": "item_44341",
        "rank": 4,
        "job": [
          "152",
          "153",
          "154",
          "155"
        ],
        "position": 14,
        "effect": "物理攻击+750",
        "buff": "灵巧+20\n体质+10\n全能力+14\n生命上限+10%\n物理攻击+16%\n物理穿刺+16%\n人形种族伤害+40%\n生命上限+22500\n物伤减免+5%，魔伤减免+5%\n获得技能【大地之恸】：使施法者移速达到极速，并在自身脚下施展【地震】效果，有50%几率晕眩范围内的目标2秒，免疫晕眩的目标则会陷入恐惧状态。效果持续 5 秒，技能冷却时间 120 秒",
        "isCompose": 1,
        "isUpgrade": 0,
        "isHigh": 0,
        "canSlot": 0,
        "canUpgrade": 0
      },
      {
        "id": "44340",
        "name": "天后的恸哭",
        "icon": "item_44340",
        "rank": 4,
        "job": [
          "152",
          "153",
          "154",
          "155"
        ],
        "position": 14,
        "effect": "物理攻击+450",
        "buff": "灵巧+20\n体质+10\n全能力+8\n生命上限+10%\n物理攻击+12%\n物理穿刺+12%\n人形种族伤害+30%\n生命上限+15000",
        "isCompose": 1,
        "isUpgrade": 0,
        "isHigh": 0,
        "canSlot": 0,
        "canUpgrade": 0
      },
      {
        "id": "40688",
        "name": "混沌之手[1]",
        "icon": "item_40688",
        "rank": 4,
        "job": [
          "223",
          "224",
          "225"
        ],
        "position": 1,
        "effect": "魔法攻击+418",
        "buff": "智力+18\n魔法攻击+10%\n每精炼+1，忽视魔法防御+2%\n提升15%魔语者系范围型技能伤害\n每精炼+1，提升1%魔语者系范围型技能伤害\n精炼+5时，忽视魔法防御+5%；精炼+10时，魔法伤害+5%；精炼+15时，魔法伤害+5%",
        "isCompose": 0,
        "isUpgrade": 0,
        "isHigh": 1,
        "canSlot": 0,
        "canUpgrade": 0
      },
      {
        "id": "40687",
        "name": "咒言护手[1]",
        "icon": "item_40687",
        "rank": 4,
        "job": [
          "223",
          "224",
          "225"
        ],
        "position": 1,
        "effect": "魔法攻击+110",
        "buff": "智力+4\n魔法攻击+10%\n每精炼+1，忽视魔法防御+2%\n提升10%魔语者系范围型技能伤害",
        "isCompose": 1,
        "isUpgrade": 0,
        "isHigh": 0,
        "canSlot": 1,
        "canUpgrade": 1
      },
      {
        "id": "40625",
        "name": "毁灭之杖[1]",
        "icon": "item_40625",
        "rank": 4,
        "job": [
          "1",
          "21",
          "22",
          "23",
          "24",
          "25",
          "51",
          "52",
          "53",
          "54",
          "55",
          "151",
          "152",
          "153",
          "154",
          "155",
          "183",
          "184",
          "185",
          "223",
          "224",
          "225"
        ],
        "position": 1,
        "effect": "魔法攻击+308",
        "buff": "智力+8\n可变吟唱-15%\n每精炼+1，魔法攻击+2%，使用技能Sp消耗量+1%\n精炼+10时，自身SP每减少10%，最终伤害+1%",
        "isCompose": 0,
        "isUpgrade": 0,
        "isHigh": 0,
        "canSlot": 1,
        "canUpgrade": 0
      }
    ],
    "partner": {
      "id": 30301,
      "pos": 6,
      "title": "交易所订阅",
      "tip": "",
      "pic": "\/\/rosc3.zhaiwuyu.com\/partner\/self\/find-exchange-202103.jpg",
      "link": "http:\/\/romel.wiki\/article\/exchange-remind"
    }
  }
}