{
  "code": 0,
  "status": "success",
  "timeStamp": 1644809358,
  "staticDomain": "http:\/\/rosc1.zhaiwuyu.com",
  "ip": "124.74.160.162",
  "language": "cn",
  "dbArea": 0,
  "data": {
    "page": 5,
    "pageSize": 10,
    "pageCount": 5,
    "total": 50,
    "list": [
      {
        "id": "40622",
        "name": "森林之杖[1]",
        "icon": "item_40622",
        "rank": 3,
        "job": [
          "22",
          "23",
          "24",
          "25",
          "52",
          "53",
          "54",
          "55",
          "223",
          "224",
          "225"
        ],
        "position": 1,
        "effect": "魔法攻击+210",
        "buff": "敏捷+5\n装备攻速+15%\n普攻时对目标及周围小范围内所有目标造成溅射伤害（仅魔法师系列有效）\n每精炼+1，闪避+3，装备攻速+1%",
        "isCompose": 1,
        "isUpgrade": 0,
        "isHigh": 0,
        "canSlot": 1,
        "canUpgrade": 0
      },
      {
        "id": "40621",
        "name": "高等生存魔杖[1]",
        "icon": "item_40621",
        "rank": 3,
        "job": [
          "22",
          "23",
          "24",
          "25",
          "52",
          "53",
          "54",
          "55",
          "82",
          "83",
          "84",
          "85",
          "152",
          "153",
          "154",
          "155",
          "183",
          "184",
          "185",
          "223",
          "224",
          "225"
        ],
        "position": 1,
        "effect": "魔法攻击+244",
        "buff": "灵巧+5\n智力+10\n生命上限+15%",
        "isCompose": 0,
        "isUpgrade": 1,
        "isHigh": 0,
        "canSlot": 1,
        "canUpgrade": 1
      },
      {
        "id": "40613",
        "name": "羽翼之杖[1]",
        "icon": "item_40613",
        "rank": 3,
        "job": [
          "22",
          "23",
          "24",
          "25",
          "82",
          "83",
          "84",
          "85",
          "183",
          "184",
          "185",
          "223",
          "224",
          "225"
        ],
        "position": 1,
        "effect": "魔法攻击+174",
        "buff": "智力+5\n使用单体锁定类魔法技能时有20%概率立即恢复5%HP和5%SP\n使用单体锁定类魔法技能击杀魔物时立即恢复自身5%HP和5%SP（该效果内置CD：10秒）",
        "isCompose": 0,
        "isUpgrade": 1,
        "isHigh": 0,
        "canSlot": 1,
        "canUpgrade": 0
      },
      {
        "id": "40633",
        "name": "元素融合之杖[1]",
        "icon": "item_40616",
        "rank": 3,
        "job": [
          "21",
          "22",
          "23",
          "24",
          "25",
          "51",
          "52",
          "53",
          "54",
          "55",
          "143",
          "144",
          "145",
          "183",
          "184",
          "185",
          "223",
          "224",
          "225"
        ],
        "position": 1,
        "effect": "魔法攻击+144",
        "buff": "灵巧+5\n提升20%魔法范围型技能伤害\n精炼+8、+10时伤害分别提升到30%、40%（范围型技能包括：【暴风雪】，【怒雷强击】，【火之猎杀】，【崩裂术】等）",
        "isCompose": 1,
        "isUpgrade": 0,
        "isHigh": 0,
        "canSlot": 1,
        "canUpgrade": 1
      },
      {
        "id": "40620",
        "name": "大巫师之杖[1]",
        "icon": "item_40620",
        "rank": 3,
        "job": [
          "21",
          "22",
          "23",
          "24",
          "25",
          "82",
          "83",
          "84",
          "85",
          "143",
          "144",
          "145",
          "151",
          "152",
          "153",
          "154",
          "155",
          "183",
          "184",
          "185",
          "223",
          "224",
          "225"
        ],
        "position": 1,
        "effect": "魔法攻击+97",
        "buff": "智力+3\n魔法攻击+10%\n精炼每+1，忽视魔法防御+2%\n【大巫师之杖Ⅷ】（【巫师之力】）+【创作者外袍Ⅷ】（【碎星者外袍】）+【永恒戒指Ⅷ】（【克拉肯之眼】）+【水晶靴Ⅳ】（【白宝石之靴】）：可变吟唱时间-5%，魔法伤害+3%，忽视魔法防御+3%",
        "isCompose": 0,
        "isUpgrade": 1,
        "isHigh": 0,
        "canSlot": 1,
        "canUpgrade": 1
      },
      {
        "id": "40615",
        "name": "许愿之杖[1]",
        "icon": "item_40615",
        "rank": 3,
        "job": [
          "21",
          "22",
          "23",
          "24",
          "25",
          "82",
          "83",
          "84",
          "85",
          "183",
          "184",
          "185",
          "223",
          "224",
          "225"
        ],
        "position": 1,
        "effect": "魔法攻击+75",
        "buff": "智力+2\n使用单体锁定类魔法技能时有10%概率立即恢复5%HP和5%SP",
        "isCompose": 1,
        "isUpgrade": 0,
        "isHigh": 0,
        "canSlot": 1,
        "canUpgrade": 1
      },
      {
        "id": "40611",
        "name": "洞察之杖[1]",
        "icon": "item_40611",
        "rank": 2,
        "job": [
          "21",
          "22",
          "23",
          "24",
          "25",
          "51",
          "52",
          "53",
          "54",
          "55",
          "82",
          "83",
          "84",
          "85",
          "143",
          "144",
          "145",
          "151",
          "152",
          "153",
          "154",
          "155",
          "183",
          "184",
          "185",
          "223",
          "224",
          "225"
        ],
        "position": 1,
        "effect": "魔法攻击+43",
        "buff": "智力+2\n魔法攻击+5%",
        "isCompose": 1,
        "isUpgrade": 0,
        "isHigh": 0,
        "canSlot": 1,
        "canUpgrade": 1
      },
      {
        "id": "40610",
        "name": "巫杖魂咬[1]",
        "icon": "item_40610",
        "rank": 4,
        "job": [
          "21",
          "22",
          "23",
          "24",
          "25",
          "51",
          "52",
          "53",
          "54",
          "55",
          "82",
          "83",
          "84",
          "85",
          "183",
          "184",
          "185",
          "223",
          "224",
          "225"
        ],
        "position": 1,
        "effect": "魔法攻击+87",
        "buff": "灵巧+5\n可变吟唱时间-20%",
        "isCompose": 0,
        "isUpgrade": 0,
        "isHigh": 0,
        "canSlot": 1,
        "canUpgrade": 1
      },
      {
        "id": "40607",
        "name": "绅士的手杖[1]",
        "icon": "item_40607",
        "rank": 3,
        "job": [
          "22",
          "23",
          "24",
          "25",
          "52",
          "53",
          "54",
          "55",
          "82",
          "83",
          "84",
          "85",
          "183",
          "184",
          "185",
          "223",
          "224",
          "225"
        ],
        "position": 1,
        "effect": "魔法攻击+108",
        "buff": "灵巧+3\n智力+3\n体质+3",
        "isCompose": 0,
        "isUpgrade": 0,
        "isHigh": 0,
        "canSlot": 1,
        "canUpgrade": 1
      },
      {
        "id": "40606",
        "name": "生存的魔杖[1]",
        "icon": "item_40606",
        "rank": 2,
        "job": [
          "21",
          "22",
          "23",
          "24",
          "25",
          "51",
          "52",
          "53",
          "54",
          "55",
          "82",
          "83",
          "84",
          "85",
          "151",
          "152",
          "153",
          "154",
          "155",
          "183",
          "184",
          "185",
          "223",
          "224",
          "225"
        ],
        "position": 1,
        "effect": "魔法攻击+64",
        "buff": "灵巧+3\n生命上限+200",
        "isCompose": 1,
        "isUpgrade": 0,
        "isHigh": 0,
        "canSlot": 1,
        "canUpgrade": 1
      }
    ]
  }
}