{
  "code": 0,
  "status": "success",
  "timeStamp": 1644809343,
  "staticDomain": "http:\/\/rosc1.zhaiwuyu.com",
  "ip": "124.74.160.162",
  "language": "cn",
  "dbArea": 0,
  "data": {
    "page": 2,
    "pageSize": 10,
    "pageCount": 5,
    "total": 50,
    "list": [
      {
        "id": "40682",
        "name": "邪念的权杖[1]",
        "icon": "item_40682",
        "rank": 4,
        "job": [
          "1",
          "21",
          "22",
          "23",
          "24",
          "25",
          "51",
          "52",
          "53",
          "54",
          "55",
          "82",
          "83",
          "84",
          "85",
          "143",
          "144",
          "145",
          "151",
          "152",
          "153",
          "154",
          "155",
          "183",
          "184",
          "185",
          "223",
          "224",
          "225"
        ],
        "position": 1,
        "effect": "魔法攻击+308",
        "buff": "智力+4、灵巧+4\n保护武器不会被破坏\n每精炼+1，魔法穿刺+1%；精炼+15时，魔法穿刺+5%",
        "isCompose": 0,
        "isUpgrade": 0,
        "isHigh": 0,
        "canSlot": 1,
        "canUpgrade": 0
      },
      {
        "id": "40679",
        "name": "波尔多之杖[1]",
        "icon": "item_40679",
        "rank": 4,
        "job": [
          "22",
          "23",
          "24",
          "25",
          "82",
          "83",
          "84",
          "85",
          "143",
          "144",
          "145",
          "151",
          "152",
          "153",
          "154",
          "155",
          "183",
          "184",
          "185",
          "223",
          "224",
          "225"
        ],
        "position": 1,
        "effect": "魔法攻击+308",
        "buff": "智力+4、灵巧+4\n使用技能Sp消耗量-5%\n每精炼+1，使用技能Sp消耗量-1%\n精炼+5时，全种族伤害+5%；精炼+10时，全种族伤害+5%；精炼+15时，全种族伤害+10%",
        "isCompose": 0,
        "isUpgrade": 0,
        "isHigh": 0,
        "canSlot": 1,
        "canUpgrade": 0
      },
      {
        "id": "44310",
        "name": "精工粉色狐尾草[1]",
        "icon": "item_44310",
        "rank": 4,
        "job": [
          "151",
          "152",
          "153",
          "154",
          "155"
        ],
        "position": 1,
        "effect": "物理攻击+640",
        "buff": "灵巧+18\n生命上限+10%\n每精炼+1，【疯兔胡萝卜重击】伤害+2%\n每精炼+1，【野猪之魂】伤害+2%\n精炼+5时，物理攻击+5%\n精炼+10时，物理攻击+5%、生命上限+5%\n精炼+15时，物理伤害+5%",
        "isCompose": 0,
        "isUpgrade": 0,
        "isHigh": 1,
        "canSlot": 0,
        "canUpgrade": 0
      },
      {
        "id": "44309",
        "name": "魔力黄色狐尾草[1]",
        "icon": "item_44309",
        "rank": 4,
        "job": [
          "151",
          "152",
          "153",
          "154",
          "155"
        ],
        "position": 1,
        "effect": "魔法攻击+408",
        "buff": "智力+18\n地属性攻击+10%\n无属性攻击+10%\n每精炼+1，【猫薄荷陨石】伤害+2%\n精炼+5时，可变吟唱时间-10%、忽视魔法防御+5%；精炼+10时，魔法攻击+5%；精炼+12时，魔法伤害+3%；精炼+15时，魔法伤害+3%",
        "isCompose": 0,
        "isUpgrade": 0,
        "isHigh": 1,
        "canSlot": 0,
        "canUpgrade": 0
      },
      {
        "id": "44308",
        "name": "巨大狐尾草[1]",
        "icon": "item_44308",
        "rank": 4,
        "job": [
          "151",
          "152",
          "153",
          "154",
          "155"
        ],
        "position": 1,
        "effect": "魔法攻击+408",
        "buff": "智力+10、体质+10\n生命上限+1000、魔法上限+200\n魔法攻击+5%\n治疗加成+10%\n每精炼+1，【活虾】效果+2%\n精炼+5%，治疗加成+5%；精炼+10时，【鲔鱼派对】效果+10%、治疗加成+5%；精炼+15时，治疗加成+10%，生命上限+5%",
        "isCompose": 0,
        "isUpgrade": 0,
        "isHigh": 1,
        "canSlot": 0,
        "canUpgrade": 0
      },
      {
        "id": "44305",
        "name": "茂盛狐尾草[1]",
        "icon": "item_44305",
        "rank": 4,
        "job": [
          "151",
          "152",
          "153",
          "154",
          "155"
        ],
        "position": 1,
        "effect": "魔法攻击+108",
        "buff": "智力+4\n生命上限+200\n魔法上限+100\n治疗加成+5%",
        "isCompose": 0,
        "isUpgrade": 0,
        "isHigh": 0,
        "canSlot": 1,
        "canUpgrade": 1
      },
      {
        "id": "44303",
        "name": "魔力狐尾草[1]",
        "icon": "item_44303",
        "rank": 3,
        "job": [
          "151",
          "152",
          "153",
          "154",
          "155"
        ],
        "position": 1,
        "effect": "魔法攻击+97",
        "buff": "智力+3\n无属性攻击+10%\n每精炼+1，【猫薄荷陨石】伤害+2%",
        "isCompose": 0,
        "isUpgrade": 1,
        "isHigh": 0,
        "canSlot": 1,
        "canUpgrade": 1
      },
      {
        "id": "44302",
        "name": "精工狐尾草[1]",
        "icon": "item_44302",
        "rank": 3,
        "job": [
          "151",
          "152",
          "153",
          "154",
          "155"
        ],
        "position": 1,
        "effect": "物理攻击+180",
        "buff": "灵巧+4\n生命上限+5%\n每精炼+1，【疯兔胡萝卜重击】伤害+2%",
        "isCompose": 0,
        "isUpgrade": 1,
        "isHigh": 0,
        "canSlot": 1,
        "canUpgrade": 1
      },
      {
        "id": "44301",
        "name": "奇妙狐尾草[1]",
        "icon": "item_44301",
        "rank": 2,
        "job": [
          "151",
          "152",
          "153",
          "154",
          "155"
        ],
        "position": 1,
        "effect": "物理攻击+87",
        "buff": "灵巧+2\n生命上限+5%",
        "isCompose": 1,
        "isUpgrade": 0,
        "isHigh": 0,
        "canSlot": 1,
        "canUpgrade": 1
      },
      {
        "id": "44300",
        "name": "精美狐尾草[1]",
        "icon": "item_44300",
        "rank": 2,
        "job": [
          "151",
          "152",
          "153",
          "154",
          "155"
        ],
        "position": 1,
        "effect": "魔法攻击+43",
        "buff": "智力+2\n无属性攻击+5%",
        "isCompose": 1,
        "isUpgrade": 0,
        "isHigh": 0,
        "canSlot": 1,
        "canUpgrade": 1
      }
    ]
  }
}