{
  "code": 0,
  "status": "success",
  "timeStamp": 1644809388,
  "staticDomain": "http:\/\/rosc1.zhaiwuyu.com",
  "ip": "124.74.160.162",
  "language": "cn",
  "dbArea": 0,
  "data": {
    "page": 2,
    "pageSize": 10,
    "pageCount": 2,
    "total": 15,
    "list": [
      {
        "id": "41544",
        "name": "羽翼权杖[1]",
        "icon": "item_41544",
        "rank": 3,
        "job": [
          "132",
          "133",
          "134",
          "135"
        ],
        "position": 1,
        "effect": "物理攻击+438",
        "buff": "智力+6\n“巴尼米乐斯”的【善变】技能倍率+75%\n每精炼+1，“巴尼米乐斯”的【善变】技能倍率+35%",
        "isCompose": 0,
        "isUpgrade": 1,
        "isHigh": 0,
        "canSlot": 1,
        "canUpgrade": 1
      },
      {
        "id": "41543",
        "name": "羽毛权杖[1]",
        "icon": "item_41543",
        "rank": 3,
        "job": [
          "132",
          "133",
          "134",
          "135"
        ],
        "position": 1,
        "effect": "物理攻击+218",
        "buff": "智力+2\n“巴尼米乐斯”的【善变】技能倍率+75%\n每精炼+1，“巴尼米乐斯”的【善变】技能倍率+35%",
        "isCompose": 1,
        "isUpgrade": 0,
        "isHigh": 0,
        "canSlot": 1,
        "canUpgrade": 1
      },
      {
        "id": "41509",
        "name": "魔锤安魂曲[1]",
        "icon": "item_41509",
        "rank": 4,
        "job": [
          "51",
          "52",
          "53",
          "54",
          "55",
          "61",
          "62",
          "63",
          "64",
          "65",
          "122",
          "123",
          "124",
          "125",
          "132",
          "133",
          "134",
          "135",
          "213",
          "214",
          "215"
        ],
        "position": 1,
        "effect": "物理攻击+198",
        "buff": "暴击+20\n装备者物理防御下降1\/3\n每精炼+1，普通攻击伤害提高3%\n【魔锤安魂曲V】+【圣者法袍IV】：装备攻速+5%，物理攻击+5%\n【魔锤安魂曲V】+【星河之法袍】：装备攻速+5%，物理攻击+5%",
        "isCompose": 0,
        "isUpgrade": 0,
        "isHigh": 0,
        "canSlot": 1,
        "canUpgrade": 1
      },
      {
        "id": "41507",
        "name": "庄严十字[1]",
        "icon": "item_41507",
        "rank": 3,
        "job": [
          "52",
          "53",
          "54",
          "55",
          "62",
          "63",
          "64",
          "65",
          "122",
          "123",
          "124",
          "125",
          "132",
          "133",
          "134",
          "135",
          "213",
          "214",
          "215"
        ],
        "position": 1,
        "effect": "物理攻击+162",
        "buff": "敏捷+3\n装备攻速+10%\n不死种族加伤+20%\n对暗属性魔物伤害+20%\n普攻时有5%概率在10秒内物理攻击+50\n精练达到10以上时物理攻击+50",
        "isCompose": 0,
        "isUpgrade": 1,
        "isHigh": 0,
        "canSlot": 1,
        "canUpgrade": 1
      },
      {
        "id": "41504",
        "name": "尖刃铁锤[1]",
        "icon": "item_41504",
        "rank": 2,
        "job": [
          "51",
          "52",
          "53",
          "54",
          "55",
          "61",
          "62",
          "63",
          "64",
          "65",
          "122",
          "123",
          "124",
          "125",
          "132",
          "133",
          "134",
          "135",
          "213",
          "214",
          "215"
        ],
        "position": 1,
        "effect": "物理攻击+90",
        "buff": "装备攻速+5%\n不死种族加伤+10%\n对暗属性魔物伤害+10%",
        "isCompose": 1,
        "isUpgrade": 0,
        "isHigh": 0,
        "canSlot": 1,
        "canUpgrade": 1
      }
    ]
  }
}