{
  "code": 0,
  "status": "success",
  "timeStamp": 1644809383,
  "staticDomain": "http:\/\/rosc1.zhaiwuyu.com",
  "ip": "124.74.160.162",
  "language": "cn",
  "dbArea": 0,
  "data": {
    "page": 1,
    "pageSize": 10,
    "pageCount": 2,
    "total": 15,
    "list": [
      {
        "id": "41582",
        "name": "忽克连的精炼之锤[1]",
        "icon": "item_41582",
        "rank": 4,
        "job": [
          "51",
          "52",
          "53",
          "54",
          "55",
          "61",
          "62",
          "63",
          "64",
          "65",
          "132",
          "133",
          "134",
          "135",
          "213",
          "214",
          "215"
        ],
        "position": 1,
        "effect": "物理攻击+480",
        "buff": "力量+8\n技能攻击玩家时，有10%概率破坏玩家的武器和铠甲\n精炼+5时，技能造成玩家武器破坏时有10%概率破坏目标副手，技能造成玩家铠甲破坏时有10%概率破坏目标头盔；\n精炼+10时，施法者造成的武器破坏、副手破坏、铠甲破坏、头盔破坏触发概率提升5%，且受到灵巧和幸运的影响（最多额外提升10%）；\n精炼+15时，保护全身装备不会被破坏",
        "isCompose": 0,
        "isUpgrade": 0,
        "isHigh": 0,
        "canSlot": 1,
        "canUpgrade": 0
      },
      {
        "id": "41567",
        "name": "酸蚀之触[1]",
        "icon": "item_41567",
        "rank": 4,
        "job": [
          "132",
          "133",
          "134",
          "135"
        ],
        "position": 1,
        "effect": "物理攻击+645",
        "buff": "力量+10、智力+8\n生命上限+1000\n使炼金使用【强酸攻击】【火烟瓶投掷】【强酸火烟瓶投掷】导致的装备部位破坏基础率上升\n精炼每+1【火烟瓶投掷】的伤害+5%，【强酸攻击】的伤害+2%，【强酸火烟瓶投掷】的技能倍率+30%\n当智力、力量都达到119以上时，【火烟瓶投掷】伤害+10%，【强酸攻击】伤害+5%，【强酸火烟瓶投掷】技能倍率+75%\n精炼+5时，物理攻击+5%；精炼+10时，忽视物理防御+10%；精炼+15时，物理伤害+5%",
        "isCompose": 0,
        "isUpgrade": 0,
        "isHigh": 1,
        "canSlot": 0,
        "canUpgrade": 0
      },
      {
        "id": "41566",
        "name": "神怒之日[1]",
        "icon": "item_41566",
        "rank": 4,
        "job": [
          "51",
          "52",
          "53",
          "54",
          "55",
          "61",
          "62",
          "63",
          "64",
          "65",
          "122",
          "123",
          "124",
          "125",
          "132",
          "133",
          "134",
          "135",
          "213",
          "214",
          "215"
        ],
        "position": 1,
        "effect": "物理攻击+650",
        "buff": "力量+4、敏捷+4\n暴击+30\n装备攻速+10%\n暴击伤害+5%\n装备者物理防御下降1\/3；精炼+10时，装备者物理防御不再下降\n普通攻击伤害提高5%\n每精炼+1，普通攻击伤害提高3%\n精炼+5时，暴击伤害+5%；精炼+10时，暴击伤害+10%；精炼+15时，暴击伤害+15%\n【神怒之日】+【圣者法袍IV】：装备攻速+5%，物理攻击+5%",
        "isCompose": 0,
        "isUpgrade": 0,
        "isHigh": 1,
        "canSlot": 0,
        "canUpgrade": 0
      },
      {
        "id": "41565",
        "name": "裁决之锤[1]",
        "icon": "item_41565",
        "rank": 4,
        "job": [
          "54",
          "55"
        ],
        "position": 1,
        "effect": "魔法攻击+630",
        "buff": "智力+12、灵巧+8\n精炼+5以后，再每精炼+1，【赞歌】的技能倍率+20%（总计200%）\n对于30%血量以下的目标造成的伤害+15%\n精炼+5时，魔法攻击+5%；精炼+10时，使用【赞歌】技能后有15%概率获得魔法攻击+10%效果，持续10秒；精炼+15时，魔法伤害+5%",
        "isCompose": 0,
        "isUpgrade": 0,
        "isHigh": 1,
        "canSlot": 0,
        "canUpgrade": 0
      },
      {
        "id": "41556",
        "name": "工程扳手[1]",
        "icon": "item_41556",
        "rank": 4,
        "job": [
          "64",
          "65",
          "214",
          "215"
        ],
        "position": 1,
        "effect": "物理攻击+475",
        "buff": "力量+5\n生命上限+1000\n每精炼+1，【自爆】伤害+2%",
        "isCompose": 1,
        "isUpgrade": 0,
        "isHigh": 0,
        "canSlot": 1,
        "canUpgrade": 0
      },
      {
        "id": "41526",
        "name": "审判之锤[1]",
        "icon": "item_41526",
        "rank": 4,
        "job": [
          "54",
          "55"
        ],
        "position": 1,
        "effect": "魔法攻击+438",
        "buff": "智力+6\n灵巧+6\n精炼+5以后，再每精炼+1，【赞歌】的技能倍率+20%（总计200%）",
        "isCompose": 0,
        "isUpgrade": 0,
        "isHigh": 0,
        "canSlot": 1,
        "canUpgrade": 1
      },
      {
        "id": "41553",
        "name": "雷神之锤·神铸",
        "icon": "item_41553",
        "rank": 4,
        "job": [
          "12",
          "13",
          "14",
          "15",
          "52",
          "53",
          "54",
          "55",
          "62",
          "63",
          "64",
          "65",
          "122",
          "123",
          "124",
          "125",
          "132",
          "133",
          "134",
          "135",
          "203",
          "204",
          "205",
          "213",
          "214",
          "215"
        ],
        "position": 14,
        "effect": "魔法攻击+1000\n物理攻击+1000",
        "buff": "力量+10\n智力+10\n体质+10\n全能力+20\n命中+50\n物理穿刺+30%\n人形种族伤害+50%\n生命上限+31500\n物伤减免+10%，魔伤减免+10%\n雷神之锤充满了雷神的雷电力量，在每次普通攻击敌人时都将施放【雷神之怒】。【雷神之怒】：对目标造成额外（自身物理攻击+魔法攻击）*100%的真实伤害，并对目标周围5米范围内最多5名敌对目标造成自身攻击100%的伤害。每个被【雷神之怒】及溅射伤害影响的目标都有20%的概率减速30%，持续2秒",
        "isCompose": 1,
        "isUpgrade": 0,
        "isHigh": 0,
        "canSlot": 0,
        "canUpgrade": 0
      },
      {
        "id": "41552",
        "name": "雷神之锤·精锻",
        "icon": "item_41552",
        "rank": 4,
        "job": [
          "12",
          "13",
          "14",
          "15",
          "52",
          "53",
          "54",
          "55",
          "62",
          "63",
          "64",
          "65",
          "122",
          "123",
          "124",
          "125",
          "132",
          "133",
          "134",
          "135",
          "203",
          "204",
          "205",
          "213",
          "214",
          "215"
        ],
        "position": 14,
        "effect": "魔法攻击+750\n物理攻击+750",
        "buff": "力量+10\n智力+10\n体质+10\n全能力+14\n命中+50\n物理穿刺+25%\n人形种族伤害+40%\n生命上限+23000\n物伤减免+5%，魔伤减免+5%\n雷神之锤充满了雷神的雷电力量，在每次普通攻击敌人时都将施放【雷神之怒】。【雷神之怒】：对目标造成额外（自身物理攻击+魔法攻击）*50%的真实伤害，并对目标周围5米范围内最多5名敌对目标造成自身攻击50%的伤害。每个被【雷神之怒】及溅射伤害影响的目标都有20%的概率减速30%，持续2秒。",
        "isCompose": 1,
        "isUpgrade": 0,
        "isHigh": 0,
        "canSlot": 0,
        "canUpgrade": 0
      },
      {
        "id": "41551",
        "name": "雷神之锤",
        "icon": "item_41551",
        "rank": 4,
        "job": [
          "12",
          "13",
          "14",
          "15",
          "52",
          "53",
          "54",
          "55",
          "62",
          "63",
          "64",
          "65",
          "122",
          "123",
          "124",
          "125",
          "132",
          "133",
          "134",
          "135",
          "203",
          "204",
          "205",
          "213",
          "214",
          "215"
        ],
        "position": 14,
        "effect": "魔法攻击+500\n物理攻击+500",
        "buff": "力量+10\n智力+10\n体质+10\n全能力+8\n命中+50\n物理穿刺+20%\n人形种族伤害+30%\n生命上限+14500",
        "isCompose": 1,
        "isUpgrade": 0,
        "isHigh": 0,
        "canSlot": 0,
        "canUpgrade": 0
      },
      {
        "id": "41545",
        "name": "艾尔德之锤[1]",
        "icon": "item_41545",
        "rank": 4,
        "job": [
          "132",
          "133",
          "134",
          "135"
        ],
        "position": 1,
        "effect": "物理攻击+340",
        "buff": "力量+4\n使炼金使用【强酸攻击】【火烟瓶投掷】【强酸火烟瓶投掷】导致的装备部位破坏基础率上升\n精炼每+1【火烟瓶投掷】的伤害+5%，【强酸攻击】的伤害+2%，【强酸火烟瓶投掷】的技能倍率+30%",
        "isCompose": 0,
        "isUpgrade": 0,
        "isHigh": 0,
        "canSlot": 1,
        "canUpgrade": 1
      }
    ],
    "partner": {
      "id": 30301,
      "pos": 6,
      "title": "交易所订阅",
      "tip": "",
      "pic": "\/\/rosc3.zhaiwuyu.com\/partner\/self\/find-exchange-202103.jpg",
      "link": "http:\/\/romel.wiki\/article\/exchange-remind"
    }
  }
}