{
  "code": 0,
  "status": "success",
  "timeStamp": 1644809443,
  "staticDomain": "http:\/\/rosc1.zhaiwuyu.com",
  "ip": "124.74.160.162",
  "language": "cn",
  "dbArea": 0,
  "data": {
    "page": 1,
    "pageSize": 10,
    "pageCount": 2,
    "total": 17,
    "list": [
      {
        "id": "62511",
        "name": "卡仑的指甲[1]",
        "icon": "item_62511",
        "rank": 4,
        "job": [
          "122",
          "123",
          "124",
          "125"
        ],
        "position": 1,
        "effect": "物理攻击+480",
        "buff": "力量+8\n物理攻击+5%\n攻击目标时，有10%概率使目标陷入流血状态，持续10秒\n对30%血量以下目标造成伤害+50%",
        "isCompose": 0,
        "isUpgrade": 0,
        "isHigh": 0,
        "canSlot": 1,
        "canUpgrade": 0
      },
      {
        "id": "62551",
        "name": "塔卡罗[1]",
        "icon": "item_62551",
        "rank": 4,
        "job": [
          "122",
          "123",
          "124",
          "125"
        ],
        "position": 1,
        "effect": "物理攻击+650",
        "buff": "力量+18\n精炼+5、+10、+15时，物理攻击+5%、+10%、+15%\n普通攻击力提高150点\n每精炼+1，普通攻击力提高60点\n【双龙摆尾】的SP消耗-10%；【大锤崩坠】的SP消耗-10%；【六合拳】伤害提升10%；每精炼+1，【六合拳】伤害+2%\n普通攻击时有5%概率使物理伤害+5%，持续10秒，最多可叠加3层\n普通攻击时有30%的概率获得一颗气弹，每颗气弹，可使携带者触发【六合拳】的概率提升1%\n击杀目标时，移动速度+15%，持续5秒\n【塔卡罗】（【升龙拳套IV】）+【华贵腕甲IV】（【金腕】）：每次普通攻击获得气弹的概率提升至60%",
        "isCompose": 0,
        "isUpgrade": 0,
        "isHigh": 1,
        "canSlot": 0,
        "canUpgrade": 0
      },
      {
        "id": "62542",
        "name": "泰坦[1]",
        "icon": "item_62542",
        "rank": 4,
        "job": [
          "122",
          "123",
          "124",
          "125"
        ],
        "position": 1,
        "effect": "物理攻击+650",
        "buff": "力量+20\n对大型魔物伤害+30%\n对中型魔物伤害+15%\n精炼每+1对大型魔物伤害+2%\n精炼+5时，物理攻击+60、物理攻击+2%；精炼+10时，魔法上限+400、对大型魔物伤害+10%；精炼+15时，物理攻击+8%，物理伤害+5%",
        "isCompose": 0,
        "isUpgrade": 0,
        "isHigh": 1,
        "canSlot": 0,
        "canUpgrade": 0
      },
      {
        "id": "62541",
        "name": "苍天霸皇[1]",
        "icon": "item_62541",
        "rank": 4,
        "job": [
          "124",
          "125"
        ],
        "position": 1,
        "effect": "物理攻击+650",
        "buff": "力量+10、智力+10\n所有技能SP消耗-10%\n使【罗刹破凰拳】倍率+100%\n每精炼+1，使【罗刹破凰拳】伤害+1%\n精炼+5，+10，+15时，使【罗刹破凰拳】在【大锤崩坠】后使用伤害+5%，+5%，+10%\n每精炼+1，【气弹爆破】技能的伤害+2%\n精炼+5时，魔法上限+10%；精炼+10时，物理伤害+5%；精炼+15时，对中型魔物的伤害+15%\n【苍天霸皇】+【坚定战袍Ⅹ】+【坚定指环Ⅳ】（或【赤心权戒】）：使【罗刹破凰拳】伤害+5%\n【苍天霸皇】+【天选者战袍】+【坚定指环Ⅳ】：使【罗刹破凰拳】伤害+5%",
        "isCompose": 0,
        "isUpgrade": 0,
        "isHigh": 1,
        "canSlot": 0,
        "canUpgrade": 0
      },
      {
        "id": "62540",
        "name": "格里芬之爪[1]",
        "icon": "item_62540",
        "rank": 4,
        "job": [
          "122",
          "123",
          "124",
          "125"
        ],
        "position": 1,
        "effect": "物理攻击+650",
        "buff": "智力+10、力量+10\n魔法上限+200\n可变吟唱时间-10%\n魔法上限+5%\n物理伤害+5%\n精炼等级+5、+10、+15时，魔法上限+6%、+9%、+12%\n使【阿修罗霸凰拳】公式中【技能等级*4+剩余SP\/100】部分的伤害倍率增加5\n对大型魔物的伤害+15%\n【阿修罗霸凰拳】有10%概率不消耗Sp\n精炼每+1，【阿修罗霸凰拳】额外有2%概率不消耗Sp",
        "isCompose": 0,
        "isUpgrade": 0,
        "isHigh": 1,
        "canSlot": 0,
        "canUpgrade": 0
      },
      {
        "id": "62515",
        "name": "霸王乱舞[1]",
        "icon": "item_62515",
        "rank": 4,
        "job": [
          "124",
          "125"
        ],
        "position": 1,
        "effect": "物理攻击+470",
        "buff": "力量+6\n智力+6\n使【罗刹破凰拳】倍率+100%\n每精炼+1，使【罗刹破凰拳】伤害+1%\n精炼+5，+10，+15时，使【罗刹破凰拳】在【大锤崩坠】后使用伤害+5%，+5%，+10%\n【霸王乱舞】+【坚定战袍Ⅹ】+【坚定指环Ⅳ】（或【赤心权戒】）：使【罗刹破凰拳】伤害+5%\n【霸王乱舞】+【天选者战袍】+【坚定指环Ⅳ】：使【罗刹破凰拳】伤害+5%",
        "isCompose": 0,
        "isUpgrade": 0,
        "isHigh": 0,
        "canSlot": 1,
        "canUpgrade": 1
      },
      {
        "id": "62530",
        "name": "湮灭者·神铸",
        "icon": "item_62530",
        "rank": 4,
        "job": [
          "122",
          "123",
          "124",
          "125"
        ],
        "position": 14,
        "effect": "物理攻击+1080",
        "buff": "力量+20\n灵巧+10\n全能力+20\n魔法上限+500\n物理穿刺+30%\n忽视物理防御+45%\n人形种族伤害+50%\n生命上限+35000\n物伤减免+10%，魔伤减免+10%\n湮灭者了解世间万物生存法则，能更好的保护使用者。湮灭者施放力量使使用者及8米范围内的同队队友获得【生存即湮灭】效果。【生存即湮灭】：免疫一切伤害和控制效果，持续5秒，CD：180秒",
        "isCompose": 1,
        "isUpgrade": 0,
        "isHigh": 0,
        "canSlot": 0,
        "canUpgrade": 0
      },
      {
        "id": "62529",
        "name": "湮灭者·精锻",
        "icon": "item_62529",
        "rank": 4,
        "job": [
          "122",
          "123",
          "124",
          "125"
        ],
        "position": 14,
        "effect": "物理攻击+780",
        "buff": "力量+20\n灵巧+10\n全能力+14\n魔法上限+500\n物理穿刺+25%\n忽视物理防御+35%\n人形种族伤害+40%\n生命上限+26500\n物伤减免+5%，魔伤减免+5%\n湮灭者了解世间万物生存法则，能更好的保护使用者。湮灭者施放力量使使用者及8米范围内的同队队友获得【生存即湮灭】效果。【生存即湮灭】：免疫一切伤害和控制效果，持续3秒，CD：300秒",
        "isCompose": 1,
        "isUpgrade": 0,
        "isHigh": 0,
        "canSlot": 0,
        "canUpgrade": 0
      },
      {
        "id": "62528",
        "name": "湮灭者",
        "icon": "item_62528",
        "rank": 4,
        "job": [
          "122",
          "123",
          "124",
          "125"
        ],
        "position": 14,
        "effect": "物理攻击+480",
        "buff": "力量+20\n灵巧+10\n全能力+8\n魔法上限+500\n物理穿刺+20%\n忽视物理防御+25%\n人形种族伤害+30%\n生命上限+18000",
        "isCompose": 1,
        "isUpgrade": 0,
        "isHigh": 0,
        "canSlot": 0,
        "canUpgrade": 0
      },
      {
        "id": "62510",
        "name": "秘拳套 闪光[1]",
        "icon": "item_62510",
        "rank": 3,
        "job": [
          "122",
          "123",
          "124",
          "125"
        ],
        "position": 1,
        "effect": "物理攻击+266",
        "buff": "普通攻击时有5%概率使攻速提升5%持续5秒，最多可叠加3层\n【六合拳】伤害提升15%",
        "isCompose": 1,
        "isUpgrade": 0,
        "isHigh": 0,
        "canSlot": 1,
        "canUpgrade": 1
      }
    ],
    "partner": {
      "id": 30301,
      "pos": 6,
      "title": "交易所订阅",
      "tip": "",
      "pic": "\/\/rosc3.zhaiwuyu.com\/partner\/self\/find-exchange-202103.jpg",
      "link": "http:\/\/romel.wiki\/article\/exchange-remind"
    }
  }
}