{
  "code": 0,
  "status": "success",
  "timeStamp": 1642844166,
  "staticDomain": "http:\/\/rosc1.zhaiwuyu.com",
  "ip": "101.87.200.160",
  "language": "cn",
  "dbArea": 0,
  "data": {
    "page": 6,
    "pageSize": 30,
    "pageCount": 6,
    "total": 172,
    "list": [
      {
        "id": "500270",
        "name": "毒魔菇",
        "avatar": "PoisenSpore",
        "intro": "",
        "race": 2,
        "nature": 9,
        "size": 2,
        "star": 1,
        "accessway": 1,
        "hobby": [
          {
            "id": "900022",
            "name": "青嫩毒草",
            "icon": "item_900022"
          }
        ],
        "equip": null,
        "skill": [
          {
            "name": "毒属性攻击",
            "intro": "对敌方单体造成物理攻击*<em>400%<\/em>的毒属性物理伤害",
            "lv": 10
          },
          {
            "name": "柔韧",
            "intro": "增加宠物和主人<em>5%<\/em>魔法防御",
            "lv": 10
          },
          {
            "name": "剧毒之体",
            "intro": "增加宠物和主人<em>10%<\/em>毒属性伤害减免",
            "lv": 10
          },
          {
            "name": "环保",
            "intro": "冒险时获得普通素材数量增加<em>11<\/em>个",
            "lv": 10
          },
          {
            "name": "打工·宠物协会Ⅰ",
            "intro": "增加宠物在宠物协会<em>10%<\/em>的打工效率",
            "lv": 10
          }
        ],
        "cost": null,
        "adventureBuff": "物理防御+1"
      },
      {
        "id": "500260",
        "name": "蝗虫",
        "avatar": "Rocker",
        "intro": "",
        "race": 4,
        "nature": 1,
        "size": 2,
        "star": 1,
        "accessway": 1,
        "hobby": [
          {
            "id": "900021",
            "name": "呢喃花",
            "icon": "item_900021"
          }
        ],
        "equip": null,
        "skill": [
          {
            "name": "地属性攻击",
            "intro": "对敌方单体造成物理攻击*<em>400%<\/em>的地属性物理伤害",
            "lv": 10
          },
          {
            "name": "闪避UP",
            "intro": "增加宠物和主人<em>10<\/em>点闪避",
            "lv": 10
          },
          {
            "name": "虫鸣鼓舞",
            "intro": "增加宠物和主人<em>30<\/em>点物理攻击",
            "lv": 10
          },
          {
            "name": "幸运",
            "intro": "冒险时获得普通素材数量增加<em>11<\/em>个",
            "lv": 10
          },
          {
            "name": "打工·烹饪Ⅰ",
            "intro": "增加宠物在烹饪中心<em>5%<\/em>的打工效率",
            "lv": 10
          }
        ],
        "cost": null,
        "adventureBuff": "物理防御+1"
      },
      {
        "id": "500250",
        "name": "魔菇",
        "avatar": "Spore",
        "intro": "",
        "race": 2,
        "nature": 3,
        "size": 2,
        "star": 1,
        "accessway": 1,
        "hobby": [
          {
            "id": "900020",
            "name": "青苔",
            "icon": "item_900020"
          }
        ],
        "equip": null,
        "skill": [
          {
            "name": "水属性攻击",
            "intro": "对敌方单体造成物理攻击*<em>400%<\/em>的水属性物理伤害",
            "lv": 10
          },
          {
            "name": "柔韧",
            "intro": "增加宠物和主人<em>5%<\/em>魔法防御",
            "lv": 10
          },
          {
            "name": "植物纤维",
            "intro": "增加宠物和主人<em>10%<\/em>植物种族伤害减免",
            "lv": 10
          },
          {
            "name": "贪玩",
            "intro": "冒险时获得Base经验增加<em>10%<\/em>",
            "lv": 10
          },
          {
            "name": "打工·料理协会Ⅰ",
            "intro": "增加宠物在料理协会<em>10%<\/em>的打工效率",
            "lv": 10
          }
        ],
        "cost": null,
        "adventureBuff": "物理防御+1"
      },
      {
        "id": "500480",
        "name": "吉米",
        "avatar": "Jimi_pet",
        "intro": "",
        "race": 2,
        "nature": 4,
        "size": 2,
        "star": 1,
        "accessway": 3,
        "hobby": [
          {
            "id": "700143",
            "name": "软软棉花糖",
            "icon": "item_700143"
          }
        ],
        "equip": null,
        "skill": [
          {
            "name": "闭嘴，听我唱！",
            "intro": "吉米唱起歌谣，对目标及其周围单位造成物理攻击*<em>500%<\/em>的物理伤害，有<em>70%<\/em>造成沉默，持续2秒",
            "lv": 10
          },
          {
            "name": "强韧",
            "intro": "增加宠物和主人<em>5<\/em>点体质，<em>5<\/em>点灵巧",
            "lv": 10
          },
          {
            "name": "多刺",
            "intro": "增加宠物和主人<em>2%<\/em>物理穿刺",
            "lv": 10
          },
          {
            "name": "聪明",
            "intro": "冒险时获得Job经验增加<em>10%<\/em>",
            "lv": 10
          },
          {
            "name": "打工·烹饪Ⅱ",
            "intro": "增加宠物在烹饪中心<em>30%<\/em>的打工效率",
            "lv": 10
          }
        ],
        "cost": null,
        "adventureBuff": "魔法攻击+2"
      },
      {
        "id": "500240",
        "name": "小艾雷王",
        "avatar": "MonsterQ_front",
        "intro": "",
        "race": 9,
        "nature": 3,
        "size": 2,
        "star": 1,
        "accessway": 8,
        "hobby": [
          {
            "id": "900016",
            "name": "宇宙之汤",
            "icon": "item_900016"
          }
        ],
        "equip": null,
        "skill": [
          {
            "name": "放电光线",
            "intro": "对敌方单体造成物理攻击*<em>500%<\/em>的风属性伤害",
            "lv": 10
          },
          {
            "name": "好奇",
            "intro": "冒险时获得普通素材数量增加<em>6<\/em>个，获得高级素材（沙金等）数量增加<em>6<\/em>个",
            "lv": 10
          },
          {
            "name": "麻痹电流",
            "intro": "使用放电光线时有<em>20%<\/em>几率使敌人进入麻痹状态，无法移动",
            "lv": 10
          },
          {
            "name": "两栖",
            "intro": "增加宠物和主人<em>2%<\/em>的水属性和地属性伤害",
            "lv": 10
          },
          {
            "name": "打工·卡普拉公司Ⅰ",
            "intro": "增加宠物在卡普拉公司<em>5%<\/em>的打工效率",
            "lv": 10
          }
        ],
        "cost": null,
        "adventureBuff": "物理防御+1"
      },
      {
        "id": "500230",
        "name": "玩具熊",
        "avatar": "Teddy_Bear",
        "intro": "在姜饼城徘徊的玩具熊，原本是给孩子们的准备的圣诞礼物，受到了魔力的影响拥有了生命，，寻找着自己心仪的主人，虽然外表看起来软绵绵的佷可爱，但是一旦生气或守护主人的时候，可以爆发出与萌萌的外表完全判若两熊的力量，从来不会忘记自己曾经许下的约定，讨厌背叛与被背叛，喜欢漂亮的玩具礼盒和小孩子，对自己选定的主人有很强的保护欲。",
        "race": 0,
        "nature": 0,
        "size": 2,
        "star": 1,
        "accessway": 1,
        "hobby": [
          {
            "id": "900019",
            "name": "玩具礼盒",
            "icon": "item_900019"
          }
        ],
        "equip": null,
        "skill": [
          {
            "name": "顶撞",
            "intro": "对敌方单体造成物理攻击*<em>510%<\/em>的物理伤害",
            "lv": 10
          },
          {
            "name": "幸运",
            "intro": "冒险时获得普通素材数量增加<em>11<\/em>个",
            "lv": 10
          },
          {
            "name": "暴击率UP",
            "intro": "增加宠物和主人<em>10<\/em>点暴击",
            "lv": 10
          },
          {
            "name": "生命精华",
            "intro": "增加宠物和主人<em>5%<\/em>的生命上限",
            "lv": 10
          },
          {
            "name": "打工·宠物协会Ⅱ",
            "intro": "增加宠物在宠物协会<em>30%<\/em>的打工效率",
            "lv": 10
          }
        ],
        "cost": null,
        "adventureBuff": "生命上限+20"
      },
      {
        "id": "500220",
        "name": "玩具士兵",
        "avatar": "Cruiser",
        "intro": "玩具工厂生产出的玩具士兵，受到魔力的影响拥有了生命，在圣诞工厂内日夜不休地巡逻，虽然看起来像玩具一样可爱，但战斗的时候却像士兵一样有强大的作战能力与执行力，用“在下”自称，玩具枪是他的最爱，对自己的枪法和胡子十分自豪，对强大的人类会产生敬佩之情。",
        "race": 1,
        "nature": 0,
        "size": 2,
        "star": 1,
        "accessway": 1,
        "hobby": [
          {
            "id": "900018",
            "name": "玩具枪",
            "icon": "item_900018"
          }
        ],
        "equip": null,
        "skill": [
          {
            "name": "射击",
            "intro": "对敌方单体造成物理攻击*<em>510%<\/em>的物理伤害",
            "lv": 10
          },
          {
            "name": "恋家",
            "intro": "冒险外出时间减少<em>10%<\/em>",
            "lv": 10
          },
          {
            "name": "物理攻击UP",
            "intro": "增加宠物和主人<em>40<\/em>点物理攻击",
            "lv": 10
          },
          {
            "name": "灵巧",
            "intro": "增加宠物和主人<em>5%<\/em>的物理伤害减免",
            "lv": 10
          },
          {
            "name": "打工·烹饪Ⅱ",
            "intro": "增加宠物在烹饪中心<em>30%<\/em>的打工效率",
            "lv": 10
          }
        ],
        "cost": null,
        "adventureBuff": "魔法攻击+2"
      },
      {
        "id": "500210",
        "name": "小魔女",
        "avatar": "BlackWitch",
        "intro": "在钟楼进行修行的小魔女，外表天真可爱，但真实年纪比许多人类的长者都要大，内心十分渴望成为既强大又有女性魅力的大魔女，自己非常介意被人类当作小孩子看，却会像孩子般的对自己认可的人类撒娇，对于火焰魔法有着极高的天赋，虽然看着很萌，一旦惹她不高兴的话，小魔女的魔焰可是任性又难缠的唷！",
        "race": 1,
        "nature": 8,
        "size": 2,
        "star": 1,
        "accessway": 1,
        "hobby": [
          {
            "id": "900017",
            "name": "老旧的华丽发夹",
            "icon": "item_900017"
          }
        ],
        "equip": null,
        "skill": [
          {
            "name": "魔焰",
            "intro": "对敌方单体造成魔法攻击*<em>720%<\/em>的火属性伤害",
            "lv": 10
          },
          {
            "name": "好奇",
            "intro": "冒险时获得普通素材数量增加<em>6<\/em>个，获得高级素材（沙金等）数量增加<em>6<\/em>个",
            "lv": 10
          },
          {
            "name": "燃烧吧，火焰",
            "intro": "如果魔焰命中目标，则有<em>80%<\/em>概率额外造成50%伤害。",
            "lv": 10
          },
          {
            "name": "焰爆",
            "intro": "如果魔焰造成目标死亡，则会在目标死亡位置释放一次魔爆，对范围内的目标造成魔法攻击*<em>700%<\/em>的伤害",
            "lv": 10
          },
          {
            "name": "打工·卡普拉公司Ⅱ",
            "intro": "增加宠物在卡普拉公司<em>40%<\/em>的打工效率",
            "lv": 10
          }
        ],
        "cost": null,
        "adventureBuff": "物理攻击+2"
      },
      {
        "id": "500180",
        "name": "异兽·年",
        "avatar": "Dancing_Green_Dragon",
        "intro": "",
        "race": 3,
        "nature": 2,
        "size": 2,
        "star": 1,
        "accessway": 3,
        "hobby": [
          {
            "id": "900015",
            "name": "八珍饺子",
            "icon": "item_900015"
          }
        ],
        "equip": null,
        "skill": [
          {
            "name": "年兽之怒",
            "intro": "对敌方单体造成<em>500%<\/em>的风属性魔法攻击",
            "lv": 10
          },
          {
            "name": "聪明",
            "intro": "冒险时获得Job经验增加<em>10%<\/em>",
            "lv": 10
          },
          {
            "name": "远古之灵",
            "intro": "增加宠物和主人<em>3%<\/em>对所有种族魔物伤害",
            "lv": 10
          },
          {
            "name": "凶悍",
            "intro": "增加宠物和主人<em>5<\/em>点智力，<em>5<\/em>点力量",
            "lv": 10
          },
          {
            "name": "打工·道具店Ⅱ",
            "intro": "增加宠物在道具店<em>30%<\/em>的打工效率",
            "lv": 10
          }
        ],
        "cost": null,
        "adventureBuff": "物理攻击+2"
      },
      {
        "id": "500140",
        "name": "白犬·天照",
        "avatar": "Dog_pet",
        "intro": "",
        "race": 3,
        "nature": 0,
        "size": 2,
        "star": 1,
        "accessway": 2,
        "hobby": [
          {
            "id": "900014",
            "name": "光之能量吐司",
            "icon": "item_900014"
          }
        ],
        "equip": null,
        "skill": [
          {
            "name": "犬爪攻击",
            "intro": "对近战敌方单体造成<em>500%<\/em>物理伤害",
            "lv": 10
          },
          {
            "name": "寻宝",
            "intro": "冒险时直接获得稀有箱子概率增加<em>10%<\/em>",
            "lv": 10
          },
          {
            "name": "忠犬怒吼",
            "intro": "增加宠物和主人<em>5%<\/em>魔法伤害减免",
            "lv": 10
          },
          {
            "name": "遛狗心得",
            "intro": "增加宠物和主人<em>5%<\/em>忽视魔法防御",
            "lv": 10
          },
          {
            "name": "打工·烹饪Ⅱ",
            "intro": "增加宠物在烹饪中心<em>30%<\/em>的打工效率",
            "lv": 10
          }
        ],
        "cost": null,
        "adventureBuff": "生命上限+20"
      },
      {
        "id": "500130",
        "name": "黑猫·K",
        "avatar": "Cat_Pet",
        "intro": "",
        "race": 3,
        "nature": 0,
        "size": 2,
        "star": 1,
        "accessway": 2,
        "hobby": [
          {
            "id": "900013",
            "name": "漆黑的妙鲜包",
            "icon": "item_900013"
          }
        ],
        "equip": null,
        "skill": [
          {
            "name": "猫爪攻击",
            "intro": "对近战敌方单体造成<em>500%<\/em>物理伤害",
            "lv": 10
          },
          {
            "name": "好奇",
            "intro": "冒险时获得普通素材数量增加<em>6<\/em>个，获得高级素材（沙金等）数量增加<em>6<\/em>个",
            "lv": 10
          },
          {
            "name": "猫咪萌叫",
            "intro": "增加宠物和主人<em>5%<\/em>物理伤害减免",
            "lv": 10
          },
          {
            "name": "猫奴心情",
            "intro": "增加宠物和主人<em>5%<\/em>忽视物理防御",
            "lv": 10
          },
          {
            "name": "打工·公会Ⅰ",
            "intro": "增加宠物在公会<em>30%<\/em>的打工效率",
            "lv": 10
          }
        ],
        "cost": null,
        "adventureBuff": "生命上限+20"
      },
      {
        "id": "500110",
        "name": "疯兔",
        "avatar": "fengtu",
        "intro": "疯兔们的守卫使者，体型要大一号，深受疯兔家族各成员的爱戴。传闻之前是只乖巧温顺的普通疯兔，在摘取幸运四叶草的时候不小心染上了研制中的蓝色染发剂才发生异变。",
        "race": 3,
        "nature": 0,
        "size": 2,
        "star": 1,
        "accessway": 1,
        "hobby": [
          {
            "id": "900011",
            "name": "彩色萝卜",
            "icon": "item_900011"
          }
        ],
        "equip": [
          {
            "id": "45310",
            "name": "宠物发带",
            "icon": "item_45069"
          }
        ],
        "skill": [
          {
            "name": "圣灵召唤",
            "intro": "召唤圣灵进行攻击，对敌方单体造成魔法攻击<em>300%<\/em>圣属性魔法伤害",
            "lv": 10
          },
          {
            "name": "幸运",
            "intro": "冒险时获得普通素材数量增加<em>11<\/em>个",
            "lv": 10
          },
          {
            "name": "精炼魔攻",
            "intro": "增加宠物和主人<em>10<\/em>点精炼魔攻",
            "lv": 10
          },
          {
            "name": "月之魔力",
            "intro": "增加宠物和主人<em>40<\/em>点魔法上限",
            "lv": 10
          },
          {
            "name": "打工·道具店Ⅰ",
            "intro": "增加宠物在道具店<em>10%<\/em>的打工效率",
            "lv": 10
          }
        ],
        "cost": null,
        "adventureBuff": "物理防御+1"
      },
      {
        "id": "500100",
        "name": "小巴风特",
        "avatar": "Baphomet_S",
        "intro": "巴风特的幼崽，对新鲜事物充满好奇。虽然小巧可爱，但其战斗力不俗。如果被惹怒，一定会挥舞手上的死神镰刀将对方消灭殆尽。就算打不过，还有巴风特撑腰！",
        "race": 7,
        "nature": 6,
        "size": 1,
        "star": 1,
        "accessway": 1,
        "hobby": [
          {
            "id": "900006",
            "name": "恶魔召唤书",
            "icon": "item_900005"
          }
        ],
        "equip": [
          {
            "id": "45309",
            "name": "牛骨头盔",
            "icon": "item_42727"
          }
        ],
        "skill": [
          {
            "name": "音速投掷",
            "intro": "使用武器快速切割敌人，对单体目标造成物理攻击<em>800%<\/em>的物理伤害，并有<em>30%<\/em>概率击晕目标",
            "lv": 10
          },
          {
            "name": "节约",
            "intro": "冒险时不消耗丸子概率增加<em>10%<\/em>",
            "lv": 10
          },
          {
            "name": "暴击伤害UP",
            "intro": "增加宠物和主人<em>5%<\/em>暴击伤害",
            "lv": 10
          },
          {
            "name": "疾风术",
            "intro": "增加宠物和主人<em>5%<\/em>移动速度",
            "lv": 10
          },
          {
            "name": "打工·卡普拉公司Ⅱ",
            "intro": "增加宠物在卡普拉公司<em>40%<\/em>的打工效率",
            "lv": 10
          }
        ],
        "cost": null,
        "adventureBuff": "物理攻击+2"
      },
      {
        "id": "500090",
        "name": "毕帝特地龙",
        "avatar": "Petit",
        "intro": "龙族中比较普通的一种，只能在地面生活。早期米德加尔特的传奇冒险家毕帝特离开吉芬探索中无意间发现了龙区，后人就将普通的龙系魔物冠以他的名字…",
        "race": 9,
        "nature": 1,
        "size": 2,
        "star": 1,
        "accessway": 1,
        "hobby": [
          {
            "id": "900009",
            "name": "闪烁之石",
            "icon": "item_900008"
          }
        ],
        "equip": [
          {
            "id": "45308",
            "name": "宠物发夹",
            "icon": "item_45052"
          }
        ],
        "skill": [
          {
            "name": "地刺",
            "intro": "对敌方单体造成<em>500%<\/em>的地属性魔法攻击",
            "lv": 10
          },
          {
            "name": "寻宝",
            "intro": "冒险时直接获得稀有箱子概率增加<em>10%<\/em>",
            "lv": 10
          },
          {
            "name": "治疗效果UP",
            "intro": "增加宠物和主人<em>5%<\/em>治疗加成",
            "lv": 10
          },
          {
            "name": "超元气",
            "intro": "减少宠物和主人<em>5%<\/em>SP消耗",
            "lv": 10
          },
          {
            "name": "打工·烹饪Ⅱ",
            "intro": "增加宠物在烹饪中心<em>30%<\/em>的打工效率",
            "lv": 10
          }
        ],
        "cost": null,
        "adventureBuff": "生命上限+20"
      },
      {
        "id": "500080",
        "name": "小恶魔",
        "avatar": "Deviruchi",
        "intro": "恶魔种族里的小捣蛋鬼，喜欢捉弄玩耍猎物。一旦被其盯上就很难脱身。其手上拿的小三叉戟附有黑暗的魔力，一旦被其触碰便会心智异常！",
        "race": 7,
        "nature": 6,
        "size": 1,
        "star": 1,
        "accessway": 1,
        "hobby": [
          {
            "id": "900010",
            "name": "黑暗合约书",
            "icon": "item_900009"
          }
        ],
        "equip": [
          {
            "id": "45307",
            "name": "宠物奶嘴",
            "icon": "item_48524"
          }
        ],
        "skill": [
          {
            "name": "黑暗侵袭",
            "intro": "对近战敌方单体造成<em>500%<\/em>暗属性物理伤害",
            "lv": 10
          },
          {
            "name": "聪明",
            "intro": "冒险时获得Job经验增加<em>10%<\/em>",
            "lv": 10
          },
          {
            "name": "物理攻击UP",
            "intro": "增加宠物和主人<em>40<\/em>点物理攻击",
            "lv": 10
          },
          {
            "name": "华丽舞步",
            "intro": "增加宠物和主人<em>10<\/em>点闪避",
            "lv": 10
          },
          {
            "name": "打工·宠物协会Ⅱ",
            "intro": "增加宠物在宠物协会<em>30%<\/em>的打工效率",
            "lv": 10
          }
        ],
        "cost": null,
        "adventureBuff": "物理攻击+2"
      },
      {
        "id": "500070",
        "name": "蛇女伊丝",
        "avatar": "Isis",
        "intro": "上半身裸露、下半身为蛇尾的恶魔，为俄赛里斯之妻。平时在金字塔无微不至地照顾俄赛里斯的生活起居。虽然丈夫绷带缠身，但浓浓的爱意丝毫没有减少。",
        "race": 7,
        "nature": 6,
        "size": 3,
        "star": 1,
        "accessway": 1,
        "hobby": [
          {
            "id": "900008",
            "name": "驯服手镯",
            "icon": "item_900007"
          }
        ],
        "equip": [
          {
            "id": "45306",
            "name": "蛇饰发簪",
            "icon": "item_45033"
          }
        ],
        "skill": [
          {
            "name": "心灵魅惑",
            "intro": "对敌方单体造成<em>500%<\/em>的无属性魔法攻击",
            "lv": 10
          },
          {
            "name": "持家",
            "intro": "冒险时获得普通素材数量增加<em>11<\/em>个，获得高级素材（沙金等）数量增加<em>6<\/em>个",
            "lv": 10
          },
          {
            "name": "歌唱心得",
            "intro": "减少宠物和主人<em>5%<\/em>吟唱时间",
            "lv": 10
          },
          {
            "name": "天使宠爱",
            "intro": "增加宠物和主人<em>5%<\/em>受治疗加成",
            "lv": 10
          },
          {
            "name": "打工·微笑小姐Ⅰ",
            "intro": "增加宠物在微笑小姐<em>30%<\/em>的打工效率",
            "lv": 10
          }
        ],
        "cost": null,
        "adventureBuff": "魔法攻击+2"
      },
      {
        "id": "500060",
        "name": "鬼女",
        "avatar": "Sohee",
        "intro": "生前是名貌美如花的普通女子，但不知何故最后含恨而死化为鬼魂继续游荡。或许是情愫的羁绊，亦或是反抗的不甘…谁知道呢，每个人都有自己的故事…",
        "race": 7,
        "nature": 3,
        "size": 2,
        "star": 1,
        "accessway": 1,
        "hobby": [
          {
            "id": "900007",
            "name": "纯洁银刃",
            "icon": "item_900006"
          }
        ],
        "equip": [
          {
            "id": "45305",
            "name": "宠物铃铛",
            "icon": "item_45094"
          }
        ],
        "skill": [
          {
            "name": "冰箭术",
            "intro": "从天空中降落冰箭攻击敌人，使其受到魔法攻击<em>800%<\/em>水属性魔法伤害",
            "lv": 10
          },
          {
            "name": "纯洁",
            "intro": "冒险时获得卡片概率增加<em>10%<\/em>",
            "lv": 10
          },
          {
            "name": "魔法攻击UP",
            "intro": "增加宠物和主人<em>40<\/em>点魔法攻击",
            "lv": 10
          },
          {
            "name": "冰之颂歌",
            "intro": "增加宠物和主人<em>10%<\/em>SP恢复速度",
            "lv": 10
          },
          {
            "name": "打工·公会Ⅱ",
            "intro": "增加宠物在公会<em>40%<\/em>的打工效率",
            "lv": 10
          }
        ],
        "cost": null,
        "adventureBuff": "魔法攻击+2"
      },
      {
        "id": "500050",
        "name": "曼陀罗种子",
        "avatar": "Mandala",
        "intro": "迷之植物，个子不大，天性羞涩，擅长捉迷藏。据说只有在迷藏森林服用一种特殊的药水来提升第六感后才能够发现它们。作为种子，萌萌的，遭人怜爱…",
        "race": 2,
        "nature": 1,
        "size": 1,
        "star": 1,
        "accessway": 1,
        "hobby": [
          {
            "id": "900004",
            "name": "营养剂",
            "icon": "item_900003"
          }
        ],
        "equip": [
          {
            "id": "45304",
            "name": "宠物围裙",
            "icon": "item_47032"
          }
        ],
        "skill": [
          {
            "name": "魔音术",
            "intro": "对敌方单体造成<em>500%<\/em>的无属性魔法攻击",
            "lv": 10
          },
          {
            "name": "好奇",
            "intro": "冒险时获得普通素材数量增加<em>6<\/em>个，获得高级素材（沙金等）数量增加<em>6<\/em>个",
            "lv": 10
          },
          {
            "name": "暴击率UP",
            "intro": "增加宠物和主人<em>10<\/em>点暴击",
            "lv": 10
          },
          {
            "name": "魔法精灵",
            "intro": "增加宠物和主人<em>40<\/em>点魔法防御",
            "lv": 10
          },
          {
            "name": "打工·料理协会Ⅰ",
            "intro": "增加宠物在料理协会<em>10%<\/em>的打工效率",
            "lv": 10
          }
        ],
        "cost": null,
        "adventureBuff": "生命上限+20"
      },
      {
        "id": "500040",
        "name": "沙漠幼狼",
        "avatar": "LittleWolf",
        "intro": "在沙漠生存下来的狼，有比一般狼更强的攻击力，并会主动攻击敌人。适者生存，大自然就是那么残酷。别看其眼睛小，说不定正在狡黠地在打目标的主意呢…",
        "race": 3,
        "nature": 4,
        "size": 2,
        "star": 1,
        "accessway": 1,
        "hobby": [
          {
            "id": "900005",
            "name": "营养大骨",
            "icon": "item_900004"
          }
        ],
        "equip": [
          {
            "id": "45303",
            "name": "潜水头盔",
            "icon": "item_45273"
          }
        ],
        "skill": [
          {
            "name": "用力撕咬",
            "intro": "对近战敌方单体造成<em>500%<\/em>物理伤害",
            "lv": 10
          },
          {
            "name": "努力",
            "intro": "冒险时消耗战斗时长减少<em>10%<\/em>",
            "lv": 10
          },
          {
            "name": "凶恶攻击",
            "intro": "增加宠物和主人<em>5%<\/em>忽视物理防御",
            "lv": 10
          },
          {
            "name": "食欲旺盛",
            "intro": "增加宠物和主人<em>10%<\/em>HP恢复速度",
            "lv": 10
          },
          {
            "name": "打工·宠物协会Ⅰ",
            "intro": "增加宠物在宠物协会<em>10%<\/em>的打工效率",
            "lv": 10
          }
        ],
        "cost": null,
        "adventureBuff": "物理防御+1"
      },
      {
        "id": "500030",
        "name": "溜溜猴",
        "avatar": "Yoyo",
        "intro": "动作快，也很会捡拾道具。虽然很可爱，但是有点烦人。调皮捣蛋的天性让人又爱又恨，尤其是吃完香蕉随意丢香蕉皮的陋习难改，上次国王出行还滑过一跤……",
        "race": 3,
        "nature": 1,
        "size": 1,
        "star": 1,
        "accessway": 1,
        "hobby": [
          {
            "id": "900003",
            "name": "魔物香蕉",
            "icon": "item_12302"
          }
        ],
        "equip": [
          {
            "id": "45302",
            "name": "猴子发箍",
            "icon": "item_45270"
          }
        ],
        "skill": [
          {
            "name": "丢石头",
            "intro": "对远程敌方单体造成<em>300%<\/em>物理伤害",
            "lv": 10
          },
          {
            "name": "贪玩",
            "intro": "冒险时获得Base经验增加<em>10%<\/em>",
            "lv": 10
          },
          {
            "name": "攻速UP",
            "intro": "增加宠物和主人<em>5%<\/em>装备攻速",
            "lv": 10
          },
          {
            "name": "子弹时间",
            "intro": "增加宠物和主人<em>10<\/em>点暴击防护",
            "lv": 10
          },
          {
            "name": "打工·卡普拉公司Ⅰ",
            "intro": "增加宠物在卡普拉公司<em>5%<\/em>的打工效率",
            "lv": 10
          }
        ],
        "cost": null,
        "adventureBuff": "魔法防御+1"
      },
      {
        "id": "500020",
        "name": "小野猪",
        "avatar": "Savage_Baby",
        "intro": "杂食性动物，体躯健壮，四肢粗短，有厚实的鬃毛和尖锐的獠牙。虽然是猪，但肉很结实，体魄绝对强健。如果不幸将其惹恼，那对致命的獠牙可会让敌人吃不了兜着走！",
        "race": 3,
        "nature": 1,
        "size": 3,
        "star": 1,
        "accessway": 1,
        "hobby": [
          {
            "id": "900002",
            "name": "魔物牛奶",
            "icon": "item_900002"
          }
        ],
        "equip": [
          {
            "id": "45301",
            "name": "宠物围兜兜",
            "icon": "item_45271"
          }
        ],
        "skill": [
          {
            "name": "突进攻击",
            "intro": "对近战敌方单体造成<em>400%<\/em>物理伤害",
            "lv": 10
          },
          {
            "name": "恋家",
            "intro": "冒险外出时间减少<em>10%<\/em>",
            "lv": 10
          },
          {
            "name": "精炼物攻",
            "intro": "增加宠物和主人<em>10<\/em>点精炼物攻",
            "lv": 10
          },
          {
            "name": "坚硬外皮",
            "intro": "增加宠物和主人<em>40<\/em>点物理防御",
            "lv": 10
          },
          {
            "name": "打工·竞技Ⅰ",
            "intro": "增加宠物在竞技场<em>5%<\/em>的打工效率",
            "lv": 10
          }
        ],
        "cost": null,
        "adventureBuff": "魔法防御+1"
      },
      {
        "id": "500010",
        "name": "波利",
        "avatar": "boli",
        "intro": "RO中的超人气魔物，以其卡哇伊的造型风靡万千玩家，风头直超同胞波波利甚多。非常喜欢苹果，会跟着给它苹果的人们，也会去捡拾各类掉落的道具。能力最弱，是人见人欺的对象，适合初心者练级。",
        "race": 2,
        "nature": 3,
        "size": 2,
        "star": 1,
        "accessway": 1,
        "hobby": [
          {
            "id": "900001",
            "name": "青苹果",
            "icon": "item_900001"
          }
        ],
        "equip": [
          {
            "id": "45300",
            "name": "宠物书包",
            "icon": "item_47031"
          }
        ],
        "skill": [
          {
            "name": "圆球攻击",
            "intro": "对近战敌方单体造成<em>400%<\/em>物理伤害",
            "lv": 10
          },
          {
            "name": "环保",
            "intro": "冒险时获得普通素材数量增加<em>11<\/em>个",
            "lv": 10
          },
          {
            "name": "命中UP",
            "intro": "增加宠物和主人<em>10<\/em>点命中",
            "lv": 10
          },
          {
            "name": "正义萌脸",
            "intro": "增加宠物和主人<em>200<\/em>点生命上限",
            "lv": 10
          },
          {
            "name": "打工·烹饪Ⅰ",
            "intro": "增加宠物在烹饪中心<em>5%<\/em>的打工效率",
            "lv": 10
          }
        ],
        "cost": null,
        "adventureBuff": "魔法防御+1"
      }
    ]
  }
}