{
  "code": 0,
  "status": "success",
  "timeStamp": 1642845260,
  "staticDomain": "http:\/\/rosc1.zhaiwuyu.com",
  "ip": "101.87.200.160",
  "language": "cn",
  "dbArea": 0,
  "data": {
    "page": 9,
    "pageSize": 30,
    "pageCount": 16,
    "total": 454,
    "list": [
      {
        "id": "10141",
        "name": "邪恶礼盒",
        "avatar": "Mystcase",
        "type": 0,
        "race": 0,
        "nature": 0,
        "size": 2,
        "level": 110,
        "hp": 108544,
        "baseExp": 4273,
        "jobExp": 2640,
        "isStar": 0,
        "isDead": 0,
        "isSpecial": 0
      },
      {
        "id": "10140",
        "name": "绿饼人",
        "avatar": "Cookie_Gift_lv",
        "type": 0,
        "race": 1,
        "nature": 0,
        "size": 1,
        "level": 108,
        "hp": 89893,
        "baseExp": 4326,
        "jobExp": 2513,
        "isStar": 0,
        "isDead": 0,
        "isSpecial": 0
      },
      {
        "id": "120115",
        "name": "钟怪★",
        "avatar": "Alarm",
        "type": 101,
        "race": 0,
        "nature": 0,
        "size": 2,
        "level": 101,
        "hp": 366864,
        "baseExp": 3905,
        "jobExp": 2245,
        "isStar": 1,
        "isDead": 0,
        "isSpecial": 0
      },
      {
        "id": "120114",
        "name": "巫婆★",
        "avatar": "Bathory",
        "type": 101,
        "race": 1,
        "nature": 6,
        "size": 2,
        "level": 103,
        "hp": 255786,
        "baseExp": 4630,
        "jobExp": 1915,
        "isStar": 1,
        "isDead": 0,
        "isSpecial": 0
      },
      {
        "id": "30034",
        "name": "斯佩夏尔",
        "avatar": "Specialre",
        "type": 2,
        "race": 1,
        "nature": 3,
        "size": 2,
        "level": 113,
        "hp": 9999999,
        "baseExp": 74583,
        "jobExp": 43360,
        "isStar": 0,
        "isDead": 0,
        "isSpecial": 0
      },
      {
        "id": "30033",
        "name": "时间管理人",
        "avatar": "TimeHolder",
        "type": 2,
        "race": 7,
        "nature": 0,
        "size": 3,
        "level": 110,
        "hp": 37715369,
        "baseExp": 59136,
        "jobExp": 50037,
        "isStar": 0,
        "isDead": 0,
        "isSpecial": 0
      },
      {
        "id": "20025",
        "name": "钟塔守护者",
        "avatar": "Tower_Manager",
        "type": 1,
        "race": 0,
        "nature": 0,
        "size": 3,
        "level": 108,
        "hp": 10688276,
        "baseExp": 13471,
        "jobExp": 8745,
        "isStar": 0,
        "isDead": 0,
        "isSpecial": 0
      },
      {
        "id": "20024",
        "name": "大本钟",
        "avatar": "BigBen",
        "type": 1,
        "race": 0,
        "nature": 1,
        "size": 2,
        "level": 105,
        "hp": 10048506,
        "baseExp": 13860,
        "jobExp": 8059,
        "isStar": 0,
        "isDead": 0,
        "isSpecial": 0
      },
      {
        "id": "20023",
        "name": "草精",
        "avatar": "Raffliesia",
        "type": 1,
        "race": 2,
        "nature": 1,
        "size": 1,
        "level": 86,
        "hp": 8099866,
        "baseExp": 8347,
        "jobExp": 8347,
        "isStar": 0,
        "isDead": 0,
        "isSpecial": 0
      },
      {
        "id": "10139",
        "name": "沙漠幼狼",
        "avatar": "LittleWolf",
        "type": 0,
        "race": 3,
        "nature": 4,
        "size": 2,
        "level": 5,
        "hp": 50,
        "baseExp": 19,
        "jobExp": 13,
        "isStar": 0,
        "isDead": 0,
        "isSpecial": 0
      },
      {
        "id": "10138",
        "name": "小野猪",
        "avatar": "Savage_Baby",
        "type": 0,
        "race": 3,
        "nature": 1,
        "size": 3,
        "level": 5,
        "hp": 20,
        "baseExp": 19,
        "jobExp": 13,
        "isStar": 0,
        "isDead": 0,
        "isSpecial": 0
      },
      {
        "id": "10135",
        "name": "兽人女战士",
        "avatar": "Orc_Lady",
        "type": 0,
        "race": 1,
        "nature": 1,
        "size": 2,
        "level": 109,
        "hp": 50056,
        "baseExp": 3217,
        "jobExp": 2033,
        "isStar": 0,
        "isDead": 0,
        "isSpecial": 0
      },
      {
        "id": "10134",
        "name": "灰森灵",
        "avatar": "StemWorm",
        "type": 0,
        "race": 2,
        "nature": 2,
        "size": 2,
        "level": 107,
        "hp": 114692,
        "baseExp": 3120,
        "jobExp": 2016,
        "isStar": 0,
        "isDead": 0,
        "isSpecial": 0
      },
      {
        "id": "10133",
        "name": "伊特瓢虫",
        "avatar": "Brilight",
        "type": 0,
        "race": 4,
        "nature": 4,
        "size": 1,
        "level": 106,
        "hp": 88720,
        "baseExp": 2896,
        "jobExp": 2112,
        "isStar": 0,
        "isDead": 0,
        "isSpecial": 0
      },
      {
        "id": "10132",
        "name": "梅纳海葵",
        "avatar": "Penomena",
        "type": 0,
        "race": 5,
        "nature": 3,
        "size": 2,
        "level": 105,
        "hp": 91651,
        "baseExp": 2790,
        "jobExp": 2139,
        "isStar": 0,
        "isDead": 0,
        "isSpecial": 0
      },
      {
        "id": "10131",
        "name": "邪灵魔导士",
        "avatar": "Elder",
        "type": 0,
        "race": 1,
        "nature": 0,
        "size": 3,
        "level": 104,
        "hp": 119148,
        "baseExp": 3142,
        "jobExp": 1897,
        "isStar": 0,
        "isDead": 0,
        "isSpecial": 0
      },
      {
        "id": "10130",
        "name": "钟怪",
        "avatar": "Alarm",
        "type": 0,
        "race": 0,
        "nature": 0,
        "size": 2,
        "level": 101,
        "hp": 122288,
        "baseExp": 3124,
        "jobExp": 1800,
        "isStar": 0,
        "isDead": 0,
        "isSpecial": 0
      },
      {
        "id": "10129",
        "name": "巫婆",
        "avatar": "Bathory",
        "type": 0,
        "race": 1,
        "nature": 6,
        "size": 2,
        "level": 103,
        "hp": 85262,
        "baseExp": 3705,
        "jobExp": 1536,
        "isStar": 0,
        "isDead": 0,
        "isSpecial": 0
      },
      {
        "id": "10128",
        "name": "古钟魔",
        "avatar": "Clock",
        "type": 0,
        "race": 0,
        "nature": 1,
        "size": 2,
        "level": 102,
        "hp": 125127,
        "baseExp": 2548,
        "jobExp": 2174,
        "isStar": 0,
        "isDead": 0,
        "isSpecial": 0
      },
      {
        "id": "10127",
        "name": "黑魔女",
        "avatar": "BlackWitch",
        "type": 0,
        "race": 8,
        "nature": 8,
        "size": 2,
        "level": 100,
        "hp": 80368,
        "baseExp": 3080,
        "jobExp": 1791,
        "isStar": 0,
        "isDead": 0,
        "isSpecial": 0
      },
      {
        "id": "10126",
        "name": "朽魔",
        "avatar": "Punk",
        "type": 0,
        "race": 2,
        "nature": 2,
        "size": 1,
        "level": 98,
        "hp": 52799,
        "baseExp": 2948,
        "jobExp": 1796,
        "isStar": 0,
        "isDead": 0,
        "isSpecial": 0
      },
      {
        "id": "10125",
        "name": "螳螂",
        "avatar": "Mantis",
        "type": 0,
        "race": 4,
        "nature": 1,
        "size": 2,
        "level": 65,
        "hp": 26232,
        "baseExp": 1919,
        "jobExp": 1210,
        "isStar": 0,
        "isDead": 0,
        "isSpecial": 0
      },
      {
        "id": "10124",
        "name": "猎蝇",
        "avatar": "Dustiness",
        "type": 0,
        "race": 4,
        "nature": 2,
        "size": 1,
        "level": 62,
        "hp": 12479,
        "baseExp": 1818,
        "jobExp": 1166,
        "isStar": 0,
        "isDead": 0,
        "isSpecial": 0
      },
      {
        "id": "10123",
        "name": "重金属蝗虫",
        "avatar": "Metaller",
        "type": 0,
        "race": 4,
        "nature": 4,
        "size": 2,
        "level": 55,
        "hp": 8314,
        "baseExp": 1624,
        "jobExp": 1026,
        "isStar": 0,
        "isDead": 0,
        "isSpecial": 0
      },
      {
        "id": "10122",
        "name": "森灵",
        "avatar": "WormTail",
        "type": 0,
        "race": 2,
        "nature": 1,
        "size": 2,
        "level": 17,
        "hp": 382,
        "baseExp": 484,
        "jobExp": 326,
        "isStar": 0,
        "isDead": 0,
        "isSpecial": 0
      },
      {
        "id": "30032",
        "name": "兰特克力斯",
        "avatar": "Valkyrie",
        "type": 2,
        "race": 6,
        "nature": 5,
        "size": 3,
        "level": 100,
        "hp": 10803000,
        "baseExp": 1,
        "jobExp": 1,
        "isStar": 0,
        "isDead": 0,
        "isSpecial": 0
      },
      {
        "id": "30031",
        "name": "德古拉男爵",
        "avatar": "Dracula",
        "type": 2,
        "race": 7,
        "nature": 6,
        "size": 3,
        "level": 100,
        "hp": 10152093,
        "baseExp": 1,
        "jobExp": 1,
        "isStar": 0,
        "isDead": 0,
        "isSpecial": 0
      },
      {
        "id": "30030",
        "name": "巨大的恶魔波利",
        "avatar": "Deviling",
        "type": 2,
        "race": 7,
        "nature": 6,
        "size": 2,
        "level": 100,
        "hp": 10357875,
        "baseExp": 4818,
        "jobExp": 9408,
        "isStar": 0,
        "isDead": 0,
        "isSpecial": 0
      },
      {
        "id": "30029",
        "name": "黑暗之王",
        "avatar": "Dark_Lord",
        "type": 2,
        "race": 7,
        "nature": 8,
        "size": 3,
        "level": 100,
        "hp": 19567662,
        "baseExp": 56320,
        "jobExp": 44000,
        "isStar": 0,
        "isDead": 0,
        "isSpecial": 0
      },
      {
        "id": "30021",
        "name": "巴风特",
        "avatar": "Baphomet",
        "type": 2,
        "race": 7,
        "nature": 6,
        "size": 3,
        "level": 100,
        "hp": 21555318,
        "baseExp": 82104,
        "jobExp": 29010,
        "isStar": 0,
        "isDead": 0,
        "isSpecial": 0
      }
    ]
  }
}