{
  "code": 0,
  "status": "success",
  "timeStamp": 1642845300,
  "staticDomain": "http:\/\/rosc1.zhaiwuyu.com",
  "ip": "101.87.200.160",
  "language": "cn",
  "dbArea": 0,
  "data": {
    "page": 13,
    "pageSize": 30,
    "pageCount": 16,
    "total": 454,
    "list": [
      {
        "id": "10048",
        "name": "魔锅蛋",
        "avatar": "Magnolia",
        "type": 0,
        "race": 7,
        "nature": 3,
        "size": 1,
        "level": 51,
        "hp": 13513,
        "baseExp": 755,
        "jobExp": 476,
        "isStar": 0,
        "isDead": 0,
        "isSpecial": 0
      },
      {
        "id": "30028",
        "name": "年兽",
        "avatar": "Dancing_Dragon",
        "type": 2,
        "race": 1,
        "nature": 0,
        "size": 3,
        "level": 50,
        "hp": 5000000,
        "baseExp": 18987,
        "jobExp": 11013,
        "isStar": 0,
        "isDead": 0,
        "isSpecial": 0
      },
      {
        "id": "30025",
        "name": "UFO-BIG-CAT",
        "avatar": "UFOCat",
        "type": 103,
        "race": 1,
        "nature": 0,
        "size": 2,
        "level": 50,
        "hp": 4391494,
        "baseExp": 41772,
        "jobExp": 24229,
        "isStar": 0,
        "isDead": 0,
        "isSpecial": 1
      },
      {
        "id": "30006",
        "name": "哥布灵首领",
        "avatar": "Goblin_King",
        "type": 2,
        "race": 1,
        "nature": 2,
        "size": 2,
        "level": 50,
        "hp": 1949531,
        "baseExp": 40683,
        "jobExp": 14721,
        "isStar": 0,
        "isDead": 0,
        "isSpecial": 0
      },
      {
        "id": "20007",
        "name": "龙蝇",
        "avatar": "DragonFly",
        "type": 1,
        "race": 4,
        "nature": 2,
        "size": 1,
        "level": 50,
        "hp": 779813,
        "baseExp": 7098,
        "jobExp": 3549,
        "isStar": 0,
        "isDead": 0,
        "isSpecial": 0
      },
      {
        "id": "10110",
        "name": "喵星财务大臣",
        "avatar": "NijiaCat",
        "type": 103,
        "race": 1,
        "nature": 0,
        "size": 2,
        "level": 50,
        "hp": 1000,
        "baseExp": 525,
        "jobExp": 300,
        "isStar": 0,
        "isDead": 0,
        "isSpecial": 1
      },
      {
        "id": "10109",
        "name": "喵星厨师长",
        "avatar": "ChefCat",
        "type": 103,
        "race": 1,
        "nature": 0,
        "size": 2,
        "level": 50,
        "hp": 1000,
        "baseExp": 525,
        "jobExp": 300,
        "isStar": 0,
        "isDead": 0,
        "isSpecial": 1
      },
      {
        "id": "10108",
        "name": "喵星强袭队",
        "avatar": "KongfuCat",
        "type": 103,
        "race": 1,
        "nature": 0,
        "size": 2,
        "level": 50,
        "hp": 1000,
        "baseExp": 525,
        "jobExp": 200,
        "isStar": 0,
        "isDead": 0,
        "isSpecial": 1
      },
      {
        "id": "10107",
        "name": "喵星巡逻队",
        "avatar": "MagicCat",
        "type": 103,
        "race": 1,
        "nature": 0,
        "size": 2,
        "level": 50,
        "hp": 1000,
        "baseExp": 350,
        "jobExp": 300,
        "isStar": 0,
        "isDead": 0,
        "isSpecial": 1
      },
      {
        "id": "10047",
        "name": "大嘴鸟",
        "avatar": "Pecopeco",
        "type": 0,
        "race": 3,
        "nature": 4,
        "size": 3,
        "level": 50,
        "hp": 15651,
        "baseExp": 867,
        "jobExp": 392,
        "isStar": 0,
        "isDead": 0,
        "isSpecial": 0
      },
      {
        "id": "10046",
        "name": "摩卡",
        "avatar": "Muka",
        "type": 0,
        "race": 2,
        "nature": 1,
        "size": 3,
        "level": 49,
        "hp": 14891,
        "baseExp": 861,
        "jobExp": 377,
        "isStar": 0,
        "isDead": 0,
        "isSpecial": 0
      },
      {
        "id": "10045",
        "name": "基尔瑟",
        "avatar": "Giearth",
        "type": 0,
        "race": 7,
        "nature": 1,
        "size": 1,
        "level": 48,
        "hp": 11756,
        "baseExp": 724,
        "jobExp": 440,
        "isStar": 0,
        "isDead": 0,
        "isSpecial": 0
      },
      {
        "id": "10044",
        "name": "黑蚁",
        "avatar": "Black_Ant",
        "type": 0,
        "race": 4,
        "nature": 1,
        "size": 1,
        "level": 47,
        "hp": 11306,
        "baseExp": 700,
        "jobExp": 436,
        "isStar": 0,
        "isDead": 0,
        "isSpecial": 0
      },
      {
        "id": "10043",
        "name": "红蝙蝠",
        "avatar": "Drainliar",
        "type": 0,
        "race": 3,
        "nature": 6,
        "size": 1,
        "level": 46,
        "hp": 10856,
        "baseExp": 832,
        "jobExp": 341,
        "isStar": 0,
        "isDead": 0,
        "isSpecial": 0
      },
      {
        "id": "30005",
        "name": "海神",
        "avatar": "Strouf",
        "type": 2,
        "race": 5,
        "nature": 3,
        "size": 3,
        "level": 45,
        "hp": 2806387,
        "baseExp": 27353,
        "jobExp": 18632,
        "isStar": 0,
        "isDead": 0,
        "isSpecial": 0
      },
      {
        "id": "20006",
        "name": "直升机哥布灵",
        "avatar": "Goblin_Helicopter",
        "type": 1,
        "race": 0,
        "nature": 2,
        "size": 3,
        "level": 45,
        "hp": 801825,
        "baseExp": 5786,
        "jobExp": 3545,
        "isStar": 0,
        "isDead": 0,
        "isSpecial": 0
      },
      {
        "id": "10039",
        "name": "彩蝶精灵",
        "avatar": "Menblatt",
        "type": 0,
        "race": 4,
        "nature": 2,
        "size": 3,
        "level": 45,
        "hp": 7615,
        "baseExp": 572,
        "jobExp": 473,
        "isStar": 0,
        "isDead": 0,
        "isSpecial": 0
      },
      {
        "id": "10042",
        "name": "白蚁",
        "avatar": "Ant",
        "type": 0,
        "race": 4,
        "nature": 1,
        "size": 1,
        "level": 44,
        "hp": 9956,
        "baseExp": 638,
        "jobExp": 416,
        "isStar": 0,
        "isDead": 0,
        "isSpecial": 0
      },
      {
        "id": "10038",
        "name": "艾吉欧蜈蚣",
        "avatar": "Argiope",
        "type": 0,
        "race": 4,
        "nature": 9,
        "size": 3,
        "level": 43,
        "hp": 6657,
        "baseExp": 731,
        "jobExp": 346,
        "isStar": 0,
        "isDead": 0,
        "isSpecial": 0
      },
      {
        "id": "10041",
        "name": "工蚁",
        "avatar": "Ant3",
        "type": 0,
        "race": 4,
        "nature": 1,
        "size": 1,
        "level": 42,
        "hp": 9056,
        "baseExp": 616,
        "jobExp": 394,
        "isStar": 0,
        "isDead": 0,
        "isSpecial": 0
      },
      {
        "id": "10037",
        "name": "噬人花",
        "avatar": "flora",
        "type": 0,
        "race": 2,
        "nature": 1,
        "size": 3,
        "level": 41,
        "hp": 5699,
        "baseExp": 603,
        "jobExp": 383,
        "isStar": 0,
        "isDead": 0,
        "isSpecial": 0
      },
      {
        "id": "120040",
        "name": "兵蚁★",
        "avatar": "Ant2",
        "type": 101,
        "race": 4,
        "nature": 1,
        "size": 1,
        "level": 40,
        "hp": 55461,
        "baseExp": 1345,
        "jobExp": 845,
        "isStar": 1,
        "isDead": 0,
        "isSpecial": 0
      },
      {
        "id": "30004",
        "name": "海盗之王",
        "avatar": "Drake",
        "type": 2,
        "race": 8,
        "nature": 8,
        "size": 2,
        "level": 40,
        "hp": 2012343,
        "baseExp": 22223,
        "jobExp": 17779,
        "isStar": 0,
        "isDead": 0,
        "isSpecial": 0
      },
      {
        "id": "20005",
        "name": "蛙王",
        "avatar": "RodaFrog",
        "type": 1,
        "race": 5,
        "nature": 3,
        "size": 2,
        "level": 40,
        "hp": 804938,
        "baseExp": 5679,
        "jobExp": 2838,
        "isStar": 0,
        "isDead": 0,
        "isSpecial": 0
      },
      {
        "id": "10040",
        "name": "兵蚁",
        "avatar": "Ant2",
        "type": 0,
        "race": 4,
        "nature": 1,
        "size": 1,
        "level": 40,
        "hp": 8156,
        "baseExp": 592,
        "jobExp": 372,
        "isStar": 0,
        "isDead": 0,
        "isSpecial": 0
      },
      {
        "id": "10035",
        "name": "喷射哥布灵",
        "avatar": "Goblin_Panzer",
        "type": 0,
        "race": 1,
        "nature": 2,
        "size": 2,
        "level": 39,
        "hp": 6093,
        "baseExp": 605,
        "jobExp": 348,
        "isStar": 0,
        "isDead": 0,
        "isSpecial": 0
      },
      {
        "id": "10036",
        "name": "蜂兵",
        "avatar": "Bee",
        "type": 0,
        "race": 4,
        "nature": 2,
        "size": 1,
        "level": 38,
        "hp": 4568,
        "baseExp": 495,
        "jobExp": 392,
        "isStar": 0,
        "isDead": 0,
        "isSpecial": 0
      },
      {
        "id": "10034",
        "name": "弓箭哥布灵",
        "avatar": "Goblin_Archer",
        "type": 0,
        "race": 1,
        "nature": 3,
        "size": 1,
        "level": 37,
        "hp": 4243,
        "baseExp": 555,
        "jobExp": 341,
        "isStar": 0,
        "isDead": 0,
        "isSpecial": 0
      },
      {
        "id": "120028",
        "name": "马克★",
        "avatar": "Marc",
        "type": 101,
        "race": 5,
        "nature": 3,
        "size": 2,
        "level": 36,
        "hp": 48012,
        "baseExp": 1210,
        "jobExp": 765,
        "isStar": 1,
        "isDead": 0,
        "isSpecial": 0
      },
      {
        "id": "10028",
        "name": "马克",
        "avatar": "Marc",
        "type": 0,
        "race": 5,
        "nature": 3,
        "size": 2,
        "level": 36,
        "hp": 4902,
        "baseExp": 533,
        "jobExp": 337,
        "isStar": 0,
        "isDead": 0,
        "isSpecial": 0
      }
    ]
  }
}