{
  "code": 0,
  "status": "success",
  "timeStamp": 1642845220,
  "staticDomain": "http:\/\/rosc1.zhaiwuyu.com",
  "ip": "101.87.200.160",
  "language": "cn",
  "dbArea": 0,
  "data": {
    "page": 5,
    "pageSize": 30,
    "pageCount": 16,
    "total": 454,
    "list": [
      {
        "id": "20036",
        "name": "狐仙莱卡翁",
        "avatar": "FoxImmortal",
        "type": 1,
        "race": 3,
        "nature": 2,
        "size": 2,
        "level": 148,
        "hp": 56136000,
        "baseExp": 13423,
        "jobExp": 14912,
        "isStar": 0,
        "isDead": 0,
        "isSpecial": 0
      },
      {
        "id": "10213",
        "name": "魔纹纸妖",
        "avatar": "Taoist",
        "type": 0,
        "race": 7,
        "nature": 7,
        "size": 1,
        "level": 148,
        "hp": 480400,
        "baseExp": 6530,
        "jobExp": 3782,
        "isStar": 0,
        "isDead": 0,
        "isSpecial": 0
      },
      {
        "id": "10215",
        "name": "鱼人",
        "avatar": "Fishmonster_1",
        "type": 0,
        "race": 5,
        "nature": 3,
        "size": 2,
        "level": 145,
        "hp": 457100,
        "baseExp": 5885,
        "jobExp": 4004,
        "isStar": 0,
        "isDead": 0,
        "isSpecial": 0
      },
      {
        "id": "10212",
        "name": "灯笼鱼人",
        "avatar": "Fishmonster_2",
        "type": 0,
        "race": 3,
        "nature": 3,
        "size": 1,
        "level": 143,
        "hp": 437400,
        "baseExp": 6185,
        "jobExp": 3729,
        "isStar": 0,
        "isDead": 0,
        "isSpecial": 0
      },
      {
        "id": "204170",
        "name": "血腥骑士",
        "avatar": "Bloody_Knight_dead",
        "type": 2,
        "race": 0,
        "nature": 8,
        "size": 3,
        "level": 140,
        "hp": 200452000,
        "baseExp": 1,
        "jobExp": 1,
        "isStar": 0,
        "isDead": 1,
        "isSpecial": 0
      },
      {
        "id": "204140",
        "name": "哥布灵首领",
        "avatar": "Goblin_King_dead",
        "type": 2,
        "race": 1,
        "nature": 8,
        "size": 2,
        "level": 140,
        "hp": 200452000,
        "baseExp": 1,
        "jobExp": 1,
        "isStar": 0,
        "isDead": 1,
        "isSpecial": 0
      },
      {
        "id": "204160",
        "name": "时间管理人",
        "avatar": "TimeHolder_dead",
        "type": 2,
        "race": 7,
        "nature": 8,
        "size": 3,
        "level": 135,
        "hp": 175395500,
        "baseExp": 1,
        "jobExp": 1,
        "isStar": 0,
        "isDead": 1,
        "isSpecial": 0
      },
      {
        "id": "204150",
        "name": "俄赛里斯",
        "avatar": "Osiris_dead",
        "type": 2,
        "race": 8,
        "nature": 8,
        "size": 2,
        "level": 135,
        "hp": 150339000,
        "baseExp": 1,
        "jobExp": 1,
        "isStar": 0,
        "isDead": 1,
        "isSpecial": 0
      },
      {
        "id": "18190",
        "name": "恶魔之眼★",
        "avatar": "Devil_sEye",
        "type": 101,
        "race": 0,
        "nature": 2,
        "size": 1,
        "level": 139,
        "hp": 1208700,
        "baseExp": 5177,
        "jobExp": 4110,
        "isStar": 1,
        "isDead": 0,
        "isSpecial": 0
      },
      {
        "id": "18189",
        "name": "鼬群首领★",
        "avatar": "Weasel",
        "type": 101,
        "race": 3,
        "nature": 2,
        "size": 2,
        "level": 137,
        "hp": 9735000,
        "baseExp": 5239,
        "jobExp": 3971,
        "isStar": 1,
        "isDead": 0,
        "isSpecial": 0
      },
      {
        "id": "18188",
        "name": "巨型雪兽★",
        "avatar": "Snowbeast",
        "type": 101,
        "race": 0,
        "nature": 3,
        "size": 3,
        "level": 136,
        "hp": 9570000,
        "baseExp": 5461,
        "jobExp": 3791,
        "isStar": 1,
        "isDead": 0,
        "isSpecial": 0
      },
      {
        "id": "18191",
        "name": "海獭★",
        "avatar": "Sea_otter",
        "type": 101,
        "race": 3,
        "nature": 3,
        "size": 2,
        "level": 23,
        "hp": 25000,
        "baseExp": 231,
        "jobExp": 278,
        "isStar": 1,
        "isDead": 0,
        "isSpecial": 0
      },
      {
        "id": "18193",
        "name": "狂野蜂兵★",
        "avatar": "Wild_Bee",
        "type": 101,
        "race": 4,
        "nature": 2,
        "size": 1,
        "level": 21,
        "hp": 2000,
        "baseExp": 403,
        "jobExp": 143,
        "isStar": 1,
        "isDead": 0,
        "isSpecial": 0
      },
      {
        "id": "18192",
        "name": "七彩飞龙★",
        "avatar": "Deleter_petit_F",
        "type": 101,
        "race": 9,
        "nature": 4,
        "size": 2,
        "level": 11,
        "hp": 7000,
        "baseExp": 168,
        "jobExp": 102,
        "isStar": 1,
        "isDead": 0,
        "isSpecial": 0
      },
      {
        "id": "30056",
        "name": "幽暗梦魇",
        "avatar": "Gloomundernight",
        "type": 2,
        "race": 0,
        "nature": 7,
        "size": 3,
        "level": 148,
        "hp": 104644000,
        "baseExp": 80285,
        "jobExp": 66905,
        "isStar": 0,
        "isDead": 0,
        "isSpecial": 0
      },
      {
        "id": "30055",
        "name": "希尔队长",
        "avatar": "Captain_Hill",
        "type": 2,
        "race": 3,
        "nature": 2,
        "size": 3,
        "level": 147,
        "hp": 219600100,
        "baseExp": 84722,
        "jobExp": 63556,
        "isStar": 0,
        "isDead": 0,
        "isSpecial": 0
      },
      {
        "id": "30054",
        "name": "寒冰龙",
        "avatar": "Frozen_dragon",
        "type": 2,
        "race": 3,
        "nature": 3,
        "size": 3,
        "level": 145,
        "hp": 210303300,
        "baseExp": 74244,
        "jobExp": 68115,
        "isStar": 0,
        "isDead": 0,
        "isSpecial": 0
      },
      {
        "id": "20034",
        "name": "堕落神官希巴姆",
        "avatar": "Fallingbishop",
        "type": 1,
        "race": 7,
        "nature": 6,
        "size": 2,
        "level": 144,
        "hp": 55410400,
        "baseExp": 17259,
        "jobExp": 12070,
        "isStar": 0,
        "isDead": 0,
        "isSpecial": 0
      },
      {
        "id": "20033",
        "name": "疯狂鬣狗",
        "avatar": "Crazy_dog",
        "type": 1,
        "race": 3,
        "nature": 2,
        "size": 2,
        "level": 143,
        "hp": 53902600,
        "baseExp": 16463,
        "jobExp": 12378,
        "isStar": 0,
        "isDead": 0,
        "isSpecial": 0
      },
      {
        "id": "20032",
        "name": "寒冰雕像",
        "avatar": "Ice_titan",
        "type": 1,
        "race": 0,
        "nature": 3,
        "size": 3,
        "level": 142,
        "hp": 52968100,
        "baseExp": 14041,
        "jobExp": 13632,
        "isStar": 0,
        "isDead": 0,
        "isSpecial": 0
      },
      {
        "id": "10194",
        "name": "红恶魔之眼",
        "avatar": "ReDevil_sEye",
        "type": 0,
        "race": 0,
        "nature": 2,
        "size": 1,
        "level": 141,
        "hp": 416500,
        "baseExp": 4845,
        "jobExp": 4405,
        "isStar": 0,
        "isDead": 0,
        "isSpecial": 0
      },
      {
        "id": "10193",
        "name": "恶魔之眼",
        "avatar": "Devil_sEye",
        "type": 0,
        "race": 0,
        "nature": 2,
        "size": 1,
        "level": 139,
        "hp": 402900,
        "baseExp": 5177,
        "jobExp": 4110,
        "isStar": 0,
        "isDead": 0,
        "isSpecial": 0
      },
      {
        "id": "10198",
        "name": "冰波利",
        "avatar": "Ice_poring",
        "type": 0,
        "race": 2,
        "nature": 3,
        "size": 2,
        "level": 138,
        "hp": 396100,
        "baseExp": 6081,
        "jobExp": 3534,
        "isStar": 0,
        "isDead": 0,
        "isSpecial": 0
      },
      {
        "id": "10192",
        "name": "鼬",
        "avatar": "Weasel",
        "type": 0,
        "race": 3,
        "nature": 2,
        "size": 2,
        "level": 137,
        "hp": 389400,
        "baseExp": 5239,
        "jobExp": 3971,
        "isStar": 0,
        "isDead": 0,
        "isSpecial": 0
      },
      {
        "id": "10197",
        "name": "雪兽",
        "avatar": "Snowbeast",
        "type": 0,
        "race": 0,
        "nature": 3,
        "size": 3,
        "level": 136,
        "hp": 382800,
        "baseExp": 5461,
        "jobExp": 3791,
        "isStar": 0,
        "isDead": 0,
        "isSpecial": 0
      },
      {
        "id": "10191",
        "name": "吃人草",
        "avatar": "Chomper",
        "type": 0,
        "race": 2,
        "nature": 1,
        "size": 2,
        "level": 135,
        "hp": 376200,
        "baseExp": 5912,
        "jobExp": 3479,
        "isStar": 0,
        "isDead": 0,
        "isSpecial": 0
      },
      {
        "id": "10196",
        "name": "小雪兽",
        "avatar": "Snowbeast_S",
        "type": 0,
        "race": 0,
        "nature": 3,
        "size": 1,
        "level": 134,
        "hp": 366000,
        "baseExp": 6490,
        "jobExp": 3089,
        "isStar": 0,
        "isDead": 0,
        "isSpecial": 0
      },
      {
        "id": "10190",
        "name": "石头波利",
        "avatar": "Stone_Poring",
        "type": 0,
        "race": 0,
        "nature": 1,
        "size": 1,
        "level": 133,
        "hp": 359500,
        "baseExp": 5463,
        "jobExp": 3635,
        "isStar": 0,
        "isDead": 0,
        "isSpecial": 0
      },
      {
        "id": "10195",
        "name": "邪恶妖精",
        "avatar": "Little_monster",
        "type": 0,
        "race": 7,
        "nature": 6,
        "size": 3,
        "level": 132,
        "hp": 353200,
        "baseExp": 5602,
        "jobExp": 3503,
        "isStar": 0,
        "isDead": 0,
        "isSpecial": 0
      },
      {
        "id": "30057",
        "name": "塔妮小姐",
        "avatar": "Lady_tanee",
        "type": 2,
        "race": 2,
        "nature": 2,
        "size": 3,
        "level": 30,
        "hp": 800000,
        "baseExp": 19800,
        "jobExp": 11513,
        "isStar": 0,
        "isDead": 0,
        "isSpecial": 0
      }
    ]
  }
}