{
  "code": 0,
  "status": "success",
  "timeStamp": 1642999482,
  "staticDomain": "http:\/\/rosc1.zhaiwuyu.com",
  "ip": "101.95.113.22",
  "language": "cn",
  "dbArea": 0,
  "data": {
    "page": 1,
    "pageSize": 30,
    "pageCount": 16,
    "total": 454,
    "list": [
      {
        "id": "30067",
        "name": "迷梦猫妖",
        "avatar": "n_cheshirecat",
        "type": 2,
        "race": 7,
        "nature": 6,
        "size": 3,
        "level": 180,
        "hp": 427293700,
        "baseExp": 70887,
        "jobExp": 37113,
        "isStar": 0,
        "isDead": 0,
        "isSpecial": 0
      },
      {
        "id": "10344",
        "name": "灵魂闪蝶",
        "avatar": "n_soulmorpho",
        "type": 0,
        "race": 0,
        "nature": 7,
        "size": 1,
        "level": 177,
        "hp": 1265100,
        "baseExp": 8145,
        "jobExp": 4330,
        "isStar": 0,
        "isDead": 0,
        "isSpecial": 0
      },
      {
        "id": "10346",
        "name": "流浪游魂",
        "avatar": "n_shadowghost",
        "type": 0,
        "race": 0,
        "nature": 8,
        "size": 2,
        "level": 176,
        "hp": 1245750,
        "baseExp": 7929,
        "jobExp": 4405,
        "isStar": 0,
        "isDead": 0,
        "isSpecial": 0
      },
      {
        "id": "20052",
        "name": "白鹫女王",
        "avatar": "n_baldeagle",
        "type": 1,
        "race": 3,
        "nature": 2,
        "size": 2,
        "level": 175,
        "hp": 106392000,
        "baseExp": 12923,
        "jobExp": 8077,
        "isStar": 0,
        "isDead": 0,
        "isSpecial": 0
      },
      {
        "id": "10342",
        "name": "锹形虫",
        "avatar": "n_stagbeetle",
        "type": 0,
        "race": 4,
        "nature": 1,
        "size": 2,
        "level": 174,
        "hp": 1207800,
        "baseExp": 8165,
        "jobExp": 4165,
        "isStar": 0,
        "isDead": 0,
        "isSpecial": 0
      },
      {
        "id": "10345",
        "name": "爆钻伞蜥",
        "avatar": "n_driller",
        "type": 0,
        "race": 3,
        "nature": 1,
        "size": 2,
        "level": 173,
        "hp": 1188900,
        "baseExp": 7623,
        "jobExp": 4429,
        "isStar": 0,
        "isDead": 0,
        "isSpecial": 0
      },
      {
        "id": "10341",
        "name": "精灵狐",
        "avatar": "n_foxelf",
        "type": 0,
        "race": 6,
        "nature": 5,
        "size": 2,
        "level": 171,
        "hp": 1163400,
        "baseExp": 7139,
        "jobExp": 4607,
        "isStar": 0,
        "isDead": 0,
        "isSpecial": 0
      },
      {
        "id": "10343",
        "name": "摄魂渡鸦",
        "avatar": "n_raven",
        "type": 0,
        "race": 7,
        "nature": 6,
        "size": 1,
        "level": 170,
        "hp": 1144950,
        "baseExp": 6853,
        "jobExp": 4724,
        "isStar": 0,
        "isDead": 0,
        "isSpecial": 0
      },
      {
        "id": "10340",
        "name": "绒绒鹿",
        "avatar": "n_fluffdeer",
        "type": 0,
        "race": 3,
        "nature": 2,
        "size": 3,
        "level": 168,
        "hp": 1108350,
        "baseExp": 7397,
        "jobExp": 4304,
        "isStar": 0,
        "isDead": 0,
        "isSpecial": 0
      },
      {
        "id": "204220",
        "name": "塔妮小姐",
        "avatar": "n_ladytanee_dead",
        "type": 2,
        "race": 2,
        "nature": 8,
        "size": 3,
        "level": 150,
        "hp": 240000000,
        "baseExp": 1,
        "jobExp": 1,
        "isStar": 0,
        "isDead": 1,
        "isSpecial": 0
      },
      {
        "id": "10339",
        "name": "幽暗风灵",
        "avatar": "Hurricane_R",
        "type": 0,
        "race": 7,
        "nature": 6,
        "size": 2,
        "level": 173,
        "hp": 1075200,
        "baseExp": 7623,
        "jobExp": 4429,
        "isStar": 0,
        "isDead": 0,
        "isSpecial": 0
      },
      {
        "id": "10338",
        "name": "月夜蝙蝠",
        "avatar": "Farmiliar_R1",
        "type": 0,
        "race": 3,
        "nature": 6,
        "size": 1,
        "level": 170,
        "hp": 1026000,
        "baseExp": 7307,
        "jobExp": 4460,
        "isStar": 0,
        "isDead": 0,
        "isSpecial": 0
      },
      {
        "id": "30065",
        "name": "塔奥群卡",
        "avatar": "Tao_Gunka",
        "type": 2,
        "race": 7,
        "nature": 0,
        "size": 3,
        "level": 175,
        "hp": 368321800,
        "baseExp": 105664,
        "jobExp": 72871,
        "isStar": 0,
        "isDead": 0,
        "isSpecial": 0
      },
      {
        "id": "10334",
        "name": "流氓",
        "avatar": "Mobster",
        "type": 0,
        "race": 1,
        "nature": 0,
        "size": 2,
        "level": 174,
        "hp": 1091850,
        "baseExp": 8165,
        "jobExp": 4165,
        "isStar": 0,
        "isDead": 0,
        "isSpecial": 0
      },
      {
        "id": "20051",
        "name": "矿石精",
        "avatar": "Mineral_Mini",
        "type": 1,
        "race": 0,
        "nature": 1,
        "size": 2,
        "level": 173,
        "hp": 95190400,
        "baseExp": 22836,
        "jobExp": 13277,
        "isStar": 0,
        "isDead": 0,
        "isSpecial": 0
      },
      {
        "id": "10337",
        "name": "鳄鱼人",
        "avatar": "Alligator",
        "type": 0,
        "race": 3,
        "nature": 3,
        "size": 2,
        "level": 172,
        "hp": 1058700,
        "baseExp": 7577,
        "jobExp": 4403,
        "isStar": 0,
        "isDead": 0,
        "isSpecial": 0
      },
      {
        "id": "10333",
        "name": "卡拉蟹",
        "avatar": "kalaxie",
        "type": 0,
        "race": 5,
        "nature": 3,
        "size": 1,
        "level": 171,
        "hp": 1042350,
        "baseExp": 7212,
        "jobExp": 4565,
        "isStar": 0,
        "isDead": 0,
        "isSpecial": 0
      },
      {
        "id": "30064",
        "name": "魔鬼大乌贼",
        "avatar": "Kraken_V",
        "type": 2,
        "race": 5,
        "nature": 3,
        "size": 3,
        "level": 170,
        "hp": 344036800,
        "baseExp": 122560,
        "jobExp": 59209,
        "isStar": 0,
        "isDead": 0,
        "isSpecial": 0
      },
      {
        "id": "10336",
        "name": "奈吉鸟",
        "avatar": "Raggler",
        "type": 0,
        "race": 3,
        "nature": 2,
        "size": 1,
        "level": 169,
        "hp": 1009950,
        "baseExp": 7854,
        "jobExp": 4088,
        "isStar": 0,
        "isDead": 0,
        "isSpecial": 0
      },
      {
        "id": "10332",
        "name": "海豹宝宝",
        "avatar": "Fur_seal",
        "type": 0,
        "race": 3,
        "nature": 3,
        "size": 2,
        "level": 168,
        "hp": 1003950,
        "baseExp": 7397,
        "jobExp": 4304,
        "isStar": 0,
        "isDead": 0,
        "isSpecial": 0
      },
      {
        "id": "20050",
        "name": "大脚龙虾",
        "avatar": "King_dramoh",
        "type": 1,
        "race": 5,
        "nature": 3,
        "size": 3,
        "level": 167,
        "hp": 87384600,
        "baseExp": 23257,
        "jobExp": 12111,
        "isStar": 0,
        "isDead": 0,
        "isSpecial": 0
      },
      {
        "id": "10335",
        "name": "贝壳魔灵",
        "avatar": "Shellfish",
        "type": 0,
        "race": 5,
        "nature": 3,
        "size": 1,
        "level": 166,
        "hp": 972150,
        "baseExp": 6955,
        "jobExp": 4460,
        "isStar": 0,
        "isDead": 0,
        "isSpecial": 0
      },
      {
        "id": "10331",
        "name": "啤酒企鹅",
        "avatar": "BeerPenguin",
        "type": 0,
        "race": 3,
        "nature": 1,
        "size": 1,
        "level": 165,
        "hp": 956400,
        "baseExp": 6726,
        "jobExp": 4541,
        "isStar": 0,
        "isDead": 0,
        "isSpecial": 0
      },
      {
        "id": "204210",
        "name": "兽人酋长",
        "avatar": "Orc_R",
        "type": 2,
        "race": 0,
        "nature": 8,
        "size": 3,
        "level": 150,
        "hp": 225000000,
        "baseExp": 1,
        "jobExp": 1,
        "isStar": 0,
        "isDead": 1,
        "isSpecial": 0
      },
      {
        "id": "204200",
        "name": "黑暗之王",
        "avatar": "Dark_Lord_R",
        "type": 2,
        "race": 7,
        "nature": 8,
        "size": 3,
        "level": 150,
        "hp": 200000000,
        "baseExp": 1,
        "jobExp": 1,
        "isStar": 0,
        "isDead": 1,
        "isSpecial": 0
      },
      {
        "id": "10274",
        "name": "荒野大斧犬妖",
        "avatar": "Kobold_R",
        "type": 0,
        "race": 1,
        "nature": 2,
        "size": 2,
        "level": 130,
        "hp": 280000,
        "baseExp": 3173,
        "jobExp": 1843,
        "isStar": 0,
        "isDead": 0,
        "isSpecial": 0
      },
      {
        "id": "10273",
        "name": "荒野榔头犬妖",
        "avatar": "Kobold_R",
        "type": 0,
        "race": 1,
        "nature": 9,
        "size": 2,
        "level": 128,
        "hp": 243600,
        "baseExp": 3123,
        "jobExp": 1816,
        "isStar": 0,
        "isDead": 0,
        "isSpecial": 0
      },
      {
        "id": "10272",
        "name": "荒野刺锤犬妖",
        "avatar": "Kobold_R",
        "type": 0,
        "race": 1,
        "nature": 4,
        "size": 2,
        "level": 126,
        "hp": 208400,
        "baseExp": 3057,
        "jobExp": 1716,
        "isStar": 0,
        "isDead": 0,
        "isSpecial": 0
      },
      {
        "id": "10271",
        "name": "荒野之鼠",
        "avatar": "Tarou_R",
        "type": 0,
        "race": 3,
        "nature": 6,
        "size": 1,
        "level": 125,
        "hp": 167800,
        "baseExp": 2975,
        "jobExp": 1874,
        "isStar": 0,
        "isDead": 0,
        "isSpecial": 0
      },
      {
        "id": "10270",
        "name": "荒野食人花",
        "avatar": "flora_R",
        "type": 0,
        "race": 2,
        "nature": 1,
        "size": 2,
        "level": 123,
        "hp": 129600,
        "baseExp": 2867,
        "jobExp": 1879,
        "isStar": 0,
        "isDead": 0,
        "isSpecial": 0
      }
    ],
    "partner": {
      "id": 30001,
      "pos": 8,
      "title": "交易所订阅",
      "tip": "",
      "pic": "\/\/rosc3.zhaiwuyu.com\/partner\/self\/find-exchange-202103.jpg",
      "link": "http:\/\/romel.wiki\/article\/exchange-remind"
    }
  }
}