{
  "code": 0,
  "status": "success",
  "timeStamp": 1642845321,
  "staticDomain": "http:\/\/rosc1.zhaiwuyu.com",
  "ip": "101.87.200.160",
  "language": "cn",
  "dbArea": 0,
  "data": {
    "page": 15,
    "pageSize": 30,
    "pageCount": 16,
    "total": 454,
    "list": [
      {
        "id": "10013",
        "name": "树精",
        "avatar": "Wilow",
        "type": 0,
        "race": 2,
        "nature": 1,
        "size": 2,
        "level": 21,
        "hp": 600,
        "baseExp": 271,
        "jobExp": 218,
        "isStar": 0,
        "isDead": 0,
        "isSpecial": 0
      },
      {
        "id": "120014",
        "name": "克瑞米★",
        "avatar": "creamy",
        "type": 101,
        "race": 4,
        "nature": 2,
        "size": 1,
        "level": 20,
        "hp": 3759,
        "baseExp": 650,
        "jobExp": 435,
        "isStar": 1,
        "isDead": 0,
        "isSpecial": 0
      },
      {
        "id": "120009",
        "name": "玛勒盗虫★",
        "avatar": "GThiefBug",
        "type": 101,
        "race": 4,
        "nature": 6,
        "size": 2,
        "level": 20,
        "hp": 4539,
        "baseExp": 695,
        "jobExp": 290,
        "isStar": 1,
        "isDead": 0,
        "isSpecial": 0
      },
      {
        "id": "20003",
        "name": "摇滚蝗虫",
        "avatar": "Rocker",
        "type": 1,
        "race": 4,
        "nature": 1,
        "size": 2,
        "level": 20,
        "hp": 56738,
        "baseExp": 2222,
        "jobExp": 1778,
        "isStar": 0,
        "isDead": 0,
        "isSpecial": 0
      },
      {
        "id": "10014",
        "name": "克瑞米",
        "avatar": "creamy",
        "type": 0,
        "race": 4,
        "nature": 2,
        "size": 1,
        "level": 20,
        "hp": 1500,
        "baseExp": 286,
        "jobExp": 192,
        "isStar": 0,
        "isDead": 0,
        "isSpecial": 0
      },
      {
        "id": "10009",
        "name": "玛勒盗虫",
        "avatar": "GThiefBug",
        "type": 0,
        "race": 4,
        "nature": 6,
        "size": 2,
        "level": 20,
        "hp": 1500,
        "baseExp": 306,
        "jobExp": 128,
        "isStar": 0,
        "isDead": 0,
        "isSpecial": 0
      },
      {
        "id": "10008",
        "name": "浮勒盗虫",
        "avatar": "Thiefbug",
        "type": 0,
        "race": 4,
        "nature": 6,
        "size": 2,
        "level": 20,
        "hp": 1500,
        "baseExp": 247,
        "jobExp": 126,
        "isStar": 0,
        "isDead": 0,
        "isSpecial": 0
      },
      {
        "id": "10012",
        "name": "蝗虫",
        "avatar": "Rocker",
        "type": 0,
        "race": 4,
        "nature": 1,
        "size": 2,
        "level": 19,
        "hp": 500,
        "baseExp": 247,
        "jobExp": 196,
        "isStar": 0,
        "isDead": 0,
        "isSpecial": 0
      },
      {
        "id": "10007",
        "name": "吸血蝙蝠",
        "avatar": "Farmiliar",
        "type": 0,
        "race": 3,
        "nature": 6,
        "size": 1,
        "level": 17,
        "hp": 625,
        "baseExp": 225,
        "jobExp": 119,
        "isStar": 0,
        "isDead": 0,
        "isSpecial": 0
      },
      {
        "id": "10011",
        "name": "溜溜猴",
        "avatar": "Yoyo",
        "type": 0,
        "race": 3,
        "nature": 1,
        "size": 1,
        "level": 15,
        "hp": 450,
        "baseExp": 328,
        "jobExp": 132,
        "isStar": 0,
        "isDead": 0,
        "isSpecial": 0
      },
      {
        "id": "10006",
        "name": "魔菇",
        "avatar": "Spore",
        "type": 0,
        "race": 2,
        "nature": 3,
        "size": 2,
        "level": 15,
        "hp": 600,
        "baseExp": 106,
        "jobExp": 172,
        "isStar": 0,
        "isDead": 0,
        "isSpecial": 0
      },
      {
        "id": "40013",
        "name": "盗虫卵",
        "avatar": "ThiefBug_Egg",
        "type": 0,
        "race": 4,
        "nature": 6,
        "size": 1,
        "level": 13,
        "hp": 600,
        "baseExp": 1,
        "jobExp": 1,
        "isStar": 0,
        "isDead": 0,
        "isSpecial": 0
      },
      {
        "id": "10010",
        "name": "苍蝇",
        "avatar": "ChonChon",
        "type": 0,
        "race": 4,
        "nature": 2,
        "size": 1,
        "level": 13,
        "hp": 625,
        "baseExp": 207,
        "jobExp": 168,
        "isStar": 0,
        "isDead": 0,
        "isSpecial": 0
      },
      {
        "id": "10005",
        "name": "盗虫",
        "avatar": "Thiefbug",
        "type": 0,
        "race": 4,
        "nature": 0,
        "size": 1,
        "level": 13,
        "hp": 500,
        "baseExp": 247,
        "jobExp": 73,
        "isStar": 0,
        "isDead": 0,
        "isSpecial": 0
      },
      {
        "id": "40012",
        "name": "蚂蚁卵",
        "avatar": "Ant_Egg",
        "type": 0,
        "race": 0,
        "nature": 0,
        "size": 1,
        "level": 12,
        "hp": 5000,
        "baseExp": 1,
        "jobExp": 1,
        "isStar": 0,
        "isDead": 0,
        "isSpecial": 0
      },
      {
        "id": "20017",
        "name": "波利之王",
        "avatar": "Masterring",
        "type": 1,
        "race": 2,
        "nature": 3,
        "size": 2,
        "level": 12,
        "hp": 25950,
        "baseExp": 2013,
        "jobExp": 671,
        "isStar": 0,
        "isDead": 0,
        "isSpecial": 0
      },
      {
        "id": "10004",
        "name": "白鼠",
        "avatar": "Tarou",
        "type": 0,
        "race": 3,
        "nature": 6,
        "size": 1,
        "level": 11,
        "hp": 350,
        "baseExp": 183,
        "jobExp": 91,
        "isStar": 0,
        "isDead": 0,
        "isSpecial": 0
      },
      {
        "id": "20021",
        "name": "酉之小鸡",
        "avatar": "Picky_Egg",
        "type": 1,
        "race": 2,
        "nature": 4,
        "size": 1,
        "level": 10,
        "hp": 50000,
        "baseExp": 466,
        "jobExp": 427,
        "isStar": 0,
        "isDead": 0,
        "isSpecial": 0
      },
      {
        "id": "20002",
        "name": "蓝疯兔",
        "avatar": "Eclipse",
        "type": 1,
        "race": 3,
        "nature": 0,
        "size": 2,
        "level": 10,
        "hp": 18300,
        "baseExp": 1026,
        "jobExp": 940,
        "isStar": 0,
        "isDead": 0,
        "isSpecial": 0
      },
      {
        "id": "40011",
        "name": "小鸡",
        "avatar": "Picky",
        "type": 0,
        "race": 3,
        "nature": 4,
        "size": 1,
        "level": 9,
        "hp": 64,
        "baseExp": 1,
        "jobExp": 1,
        "isStar": 0,
        "isDead": 0,
        "isSpecial": 0
      },
      {
        "id": "20001",
        "name": "狸猫",
        "avatar": "Smokie",
        "type": 1,
        "race": 3,
        "nature": 1,
        "size": 1,
        "level": 8,
        "hp": 10350,
        "baseExp": 1006,
        "jobExp": 645,
        "isStar": 0,
        "isDead": 0,
        "isSpecial": 0
      },
      {
        "id": "40010",
        "name": "大嘴鸟蛋",
        "avatar": "Pecopeco_Egg",
        "type": 0,
        "race": 0,
        "nature": 0,
        "size": 1,
        "level": 6,
        "hp": 2000,
        "baseExp": 1,
        "jobExp": 1,
        "isStar": 0,
        "isDead": 0,
        "isSpecial": 0
      },
      {
        "id": "40009",
        "name": "虫蛹",
        "avatar": "pupa",
        "type": 0,
        "race": 4,
        "nature": 1,
        "size": 1,
        "level": 4,
        "hp": 300,
        "baseExp": 1,
        "jobExp": 1,
        "isStar": 0,
        "isDead": 0,
        "isSpecial": 0
      },
      {
        "id": "10003",
        "name": "绿棉虫",
        "avatar": "lvmianchong",
        "type": 0,
        "race": 4,
        "nature": 1,
        "size": 1,
        "level": 3,
        "hp": 60,
        "baseExp": 42,
        "jobExp": 29,
        "isStar": 0,
        "isDead": 0,
        "isSpecial": 0
      },
      {
        "id": "10002",
        "name": "疯兔",
        "avatar": "fengtu",
        "type": 0,
        "race": 3,
        "nature": 0,
        "size": 1,
        "level": 2,
        "hp": 48,
        "baseExp": 40,
        "jobExp": 14,
        "isStar": 0,
        "isDead": 0,
        "isSpecial": 0
      },
      {
        "id": "40006",
        "name": "光芒草",
        "avatar": "shining_Plant",
        "type": 0,
        "race": 2,
        "nature": 5,
        "size": 1,
        "level": 1,
        "hp": 10,
        "baseExp": 1,
        "jobExp": 1,
        "isStar": 0,
        "isDead": 0,
        "isSpecial": 0
      },
      {
        "id": "40004",
        "name": "蓝草",
        "avatar": "Bule_Plant",
        "type": 0,
        "race": 2,
        "nature": 1,
        "size": 1,
        "level": 1,
        "hp": 10,
        "baseExp": 1,
        "jobExp": 1,
        "isStar": 0,
        "isDead": 0,
        "isSpecial": 0
      },
      {
        "id": "40003",
        "name": "黄草",
        "avatar": "Yellow_Plant",
        "type": 0,
        "race": 2,
        "nature": 1,
        "size": 1,
        "level": 1,
        "hp": 10,
        "baseExp": 1,
        "jobExp": 1,
        "isStar": 0,
        "isDead": 0,
        "isSpecial": 0
      },
      {
        "id": "40002",
        "name": "绿草",
        "avatar": "Green_Plant",
        "type": 0,
        "race": 2,
        "nature": 1,
        "size": 1,
        "level": 1,
        "hp": 10,
        "baseExp": 1,
        "jobExp": 1,
        "isStar": 0,
        "isDead": 0,
        "isSpecial": 0
      },
      {
        "id": "40001",
        "name": "红草",
        "avatar": "Red_Plant",
        "type": 0,
        "race": 2,
        "nature": 1,
        "size": 1,
        "level": 1,
        "hp": 10,
        "baseExp": 1,
        "jobExp": 1,
        "isStar": 0,
        "isDead": 0,
        "isSpecial": 0
      }
    ]
  }
}