{
  "code": 0,
  "status": "success",
  "timeStamp": 1642845310,
  "staticDomain": "http:\/\/rosc1.zhaiwuyu.com",
  "ip": "101.87.200.160",
  "language": "cn",
  "dbArea": 0,
  "data": {
    "page": 14,
    "pageSize": 30,
    "pageCount": 16,
    "total": 454,
    "list": [
      {
        "id": "120033",
        "name": "大斧哥布灵★",
        "avatar": "Goblin2",
        "type": 101,
        "race": 1,
        "nature": 1,
        "size": 2,
        "level": 35,
        "hp": 43917,
        "baseExp": 1325,
        "jobExp": 655,
        "isStar": 1,
        "isDead": 0,
        "isSpecial": 0
      },
      {
        "id": "120032",
        "name": "长矛哥布灵★",
        "avatar": "Goblin4",
        "type": 101,
        "race": 1,
        "nature": 2,
        "size": 2,
        "level": 35,
        "hp": 43917,
        "baseExp": 1195,
        "jobExp": 730,
        "isStar": 1,
        "isDead": 0,
        "isSpecial": 0
      },
      {
        "id": "120031",
        "name": "刺锤哥布灵★",
        "avatar": "Goblin5",
        "type": 101,
        "race": 1,
        "nature": 3,
        "size": 2,
        "level": 35,
        "hp": 43917,
        "baseExp": 1175,
        "jobExp": 745,
        "isStar": 1,
        "isDead": 0,
        "isSpecial": 0
      },
      {
        "id": "120030",
        "name": "榔头哥布灵★",
        "avatar": "Goblin3",
        "type": 101,
        "race": 1,
        "nature": 1,
        "size": 2,
        "level": 35,
        "hp": 43917,
        "baseExp": 1185,
        "jobExp": 735,
        "isStar": 1,
        "isDead": 0,
        "isSpecial": 0
      },
      {
        "id": "120029",
        "name": "刺刀哥布灵★",
        "avatar": "Goblin",
        "type": 101,
        "race": 1,
        "nature": 2,
        "size": 2,
        "level": 35,
        "hp": 43917,
        "baseExp": 1200,
        "jobExp": 725,
        "isStar": 1,
        "isDead": 0,
        "isSpecial": 0
      },
      {
        "id": "30003",
        "name": "恶魔波利",
        "avatar": "Deviling",
        "type": 2,
        "race": 7,
        "nature": 6,
        "size": 2,
        "level": 35,
        "hp": 2195850,
        "baseExp": 10600,
        "jobExp": 20698,
        "isStar": 0,
        "isDead": 0,
        "isSpecial": 0
      },
      {
        "id": "20004",
        "name": "幽灵波利",
        "avatar": "Ghostring",
        "type": 1,
        "race": 7,
        "nature": 7,
        "size": 2,
        "level": 35,
        "hp": 306338,
        "baseExp": 3256,
        "jobExp": 3481,
        "isStar": 0,
        "isDead": 0,
        "isSpecial": 0
      },
      {
        "id": "10033",
        "name": "大斧哥布灵",
        "avatar": "Goblin2",
        "type": 0,
        "race": 1,
        "nature": 1,
        "size": 2,
        "level": 35,
        "hp": 4505,
        "baseExp": 583,
        "jobExp": 289,
        "isStar": 0,
        "isDead": 0,
        "isSpecial": 0
      },
      {
        "id": "10032",
        "name": "长矛哥布灵",
        "avatar": "Goblin4",
        "type": 0,
        "race": 1,
        "nature": 2,
        "size": 2,
        "level": 35,
        "hp": 4505,
        "baseExp": 526,
        "jobExp": 322,
        "isStar": 0,
        "isDead": 0,
        "isSpecial": 0
      },
      {
        "id": "10031",
        "name": "刺锤哥布灵",
        "avatar": "Goblin5",
        "type": 0,
        "race": 1,
        "nature": 3,
        "size": 2,
        "level": 35,
        "hp": 4505,
        "baseExp": 517,
        "jobExp": 328,
        "isStar": 0,
        "isDead": 0,
        "isSpecial": 0
      },
      {
        "id": "10030",
        "name": "榔头哥布灵",
        "avatar": "Goblin3",
        "type": 0,
        "race": 1,
        "nature": 1,
        "size": 2,
        "level": 35,
        "hp": 4505,
        "baseExp": 522,
        "jobExp": 324,
        "isStar": 0,
        "isDead": 0,
        "isSpecial": 0
      },
      {
        "id": "10029",
        "name": "刺刀哥布灵",
        "avatar": "Goblin",
        "type": 0,
        "race": 1,
        "nature": 2,
        "size": 2,
        "level": 35,
        "hp": 4505,
        "baseExp": 528,
        "jobExp": 319,
        "isStar": 0,
        "isDead": 0,
        "isSpecial": 0
      },
      {
        "id": "10027",
        "name": "剑鱼",
        "avatar": "Swordfish",
        "type": 0,
        "race": 5,
        "nature": 3,
        "size": 2,
        "level": 34,
        "hp": 4108,
        "baseExp": 500,
        "jobExp": 319,
        "isStar": 0,
        "isDead": 0,
        "isSpecial": 0
      },
      {
        "id": "120026",
        "name": "人鱼★",
        "avatar": "Obeaune",
        "type": 101,
        "race": 5,
        "nature": 3,
        "size": 2,
        "level": 33,
        "hp": 35727,
        "baseExp": 1105,
        "jobExp": 700,
        "isStar": 1,
        "isDead": 0,
        "isSpecial": 0
      },
      {
        "id": "10026",
        "name": "人鱼",
        "avatar": "Obeaune",
        "type": 0,
        "race": 5,
        "nature": 3,
        "size": 2,
        "level": 33,
        "hp": 3711,
        "baseExp": 487,
        "jobExp": 308,
        "isStar": 0,
        "isDead": 0,
        "isSpecial": 0
      },
      {
        "id": "40014",
        "name": "气泡虫",
        "avatar": "MarineSphere",
        "type": 0,
        "race": 2,
        "nature": 3,
        "size": 1,
        "level": 32,
        "hp": 3000,
        "baseExp": 1,
        "jobExp": 1,
        "isStar": 0,
        "isDead": 0,
        "isSpecial": 0
      },
      {
        "id": "10025",
        "name": "水母",
        "avatar": "Marina",
        "type": 0,
        "race": 2,
        "nature": 3,
        "size": 1,
        "level": 32,
        "hp": 2618,
        "baseExp": 469,
        "jobExp": 302,
        "isStar": 0,
        "isDead": 0,
        "isSpecial": 0
      },
      {
        "id": "10024",
        "name": "达拉蛙",
        "avatar": "Thara",
        "type": 0,
        "race": 5,
        "nature": 3,
        "size": 2,
        "level": 31,
        "hp": 2917,
        "baseExp": 458,
        "jobExp": 289,
        "isStar": 0,
        "isDead": 0,
        "isSpecial": 0
      },
      {
        "id": "30002",
        "name": "黄金虫",
        "avatar": "Golden_Bug",
        "type": 2,
        "race": 4,
        "nature": 4,
        "size": 3,
        "level": 30,
        "hp": 607593,
        "baseExp": 21290,
        "jobExp": 10646,
        "isStar": 0,
        "isDead": 0,
        "isSpecial": 0
      },
      {
        "id": "10022",
        "name": "邪骸战士",
        "avatar": "Skeleton",
        "type": 0,
        "race": 8,
        "nature": 8,
        "size": 2,
        "level": 30,
        "hp": 2520,
        "baseExp": 394,
        "jobExp": 308,
        "isStar": 0,
        "isDead": 0,
        "isSpecial": 0
      },
      {
        "id": "10023",
        "name": "螃蟹",
        "avatar": "Vadon",
        "type": 0,
        "race": 5,
        "nature": 3,
        "size": 1,
        "level": 29,
        "hp": 3200,
        "baseExp": 429,
        "jobExp": 271,
        "isStar": 0,
        "isDead": 0,
        "isSpecial": 0
      },
      {
        "id": "10021",
        "name": "毒魔菇",
        "avatar": "PoisenSpore",
        "type": 0,
        "race": 2,
        "nature": 9,
        "size": 2,
        "level": 28,
        "hp": 2240,
        "baseExp": 462,
        "jobExp": 234,
        "isStar": 0,
        "isDead": 0,
        "isSpecial": 0
      },
      {
        "id": "10020",
        "name": "邪骸海盗",
        "avatar": "Skeleton_Pirate",
        "type": 0,
        "race": 8,
        "nature": 8,
        "size": 2,
        "level": 27,
        "hp": 2104,
        "baseExp": 407,
        "jobExp": 247,
        "isStar": 0,
        "isDead": 0,
        "isSpecial": 0
      },
      {
        "id": "10019",
        "name": "白幽灵",
        "avatar": "Whisper",
        "type": 0,
        "race": 7,
        "nature": 7,
        "size": 1,
        "level": 26,
        "hp": 1206,
        "baseExp": 293,
        "jobExp": 295,
        "isStar": 0,
        "isDead": 0,
        "isSpecial": 0
      },
      {
        "id": "30001",
        "name": "天使波利",
        "avatar": "Angeling",
        "type": 2,
        "race": 6,
        "nature": 5,
        "size": 2,
        "level": 25,
        "hp": 524587,
        "baseExp": 13097,
        "jobExp": 11572,
        "isStar": 0,
        "isDead": 0,
        "isSpecial": 0
      },
      {
        "id": "10018",
        "name": "罗达蛙",
        "avatar": "RodaFrog",
        "type": 0,
        "race": 5,
        "nature": 3,
        "size": 2,
        "level": 25,
        "hp": 1832,
        "baseExp": 317,
        "jobExp": 264,
        "isStar": 0,
        "isDead": 0,
        "isSpecial": 0
      },
      {
        "id": "10016",
        "name": "狼",
        "avatar": "Wolf",
        "type": 0,
        "race": 3,
        "nature": 1,
        "size": 2,
        "level": 24,
        "hp": 1696,
        "baseExp": 361,
        "jobExp": 220,
        "isStar": 0,
        "isDead": 0,
        "isSpecial": 0
      },
      {
        "id": "120017",
        "name": "海葵★",
        "avatar": "Hydra",
        "type": 101,
        "race": 2,
        "nature": 3,
        "size": 1,
        "level": 23,
        "hp": 8457,
        "baseExp": 745,
        "jobExp": 505,
        "isStar": 1,
        "isDead": 0,
        "isSpecial": 0
      },
      {
        "id": "10017",
        "name": "海葵",
        "avatar": "Hydra",
        "type": 0,
        "race": 2,
        "nature": 3,
        "size": 1,
        "level": 23,
        "hp": 1206,
        "baseExp": 328,
        "jobExp": 223,
        "isStar": 0,
        "isDead": 0,
        "isSpecial": 0
      },
      {
        "id": "10015",
        "name": "曼陀罗魔花",
        "avatar": "Mandragora",
        "type": 0,
        "race": 2,
        "nature": 1,
        "size": 2,
        "level": 22,
        "hp": 1424,
        "baseExp": 306,
        "jobExp": 218,
        "isStar": 0,
        "isDead": 0,
        "isSpecial": 0
      }
    ]
  }
}