{
  "code": 0,
  "status": "success",
  "timeStamp": 1642845290,
  "staticDomain": "http:\/\/rosc1.zhaiwuyu.com",
  "ip": "101.87.200.160",
  "language": "cn",
  "dbArea": 0,
  "data": {
    "page": 12,
    "pageSize": 30,
    "pageCount": 16,
    "total": 454,
    "list": [
      {
        "id": "30011",
        "name": "虎王",
        "avatar": "Eddga",
        "type": 2,
        "race": 3,
        "nature": 4,
        "size": 3,
        "level": 70,
        "hp": 7606331,
        "baseExp": 49030,
        "jobExp": 25215,
        "isStar": 0,
        "isDead": 0,
        "isSpecial": 0
      },
      {
        "id": "20018",
        "name": "安毕斯",
        "avatar": "Anubis",
        "type": 1,
        "race": 1,
        "nature": 8,
        "size": 3,
        "level": 70,
        "hp": 2173238,
        "baseExp": 7859,
        "jobExp": 6176,
        "isStar": 0,
        "isDead": 0,
        "isSpecial": 0
      },
      {
        "id": "20009",
        "name": "狮鹫兽",
        "avatar": "Grypjon",
        "type": 1,
        "race": 3,
        "nature": 2,
        "size": 3,
        "level": 70,
        "hp": 2173238,
        "baseExp": 8092,
        "jobExp": 6039,
        "isStar": 0,
        "isDead": 0,
        "isSpecial": 0
      },
      {
        "id": "10068",
        "name": "兽人战士",
        "avatar": "Orc",
        "type": 0,
        "race": 1,
        "nature": 1,
        "size": 2,
        "level": 70,
        "hp": 36238,
        "baseExp": 1287,
        "jobExp": 504,
        "isStar": 0,
        "isDead": 0,
        "isSpecial": 0
      },
      {
        "id": "10066",
        "name": "土人",
        "avatar": "Dokebi",
        "type": 0,
        "race": 7,
        "nature": 6,
        "size": 1,
        "level": 69,
        "hp": 34720,
        "baseExp": 1131,
        "jobExp": 579,
        "isStar": 0,
        "isDead": 0,
        "isSpecial": 0
      },
      {
        "id": "10064",
        "name": "马尔杜克",
        "avatar": "Marduk",
        "type": 0,
        "race": 1,
        "nature": 4,
        "size": 3,
        "level": 68,
        "hp": 40512,
        "baseExp": 1023,
        "jobExp": 623,
        "isStar": 0,
        "isDead": 0,
        "isSpecial": 0
      },
      {
        "id": "120065",
        "name": "鬼女★",
        "avatar": "Sohee",
        "type": 101,
        "race": 7,
        "nature": 3,
        "size": 2,
        "level": 67,
        "hp": 131286,
        "baseExp": 2280,
        "jobExp": 1400,
        "isStar": 1,
        "isDead": 0,
        "isSpecial": 0
      },
      {
        "id": "10065",
        "name": "鬼女",
        "avatar": "Sohee",
        "type": 0,
        "race": 7,
        "nature": 3,
        "size": 2,
        "level": 67,
        "hp": 31703,
        "baseExp": 1004,
        "jobExp": 616,
        "isStar": 0,
        "isDead": 0,
        "isSpecial": 0
      },
      {
        "id": "10063",
        "name": "邪骸弓箭手",
        "avatar": "Skeleton",
        "type": 0,
        "race": 8,
        "nature": 8,
        "size": 2,
        "level": 66,
        "hp": 30196,
        "baseExp": 1015,
        "jobExp": 592,
        "isStar": 0,
        "isDead": 0,
        "isSpecial": 0
      },
      {
        "id": "30009",
        "name": "皮里恩",
        "avatar": "Phreeoni",
        "type": 2,
        "race": 3,
        "nature": 0,
        "size": 3,
        "level": 65,
        "hp": 4376437,
        "baseExp": 45661,
        "jobExp": 23338,
        "isStar": 0,
        "isDead": 0,
        "isSpecial": 0
      },
      {
        "id": "20020",
        "name": "枯树精",
        "avatar": "Wilow_Huge1",
        "type": 1,
        "race": 2,
        "nature": 1,
        "size": 2,
        "level": 65,
        "hp": 1496175,
        "baseExp": 7753,
        "jobExp": 5470,
        "isStar": 0,
        "isDead": 0,
        "isSpecial": 0
      },
      {
        "id": "10061",
        "name": "妖道",
        "avatar": "Bon_cun",
        "type": 0,
        "race": 8,
        "nature": 8,
        "size": 2,
        "level": 65,
        "hp": 28688,
        "baseExp": 1010,
        "jobExp": 577,
        "isStar": 0,
        "isDead": 0,
        "isSpecial": 0
      },
      {
        "id": "10062",
        "name": "米诺斯",
        "avatar": "Minorous",
        "type": 0,
        "race": 3,
        "nature": 4,
        "size": 3,
        "level": 64,
        "hp": 27181,
        "baseExp": 1116,
        "jobExp": 498,
        "isStar": 0,
        "isDead": 0,
        "isSpecial": 0
      },
      {
        "id": "10060",
        "name": "僵尸",
        "avatar": "Munak",
        "type": 0,
        "race": 8,
        "nature": 8,
        "size": 2,
        "level": 63,
        "hp": 25672,
        "baseExp": 1017,
        "jobExp": 537,
        "isStar": 0,
        "isDead": 0,
        "isSpecial": 0
      },
      {
        "id": "120058",
        "name": "鬼火★",
        "avatar": "Horong",
        "type": 101,
        "race": 0,
        "nature": 4,
        "size": 1,
        "level": 62,
        "hp": 102306,
        "baseExp": 2115,
        "jobExp": 1290,
        "isStar": 1,
        "isDead": 0,
        "isSpecial": 0
      },
      {
        "id": "10058",
        "name": "鬼火",
        "avatar": "Horong",
        "type": 0,
        "race": 0,
        "nature": 4,
        "size": 1,
        "level": 62,
        "hp": 24165,
        "baseExp": 931,
        "jobExp": 568,
        "isStar": 0,
        "isDead": 0,
        "isSpecial": 0
      },
      {
        "id": "10059",
        "name": "转转蛋",
        "avatar": "Eggyra",
        "type": 0,
        "race": 0,
        "nature": 7,
        "size": 2,
        "level": 61,
        "hp": 11216,
        "baseExp": 680,
        "jobExp": 698,
        "isStar": 0,
        "isDead": 0,
        "isSpecial": 0
      },
      {
        "id": "30008",
        "name": "蚁后",
        "avatar": "Maya",
        "type": 2,
        "race": 4,
        "nature": 1,
        "size": 3,
        "level": 60,
        "hp": 4648481,
        "baseExp": 46137,
        "jobExp": 19224,
        "isStar": 0,
        "isDead": 0,
        "isSpecial": 0
      },
      {
        "id": "10056",
        "name": "将军魔碑",
        "avatar": "Greatest_General",
        "type": 0,
        "race": 0,
        "nature": 4,
        "size": 2,
        "level": 60,
        "hp": 21150,
        "baseExp": 905,
        "jobExp": 548,
        "isStar": 0,
        "isDead": 0,
        "isSpecial": 0
      },
      {
        "id": "10057",
        "name": "野猪",
        "avatar": "Savage",
        "type": 0,
        "race": 3,
        "nature": 1,
        "size": 3,
        "level": 59,
        "hp": 24876,
        "baseExp": 1001,
        "jobExp": 476,
        "isStar": 0,
        "isDead": 0,
        "isSpecial": 0
      },
      {
        "id": "10055",
        "name": "大脚熊",
        "avatar": "Bigfoot",
        "type": 0,
        "race": 3,
        "nature": 1,
        "size": 3,
        "level": 58,
        "hp": 23851,
        "baseExp": 874,
        "jobExp": 531,
        "isStar": 0,
        "isDead": 0,
        "isSpecial": 0
      },
      {
        "id": "10053",
        "name": "蛇女伊丝",
        "avatar": "Isis",
        "type": 0,
        "race": 7,
        "nature": 6,
        "size": 3,
        "level": 57,
        "hp": 22826,
        "baseExp": 1023,
        "jobExp": 427,
        "isStar": 0,
        "isDead": 0,
        "isSpecial": 0
      },
      {
        "id": "10054",
        "name": "长老树精",
        "avatar": "Wilow2",
        "type": 0,
        "race": 2,
        "nature": 4,
        "size": 2,
        "level": 56,
        "hp": 17756,
        "baseExp": 834,
        "jobExp": 517,
        "isStar": 0,
        "isDead": 0,
        "isSpecial": 0
      },
      {
        "id": "30007",
        "name": "蜂后",
        "avatar": "Bee_Queen",
        "type": 2,
        "race": 4,
        "nature": 2,
        "size": 1,
        "level": 55,
        "hp": 2392031,
        "baseExp": 33176,
        "jobExp": 22922,
        "isStar": 0,
        "isDead": 0,
        "isSpecial": 0
      },
      {
        "id": "20008",
        "name": "流浪之狼",
        "avatar": "VagabondWolf",
        "type": 1,
        "race": 3,
        "nature": 1,
        "size": 2,
        "level": 55,
        "hp": 956813,
        "baseExp": 6526,
        "jobExp": 4649,
        "isStar": 0,
        "isDead": 0,
        "isSpecial": 0
      },
      {
        "id": "10101",
        "name": "巨石怪",
        "avatar": "Golem",
        "type": 0,
        "race": 0,
        "nature": 0,
        "size": 3,
        "level": 55,
        "hp": 20776,
        "baseExp": 1259,
        "jobExp": 253,
        "isStar": 0,
        "isDead": 0,
        "isSpecial": 0
      },
      {
        "id": "10052",
        "name": "木乃伊",
        "avatar": "mummy",
        "type": 0,
        "race": 8,
        "nature": 8,
        "size": 2,
        "level": 55,
        "hp": 16907,
        "baseExp": 737,
        "jobExp": 557,
        "isStar": 0,
        "isDead": 0,
        "isSpecial": 0
      },
      {
        "id": "10051",
        "name": "黑狐",
        "avatar": "Matyr",
        "type": 0,
        "race": 3,
        "nature": 6,
        "size": 2,
        "level": 54,
        "hp": 16058,
        "baseExp": 964,
        "jobExp": 407,
        "isStar": 0,
        "isDead": 0,
        "isSpecial": 0
      },
      {
        "id": "10049",
        "name": "沙漠之狼",
        "avatar": "DesertWolf",
        "type": 0,
        "race": 3,
        "nature": 4,
        "size": 2,
        "level": 53,
        "hp": 15210,
        "baseExp": 788,
        "jobExp": 491,
        "isStar": 0,
        "isDead": 0,
        "isSpecial": 0
      },
      {
        "id": "10050",
        "name": "邪骸士兵",
        "avatar": "Skeleton_Solider",
        "type": 0,
        "race": 8,
        "nature": 8,
        "size": 2,
        "level": 52,
        "hp": 14362,
        "baseExp": 784,
        "jobExp": 476,
        "isStar": 0,
        "isDead": 0,
        "isSpecial": 0
      }
    ]
  }
}