{
  "code": 0,
  "status": "success",
  "timeStamp": 1642845270,
  "staticDomain": "http:\/\/rosc1.zhaiwuyu.com",
  "ip": "101.87.200.160",
  "language": "cn",
  "dbArea": 0,
  "data": {
    "page": 10,
    "pageSize": 30,
    "pageCount": 16,
    "total": 454,
    "list": [
      {
        "id": "17301",
        "name": "虚弱的傀儡",
        "avatar": "Baphomet",
        "type": 1,
        "race": 7,
        "nature": 6,
        "size": 3,
        "level": 100,
        "hp": 21555318,
        "baseExp": 3732,
        "jobExp": 1318,
        "isStar": 0,
        "isDead": 0,
        "isSpecial": 0
      },
      {
        "id": "10096",
        "name": "邪骸浪人",
        "avatar": "Wander_Man",
        "type": 0,
        "race": 7,
        "nature": 2,
        "size": 2,
        "level": 99,
        "hp": 89017,
        "baseExp": 1268,
        "jobExp": 1037,
        "isStar": 0,
        "isDead": 0,
        "isSpecial": 0
      },
      {
        "id": "30020",
        "name": "血腥骑士",
        "avatar": "Bloody_Knight",
        "type": 2,
        "race": 0,
        "nature": 6,
        "size": 3,
        "level": 98,
        "hp": 17567662,
        "baseExp": 59913,
        "jobExp": 40377,
        "isStar": 0,
        "isDead": 0,
        "isSpecial": 0
      },
      {
        "id": "20022",
        "name": "迷幻之王",
        "avatar": "Dark_Illusion",
        "type": 1,
        "race": 7,
        "nature": 8,
        "size": 3,
        "level": 98,
        "hp": 9200000,
        "baseExp": 9500,
        "jobExp": 9520,
        "isStar": 0,
        "isDead": 0,
        "isSpecial": 0
      },
      {
        "id": "10091",
        "name": "卡利斯格",
        "avatar": "Khalitzburg",
        "type": 0,
        "race": 8,
        "nature": 8,
        "size": 3,
        "level": 98,
        "hp": 101206,
        "baseExp": 1452,
        "jobExp": 911,
        "isStar": 0,
        "isDead": 0,
        "isSpecial": 0
      },
      {
        "id": "10095",
        "name": "裘卡",
        "avatar": "Joker",
        "type": 0,
        "race": 1,
        "nature": 2,
        "size": 3,
        "level": 96,
        "hp": 94328,
        "baseExp": 1411,
        "jobExp": 900,
        "isStar": 0,
        "isDead": 0,
        "isSpecial": 0
      },
      {
        "id": "30019",
        "name": "凯美拉",
        "avatar": "Chimera",
        "type": 2,
        "race": 3,
        "nature": 4,
        "size": 3,
        "level": 95,
        "hp": 13504312,
        "baseExp": 61398,
        "jobExp": 37211,
        "isStar": 0,
        "isDead": 0,
        "isSpecial": 0
      },
      {
        "id": "20014",
        "name": "弑神者",
        "avatar": "Mysteltainn_Mini",
        "type": 1,
        "race": 0,
        "nature": 6,
        "size": 3,
        "level": 95,
        "hp": 9401725,
        "baseExp": 10565,
        "jobExp": 8440,
        "isStar": 0,
        "isDead": 0,
        "isSpecial": 0
      },
      {
        "id": "10092",
        "name": "风魔巫师",
        "avatar": "Wind_Ghost",
        "type": 0,
        "race": 7,
        "nature": 2,
        "size": 2,
        "level": 95,
        "hp": 74870,
        "baseExp": 1424,
        "jobExp": 874,
        "isStar": 0,
        "isDead": 0,
        "isSpecial": 0
      },
      {
        "id": "20016",
        "name": "艾斯恩魔女",
        "avatar": "Zherlthsh",
        "type": 1,
        "race": 1,
        "nature": 0,
        "size": 2,
        "level": 94,
        "hp": 4448925,
        "baseExp": 11828,
        "jobExp": 7553,
        "isStar": 0,
        "isDead": 0,
        "isSpecial": 0
      },
      {
        "id": "120094",
        "name": "小巴风特★",
        "avatar": "Baphomet_S",
        "type": 101,
        "race": 7,
        "nature": 6,
        "size": 1,
        "level": 93,
        "hp": 345696,
        "baseExp": 3355,
        "jobExp": 1835,
        "isStar": 1,
        "isDead": 0,
        "isSpecial": 0
      },
      {
        "id": "30018",
        "name": "鹗枭男爵",
        "avatar": "Owl_Baron",
        "type": 2,
        "race": 7,
        "nature": 0,
        "size": 3,
        "level": 93,
        "hp": 17296850,
        "baseExp": 67158,
        "jobExp": 32327,
        "isStar": 0,
        "isDead": 0,
        "isSpecial": 0
      },
      {
        "id": "10094",
        "name": "小巴风特",
        "avatar": "Baphomet_S",
        "type": 0,
        "race": 7,
        "nature": 6,
        "size": 1,
        "level": 93,
        "hp": 69214,
        "baseExp": 1477,
        "jobExp": 808,
        "isStar": 0,
        "isDead": 0,
        "isSpecial": 0
      },
      {
        "id": "20015",
        "name": "爱丽丝女仆",
        "avatar": "Alice",
        "type": 1,
        "race": 1,
        "nature": 0,
        "size": 2,
        "level": 92,
        "hp": 4193475,
        "baseExp": 11284,
        "jobExp": 7560,
        "isStar": 0,
        "isDead": 0,
        "isSpecial": 0
      },
      {
        "id": "10090",
        "name": "幽灵剑士",
        "avatar": "Raydric",
        "type": 0,
        "race": 1,
        "nature": 6,
        "size": 3,
        "level": 92,
        "hp": 80571,
        "baseExp": 1488,
        "jobExp": 784,
        "isStar": 0,
        "isDead": 0,
        "isSpecial": 0
      },
      {
        "id": "30017",
        "name": "迪塔勒泰晤勒",
        "avatar": "Detale",
        "type": 2,
        "race": 9,
        "nature": 6,
        "size": 3,
        "level": 90,
        "hp": 18453595,
        "baseExp": 68803,
        "jobExp": 29069,
        "isStar": 0,
        "isDead": 0,
        "isSpecial": 0
      },
      {
        "id": "20013",
        "name": "鹗枭首领",
        "avatar": "Owl_Duke",
        "type": 1,
        "race": 7,
        "nature": 0,
        "size": 3,
        "level": 90,
        "hp": 8644788,
        "baseExp": 13544,
        "jobExp": 5940,
        "isStar": 0,
        "isDead": 0,
        "isSpecial": 0
      },
      {
        "id": "10121",
        "name": "暗黑祭司",
        "avatar": "Dark_Priest",
        "type": 0,
        "race": 7,
        "nature": 8,
        "size": 2,
        "level": 90,
        "hp": 75000,
        "baseExp": 1272,
        "jobExp": 874,
        "isStar": 0,
        "isDead": 0,
        "isSpecial": 0
      },
      {
        "id": "10088",
        "name": "虎蜥人",
        "avatar": "Anolian",
        "type": 0,
        "race": 5,
        "nature": 3,
        "size": 2,
        "level": 89,
        "hp": 81000,
        "baseExp": 1320,
        "jobExp": 828,
        "isStar": 0,
        "isDead": 0,
        "isSpecial": 0
      },
      {
        "id": "120093",
        "name": "飞行魔书★",
        "avatar": "Rideword",
        "type": 101,
        "race": 0,
        "nature": 0,
        "size": 1,
        "level": 88,
        "hp": 302094,
        "baseExp": 1685,
        "jobExp": 2600,
        "isStar": 1,
        "isDead": 0,
        "isSpecial": 0
      },
      {
        "id": "10120",
        "name": "暗神官",
        "avatar": "Evil_Druid",
        "type": 0,
        "race": 8,
        "nature": 8,
        "size": 3,
        "level": 88,
        "hp": 71000,
        "baseExp": 1026,
        "jobExp": 979,
        "isStar": 0,
        "isDead": 0,
        "isSpecial": 0
      },
      {
        "id": "10093",
        "name": "飞行魔书",
        "avatar": "Rideword",
        "type": 0,
        "race": 0,
        "nature": 0,
        "size": 1,
        "level": 88,
        "hp": 67011,
        "baseExp": 742,
        "jobExp": 1144,
        "isStar": 0,
        "isDead": 0,
        "isSpecial": 0
      },
      {
        "id": "10087",
        "name": "史汀",
        "avatar": "Sting",
        "type": 0,
        "race": 0,
        "nature": 1,
        "size": 2,
        "level": 87,
        "hp": 65000,
        "baseExp": 1191,
        "jobExp": 867,
        "isStar": 0,
        "isDead": 0,
        "isSpecial": 0
      },
      {
        "id": "30016",
        "name": "兽人酋长",
        "avatar": "Orc_Lord",
        "type": 2,
        "race": 1,
        "nature": 1,
        "size": 3,
        "level": 86,
        "hp": 10638656,
        "baseExp": 91751,
        "jobExp": 12657,
        "isStar": 0,
        "isDead": 0,
        "isSpecial": 0
      },
      {
        "id": "10089",
        "name": "幽灵弓箭手",
        "avatar": "Raydric_archer",
        "type": 0,
        "race": 7,
        "nature": 6,
        "size": 2,
        "level": 86,
        "hp": 63295,
        "baseExp": 1199,
        "jobExp": 843,
        "isStar": 0,
        "isDead": 0,
        "isSpecial": 0
      },
      {
        "id": "10081",
        "name": "蝙蝠弓箭手",
        "avatar": "Gargoyle",
        "type": 0,
        "race": 7,
        "nature": 2,
        "size": 2,
        "level": 86,
        "hp": 65000,
        "baseExp": 975,
        "jobExp": 975,
        "isStar": 0,
        "isDead": 0,
        "isSpecial": 0
      },
      {
        "id": "20012",
        "name": "半龙人",
        "avatar": "Mutant_Dragon",
        "type": 1,
        "race": 9,
        "nature": 4,
        "size": 3,
        "level": 85,
        "hp": 6543450,
        "baseExp": 9819,
        "jobExp": 7340,
        "isStar": 0,
        "isDead": 0,
        "isSpecial": 0
      },
      {
        "id": "10086",
        "name": "邪恶使者",
        "avatar": "Injustice",
        "type": 0,
        "race": 8,
        "nature": 6,
        "size": 2,
        "level": 85,
        "hp": 82000,
        "baseExp": 1186,
        "jobExp": 834,
        "isStar": 0,
        "isDead": 0,
        "isSpecial": 0
      },
      {
        "id": "30023",
        "name": "阿特罗斯",
        "avatar": "Atroce",
        "type": 2,
        "race": 3,
        "nature": 6,
        "size": 3,
        "level": 84,
        "hp": 10152093,
        "baseExp": 65534,
        "jobExp": 26365,
        "isStar": 0,
        "isDead": 0,
        "isSpecial": 0
      },
      {
        "id": "30015",
        "name": "死灵",
        "avatar": "Doppelganger",
        "type": 2,
        "race": 7,
        "nature": 6,
        "size": 2,
        "level": 83,
        "hp": 10115212,
        "baseExp": 80659,
        "jobExp": 16804,
        "isStar": 0,
        "isDead": 0,
        "isSpecial": 0
      }
    ]
  }
}