{
  "code": 0,
  "status": "success",
  "timeStamp": 1642845210,
  "staticDomain": "http:\/\/rosc1.zhaiwuyu.com",
  "ip": "101.87.200.160",
  "language": "cn",
  "dbArea": 0,
  "data": {
    "page": 4,
    "pageSize": 30,
    "pageCount": 16,
    "total": 454,
    "list": [
      {
        "id": "280313",
        "name": "荒野犬妖首领",
        "avatar": "Kobold_Leader_R",
        "type": 103,
        "race": 1,
        "nature": 2,
        "size": 2,
        "level": 150,
        "hp": 72000000,
        "baseExp": 13423,
        "jobExp": 14912,
        "isStar": 0,
        "isDead": 0,
        "isSpecial": 1
      },
      {
        "id": "280312",
        "name": "野花草精",
        "avatar": "Raffliesia_R",
        "type": 103,
        "race": 2,
        "nature": 1,
        "size": 1,
        "level": 150,
        "hp": 60000000,
        "baseExp": 20727,
        "jobExp": 12048,
        "isStar": 0,
        "isDead": 0,
        "isSpecial": 1
      },
      {
        "id": "280311",
        "name": "深渊蚁后",
        "avatar": "Maya_R",
        "type": 103,
        "race": 4,
        "nature": 1,
        "size": 3,
        "level": 150,
        "hp": 66000000,
        "baseExp": 21028,
        "jobExp": 10952,
        "isStar": 0,
        "isDead": 0,
        "isSpecial": 1
      },
      {
        "id": "280310",
        "name": "银月虎王",
        "avatar": "Eddga_R",
        "type": 103,
        "race": 3,
        "nature": 4,
        "size": 3,
        "level": 150,
        "hp": 66000000,
        "baseExp": 21857,
        "jobExp": 10930,
        "isStar": 0,
        "isDead": 0,
        "isSpecial": 1
      },
      {
        "id": "280309",
        "name": "深渊蛇人",
        "avatar": "Basilisk_R",
        "type": 103,
        "race": 7,
        "nature": 6,
        "size": 3,
        "level": 150,
        "hp": 66000000,
        "baseExp": 13423,
        "jobExp": 14912,
        "isStar": 0,
        "isDead": 0,
        "isSpecial": 1
      },
      {
        "id": "280308",
        "name": "洛阳狸猫",
        "avatar": "Smokie_R",
        "type": 103,
        "race": 3,
        "nature": 1,
        "size": 1,
        "level": 150,
        "hp": 60000000,
        "baseExp": 20727,
        "jobExp": 12048,
        "isStar": 0,
        "isDead": 0,
        "isSpecial": 1
      },
      {
        "id": "280307",
        "name": "荒野曼陀罗种子",
        "avatar": "Mandra_R",
        "type": 103,
        "race": 2,
        "nature": 1,
        "size": 1,
        "level": 150,
        "hp": 60000000,
        "baseExp": 21028,
        "jobExp": 10952,
        "isStar": 0,
        "isDead": 0,
        "isSpecial": 1
      },
      {
        "id": "280306",
        "name": "邪骸剑客",
        "avatar": "Wander_Man_R",
        "type": 103,
        "race": 7,
        "nature": 2,
        "size": 2,
        "level": 150,
        "hp": 60000000,
        "baseExp": 21857,
        "jobExp": 10930,
        "isStar": 0,
        "isDead": 0,
        "isSpecial": 1
      },
      {
        "id": "280305",
        "name": "矿工土拨鼠",
        "avatar": "Martin_R",
        "type": 103,
        "race": 3,
        "nature": 1,
        "size": 1,
        "level": 150,
        "hp": 60000000,
        "baseExp": 13423,
        "jobExp": 14912,
        "isStar": 0,
        "isDead": 0,
        "isSpecial": 1
      },
      {
        "id": "280304",
        "name": "森之土人",
        "avatar": "Dokebi_R",
        "type": 103,
        "race": 7,
        "nature": 6,
        "size": 1,
        "level": 150,
        "hp": 60000000,
        "baseExp": 20727,
        "jobExp": 12048,
        "isStar": 0,
        "isDead": 0,
        "isSpecial": 1
      },
      {
        "id": "280303",
        "name": "荒野灵兽",
        "avatar": "Dancing_Green_Dragon_R",
        "type": 103,
        "race": 3,
        "nature": 0,
        "size": 3,
        "level": 150,
        "hp": 72000000,
        "baseExp": 21028,
        "jobExp": 10952,
        "isStar": 0,
        "isDead": 0,
        "isSpecial": 1
      },
      {
        "id": "280302",
        "name": "荒野佩瑞丝",
        "avatar": "Perese_G_R",
        "type": 103,
        "race": 2,
        "nature": 2,
        "size": 2,
        "level": 150,
        "hp": 60000000,
        "baseExp": 21857,
        "jobExp": 10930,
        "isStar": 0,
        "isDead": 0,
        "isSpecial": 1
      },
      {
        "id": "280301",
        "name": "邪骸法师",
        "avatar": "Wind_Ghost_R",
        "type": 103,
        "race": 7,
        "nature": 2,
        "size": 2,
        "level": 150,
        "hp": 66000000,
        "baseExp": 13423,
        "jobExp": 14912,
        "isStar": 0,
        "isDead": 0,
        "isSpecial": 1
      },
      {
        "id": "10226",
        "name": "森光瓢虫",
        "avatar": "Brilight_R",
        "type": 0,
        "race": 4,
        "nature": 4,
        "size": 1,
        "level": 150,
        "hp": 275000,
        "baseExp": 5956,
        "jobExp": 4475,
        "isStar": 0,
        "isDead": 0,
        "isSpecial": 0
      },
      {
        "id": "10225",
        "name": "荒野鬼火",
        "avatar": "Horong_B",
        "type": 0,
        "race": 0,
        "nature": 4,
        "size": 1,
        "level": 150,
        "hp": 275000,
        "baseExp": 6325,
        "jobExp": 4004,
        "isStar": 0,
        "isDead": 0,
        "isSpecial": 0
      },
      {
        "id": "10224",
        "name": "幽光蝙蝠",
        "avatar": "Farmiliar_R",
        "type": 0,
        "race": 3,
        "nature": 6,
        "size": 1,
        "level": 150,
        "hp": 275000,
        "baseExp": 7106,
        "jobExp": 3705,
        "isStar": 0,
        "isDead": 0,
        "isSpecial": 0
      },
      {
        "id": "10223",
        "name": "幽光魔菇",
        "avatar": "PoisonSpore_R",
        "type": 0,
        "race": 2,
        "nature": 9,
        "size": 2,
        "level": 150,
        "hp": 275000,
        "baseExp": 5956,
        "jobExp": 4475,
        "isStar": 0,
        "isDead": 0,
        "isSpecial": 0
      },
      {
        "id": "10222",
        "name": "荒野刺锤犬妖",
        "avatar": "Kobold_R",
        "type": 0,
        "race": 1,
        "nature": 4,
        "size": 2,
        "level": 150,
        "hp": 250000,
        "baseExp": 6325,
        "jobExp": 4004,
        "isStar": 0,
        "isDead": 0,
        "isSpecial": 0
      },
      {
        "id": "10221",
        "name": "荒野之鼠",
        "avatar": "Tarou_R",
        "type": 0,
        "race": 3,
        "nature": 6,
        "size": 1,
        "level": 150,
        "hp": 250000,
        "baseExp": 7106,
        "jobExp": 3705,
        "isStar": 0,
        "isDead": 0,
        "isSpecial": 0
      },
      {
        "id": "10220",
        "name": "荒野食人花",
        "avatar": "flora_R",
        "type": 0,
        "race": 2,
        "nature": 1,
        "size": 2,
        "level": 150,
        "hp": 225000,
        "baseExp": 5956,
        "jobExp": 4475,
        "isStar": 0,
        "isDead": 0,
        "isSpecial": 0
      },
      {
        "id": "10219",
        "name": "荒野克瑞米",
        "avatar": "creamy_R",
        "type": 0,
        "race": 4,
        "nature": 2,
        "size": 1,
        "level": 150,
        "hp": 225000,
        "baseExp": 6325,
        "jobExp": 4004,
        "isStar": 0,
        "isDead": 0,
        "isSpecial": 0
      },
      {
        "id": "10218",
        "name": "枫之森灵",
        "avatar": "WormTail_R",
        "type": 0,
        "race": 2,
        "nature": 1,
        "size": 2,
        "level": 150,
        "hp": 225000,
        "baseExp": 7106,
        "jobExp": 3705,
        "isStar": 0,
        "isDead": 0,
        "isSpecial": 0
      },
      {
        "id": "30059",
        "name": "波伊塔塔",
        "avatar": "BellSerpent",
        "type": 2,
        "race": 3,
        "nature": 4,
        "size": 3,
        "level": 156,
        "hp": 245278000,
        "baseExp": 73267,
        "jobExp": 77124,
        "isStar": 0,
        "isDead": 0,
        "isSpecial": 0
      },
      {
        "id": "10217",
        "name": "红尾人鱼",
        "avatar": "Deaf",
        "type": 0,
        "race": 5,
        "nature": 3,
        "size": 3,
        "level": 155,
        "hp": 537000,
        "baseExp": 5956,
        "jobExp": 4475,
        "isStar": 0,
        "isDead": 0,
        "isSpecial": 0
      },
      {
        "id": "20037",
        "name": "银鱼湖主",
        "avatar": "Lakeghost",
        "type": 1,
        "race": 1,
        "nature": 3,
        "size": 2,
        "level": 154,
        "hp": 63603900,
        "baseExp": 21857,
        "jobExp": 10930,
        "isStar": 0,
        "isDead": 0,
        "isSpecial": 0
      },
      {
        "id": "10214",
        "name": "熊猫波利",
        "avatar": "Panda_poring_1",
        "type": 0,
        "race": 2,
        "nature": 0,
        "size": 2,
        "level": 153,
        "hp": 520500,
        "baseExp": 7106,
        "jobExp": 3705,
        "isStar": 0,
        "isDead": 0,
        "isSpecial": 0
      },
      {
        "id": "30060",
        "name": "荒境领主",
        "avatar": "WuLuo_villain",
        "type": 2,
        "race": 1,
        "nature": 6,
        "size": 3,
        "level": 152,
        "hp": 224791500,
        "baseExp": 116057,
        "jobExp": 49177,
        "isStar": 0,
        "isDead": 0,
        "isSpecial": 0
      },
      {
        "id": "20038",
        "name": "枫树精灵伊斯玛",
        "avatar": "Maple_Elf",
        "type": 1,
        "race": 2,
        "nature": 1,
        "size": 3,
        "level": 151,
        "hp": 59819400,
        "baseExp": 21028,
        "jobExp": 10952,
        "isStar": 0,
        "isDead": 0,
        "isSpecial": 0
      },
      {
        "id": "30058",
        "name": "蛇妖戈耳工",
        "avatar": "Snake_demon",
        "type": 2,
        "race": 7,
        "nature": 9,
        "size": 3,
        "level": 150,
        "hp": 214828400,
        "baseExp": 104181,
        "jobExp": 54545,
        "isStar": 0,
        "isDead": 0,
        "isSpecial": 0
      },
      {
        "id": "10216",
        "name": "水蛇",
        "avatar": "Blacksnake",
        "type": 0,
        "race": 3,
        "nature": 9,
        "size": 2,
        "level": 150,
        "hp": 496300,
        "baseExp": 6325,
        "jobExp": 4004,
        "isStar": 0,
        "isDead": 0,
        "isSpecial": 0
      }
    ]
  }
}