{
  "code": 0,
  "status": "success",
  "timeStamp": 1642845240,
  "staticDomain": "http:\/\/rosc1.zhaiwuyu.com",
  "ip": "101.87.200.160",
  "language": "cn",
  "dbArea": 0,
  "data": {
    "page": 7,
    "pageSize": 30,
    "pageCount": 16,
    "total": 454,
    "list": [
      {
        "id": "204100",
        "name": "蜂后",
        "avatar": "Bee_Queen_dead",
        "type": 2,
        "race": 4,
        "nature": 8,
        "size": 1,
        "level": 130,
        "hp": 130293800,
        "baseExp": 1,
        "jobExp": 1,
        "isStar": 0,
        "isDead": 1,
        "isSpecial": 0
      },
      {
        "id": "10181",
        "name": "异变堆积物",
        "avatar": "Mutated_heaps",
        "type": 0,
        "race": 7,
        "nature": 6,
        "size": 1,
        "level": 130,
        "hp": 339300,
        "baseExp": 5727,
        "jobExp": 3329,
        "isStar": 0,
        "isDead": 0,
        "isSpecial": 0
      },
      {
        "id": "10178",
        "name": "土拨鼠拾荒者",
        "avatar": "Tramp_Martin",
        "type": 0,
        "race": 3,
        "nature": 1,
        "size": 1,
        "level": 129,
        "hp": 329900,
        "baseExp": 5846,
        "jobExp": 3208,
        "isStar": 0,
        "isDead": 0,
        "isSpecial": 0
      },
      {
        "id": "10180",
        "name": "机械猎犬",
        "avatar": "Robot_hound",
        "type": 0,
        "race": 3,
        "nature": 0,
        "size": 3,
        "level": 128,
        "hp": 324000,
        "baseExp": 5503,
        "jobExp": 3358,
        "isStar": 0,
        "isDead": 0,
        "isSpecial": 0
      },
      {
        "id": "10177",
        "name": "飓风魔",
        "avatar": "Hurricane",
        "type": 0,
        "race": 0,
        "nature": 2,
        "size": 2,
        "level": 127,
        "hp": 302300,
        "baseExp": 5846,
        "jobExp": 3107,
        "isStar": 0,
        "isDead": 0,
        "isSpecial": 0
      },
      {
        "id": "10179",
        "name": "消防魔",
        "avatar": "Firefighting",
        "type": 0,
        "race": 8,
        "nature": 8,
        "size": 2,
        "level": 126,
        "hp": 328000,
        "baseExp": 5815,
        "jobExp": 3074,
        "isStar": 0,
        "isDead": 0,
        "isSpecial": 0
      },
      {
        "id": "10176",
        "name": "金属波利",
        "avatar": "Metalring",
        "type": 0,
        "race": 0,
        "nature": 0,
        "size": 1,
        "level": 125,
        "hp": 306700,
        "baseExp": 5234,
        "jobExp": 3360,
        "isStar": 0,
        "isDead": 0,
        "isSpecial": 0
      },
      {
        "id": "18180",
        "name": "墓碑怪人★",
        "avatar": "TombstoneMan",
        "type": 101,
        "race": 1,
        "nature": 9,
        "size": 2,
        "level": 130,
        "hp": 783000,
        "baseExp": 2366,
        "jobExp": 1376,
        "isStar": 1,
        "isDead": 0,
        "isSpecial": 0
      },
      {
        "id": "18182",
        "name": "南瓜魂★",
        "avatar": "Lude",
        "type": 101,
        "race": 8,
        "nature": 8,
        "size": 1,
        "level": 129,
        "hp": 761400,
        "baseExp": 2254,
        "jobExp": 1420,
        "isStar": 1,
        "isDead": 0,
        "isSpecial": 0
      },
      {
        "id": "18181",
        "name": "万圣魔★",
        "avatar": "Quve",
        "type": 101,
        "race": 8,
        "nature": 8,
        "size": 1,
        "level": 124,
        "hp": 694500,
        "baseExp": 1986,
        "jobExp": 1470,
        "isStar": 1,
        "isDead": 0,
        "isSpecial": 0
      },
      {
        "id": "30050",
        "name": "狼外婆",
        "avatar": "Wolf_Grandam",
        "type": 2,
        "race": 3,
        "nature": 0,
        "size": 3,
        "level": 138,
        "hp": 150610000,
        "baseExp": 91080,
        "jobExp": 52954,
        "isStar": 0,
        "isDead": 0,
        "isSpecial": 0
      },
      {
        "id": "30049",
        "name": "嗜血怪人",
        "avatar": "Bloody_Murderer",
        "type": 2,
        "race": 1,
        "nature": 6,
        "size": 3,
        "level": 135,
        "hp": 141930000,
        "baseExp": 109437,
        "jobExp": 39979,
        "isStar": 0,
        "isDead": 0,
        "isSpecial": 0
      },
      {
        "id": "30048",
        "name": "死灵骑士",
        "avatar": "Death_lord",
        "type": 2,
        "race": 7,
        "nature": 6,
        "size": 3,
        "level": 133,
        "hp": 137160000,
        "baseExp": 111991,
        "jobExp": 36960,
        "isStar": 0,
        "isDead": 0,
        "isSpecial": 0
      },
      {
        "id": "20029",
        "name": "吹笛人",
        "avatar": "Pied_Piper",
        "type": 1,
        "race": 1,
        "nature": 7,
        "size": 2,
        "level": 134,
        "hp": 37770000,
        "baseExp": 17688,
        "jobExp": 10285,
        "isStar": 0,
        "isDead": 0,
        "isSpecial": 0
      },
      {
        "id": "20028",
        "name": "银月魔女",
        "avatar": "Ruriloli",
        "type": 1,
        "race": 7,
        "nature": 6,
        "size": 3,
        "level": 136,
        "hp": 39440000,
        "baseExp": 16958,
        "jobExp": 11016,
        "isStar": 0,
        "isDead": 0,
        "isSpecial": 0
      },
      {
        "id": "205030",
        "name": "迪塔勒泰晤勒",
        "avatar": "Detale",
        "type": 2,
        "race": 9,
        "nature": 6,
        "size": 2,
        "level": 123,
        "hp": 195241770,
        "baseExp": 1,
        "jobExp": 1,
        "isStar": 0,
        "isDead": 0,
        "isSpecial": 0
      },
      {
        "id": "205020",
        "name": "兰特克力斯",
        "avatar": "Valkyrie",
        "type": 2,
        "race": 6,
        "nature": 5,
        "size": 2,
        "level": 123,
        "hp": 195241770,
        "baseExp": 1,
        "jobExp": 1,
        "isStar": 0,
        "isDead": 0,
        "isSpecial": 0
      },
      {
        "id": "205010",
        "name": "天使波利",
        "avatar": "Angeling",
        "type": 2,
        "race": 6,
        "nature": 5,
        "size": 2,
        "level": 123,
        "hp": 156193416,
        "baseExp": 1,
        "jobExp": 1,
        "isStar": 0,
        "isDead": 0,
        "isSpecial": 0
      },
      {
        "id": "204090",
        "name": "阿特罗斯",
        "avatar": "Atroce_dead",
        "type": 2,
        "race": 3,
        "nature": 8,
        "size": 3,
        "level": 123,
        "hp": 95669000,
        "baseExp": 1,
        "jobExp": 1,
        "isStar": 0,
        "isDead": 1,
        "isSpecial": 0
      },
      {
        "id": "204080",
        "name": "月夜猫",
        "avatar": "MoonLight_dead",
        "type": 2,
        "race": 7,
        "nature": 8,
        "size": 2,
        "level": 123,
        "hp": 93849000,
        "baseExp": 1,
        "jobExp": 1,
        "isStar": 0,
        "isDead": 1,
        "isSpecial": 0
      },
      {
        "id": "204070",
        "name": "虎王",
        "avatar": "Eddga_dead",
        "type": 2,
        "race": 3,
        "nature": 8,
        "size": 3,
        "level": 123,
        "hp": 100226000,
        "baseExp": 1,
        "jobExp": 1,
        "isStar": 0,
        "isDead": 1,
        "isSpecial": 0
      },
      {
        "id": "204060",
        "name": "蚁后",
        "avatar": "Maya_dead",
        "type": 2,
        "race": 4,
        "nature": 8,
        "size": 3,
        "level": 123,
        "hp": 94759000,
        "baseExp": 1,
        "jobExp": 1,
        "isStar": 0,
        "isDead": 1,
        "isSpecial": 0
      },
      {
        "id": "204050",
        "name": "海神",
        "avatar": "Strouf_dead",
        "type": 2,
        "race": 5,
        "nature": 8,
        "size": 3,
        "level": 123,
        "hp": 88382000,
        "baseExp": 1,
        "jobExp": 1,
        "isStar": 0,
        "isDead": 1,
        "isSpecial": 0
      },
      {
        "id": "204040",
        "name": "鹗枭男爵",
        "avatar": "Owl_Baron_dead",
        "type": 2,
        "race": 7,
        "nature": 8,
        "size": 3,
        "level": 123,
        "hp": 91112000,
        "baseExp": 1,
        "jobExp": 1,
        "isStar": 0,
        "isDead": 1,
        "isSpecial": 0
      },
      {
        "id": "204030",
        "name": "海盗之王",
        "avatar": "Drake_dead",
        "type": 2,
        "race": 8,
        "nature": 8,
        "size": 2,
        "level": 123,
        "hp": 93849000,
        "baseExp": 1,
        "jobExp": 1,
        "isStar": 0,
        "isDead": 1,
        "isSpecial": 0
      },
      {
        "id": "204020",
        "name": "恶魔波利",
        "avatar": "Deviling_dead",
        "type": 2,
        "race": 7,
        "nature": 8,
        "size": 2,
        "level": 123,
        "hp": 90202000,
        "baseExp": 1,
        "jobExp": 1,
        "isStar": 0,
        "isDead": 1,
        "isSpecial": 0
      },
      {
        "id": "204010",
        "name": "凯美拉",
        "avatar": "Chimera_dead",
        "type": 2,
        "race": 3,
        "nature": 8,
        "size": 3,
        "level": 123,
        "hp": 99316000,
        "baseExp": 1,
        "jobExp": 1,
        "isStar": 0,
        "isDead": 1,
        "isSpecial": 0
      },
      {
        "id": "204000",
        "name": "死灵",
        "avatar": "Doppelganger_dead",
        "type": 2,
        "race": 7,
        "nature": 8,
        "size": 2,
        "level": 123,
        "hp": 100226000,
        "baseExp": 1,
        "jobExp": 1,
        "isStar": 0,
        "isDead": 1,
        "isSpecial": 0
      },
      {
        "id": "10171",
        "name": "稻草人",
        "avatar": "ScareCrow",
        "type": 0,
        "race": 2,
        "nature": 1,
        "size": 2,
        "level": 132,
        "hp": 270300,
        "baseExp": 5289,
        "jobExp": 3072,
        "isStar": 0,
        "isDead": 0,
        "isSpecial": 0
      },
      {
        "id": "10170",
        "name": "墓碑怪人",
        "avatar": "TombstoneMan",
        "type": 0,
        "race": 1,
        "nature": 9,
        "size": 2,
        "level": 130,
        "hp": 261000,
        "baseExp": 5206,
        "jobExp": 3028,
        "isStar": 0,
        "isDead": 0,
        "isSpecial": 0
      }
    ]
  }
}