{
  "code": 0,
  "status": "success",
  "timeStamp": 1642845200,
  "staticDomain": "http:\/\/rosc1.zhaiwuyu.com",
  "ip": "101.87.200.160",
  "language": "cn",
  "dbArea": 0,
  "data": {
    "page": 3,
    "pageSize": 30,
    "pageCount": 16,
    "total": 454,
    "list": [
      {
        "id": "280352",
        "name": "冰原幼龙",
        "avatar": "Fire_dragon_R",
        "type": 103,
        "race": 9,
        "nature": 0,
        "size": 2,
        "level": 150,
        "hp": 66000000,
        "baseExp": 21857,
        "jobExp": 10930,
        "isStar": 0,
        "isDead": 0,
        "isSpecial": 1
      },
      {
        "id": "280351",
        "name": "枫林野猫",
        "avatar": "Wild_Rose_R",
        "type": 103,
        "race": 3,
        "nature": 2,
        "size": 1,
        "level": 150,
        "hp": 60000000,
        "baseExp": 13423,
        "jobExp": 14912,
        "isStar": 0,
        "isDead": 0,
        "isSpecial": 1
      },
      {
        "id": "280350",
        "name": "枫林野猪",
        "avatar": "Savage_R",
        "type": 103,
        "race": 3,
        "nature": 1,
        "size": 3,
        "level": 150,
        "hp": 60000000,
        "baseExp": 20727,
        "jobExp": 12048,
        "isStar": 0,
        "isDead": 0,
        "isSpecial": 1
      },
      {
        "id": "280349",
        "name": "枫林曼陀罗种子",
        "avatar": "Mandra_Maple",
        "type": 103,
        "race": 2,
        "nature": 1,
        "size": 2,
        "level": 150,
        "hp": 60000000,
        "baseExp": 21028,
        "jobExp": 10952,
        "isStar": 0,
        "isDead": 0,
        "isSpecial": 1
      },
      {
        "id": "280348",
        "name": "枫林白熊",
        "avatar": "Whitefoot_1",
        "type": 103,
        "race": 3,
        "nature": 1,
        "size": 3,
        "level": 150,
        "hp": 66000000,
        "baseExp": 21857,
        "jobExp": 10930,
        "isStar": 0,
        "isDead": 0,
        "isSpecial": 1
      },
      {
        "id": "280347",
        "name": "枫林灵兽",
        "avatar": "Dancing_Red_Dragon_R",
        "type": 103,
        "race": 1,
        "nature": 0,
        "size": 2,
        "level": 150,
        "hp": 66000000,
        "baseExp": 13423,
        "jobExp": 14912,
        "isStar": 0,
        "isDead": 0,
        "isSpecial": 1
      },
      {
        "id": "280346",
        "name": "绯樱鸟人",
        "avatar": "Hapy_R",
        "type": 103,
        "race": 7,
        "nature": 2,
        "size": 2,
        "level": 150,
        "hp": 60000000,
        "baseExp": 20727,
        "jobExp": 12048,
        "isStar": 0,
        "isDead": 0,
        "isSpecial": 1
      },
      {
        "id": "280345",
        "name": "枫林草精",
        "avatar": "Raffliesia_R2",
        "type": 103,
        "race": 2,
        "nature": 1,
        "size": 1,
        "level": 150,
        "hp": 60000000,
        "baseExp": 21028,
        "jobExp": 10952,
        "isStar": 0,
        "isDead": 0,
        "isSpecial": 1
      },
      {
        "id": "280344",
        "name": "沙暴波利",
        "avatar": "Deviling_R",
        "type": 103,
        "race": 7,
        "nature": 6,
        "size": 2,
        "level": 150,
        "hp": 60000000,
        "baseExp": 21857,
        "jobExp": 10930,
        "isStar": 0,
        "isDead": 0,
        "isSpecial": 1
      },
      {
        "id": "280343",
        "name": "雪团波利",
        "avatar": "280343",
        "type": 103,
        "race": 2,
        "nature": 3,
        "size": 2,
        "level": 150,
        "hp": 60000000,
        "baseExp": 13423,
        "jobExp": 14912,
        "isStar": 0,
        "isDead": 0,
        "isSpecial": 1
      },
      {
        "id": "10238",
        "name": "寒冰草",
        "avatar": "Plant_R",
        "type": 0,
        "race": 2,
        "nature": 1,
        "size": 1,
        "level": 150,
        "hp": 300000,
        "baseExp": 5956,
        "jobExp": 4475,
        "isStar": 0,
        "isDead": 0,
        "isSpecial": 0
      },
      {
        "id": "10237",
        "name": "冰原魅狐",
        "avatar": "Ninetail_R",
        "type": 0,
        "race": 3,
        "nature": 4,
        "size": 2,
        "level": 150,
        "hp": 300000,
        "baseExp": 6325,
        "jobExp": 4004,
        "isStar": 0,
        "isDead": 0,
        "isSpecial": 0
      },
      {
        "id": "10236",
        "name": "冰原小雪兽",
        "avatar": "Snowbeast_S_10",
        "type": 0,
        "race": 0,
        "nature": 3,
        "size": 1,
        "level": 150,
        "hp": 300000,
        "baseExp": 5885,
        "jobExp": 4004,
        "isStar": 0,
        "isDead": 0,
        "isSpecial": 0
      },
      {
        "id": "10235",
        "name": "冰原雪兽",
        "avatar": "Snowbeast_R",
        "type": 0,
        "race": 0,
        "nature": 3,
        "size": 3,
        "level": 150,
        "hp": 300000,
        "baseExp": 7106,
        "jobExp": 3705,
        "isStar": 0,
        "isDead": 0,
        "isSpecial": 0
      },
      {
        "id": "10234",
        "name": "枫林大斧犬妖",
        "avatar": "Kobold_R",
        "type": 0,
        "race": 1,
        "nature": 2,
        "size": 2,
        "level": 150,
        "hp": 250000,
        "baseExp": 6530,
        "jobExp": 3782,
        "isStar": 0,
        "isDead": 0,
        "isSpecial": 0
      },
      {
        "id": "10233",
        "name": "枫林榔头犬妖",
        "avatar": "Kobold_R",
        "type": 0,
        "race": 1,
        "nature": 9,
        "size": 2,
        "level": 150,
        "hp": 250000,
        "baseExp": 6185,
        "jobExp": 3729,
        "isStar": 0,
        "isDead": 0,
        "isSpecial": 0
      },
      {
        "id": "10232",
        "name": "枫林刺锤犬妖",
        "avatar": "Kobold_R",
        "type": 0,
        "race": 1,
        "nature": 4,
        "size": 2,
        "level": 150,
        "hp": 250000,
        "baseExp": 5956,
        "jobExp": 4475,
        "isStar": 0,
        "isDead": 0,
        "isSpecial": 0
      },
      {
        "id": "10231",
        "name": "枫林小鸡仔",
        "avatar": "Picky_R",
        "type": 0,
        "race": 3,
        "nature": 4,
        "size": 1,
        "level": 150,
        "hp": 250000,
        "baseExp": 6325,
        "jobExp": 4004,
        "isStar": 0,
        "isDead": 0,
        "isSpecial": 0
      },
      {
        "id": "10230",
        "name": "枫林疯兔",
        "avatar": "Leaves_Lunatic_R",
        "type": 0,
        "race": 3,
        "nature": 0,
        "size": 1,
        "level": 150,
        "hp": 250000,
        "baseExp": 5885,
        "jobExp": 4004,
        "isStar": 0,
        "isDead": 0,
        "isSpecial": 0
      },
      {
        "id": "10229",
        "name": "枫林克瑞米",
        "avatar": "creamy_R",
        "type": 0,
        "race": 4,
        "nature": 2,
        "size": 1,
        "level": 150,
        "hp": 250000,
        "baseExp": 7106,
        "jobExp": 3705,
        "isStar": 0,
        "isDead": 0,
        "isSpecial": 0
      },
      {
        "id": "10228",
        "name": "枫之森灵",
        "avatar": "WormTail_R",
        "type": 0,
        "race": 2,
        "nature": 1,
        "size": 2,
        "level": 150,
        "hp": 250000,
        "baseExp": 6530,
        "jobExp": 3782,
        "isStar": 0,
        "isDead": 0,
        "isSpecial": 0
      },
      {
        "id": "10227",
        "name": "枫林青蛇",
        "avatar": "Blacksnake",
        "type": 0,
        "race": 3,
        "nature": 9,
        "size": 2,
        "level": 150,
        "hp": 250000,
        "baseExp": 6185,
        "jobExp": 3729,
        "isStar": 0,
        "isDead": 0,
        "isSpecial": 0
      },
      {
        "id": "280500",
        "name": "龙骸",
        "avatar": "Longhai",
        "type": 103,
        "race": 9,
        "nature": 7,
        "size": 2,
        "level": 150,
        "hp": 214828400,
        "baseExp": 0,
        "jobExp": 0,
        "isStar": 0,
        "isDead": 0,
        "isSpecial": 1
      },
      {
        "id": "280320",
        "name": "深渊之眼",
        "avatar": "Devil_sEye_R",
        "type": 103,
        "race": 0,
        "nature": 2,
        "size": 1,
        "level": 150,
        "hp": 72000000,
        "baseExp": 20727,
        "jobExp": 12048,
        "isStar": 0,
        "isDead": 0,
        "isSpecial": 1
      },
      {
        "id": "280319",
        "name": "黑暗米诺斯",
        "avatar": "Minorous_R",
        "type": 103,
        "race": 3,
        "nature": 8,
        "size": 3,
        "level": 150,
        "hp": 72000000,
        "baseExp": 21028,
        "jobExp": 10952,
        "isStar": 0,
        "isDead": 0,
        "isSpecial": 1
      },
      {
        "id": "280318",
        "name": "荒野疯兔",
        "avatar": "Leaves_Lunatic_R",
        "type": 103,
        "race": 3,
        "nature": 0,
        "size": 2,
        "level": 150,
        "hp": 60000000,
        "baseExp": 21857,
        "jobExp": 10930,
        "isStar": 0,
        "isDead": 0,
        "isSpecial": 1
      },
      {
        "id": "280317",
        "name": "深渊魔马",
        "avatar": "Flamehorse_R",
        "type": 103,
        "race": 8,
        "nature": 8,
        "size": 3,
        "level": 150,
        "hp": 66000000,
        "baseExp": 13423,
        "jobExp": 14912,
        "isStar": 0,
        "isDead": 0,
        "isSpecial": 1
      },
      {
        "id": "280316",
        "name": "废墟石怪",
        "avatar": "Golen_R",
        "type": 103,
        "race": 0,
        "nature": 0,
        "size": 3,
        "level": 150,
        "hp": 66000000,
        "baseExp": 20727,
        "jobExp": 12048,
        "isStar": 0,
        "isDead": 0,
        "isSpecial": 1
      },
      {
        "id": "280315",
        "name": "深渊蜥蜴",
        "avatar": "Anolian_R",
        "type": 103,
        "race": 5,
        "nature": 3,
        "size": 2,
        "level": 150,
        "hp": 66000000,
        "baseExp": 21028,
        "jobExp": 10952,
        "isStar": 0,
        "isDead": 0,
        "isSpecial": 1
      },
      {
        "id": "280314",
        "name": "迷你魔猴",
        "avatar": "Yoyo_Pet_R",
        "type": 103,
        "race": 3,
        "nature": 1,
        "size": 1,
        "level": 150,
        "hp": 66000000,
        "baseExp": 21857,
        "jobExp": 10930,
        "isStar": 0,
        "isDead": 0,
        "isSpecial": 1
      }
    ]
  }
}