{
  "code": 0,
  "status": "success",
  "timeStamp": 1642845190,
  "staticDomain": "http:\/\/rosc1.zhaiwuyu.com",
  "ip": "101.87.200.160",
  "language": "cn",
  "dbArea": 0,
  "data": {
    "page": 2,
    "pageSize": 30,
    "pageCount": 16,
    "total": 454,
    "list": [
      {
        "id": "10269",
        "name": "荒野克瑞米",
        "avatar": "creamy_R",
        "type": 0,
        "race": 4,
        "nature": 2,
        "size": 1,
        "level": 122,
        "hp": 110000,
        "baseExp": 2622,
        "jobExp": 1940,
        "isStar": 0,
        "isDead": 0,
        "isSpecial": 0
      },
      {
        "id": "10268",
        "name": "枫之森灵",
        "avatar": "WormTail_R",
        "type": 0,
        "race": 2,
        "nature": 1,
        "size": 2,
        "level": 120,
        "hp": 86400,
        "baseExp": 2500,
        "jobExp": 1843,
        "isStar": 0,
        "isDead": 0,
        "isSpecial": 0
      },
      {
        "id": "10329",
        "name": "曼陀罗学士",
        "avatar": "Mandra_2",
        "type": 0,
        "race": 2,
        "nature": 0,
        "size": 2,
        "level": 4,
        "hp": 60,
        "baseExp": 42,
        "jobExp": 29,
        "isStar": 0,
        "isDead": 0,
        "isSpecial": 0
      },
      {
        "id": "10328",
        "name": "欢乐跳菇",
        "avatar": "Spore_R1",
        "type": 0,
        "race": 2,
        "nature": 0,
        "size": 2,
        "level": 3,
        "hp": 48,
        "baseExp": 40,
        "jobExp": 14,
        "isStar": 0,
        "isDead": 0,
        "isSpecial": 0
      },
      {
        "id": "10327",
        "name": "垂耳波利",
        "avatar": "BunnyPoring",
        "type": 0,
        "race": 2,
        "nature": 0,
        "size": 2,
        "level": 1,
        "hp": 10,
        "baseExp": 16,
        "jobExp": 9,
        "isStar": 0,
        "isDead": 0,
        "isSpecial": 0
      },
      {
        "id": "10267",
        "name": "苗娃佩瑞丝",
        "avatar": "MiaoPerese",
        "type": 0,
        "race": 2,
        "nature": 2,
        "size": 2,
        "level": 170,
        "hp": 672600,
        "baseExp": 7901,
        "jobExp": 4114,
        "isStar": 0,
        "isDead": 0,
        "isSpecial": 0
      },
      {
        "id": "30063",
        "name": "灵魂奏者",
        "avatar": "Soul_performer",
        "type": 2,
        "race": 7,
        "nature": 7,
        "size": 3,
        "level": 168,
        "hp": 325114800,
        "baseExp": 110880,
        "jobExp": 64465,
        "isStar": 0,
        "isDead": 0,
        "isSpecial": 0
      },
      {
        "id": "10263",
        "name": "米米怪",
        "avatar": "Mimi",
        "type": 0,
        "race": 0,
        "nature": 0,
        "size": 1,
        "level": 168,
        "hp": 651900,
        "baseExp": 7397,
        "jobExp": 4304,
        "isStar": 0,
        "isDead": 0,
        "isSpecial": 0
      },
      {
        "id": "20041",
        "name": "宝石灵兽",
        "avatar": "GemFlash",
        "type": 1,
        "race": 0,
        "nature": 0,
        "size": 3,
        "level": 166,
        "hp": 83951100,
        "baseExp": 21910,
        "jobExp": 12741,
        "isStar": 0,
        "isDead": 0,
        "isSpecial": 0
      },
      {
        "id": "10260",
        "name": "捕虫堇",
        "avatar": "Trap_monster",
        "type": 0,
        "race": 2,
        "nature": 1,
        "size": 2,
        "level": 166,
        "hp": 631500,
        "baseExp": 6666,
        "jobExp": 4627,
        "isStar": 0,
        "isDead": 0,
        "isSpecial": 0
      },
      {
        "id": "10262",
        "name": "月光三角兽",
        "avatar": "Hornsbeast_2",
        "type": 0,
        "race": 3,
        "nature": 0,
        "size": 2,
        "level": 165,
        "hp": 627700,
        "baseExp": 7269,
        "jobExp": 4224,
        "isStar": 0,
        "isDead": 0,
        "isSpecial": 0
      },
      {
        "id": "30062",
        "name": "天地树之种",
        "avatar": "WorldTree",
        "type": 2,
        "race": 2,
        "nature": 5,
        "size": 3,
        "level": 164,
        "hp": 308039400,
        "baseExp": 113908,
        "jobExp": 59636,
        "isStar": 0,
        "isDead": 0,
        "isSpecial": 0
      },
      {
        "id": "20040",
        "name": "莉姆露",
        "avatar": "Limulus",
        "type": 1,
        "race": 1,
        "nature": 2,
        "size": 2,
        "level": 162,
        "hp": 79470300,
        "baseExp": 22559,
        "jobExp": 11751,
        "isStar": 0,
        "isDead": 0,
        "isSpecial": 0
      },
      {
        "id": "10261",
        "name": "三角兽",
        "avatar": "Hornsbeast",
        "type": 0,
        "race": 3,
        "nature": 1,
        "size": 2,
        "level": 162,
        "hp": 597800,
        "baseExp": 6598,
        "jobExp": 4462,
        "isStar": 0,
        "isDead": 0,
        "isSpecial": 0
      },
      {
        "id": "10264",
        "name": "玩偶魔妖",
        "avatar": "Demon_doll",
        "type": 0,
        "race": 1,
        "nature": 2,
        "size": 1,
        "level": 161,
        "hp": 588000,
        "baseExp": 6048,
        "jobExp": 4728,
        "isStar": 0,
        "isDead": 0,
        "isSpecial": 0
      },
      {
        "id": "204190",
        "name": "冰暴骑士",
        "avatar": "Dead_Windstorm",
        "type": 2,
        "race": 0,
        "nature": 8,
        "size": 3,
        "level": 140,
        "hp": 200452000,
        "baseExp": 1,
        "jobExp": 1,
        "isStar": 0,
        "isDead": 1,
        "isSpecial": 0
      },
      {
        "id": "204180",
        "name": "卡浩",
        "avatar": "Dead_Kaho",
        "type": 2,
        "race": 7,
        "nature": 8,
        "size": 3,
        "level": 140,
        "hp": 150339000,
        "baseExp": 1,
        "jobExp": 1,
        "isStar": 0,
        "isDead": 1,
        "isSpecial": 0
      },
      {
        "id": "30061",
        "name": "欧德姆布拉",
        "avatar": "Ymir_ox",
        "type": 2,
        "race": 3,
        "nature": 1,
        "size": 3,
        "level": 158,
        "hp": 255801500,
        "baseExp": 104280,
        "jobExp": 60628,
        "isStar": 0,
        "isDead": 0,
        "isSpecial": 0
      },
      {
        "id": "20039",
        "name": "火焰鸟啾利",
        "avatar": "KasaKid_Mini",
        "type": 1,
        "race": 3,
        "nature": 4,
        "size": 1,
        "level": 157,
        "hp": 67489600,
        "baseExp": 20727,
        "jobExp": 12048,
        "isStar": 0,
        "isDead": 0,
        "isSpecial": 0
      },
      {
        "id": "280600",
        "name": "元灵武士",
        "avatar": "Incantation_Samurai_2",
        "type": 103,
        "race": 1,
        "nature": 7,
        "size": 2,
        "level": 150,
        "hp": 214828400,
        "baseExp": 0,
        "jobExp": 0,
        "isStar": 0,
        "isDead": 0,
        "isSpecial": 1
      },
      {
        "id": "280362",
        "name": "枫林佩瑞丝",
        "avatar": "Perese_G_R2",
        "type": 103,
        "race": 2,
        "nature": 2,
        "size": 2,
        "level": 150,
        "hp": 66000000,
        "baseExp": 20727,
        "jobExp": 12048,
        "isStar": 0,
        "isDead": 0,
        "isSpecial": 1
      },
      {
        "id": "280361",
        "name": "枫林魔蛇",
        "avatar": "BellSerpent",
        "type": 103,
        "race": 3,
        "nature": 4,
        "size": 3,
        "level": 150,
        "hp": 66000000,
        "baseExp": 21028,
        "jobExp": 10952,
        "isStar": 0,
        "isDead": 0,
        "isSpecial": 1
      },
      {
        "id": "280360",
        "name": "莱卡翁",
        "avatar": "FoxImmortal",
        "type": 103,
        "race": 3,
        "nature": 2,
        "size": 2,
        "level": 150,
        "hp": 66000000,
        "baseExp": 21857,
        "jobExp": 10930,
        "isStar": 0,
        "isDead": 0,
        "isSpecial": 1
      },
      {
        "id": "280359",
        "name": "枫林小金龟",
        "avatar": "Gold_Tortoise",
        "type": 103,
        "race": 4,
        "nature": 4,
        "size": 3,
        "level": 150,
        "hp": 60000000,
        "baseExp": 13423,
        "jobExp": 14912,
        "isStar": 0,
        "isDead": 0,
        "isSpecial": 1
      },
      {
        "id": "280358",
        "name": "梦魇魔剑",
        "avatar": "Mysteltainn_Mini_R",
        "type": 103,
        "race": 0,
        "nature": 6,
        "size": 3,
        "level": 150,
        "hp": 72000000,
        "baseExp": 20727,
        "jobExp": 12048,
        "isStar": 0,
        "isDead": 0,
        "isSpecial": 1
      },
      {
        "id": "280357",
        "name": "梦魇魔导士",
        "avatar": "Elder_R",
        "type": 103,
        "race": 1,
        "nature": 0,
        "size": 3,
        "level": 150,
        "hp": 72000000,
        "baseExp": 21028,
        "jobExp": 10952,
        "isStar": 0,
        "isDead": 0,
        "isSpecial": 1
      },
      {
        "id": "280356",
        "name": "梦魇龙人",
        "avatar": "Dark_Priest_R",
        "type": 103,
        "race": 7,
        "nature": 8,
        "size": 2,
        "level": 150,
        "hp": 72000000,
        "baseExp": 21857,
        "jobExp": 10930,
        "isStar": 0,
        "isDead": 0,
        "isSpecial": 1
      },
      {
        "id": "280355",
        "name": "枫林彩蝶",
        "avatar": "Menblatt_R",
        "type": 103,
        "race": 4,
        "nature": 2,
        "size": 3,
        "level": 150,
        "hp": 72000000,
        "baseExp": 13423,
        "jobExp": 14912,
        "isStar": 0,
        "isDead": 0,
        "isSpecial": 1
      },
      {
        "id": "280354",
        "name": "梦魇鬼兵",
        "avatar": "280354",
        "type": 103,
        "race": 7,
        "nature": 6,
        "size": 2,
        "level": 150,
        "hp": 66000000,
        "baseExp": 20727,
        "jobExp": 12048,
        "isStar": 0,
        "isDead": 0,
        "isSpecial": 1
      },
      {
        "id": "280353",
        "name": "冰原幼狼",
        "avatar": "GarmBaby_1",
        "type": 103,
        "race": 3,
        "nature": 3,
        "size": 2,
        "level": 150,
        "hp": 66000000,
        "baseExp": 21028,
        "jobExp": 10952,
        "isStar": 0,
        "isDead": 0,
        "isSpecial": 1
      }
    ]
  }
}