{
  "code": 0,
  "status": "success",
  "timeStamp": 1642845230,
  "staticDomain": "http:\/\/rosc1.zhaiwuyu.com",
  "ip": "101.87.200.160",
  "language": "cn",
  "dbArea": 0,
  "data": {
    "page": 6,
    "pageSize": 30,
    "pageCount": 16,
    "total": 454,
    "list": [
      {
        "id": "10211",
        "name": "椰树龟",
        "avatar": "Coconut_turtle",
        "type": 0,
        "race": 3,
        "nature": 0,
        "size": 2,
        "level": 28,
        "hp": 2240,
        "baseExp": 432,
        "jobExp": 251,
        "isStar": 0,
        "isDead": 0,
        "isSpecial": 0
      },
      {
        "id": "10210",
        "name": "沙滩海螺",
        "avatar": "Beach_conch",
        "type": 0,
        "race": 5,
        "nature": 3,
        "size": 1,
        "level": 25,
        "hp": 1830,
        "baseExp": 385,
        "jobExp": 225,
        "isStar": 0,
        "isDead": 0,
        "isSpecial": 0
      },
      {
        "id": "10209",
        "name": "海獭",
        "avatar": "Sea_otter",
        "type": 0,
        "race": 3,
        "nature": 3,
        "size": 2,
        "level": 23,
        "hp": 1200,
        "baseExp": 231,
        "jobExp": 278,
        "isStar": 0,
        "isDead": 0,
        "isSpecial": 0
      },
      {
        "id": "10205",
        "name": "狂野蜂兵",
        "avatar": "Wild_Bee",
        "type": 0,
        "race": 4,
        "nature": 2,
        "size": 1,
        "level": 21,
        "hp": 600,
        "baseExp": 403,
        "jobExp": 143,
        "isStar": 0,
        "isDead": 0,
        "isSpecial": 0
      },
      {
        "id": "20035",
        "name": "巴西里斯克",
        "avatar": "Basilisk",
        "type": 1,
        "race": 3,
        "nature": 1,
        "size": 2,
        "level": 20,
        "hp": 88888,
        "baseExp": 2640,
        "jobExp": 1534,
        "isStar": 0,
        "isDead": 0,
        "isSpecial": 0
      },
      {
        "id": "10208",
        "name": "七彩龙蛋",
        "avatar": "Colorful_egg",
        "type": 0,
        "race": 9,
        "nature": 0,
        "size": 2,
        "level": 20,
        "hp": 1500,
        "baseExp": 302,
        "jobExp": 183,
        "isStar": 0,
        "isDead": 0,
        "isSpecial": 0
      },
      {
        "id": "10204",
        "name": "群叶猫",
        "avatar": "Leaf_cat",
        "type": 0,
        "race": 3,
        "nature": 1,
        "size": 1,
        "level": 18,
        "hp": 500,
        "baseExp": 40,
        "jobExp": 300,
        "isStar": 0,
        "isDead": 0,
        "isSpecial": 0
      },
      {
        "id": "10207",
        "name": "七彩地龙",
        "avatar": "Deleter_petit",
        "type": 0,
        "race": 9,
        "nature": 4,
        "size": 2,
        "level": 16,
        "hp": 625,
        "baseExp": 240,
        "jobExp": 148,
        "isStar": 0,
        "isDead": 0,
        "isSpecial": 0
      },
      {
        "id": "10203",
        "name": "松鼠",
        "avatar": "Squirrel",
        "type": 0,
        "race": 3,
        "nature": 1,
        "size": 1,
        "level": 13,
        "hp": 450,
        "baseExp": 190,
        "jobExp": 124,
        "isStar": 0,
        "isDead": 0,
        "isSpecial": 0
      },
      {
        "id": "10206",
        "name": "七彩飞龙",
        "avatar": "Deleter_petit_F",
        "type": 0,
        "race": 9,
        "nature": 4,
        "size": 2,
        "level": 11,
        "hp": 350,
        "baseExp": 168,
        "jobExp": 102,
        "isStar": 0,
        "isDead": 0,
        "isSpecial": 0
      },
      {
        "id": "10201",
        "name": "甜心罗达蛙",
        "avatar": "Pink_RodaFrog",
        "type": 0,
        "race": 5,
        "nature": 3,
        "size": 2,
        "level": 4,
        "hp": 60,
        "baseExp": 55,
        "jobExp": 40,
        "isStar": 0,
        "isDead": 0,
        "isSpecial": 0
      },
      {
        "id": "10202",
        "name": "群叶疯兔",
        "avatar": "Leaves_Lunatic",
        "type": 0,
        "race": 3,
        "nature": 0,
        "size": 1,
        "level": 2,
        "hp": 48,
        "baseExp": 31,
        "jobExp": 18,
        "isStar": 0,
        "isDead": 0,
        "isSpecial": 0
      },
      {
        "id": "10200",
        "name": "蛋黄波利",
        "avatar": "Yolk_Poring",
        "type": 0,
        "race": 2,
        "nature": 1,
        "size": 2,
        "level": 1,
        "hp": 10,
        "baseExp": 16,
        "jobExp": 9,
        "isStar": 0,
        "isDead": 0,
        "isSpecial": 0
      },
      {
        "id": "18185",
        "name": "堆积物融合体★",
        "avatar": "Mutated_heaps",
        "type": 101,
        "race": 7,
        "nature": 6,
        "size": 1,
        "level": 130,
        "hp": 1017900,
        "baseExp": 5727,
        "jobExp": 3329,
        "isStar": 1,
        "isDead": 0,
        "isSpecial": 0
      },
      {
        "id": "18187",
        "name": "巨型金属土拨鼠★",
        "avatar": "Tramp_Martin",
        "type": 101,
        "race": 3,
        "nature": 1,
        "size": 1,
        "level": 129,
        "hp": 8247500,
        "baseExp": 5846,
        "jobExp": 3208,
        "isStar": 1,
        "isDead": 0,
        "isSpecial": 0
      },
      {
        "id": "18184",
        "name": "消防队长★",
        "avatar": "Firefighting",
        "type": 101,
        "race": 8,
        "nature": 8,
        "size": 2,
        "level": 126,
        "hp": 8200000,
        "baseExp": 5815,
        "jobExp": 3074,
        "isStar": 1,
        "isDead": 0,
        "isSpecial": 0
      },
      {
        "id": "204130",
        "name": "斯佩夏尔",
        "avatar": "Specialre_dead",
        "type": 2,
        "race": 1,
        "nature": 8,
        "size": 2,
        "level": 130,
        "hp": 120271200,
        "baseExp": 1,
        "jobExp": 1,
        "isStar": 0,
        "isDead": 1,
        "isSpecial": 0
      },
      {
        "id": "204120",
        "name": "迪塔勒泰晤勒",
        "avatar": "Detale_dead",
        "type": 2,
        "race": 9,
        "nature": 8,
        "size": 3,
        "level": 130,
        "hp": 175395500,
        "baseExp": 1,
        "jobExp": 1,
        "isStar": 0,
        "isDead": 1,
        "isSpecial": 0
      },
      {
        "id": "20030",
        "name": "暗·剑士 赛尼亚",
        "avatar": "B_Swordman_F",
        "type": 1,
        "race": 1,
        "nature": 4,
        "size": 2,
        "level": 135,
        "hp": 49949200,
        "baseExp": 17820,
        "jobExp": 10360,
        "isStar": 0,
        "isDead": 0,
        "isSpecial": 0
      },
      {
        "id": "30053",
        "name": "暗·十字刺客 艾勒梅斯",
        "avatar": "B_AssassinCross_M",
        "type": 2,
        "race": 1,
        "nature": 9,
        "size": 2,
        "level": 138,
        "hp": 195788400,
        "baseExp": 97480,
        "jobExp": 49232,
        "isStar": 0,
        "isDead": 0,
        "isSpecial": 0
      },
      {
        "id": "30052",
        "name": "暗·神射手 迪文",
        "avatar": "B_Hunter_F",
        "type": 2,
        "race": 1,
        "nature": 2,
        "size": 2,
        "level": 137,
        "hp": 96293300,
        "baseExp": 107132,
        "jobExp": 42854,
        "isStar": 0,
        "isDead": 0,
        "isSpecial": 0
      },
      {
        "id": "30051",
        "name": "暗·超魔导师 凯特莉娜",
        "avatar": "B_Wizard_F",
        "type": 2,
        "race": 1,
        "nature": 7,
        "size": 2,
        "level": 136,
        "hp": 189410500,
        "baseExp": 96517,
        "jobExp": 48257,
        "isStar": 0,
        "isDead": 0,
        "isSpecial": 0
      },
      {
        "id": "20031",
        "name": "暗·商人 娣洁",
        "avatar": "B_Merchant_F",
        "type": 1,
        "race": 1,
        "nature": 1,
        "size": 2,
        "level": 136,
        "hp": 51277700,
        "baseExp": 17952,
        "jobExp": 10437,
        "isStar": 0,
        "isDead": 0,
        "isSpecial": 0
      },
      {
        "id": "10187",
        "name": "暗·盗贼",
        "avatar": "B_Thief_M",
        "type": 0,
        "race": 1,
        "nature": 9,
        "size": 2,
        "level": 132,
        "hp": 344400,
        "baseExp": 5509,
        "jobExp": 3558,
        "isStar": 0,
        "isDead": 0,
        "isSpecial": 0
      },
      {
        "id": "10186",
        "name": "暗·商人",
        "avatar": "B_Merchant_M",
        "type": 0,
        "race": 1,
        "nature": 1,
        "size": 2,
        "level": 132,
        "hp": 369000,
        "baseExp": 6090,
        "jobExp": 3219,
        "isStar": 0,
        "isDead": 0,
        "isSpecial": 0
      },
      {
        "id": "10185",
        "name": "暗·服事",
        "avatar": "B_Acolyte_F",
        "type": 0,
        "race": 1,
        "nature": 5,
        "size": 2,
        "level": 132,
        "hp": 333800,
        "baseExp": 5709,
        "jobExp": 3441,
        "isStar": 0,
        "isDead": 0,
        "isSpecial": 0
      },
      {
        "id": "10184",
        "name": "暗·弓箭手",
        "avatar": "B_Archer_F",
        "type": 0,
        "race": 1,
        "nature": 2,
        "size": 2,
        "level": 131,
        "hp": 334900,
        "baseExp": 5771,
        "jobExp": 3353,
        "isStar": 0,
        "isDead": 0,
        "isSpecial": 0
      },
      {
        "id": "10183",
        "name": "暗·魔法师",
        "avatar": "B_Magician_F",
        "type": 0,
        "race": 1,
        "nature": 7,
        "size": 2,
        "level": 131,
        "hp": 328000,
        "baseExp": 5256,
        "jobExp": 3655,
        "isStar": 0,
        "isDead": 0,
        "isSpecial": 0
      },
      {
        "id": "10182",
        "name": "暗·剑士",
        "avatar": "B_Swordman_M",
        "type": 0,
        "race": 1,
        "nature": 4,
        "size": 2,
        "level": 131,
        "hp": 362600,
        "baseExp": 5771,
        "jobExp": 3353,
        "isStar": 0,
        "isDead": 0,
        "isSpecial": 0
      },
      {
        "id": "204110",
        "name": "皮里恩",
        "avatar": "Phreeoni_dead",
        "type": 2,
        "race": 3,
        "nature": 8,
        "size": 3,
        "level": 130,
        "hp": 130293800,
        "baseExp": 1,
        "jobExp": 1,
        "isStar": 0,
        "isDead": 1,
        "isSpecial": 0
      }
    ]
  }
}