{
  "code": 0,
  "status": "success",
  "timeStamp": 1642845280,
  "staticDomain": "http:\/\/rosc1.zhaiwuyu.com",
  "ip": "101.87.200.160",
  "language": "cn",
  "dbArea": 0,
  "data": {
    "page": 11,
    "pageSize": 30,
    "pageCount": 16,
    "total": 454,
    "list": [
      {
        "id": "10085",
        "name": "蓝鼠",
        "avatar": "Cramp",
        "type": 0,
        "race": 3,
        "nature": 9,
        "size": 1,
        "level": 83,
        "hp": 74000,
        "baseExp": 1199,
        "jobExp": 790,
        "isStar": 0,
        "isDead": 0,
        "isSpecial": 0
      },
      {
        "id": "10080",
        "name": "恶灵",
        "avatar": "Wraith",
        "type": 0,
        "race": 8,
        "nature": 8,
        "size": 3,
        "level": 83,
        "hp": 86000,
        "baseExp": 1375,
        "jobExp": 687,
        "isStar": 0,
        "isDead": 0,
        "isSpecial": 0
      },
      {
        "id": "10084",
        "name": "深渊骑士",
        "avatar": "Abyssknight",
        "type": 0,
        "race": 1,
        "nature": 6,
        "size": 3,
        "level": 82,
        "hp": 442836,
        "baseExp": 1111,
        "jobExp": 823,
        "isStar": 0,
        "isDead": 0,
        "isSpecial": 0
      },
      {
        "id": "10079",
        "name": "绿贝勒斯",
        "avatar": "Ferus",
        "type": 0,
        "race": 9,
        "nature": 1,
        "size": 3,
        "level": 82,
        "hp": 94000,
        "baseExp": 1611,
        "jobExp": 533,
        "isStar": 0,
        "isDead": 0,
        "isSpecial": 0
      },
      {
        "id": "10083",
        "name": "恶魔侍者",
        "avatar": "Incubus",
        "type": 0,
        "race": 7,
        "nature": 6,
        "size": 2,
        "level": 81,
        "hp": 95000,
        "baseExp": 1048,
        "jobExp": 841,
        "isStar": 0,
        "isDead": 0,
        "isSpecial": 0
      },
      {
        "id": "10076",
        "name": "赤苍蝇",
        "avatar": "HunterFly",
        "type": 0,
        "race": 4,
        "nature": 2,
        "size": 1,
        "level": 81,
        "hp": 80001,
        "baseExp": 1202,
        "jobExp": 753,
        "isStar": 0,
        "isDead": 0,
        "isSpecial": 0
      },
      {
        "id": "40015",
        "name": "邪恶箱",
        "avatar": "Mimic",
        "type": 0,
        "race": 0,
        "nature": 0,
        "size": 1,
        "level": 80,
        "hp": 420000,
        "baseExp": 1,
        "jobExp": 1,
        "isStar": 0,
        "isDead": 0,
        "isSpecial": 0
      },
      {
        "id": "30024",
        "name": "犬妖首领",
        "avatar": "Kobold_Leader",
        "type": 2,
        "race": 1,
        "nature": 2,
        "size": 2,
        "level": 80,
        "hp": 10803000,
        "baseExp": 64872,
        "jobExp": 23681,
        "isStar": 0,
        "isDead": 0,
        "isSpecial": 0
      },
      {
        "id": "30014",
        "name": "兽人英雄",
        "avatar": "Orc_Hero",
        "type": 2,
        "race": 1,
        "nature": 1,
        "size": 3,
        "level": 80,
        "hp": 11014762,
        "baseExp": 53744,
        "jobExp": 30149,
        "isStar": 0,
        "isDead": 0,
        "isSpecial": 0
      },
      {
        "id": "20011",
        "name": "南瓜先生",
        "avatar": "NanGuaXianSheng",
        "type": 1,
        "race": 0,
        "nature": 4,
        "size": 2,
        "level": 80,
        "hp": 3129075,
        "baseExp": 10180,
        "jobExp": 6361,
        "isStar": 0,
        "isDead": 0,
        "isSpecial": 0
      },
      {
        "id": "10082",
        "name": "恶魔女仆",
        "avatar": "Succubus",
        "type": 0,
        "race": 7,
        "nature": 6,
        "size": 2,
        "level": 80,
        "hp": 85450,
        "baseExp": 1032,
        "jobExp": 832,
        "isStar": 0,
        "isDead": 0,
        "isSpecial": 0
      },
      {
        "id": "10073",
        "name": "小恶魔",
        "avatar": "Deviruchi",
        "type": 0,
        "race": 7,
        "nature": 6,
        "size": 1,
        "level": 80,
        "hp": 76621,
        "baseExp": 1351,
        "jobExp": 647,
        "isStar": 0,
        "isDead": 0,
        "isSpecial": 0
      },
      {
        "id": "10078",
        "name": "毕帝特地龙",
        "avatar": "Petit",
        "type": 0,
        "race": 9,
        "nature": 1,
        "size": 2,
        "level": 79,
        "hp": 85440,
        "baseExp": 1182,
        "jobExp": 729,
        "isStar": 0,
        "isDead": 0,
        "isSpecial": 0
      },
      {
        "id": "20010",
        "name": "兽人婴儿",
        "avatar": "Orc_Baby",
        "type": 1,
        "race": 1,
        "nature": 1,
        "size": 1,
        "level": 78,
        "hp": 2874713,
        "baseExp": 7571,
        "jobExp": 7571,
        "isStar": 0,
        "isDead": 0,
        "isSpecial": 0
      },
      {
        "id": "10075",
        "name": "邪骸兽人",
        "avatar": "Orc_Skeleton",
        "type": 0,
        "race": 8,
        "nature": 8,
        "size": 2,
        "level": 78,
        "hp": 68538,
        "baseExp": 1166,
        "jobExp": 718,
        "isStar": 0,
        "isDead": 0,
        "isSpecial": 0
      },
      {
        "id": "10072",
        "name": "傀儡娃娃",
        "avatar": "Marionette",
        "type": 0,
        "race": 7,
        "nature": 7,
        "size": 1,
        "level": 77,
        "hp": 33116,
        "baseExp": 781,
        "jobExp": 924,
        "isStar": 0,
        "isDead": 0,
        "isSpecial": 0
      },
      {
        "id": "30013",
        "name": "月夜猫",
        "avatar": "MoonLight",
        "type": 2,
        "race": 7,
        "nature": 4,
        "size": 2,
        "level": 76,
        "hp": 9172406,
        "baseExp": 52957,
        "jobExp": 27538,
        "isStar": 0,
        "isDead": 0,
        "isSpecial": 0
      },
      {
        "id": "10077",
        "name": "毕帝特飞龙",
        "avatar": "Petit_F",
        "type": 0,
        "race": 9,
        "nature": 2,
        "size": 2,
        "level": 76,
        "hp": 84000,
        "baseExp": 1140,
        "jobExp": 698,
        "isStar": 0,
        "isDead": 0,
        "isSpecial": 0
      },
      {
        "id": "10106",
        "name": "犬妖弓箭手",
        "avatar": "Kobold_Archer",
        "type": 0,
        "race": 1,
        "nature": 4,
        "size": 1,
        "level": 75,
        "hp": 85000,
        "baseExp": 1122,
        "jobExp": 691,
        "isStar": 0,
        "isDead": 0,
        "isSpecial": 0
      },
      {
        "id": "10074",
        "name": "兽人腐尸",
        "avatar": "Orc_Zombie",
        "type": 0,
        "race": 8,
        "nature": 8,
        "size": 2,
        "level": 75,
        "hp": 56426,
        "baseExp": 1125,
        "jobExp": 689,
        "isStar": 0,
        "isDead": 0,
        "isSpecial": 0
      },
      {
        "id": "20019",
        "name": "妖君",
        "avatar": "Hyegun",
        "type": 1,
        "race": 8,
        "nature": 8,
        "size": 2,
        "level": 74,
        "hp": 2366663,
        "baseExp": 10857,
        "jobExp": 5047,
        "isStar": 0,
        "isDead": 0,
        "isSpecial": 0
      },
      {
        "id": "10105",
        "name": "刺锤犬妖",
        "avatar": "Kobold",
        "type": 0,
        "race": 1,
        "nature": 4,
        "size": 2,
        "level": 74,
        "hp": 65000,
        "baseExp": 1094,
        "jobExp": 691,
        "isStar": 0,
        "isDead": 0,
        "isSpecial": 0
      },
      {
        "id": "10071",
        "name": "梦魇",
        "avatar": "Nightmare",
        "type": 0,
        "race": 7,
        "nature": 7,
        "size": 3,
        "level": 74,
        "hp": 29627,
        "baseExp": 839,
        "jobExp": 839,
        "isStar": 0,
        "isDead": 0,
        "isSpecial": 0
      },
      {
        "id": "30012",
        "name": "俄赛里斯",
        "avatar": "Osiris",
        "type": 2,
        "race": 8,
        "nature": 8,
        "size": 2,
        "level": 73,
        "hp": 5599125,
        "baseExp": 57086,
        "jobExp": 22834,
        "isStar": 0,
        "isDead": 0,
        "isSpecial": 0
      },
      {
        "id": "10104",
        "name": "榔头犬妖",
        "avatar": "Kobold",
        "type": 0,
        "race": 1,
        "nature": 9,
        "size": 2,
        "level": 73,
        "hp": 96900,
        "baseExp": 1204,
        "jobExp": 608,
        "isStar": 0,
        "isDead": 0,
        "isSpecial": 0
      },
      {
        "id": "10070",
        "name": "兽人战士长",
        "avatar": "Orc_Captain",
        "type": 0,
        "race": 1,
        "nature": 4,
        "size": 3,
        "level": 73,
        "hp": 58851,
        "baseExp": 1263,
        "jobExp": 572,
        "isStar": 0,
        "isDead": 0,
        "isSpecial": 0
      },
      {
        "id": "10103",
        "name": "大斧犬妖",
        "avatar": "Kobold",
        "type": 0,
        "race": 1,
        "nature": 2,
        "size": 2,
        "level": 72,
        "hp": 75000,
        "baseExp": 1061,
        "jobExp": 674,
        "isStar": 0,
        "isDead": 0,
        "isSpecial": 0
      },
      {
        "id": "10102",
        "name": "狂暴野猫",
        "avatar": "Wild_Rose",
        "type": 0,
        "race": 3,
        "nature": 2,
        "size": 1,
        "level": 72,
        "hp": 90140,
        "baseExp": 1076,
        "jobExp": 665,
        "isStar": 0,
        "isDead": 0,
        "isSpecial": 0
      },
      {
        "id": "10067",
        "name": "九尾狐",
        "avatar": "Ninetail",
        "type": 0,
        "race": 3,
        "nature": 4,
        "size": 2,
        "level": 72,
        "hp": 44313,
        "baseExp": 1472,
        "jobExp": 434,
        "isStar": 0,
        "isDead": 0,
        "isSpecial": 0
      },
      {
        "id": "10069",
        "name": "兽人弓箭手",
        "avatar": "Orc_Archer",
        "type": 0,
        "race": 1,
        "nature": 1,
        "size": 2,
        "level": 71,
        "hp": 40276,
        "baseExp": 788,
        "jobExp": 814,
        "isStar": 0,
        "isDead": 0,
        "isSpecial": 0
      }
    ]
  }
}