{
  "code": 0,
  "status": "success",
  "timeStamp": 1642845250,
  "staticDomain": "http:\/\/rosc1.zhaiwuyu.com",
  "ip": "101.87.200.160",
  "language": "cn",
  "dbArea": 0,
  "data": {
    "page": 8,
    "pageSize": 30,
    "pageCount": 16,
    "total": 454,
    "list": [
      {
        "id": "10168",
        "name": "南瓜魂",
        "avatar": "Lude",
        "type": 0,
        "race": 8,
        "nature": 8,
        "size": 1,
        "level": 129,
        "hp": 253800,
        "baseExp": 4959,
        "jobExp": 3124,
        "isStar": 0,
        "isDead": 0,
        "isSpecial": 0
      },
      {
        "id": "10167",
        "name": "无颅武士",
        "avatar": "Dullahan",
        "type": 0,
        "race": 8,
        "nature": 8,
        "size": 2,
        "level": 127,
        "hp": 244800,
        "baseExp": 4779,
        "jobExp": 3133,
        "isStar": 0,
        "isDead": 0,
        "isSpecial": 0
      },
      {
        "id": "10166",
        "name": "鬼娃树",
        "avatar": "Gibbet",
        "type": 0,
        "race": 7,
        "nature": 6,
        "size": 3,
        "level": 126,
        "hp": 240300,
        "baseExp": 5663,
        "jobExp": 2574,
        "isStar": 0,
        "isDead": 0,
        "isSpecial": 0
      },
      {
        "id": "10169",
        "name": "兔斯拉",
        "avatar": "Hylozoist",
        "type": 0,
        "race": 7,
        "nature": 6,
        "size": 1,
        "level": 125,
        "hp": 235900,
        "baseExp": 5096,
        "jobExp": 2860,
        "isStar": 0,
        "isDead": 0,
        "isSpecial": 0
      },
      {
        "id": "10165",
        "name": "万圣魔",
        "avatar": "Quve",
        "type": 0,
        "race": 8,
        "nature": 8,
        "size": 1,
        "level": 124,
        "hp": 231500,
        "baseExp": 4370,
        "jobExp": 3234,
        "isStar": 0,
        "isDead": 0,
        "isSpecial": 0
      },
      {
        "id": "18153",
        "name": "土拨鼠公主",
        "avatar": "Martin",
        "type": 0,
        "race": 3,
        "nature": 1,
        "size": 2,
        "level": 128,
        "hp": 78975000,
        "baseExp": 37800,
        "jobExp": 21977,
        "isStar": 0,
        "isDead": 0,
        "isSpecial": 0
      },
      {
        "id": "18151",
        "name": "爆炎小恶魔★",
        "avatar": "Diabolic",
        "type": 101,
        "race": 7,
        "nature": 6,
        "size": 1,
        "level": 119,
        "hp": 507267,
        "baseExp": 2166,
        "jobExp": 1260,
        "isStar": 1,
        "isDead": 0,
        "isSpecial": 0
      },
      {
        "id": "18150",
        "name": "鸟人哈比★",
        "avatar": "Hapy",
        "type": 101,
        "race": 1,
        "nature": 2,
        "size": 2,
        "level": 119,
        "hp": 583357,
        "baseExp": 2166,
        "jobExp": 1260,
        "isStar": 1,
        "isDead": 0,
        "isSpecial": 0
      },
      {
        "id": "18154",
        "name": "土拨鼠★",
        "avatar": "Martin",
        "type": 101,
        "race": 3,
        "nature": 1,
        "size": 1,
        "level": 116,
        "hp": 479340,
        "baseExp": 2006,
        "jobExp": 1288,
        "isStar": 1,
        "isDead": 0,
        "isSpecial": 0
      },
      {
        "id": "30045",
        "name": "圣天使波利",
        "avatar": "Archangeling",
        "type": 2,
        "race": 6,
        "nature": 5,
        "size": 2,
        "level": 130,
        "hp": 105300000,
        "baseExp": 90308,
        "jobExp": 47263,
        "isStar": 0,
        "isDead": 0,
        "isSpecial": 0
      },
      {
        "id": "30044",
        "name": "炎之领主卡浩",
        "avatar": "LordKaho",
        "type": 2,
        "race": 7,
        "nature": 4,
        "size": 3,
        "level": 126,
        "hp": 97500000,
        "baseExp": 83160,
        "jobExp": 48350,
        "isStar": 0,
        "isDead": 0,
        "isSpecial": 0
      },
      {
        "id": "20027",
        "name": "炎之小魔女",
        "avatar": "RedExplosion",
        "type": 1,
        "race": 1,
        "nature": 4,
        "size": 2,
        "level": 128,
        "hp": 27563600,
        "baseExp": 16896,
        "jobExp": 9823,
        "isStar": 0,
        "isDead": 0,
        "isSpecial": 0
      },
      {
        "id": "10160",
        "name": "烈鬃马",
        "avatar": "Flamehorse",
        "type": 0,
        "race": 8,
        "nature": 8,
        "size": 3,
        "level": 120,
        "hp": 173990,
        "baseExp": 4805,
        "jobExp": 2794,
        "isStar": 0,
        "isDead": 0,
        "isSpecial": 0
      },
      {
        "id": "10159",
        "name": "幼年火焰鸟",
        "avatar": "KasaKid",
        "type": 0,
        "race": 3,
        "nature": 4,
        "size": 2,
        "level": 124,
        "hp": 188779,
        "baseExp": 4968,
        "jobExp": 2887,
        "isStar": 0,
        "isDead": 0,
        "isSpecial": 0
      },
      {
        "id": "10158",
        "name": "火焰精灵",
        "avatar": "LavaMeco",
        "type": 0,
        "race": 0,
        "nature": 4,
        "size": 2,
        "level": 122,
        "hp": 180427,
        "baseExp": 4884,
        "jobExp": 2843,
        "isStar": 0,
        "isDead": 0,
        "isSpecial": 0
      },
      {
        "id": "10157",
        "name": "爆炎小恶魔",
        "avatar": "Diabolic",
        "type": 0,
        "race": 7,
        "nature": 6,
        "size": 1,
        "level": 119,
        "hp": 169089,
        "baseExp": 4766,
        "jobExp": 2772,
        "isStar": 0,
        "isDead": 0,
        "isSpecial": 0
      },
      {
        "id": "10156",
        "name": "高原佩瑞丝",
        "avatar": "Perese_G",
        "type": 0,
        "race": 2,
        "nature": 2,
        "size": 2,
        "level": 121,
        "hp": 177194,
        "baseExp": 4845,
        "jobExp": 2816,
        "isStar": 0,
        "isDead": 0,
        "isSpecial": 0
      },
      {
        "id": "10155",
        "name": "鸟人哈比",
        "avatar": "Hapy",
        "type": 0,
        "race": 7,
        "nature": 2,
        "size": 2,
        "level": 119,
        "hp": 169089,
        "baseExp": 4766,
        "jobExp": 2772,
        "isStar": 0,
        "isDead": 0,
        "isSpecial": 0
      },
      {
        "id": "10154",
        "name": "邪恶向日葵",
        "avatar": "Geographer",
        "type": 0,
        "race": 2,
        "nature": 1,
        "size": 2,
        "level": 118,
        "hp": 165957,
        "baseExp": 4167,
        "jobExp": 3072,
        "isStar": 0,
        "isDead": 0,
        "isSpecial": 0
      },
      {
        "id": "10153",
        "name": "土拨鼠",
        "avatar": "Martin",
        "type": 0,
        "race": 3,
        "nature": 1,
        "size": 1,
        "level": 116,
        "hp": 159780,
        "baseExp": 4414,
        "jobExp": 2834,
        "isStar": 0,
        "isDead": 0,
        "isSpecial": 0
      },
      {
        "id": "30039",
        "name": "卡仑",
        "avatar": "Garm",
        "type": 2,
        "race": 3,
        "nature": 3,
        "size": 3,
        "level": 118,
        "hp": 44504135,
        "baseExp": 92275,
        "jobExp": 36912,
        "isStar": 0,
        "isDead": 0,
        "isSpecial": 0
      },
      {
        "id": "120122",
        "name": "玩偶熊★",
        "avatar": "Teddy_Bear",
        "type": 101,
        "race": 0,
        "nature": 0,
        "size": 1,
        "level": 114,
        "hp": 495449,
        "baseExp": 2066,
        "jobExp": 1212,
        "isStar": 1,
        "isDead": 0,
        "isSpecial": 0
      },
      {
        "id": "120121",
        "name": "玩具士兵★",
        "avatar": "Cruiser",
        "type": 101,
        "race": 0,
        "nature": 0,
        "size": 2,
        "level": 111,
        "hp": 343304,
        "baseExp": 2372,
        "jobExp": 970,
        "isStar": 1,
        "isDead": 0,
        "isSpecial": 0
      },
      {
        "id": "30040",
        "name": "冰暴骑士",
        "avatar": "Knight_Of_Windstorm",
        "type": 2,
        "race": 0,
        "nature": 2,
        "size": 3,
        "level": 115,
        "hp": 42269985,
        "baseExp": 96484,
        "jobExp": 32162,
        "isStar": 0,
        "isDead": 0,
        "isSpecial": 0
      },
      {
        "id": "20026",
        "name": "魔灵娃娃",
        "avatar": "Chepet",
        "type": 1,
        "race": 1,
        "nature": 4,
        "size": 2,
        "level": 116,
        "hp": 13050947,
        "baseExp": 14782,
        "jobExp": 9212,
        "isStar": 0,
        "isDead": 0,
        "isSpecial": 0
      },
      {
        "id": "10146",
        "name": "卡拉特小丑",
        "avatar": "Carat",
        "type": 0,
        "race": 7,
        "nature": 2,
        "size": 2,
        "level": 116,
        "hp": 130927,
        "baseExp": 4207,
        "jobExp": 2957,
        "isStar": 0,
        "isDead": 0,
        "isSpecial": 0
      },
      {
        "id": "10145",
        "name": "玩偶熊",
        "avatar": "Teddy_Bear",
        "type": 0,
        "race": 0,
        "nature": 0,
        "size": 1,
        "level": 114,
        "hp": 141557,
        "baseExp": 4546,
        "jobExp": 2667,
        "isStar": 0,
        "isDead": 0,
        "isSpecial": 0
      },
      {
        "id": "10144",
        "name": "甜饼人",
        "avatar": "Cookie_Gift_hong",
        "type": 0,
        "race": 1,
        "nature": 5,
        "size": 1,
        "level": 112,
        "hp": 87625,
        "baseExp": 4352,
        "jobExp": 2684,
        "isStar": 0,
        "isDead": 0,
        "isSpecial": 0
      },
      {
        "id": "10143",
        "name": "拉链熊",
        "avatar": "ZipperBear_M",
        "type": 0,
        "race": 3,
        "nature": 6,
        "size": 2,
        "level": 113,
        "hp": 104574,
        "baseExp": 4524,
        "jobExp": 2632,
        "isStar": 0,
        "isDead": 0,
        "isSpecial": 0
      },
      {
        "id": "10142",
        "name": "玩具士兵",
        "avatar": "Cruiser",
        "type": 0,
        "race": 0,
        "nature": 0,
        "size": 2,
        "level": 111,
        "hp": 98087,
        "baseExp": 5219,
        "jobExp": 2134,
        "isStar": 0,
        "isDead": 0,
        "isSpecial": 0
      }
    ]
  }
}